BLOCK MODSEL
	1 0 
Block SMINPUTS   # Standard Model inputs	
        6     1.72500000E+02   # m_{top}(pole)
#         PDG         Width
DECAY         6  1.14680767E+00   # TP    decays
#          BR          NDA       ID1    ID2     ID3	ID4
	4.1666E-02	3	11	-13	4       	# TP     -->  e- mu+ c  
	4.1666E-02	3	-11	13	4       	# TP     -->  e+ mu- c  
	4.1666E-02	3	11	-13	2       	# TP     -->  e- mu+ u  
	4.1666E-02	3	-11	13	2       	# TP     -->  e+ mu- u
#	        
	4.1666E-02	3	11	-15	4       	# TP     -->  e- t+ c
	4.1666E-02	3	-11	15	4       	# TP     -->  e+ t- c
	4.1666E-02	3	11	-15	2       	# TP     -->  e- t+ u 
	4.1666E-02	3	-11	15	2       	# TP     -->  e+ t- u        
#
	4.1666E-02	3	13	-15	4       	# TP     -->  mu- t+ c  
	4.1666E-02	3	-13	15	4       	# TP     -->  mu+ t- c
	4.1666E-02	3	13	-15	2       	# TP     -->  e- t+ u
	4.1666E-02	3	-13	15	2       	# TP     -->  e+ t- u
#
	50.0008E-02	2	24	5                       # TP     -->  W b
