#
#                              ======================
#                              | THE SUSYHIT OUTPUT |
#                              ======================
#
#
#              ------------------------------------------------------
#              |     This is the output of the SUSY-HIT package     |
#              |  created by A.Djouadi, M.Muehlleitner and M.Spira. |
#              |  In case of problems with SUSY-HIT email to        |
#              |           margarete.muehlleitner@kit.edu           |
#              |           michael.spira@psi.ch                     |
#              |           abdelhak.djouadi@cern.ch                 |
#              ------------------------------------------------------
#
#              ------------------------------------------------------
#              |  SUSY Les Houches Accord - MSSM Spectrum + Decays  |
#              |              based on the decay programs           |
#              |                                                    |
#              |                     SDECAY 1.5                     |
#              |                                                    |
#              |  Authors: M.Muhlleitner, A.Djouadi and Y.Mambrini  |
#              |  Ref.:    Comput.Phys.Commun.168(2005)46           |
#              |           [hep-ph/0311167]                         |
#              |                                                    |
#              |                     HDECAY 3.4                     |
#              |                                                    |
#              |  By: A.Djouadi,J.Kalinowski,M.Muhlleitner,M.Spira  |
#              |  Ref.:    Comput.Phys.Commun.108(1998)56           |
#              |           [hep-ph/9704448]                         |
#              |                                                    |
#              |                                                    |
#              |  If not stated otherwise all DRbar couplings and   |
#              |  soft SUSY breaking masses are given at the scale  |
#              |  Q=  0.91187600E+02
#              |                                                    |
#              ------------------------------------------------------
#
#
BLOCK DCINFO  # Decay Program information
     1   SDECAY/HDECAY # decay calculator
     2   1.5  /3.4    # version number
#
BLOCK SPINFO  # Spectrum calculator information
     1   SuSpect     # RGE +Spectrum calculator            
     2   2.43         # version number                     
#
BLOCK MODSEL  # Model selection
     1     2   # GMSB                                              
#
BLOCK SMINPUTS  # Standard Model inputs
         1     1.27932904E+02   # alpha_em^-1(M_Z)^MSbar
         2     1.16639000E-05   # G_F [GeV^-2]
         3     1.17200000E-01   # alpha_S(M_Z)^MSbar
         4     9.11870000E+01   # M_Z pole mass
         5     4.25000000E+00   # mb(mb)^MSbar
         6     1.72900000E+02   # mt pole mass
         7     1.77700000E+00   # mtau pole mass
#
BLOCK MINPAR  # Input parameters - minimal models
#
BLOCK EXTPAR  # Input parameters - non-minimal models
         0     9.11876000E+01   # EWSB                
         1     1.95800000E+03   # M_1                 
         2     3.00000000E+03   # M_2                 
         3     2.10000000E+03   # M_3                 
        11     0.00000000E+00   # A_t                 
        12     0.00000000E+00   # A_b                 
        13     0.00000000E+00   # A_tau               
        14     0.00000000E+00   # A_u                 
        15     0.00000000E+00   # A_d                 
        16     0.00000000E+00   # A_e                 
        23     1.97500000E+03   # mu(EWSB)            
        25     1.50000000E+00   # tanbeta(in)         
        26     2.00000000E+03   # MA_pole             
        31     5.00000000E+03   # M_eL                
        32     5.00000000E+03   # M_muL               
        33     5.00000000E+03   # M_tauL              
        34     5.00000000E+03   # M_eR                
        35     5.00000000E+03   # M_muR               
        36     5.00000000E+03   # M_tauR              
        41     5.00000000E+03   # M_q1L               
        42     5.00000000E+03   # M_q2L               
        43     5.00000000E+03   # M_q3L               
        44     5.00000000E+03   # M_uR                
        45     5.00000000E+03   # M_cR                
        46     5.00000000E+03   # M_tR                
        47     5.00000000E+03   # M_dR                
        48     5.00000000E+03   # M_sR                
        49     5.00000000E+03   # M_bR                
#
BLOCK MASS  # Mass Spectrum
# PDG code           mass       particle
        24     8.05421260E+01   # W+
        25     1.26000000E+02   # h
        35     2.00399319E+03   # H
        36     2.00000000E+03   # A
        37     2.00151958E+03   # H+
         5     4.87877839E+00   # b-quark pole mass calculated from mb(mb)_Msbar
   1000001     4.93206221E+03   # ~d_L
   2000001     4.93195195E+03   # ~d_R
   1000002     4.93181565E+03   # ~u_L
   2000002     4.93187385E+03   # ~u_R
   1000003     4.93206221E+03   # ~s_L
   2000003     4.93195195E+03   # ~s_R
   1000004     4.93181565E+03   # ~c_L
   2000004     4.93187385E+03   # ~c_R
   1000005     4.93119010E+03   # ~b_1
   2000005     4.93282540E+03   # ~b_2
   1000006     5.04137940E+03   # ~t_1
   2000006     5.33023301E+03   # ~t_2
   1000011     5.00008214E+03   # ~e_L
   2000011     5.00007616E+03   # ~e_R
   1000012     4.99984169E+03   # ~nu_eL
   1000013     5.00008214E+03   # ~mu_L
   2000013     5.00007616E+03   # ~mu_R
   1000014     4.99984169E+03   # ~nu_muL
   1000015     4.99955247E+03   # ~tau_1
   2000015     5.00060641E+03   # ~tau_2
   1000016     4.99984169E+03   # ~nu_tauL
   1000021     2.15114164E+03   # ~g
   1000022     2.03861681E+03   # ~chi_10
   1000023    -2.09268154E+03   # ~chi_20
   1000025     2.12608988E+03   # ~chi_30
   1000035     3.12499502E+03   # ~chi_40
   1000024     2.08684017E+03   # ~chi_1+
   1000037     3.12498496E+03   # ~chi_2+
   1000039     1.00000000E-09   # ~gravitino
#
BLOCK NMIX  # Neutralino Mixing Matrix
  1  1     7.42133588E-01   # N_11
  1  2    -4.79463440E-02   # N_12
  1  3     4.73959748E-01   # N_13
  1  4    -4.71488116E-01   # N_14
  2  1     2.09333873E-03   # N_21
  2  2    -2.97639747E-03   # N_22
  2  3    -7.07047677E-01   # N_23
  2  4    -7.07156519E-01   # N_24
  3  1     6.70241319E-01   # N_31
  3  2     5.77867496E-02   # N_32
  3  3    -5.22350382E-01   # N_33
  3  4     5.24010824E-01   # N_34
  4  1     3.15115427E-03   # N_41
  4  2    -9.97172493E-01   # N_42
  4  3    -5.09491721E-02   # N_43
  4  4     5.51477231E-02   # N_44
#
BLOCK UMIX  # Chargino Mixing Matrix U
  1  1    -7.19269026E-02   # U_11
  1  2     9.97409906E-01   # U_12
  2  1     9.97409906E-01   # U_21
  2  2     7.19269026E-02   # U_22
#
BLOCK VMIX  # Chargino Mixing Matrix V
  1  1    -7.78607295E-02   # V_11
  1  2     9.96964245E-01   # V_12
  2  1     9.96964245E-01   # V_21
  2  2     7.78607295E-02   # V_22
#
BLOCK STOPMIX  # Stop Mixing Matrix
  1  1     9.99794959E-01   # cos(theta_t)
  1  2     2.02494434E-02   # sin(theta_t)
  2  1    -2.02494434E-02   # -sin(theta_t)
  2  2     9.99794959E-01   # cos(theta_t)
#
BLOCK SBOTMIX  # Sbottom Mixing Matrix
  1  1     6.82852024E-01   # cos(theta_b)
  1  2     7.30556715E-01   # sin(theta_b)
  2  1    -7.30556715E-01   # -sin(theta_b)
  2  2     6.82852024E-01   # cos(theta_b)
#
BLOCK STAUMIX  # Stau Mixing Matrix
  1  1     7.05097472E-01   # cos(theta_tau)
  1  2     7.09110397E-01   # sin(theta_tau)
  2  1    -7.09110397E-01   # -sin(theta_tau)
  2  2     7.05097472E-01   # cos(theta_tau)
#
BLOCK ALPHA  # Higgs mixing
          -5.90198448E-01   # Mixing angle in the neutral Higgs boson sector
#
BLOCK HMIX Q=  9.11876000E+01  # DRbar Higgs Parameters
         1     1.97500000E+03   # mu(Q)               
         2     1.49999979E+00   # tanbeta(Q)          
         3     2.52333632E+02   # vev(Q)              
         4     3.04101284E+06   # MA^2(Q)             
#
BLOCK GAUGE Q=  9.11876000E+01  # The gauge couplings
     1     3.52706970E-01   # gprime(Q) DRbar
     2     6.26694516E-01   # g(Q) DRbar
     3     1.07966857E+00   # g3(Q) DRbar
#
BLOCK AU Q=  9.11876000E+01  # The trilinear couplings
  1  1     0.00000000E+00   # A_u(Q) DRbar
  2  2     0.00000000E+00   # A_c(Q) DRbar
  3  3     0.00000000E+00   # A_t(Q) DRbar
#
BLOCK AD Q=  9.11876000E+01  # The trilinear couplings
  1  1     0.00000000E+00   # A_d(Q) DRbar
  2  2     0.00000000E+00   # A_s(Q) DRbar
  3  3     0.00000000E+00   # A_b(Q) DRbar
#
BLOCK AE Q=  9.11876000E+01  # The trilinear couplings
  1  1     0.00000000E+00   # A_e(Q) DRbar
  2  2     0.00000000E+00   # A_mu(Q) DRbar
  3  3     0.00000000E+00   # A_tau(Q) DRbar
#
BLOCK Yu Q=  9.11876000E+01  # The Yukawa couplings
  1  1     0.00000000E+00   # y_u(Q) DRbar
  2  2     0.00000000E+00   # y_c(Q) DRbar
  3  3     1.02477043E+00   # y_t(Q) DRbar
#
BLOCK Yd Q=  9.11876000E+01  # The Yukawa couplings
  1  1     0.00000000E+00   # y_d(Q) DRbar
  2  2     0.00000000E+00   # y_s(Q) DRbar
  3  3     2.71339743E-02   # y_b(Q) DRbar
#
BLOCK Ye Q=  9.11876000E+01  # The Yukawa couplings
  1  1     0.00000000E+00   # y_e(Q) DRbar
  2  2     0.00000000E+00   # y_mu(Q) DRbar
  3  3     1.79725572E-02   # y_tau(Q) DRbar
#
BLOCK MSOFT Q=  9.11876000E+01  # The soft SUSY breaking masses at the scale Q
         1     1.95800000E+03   # M_1                 
         2     3.00000000E+03   # M_2                 
         3     2.10000000E+03   # M_3                 
        14     0.00000000E+00   # A_u                 
        15     0.00000000E+00   # A_d                 
        16     0.00000000E+00   # A_e                 
        21    -1.32044893E+06   # M^2_Hd              
        22    -9.00208305E+06   # M^2_Hu              
        31     5.00000000E+03   # M_eL                
        32     5.00000000E+03   # M_muL               
        33     5.00000000E+03   # M_tauL              
        34     5.00000000E+03   # M_eR                
        35     5.00000000E+03   # M_muR               
        36     5.00000000E+03   # M_tauR              
        41     5.00000000E+03   # M_q1L               
        42     5.00000000E+03   # M_q2L               
        43     5.00000000E+03   # M_q3L               
        44     5.00000000E+03   # M_uR                
        45     5.00000000E+03   # M_cR                
        46     5.00000000E+03   # M_tR                
        47     5.00000000E+03   # M_dR                
        48     5.00000000E+03   # M_sR                
        49     5.00000000E+03   # M_bR                
#
#
#
#                             =================
#                             |The decay table|
#                             =================
#
# - The QCD corrections to the decays gluino -> squark  + quark
#                                     squark -> gaugino + quark_prime
#                                     squark -> squark_prime + Higgs
#                                     squark -> gluino  + quark
#   are included.
#
# - The multi-body decays for the inos, stops and sbottoms are included.
#
# - The loop induced decays for the gluino, neutralinos and stops
#   are included.
#
# - The SUSY decays of the top quark are included.
#
# - Possible decays of the NLSP in GMSB models are included.
#
#
#         PDG            Width
DECAY         6     1.36834091E+00   # top decays
#          BR         NDA      ID1       ID2
     1.00000000E+00    2           5        24   # BR(t ->  b    W+)
#
#         PDG            Width
DECAY   1000021     5.30592682E-05   # gluino decays
#          BR         NDA      ID1       ID2
     3.67085601E-04    2     1000022        21   # BR(~g -> ~chi_10 g)
     1.21094160E-04    2     1000023        21   # BR(~g -> ~chi_20 g)
     5.36113746E-06    2     1000025        21   # BR(~g -> ~chi_30 g)
#          BR         NDA      ID1       ID2
0.0E+00    2     1000039    21 # BR(~g -> ~G      g)
#           BR         NDA      ID1       ID2       ID3
     4.10217834E-06    3     1000022         1        -1   # BR(~g -> ~chi_10 d  db)
     5.78706468E-12    3     1000023         1        -1   # BR(~g -> ~chi_20 d  db)
     1.46672807E-09    3     1000025         1        -1   # BR(~g -> ~chi_30 d  db)
     1.16069596E-05    3     1000022         2        -2   # BR(~g -> ~chi_10 u  ub)
     4.42211622E-12    3     1000023         2        -2   # BR(~g -> ~chi_20 u  ub)
     6.19628134E-09    3     1000025         2        -2   # BR(~g -> ~chi_30 u  ub)
     4.10217834E-06    3     1000022         3        -3   # BR(~g -> ~chi_10 s  sb)
     5.78706468E-12    3     1000023         3        -3   # BR(~g -> ~chi_20 s  sb)
     1.46672807E-09    3     1000025         3        -3   # BR(~g -> ~chi_30 s  sb)
     1.16069596E-05    3     1000022         4        -4   # BR(~g -> ~chi_10 c  cb)
     4.42211622E-12    3     1000023         4        -4   # BR(~g -> ~chi_20 c  cb)
     6.19628134E-09    3     1000025         4        -4   # BR(~g -> ~chi_30 c  cb)
     3.94219518E-06    3     1000022         5        -5   # BR(~g -> ~chi_10 b  bb)
     5.01426156E-09    3     1000023         5        -5   # BR(~g -> ~chi_20 b  bb)
     1.21695085E-09    3     1000025         5        -5   # BR(~g -> ~chi_30 b  bb)
     2.60674502E-08    3     1000024         1        -2   # BR(~g -> ~chi_1+ d  ub)
     2.60674502E-08    3    -1000024         2        -1   # BR(~g -> ~chi_1- u  db)
     2.60674502E-08    3     1000024         3        -4   # BR(~g -> ~chi_1+ s  cb)
     2.60674502E-08    3    -1000024         4        -3   # BR(~g -> ~chi_1- c  sb)
#
#         PDG            Width
DECAY   1000006     2.51673796E+02   # stop1 decays
#          BR         NDA      ID1       ID2
     4.46412496E-02    2     1000022         6   # BR(~t_1 -> ~chi_10 t )
     9.81233863E-02    2     1000023         6   # BR(~t_1 -> ~chi_20 t )
     5.50457326E-02    2     1000025         6   # BR(~t_1 -> ~chi_30 t )
     2.92718246E-02    2     1000035         6   # BR(~t_1 -> ~chi_40 t )
     1.46200362E-04    2     1000024         5   # BR(~t_1 -> ~chi_1+ b )
     5.74301968E-02    2     1000037         5   # BR(~t_1 -> ~chi_2+ b )
     7.06941304E-01    2     1000021         6   # BR(~t_1 -> ~g      t )
     4.12108533E-03    2     1000005        24   # BR(~t_1 -> ~b_1    W+)
     4.27902050E-03    2     2000005        24   # BR(~t_1 -> ~b_2    W+)
#
#         PDG            Width
DECAY   2000006     3.12538443E+02   # stop2 decays
#          BR         NDA      ID1       ID2
     5.37453637E-02    2     1000022         6   # BR(~t_2 -> ~chi_10 t )
     8.79351834E-02    2     1000023         6   # BR(~t_2 -> ~chi_20 t )
     5.97235667E-02    2     1000025         6   # BR(~t_2 -> ~chi_30 t )
     1.93987083E-04    2     1000035         6   # BR(~t_2 -> ~chi_40 t )
     1.75948434E-01    2     1000024         5   # BR(~t_2 -> ~chi_1+ b )
     3.90375174E-04    2     1000037         5   # BR(~t_2 -> ~chi_2+ b )
     6.21595827E-01    2     1000021         6   # BR(~t_2 -> ~g      t )
    -5.70027743E-06    2     1000006        25   # BR(~t_2 -> ~t_1    h )
     7.01397071E-05    2     1000006        23   # BR(~t_2 -> ~t_1    Z )
     1.89128194E-04    2     1000005        24   # BR(~t_2 -> ~b_1    W+)
     2.13695061E-04    2     2000005        24   # BR(~t_2 -> ~b_2    W+)
#
#         PDG            Width
DECAY   1000005     2.03740332E+02   # sbottom1 decays
#          BR         NDA      ID1       ID2
     4.42196894E-03    2     1000022         5   # BR(~b_1 -> ~chi_10 b )
     7.33950875E-05    2     1000023         5   # BR(~b_1 -> ~chi_20 b )
     1.74290778E-03    2     1000025         5   # BR(~b_1 -> ~chi_30 b )
     1.46642120E-02    2     1000035         5   # BR(~b_1 -> ~chi_40 b )
     1.03500521E-01    2    -1000024         6   # BR(~b_1 -> ~chi_1- t )
     2.99079777E-02    2    -1000037         6   # BR(~b_1 -> ~chi_2- t )
     8.45689017E-01    2     1000021         5   # BR(~b_1 -> ~g      b )
#
#         PDG            Width
DECAY   2000005     2.10717169E+02   # sbottom2 decays
#          BR         NDA      ID1       ID2
     2.62801153E-03    2     1000022         5   # BR(~b_2 -> ~chi_10 b )
     8.90610280E-05    2     1000023         5   # BR(~b_2 -> ~chi_20 b )
     2.37289731E-03    2     1000025         5   # BR(~b_2 -> ~chi_30 b )
     1.74608837E-02    2     1000035         5   # BR(~b_2 -> ~chi_40 b )
     1.24573221E-01    2    -1000024         6   # BR(~b_2 -> ~chi_1- t )
     3.56192372E-02    2    -1000037         6   # BR(~b_2 -> ~chi_2- t )
     8.17256688E-01    2     1000021         5   # BR(~b_2 -> ~g      b )
#
#         PDG            Width
DECAY   1000002     1.92876858E+02   # sup_L decays
#          BR         NDA      ID1       ID2
     5.52382317E-04    2     1000022         2   # BR(~u_L -> ~chi_10 u)
     4.32865504E-07    2     1000023         2   # BR(~u_L -> ~chi_20 u)
     2.15347255E-03    2     1000025         2   # BR(~u_L -> ~chi_30 u)
     3.44764636E-02    2     1000035         2   # BR(~u_L -> ~chi_40 u)
     7.88130564E-04    2     1000024         1   # BR(~u_L -> ~chi_1+ d)
     6.90065150E-02    2     1000037         1   # BR(~u_L -> ~chi_2+ d)
     8.93022603E-01    2     1000021         2   # BR(~u_L -> ~g      u)
#
#         PDG            Width
DECAY   2000002     1.79332885E+02   # sup_R decays
#          BR         NDA      ID1       ID2
     2.21148217E-02    2     1000022         2   # BR(~u_R -> ~chi_10 u)
     1.72098460E-07    2     1000023         2   # BR(~u_R -> ~chi_20 u)
     1.73953878E-02    2     1000025         2   # BR(~u_R -> ~chi_30 u)
     2.08770561E-07    2     1000035         2   # BR(~u_R -> ~chi_40 u)
     9.60489410E-01    2     1000021         2   # BR(~u_R -> ~g      u)
#
#         PDG            Width
DECAY   1000001     1.92885761E+02   # sdown_L decays
#          BR         NDA      ID1       ID2
     2.32272026E-03    2     1000022         1   # BR(~d_L -> ~chi_10 d)
     7.36081545E-07    2     1000023         1   # BR(~d_L -> ~chi_20 d)
     2.95236536E-04    2     1000025         1   # BR(~d_L -> ~chi_30 d)
     3.45630432E-02    2     1000035         1   # BR(~d_L -> ~chi_40 d)
     6.72612011E-04    2    -1000024         2   # BR(~d_L -> ~chi_1- u)
     6.90776696E-02    2    -1000037         2   # BR(~d_L -> ~chi_2- u)
     8.93067982E-01    2     1000021         1   # BR(~d_L -> ~g      d)
#
#         PDG            Width
DECAY   2000001     1.74024067E+02   # sdown_R decays
#          BR         NDA      ID1       ID2
     5.69753028E-03    2     1000022         1   # BR(~d_R -> ~chi_10 d)
     4.43384544E-08    2     1000023         1   # BR(~d_R -> ~chi_20 d)
     4.48164979E-03    2     1000025         1   # BR(~d_R -> ~chi_30 d)
     5.37879574E-08    2     1000035         1   # BR(~d_R -> ~chi_40 d)
     9.89820722E-01    2     1000021         1   # BR(~d_R -> ~g      d)
#
#         PDG            Width
DECAY   1000004     1.92876858E+02   # scharm_L decays
#          BR         NDA      ID1       ID2
     5.52382317E-04    2     1000022         4   # BR(~c_L -> ~chi_10 c)
     4.32865504E-07    2     1000023         4   # BR(~c_L -> ~chi_20 c)
     2.15347255E-03    2     1000025         4   # BR(~c_L -> ~chi_30 c)
     3.44764636E-02    2     1000035         4   # BR(~c_L -> ~chi_40 c)
     7.88130564E-04    2     1000024         3   # BR(~c_L -> ~chi_1+ s)
     6.90065150E-02    2     1000037         3   # BR(~c_L -> ~chi_2+ s)
     8.93022603E-01    2     1000021         4   # BR(~c_L -> ~g      c)
#
#         PDG            Width
DECAY   2000004     1.79332885E+02   # scharm_R decays
#          BR         NDA      ID1       ID2
     2.21148217E-02    2     1000022         4   # BR(~c_R -> ~chi_10 c)
     1.72098460E-07    2     1000023         4   # BR(~c_R -> ~chi_20 c)
     1.73953878E-02    2     1000025         4   # BR(~c_R -> ~chi_30 c)
     2.08770561E-07    2     1000035         4   # BR(~c_R -> ~chi_40 c)
     9.60489410E-01    2     1000021         4   # BR(~c_R -> ~g      c)
#
#         PDG            Width
DECAY   1000003     1.92885761E+02   # sstrange_L decays
#          BR         NDA      ID1       ID2
     2.32272026E-03    2     1000022         3   # BR(~s_L -> ~chi_10 s)
     7.36081545E-07    2     1000023         3   # BR(~s_L -> ~chi_20 s)
     2.95236536E-04    2     1000025         3   # BR(~s_L -> ~chi_30 s)
     3.45630432E-02    2     1000035         3   # BR(~s_L -> ~chi_40 s)
     6.72612011E-04    2    -1000024         4   # BR(~s_L -> ~chi_1- c)
     6.90776696E-02    2    -1000037         4   # BR(~s_L -> ~chi_2- c)
     8.93067982E-01    2     1000021         3   # BR(~s_L -> ~g      s)
#
#         PDG            Width
DECAY   2000003     1.74024067E+02   # sstrange_R decays
#          BR         NDA      ID1       ID2
     5.69753028E-03    2     1000022         3   # BR(~s_R -> ~chi_10 s)
     4.43384544E-08    2     1000023         3   # BR(~s_R -> ~chi_20 s)
     4.48164979E-03    2     1000025         3   # BR(~s_R -> ~chi_30 s)
     5.37879574E-08    2     1000035         3   # BR(~s_R -> ~chi_40 s)
     9.89820722E-01    2     1000021         3   # BR(~s_R -> ~g      s)
#
#         PDG            Width
DECAY   1000011     2.60952331E+01   # selectron_L decays
#          BR         NDA      ID1       ID2
     7.11357007E-02    2     1000022        11   # BR(~e_L -> ~chi_10 e-)
     1.64688331E-06    2     1000023        11   # BR(~e_L -> ~chi_20 e-)
     9.50573751E-02    2     1000025        11   # BR(~e_L -> ~chi_30 e-)
     2.75430249E-01    2     1000035        11   # BR(~e_L -> ~chi_40 e-)
     5.28202573E-03    2    -1000024        12   # BR(~e_L -> ~chi_1- nu_e)
     5.53093002E-01    2    -1000037        12   # BR(~e_L -> ~chi_2- nu_e)
#
#         PDG            Width
DECAY   2000011     1.69370996E+01   # selectron_R decays
#          BR         NDA      ID1       ID2
     5.59472950E-01    2     1000022        11   # BR(~e_R -> ~chi_10 e-)
     4.35648831E-06    2     1000023        11   # BR(~e_R -> ~chi_20 e-)
     4.40517306E-01    2     1000025        11   # BR(~e_R -> ~chi_30 e-)
     5.38831695E-06    2     1000035        11   # BR(~e_R -> ~chi_40 e-)
#
#         PDG            Width
DECAY   1000013     2.60952331E+01   # smuon_L decays
#          BR         NDA      ID1       ID2
     7.11357007E-02    2     1000022        13   # BR(~mu_L -> ~chi_10 mu-)
     1.64688331E-06    2     1000023        13   # BR(~mu_L -> ~chi_20 mu-)
     9.50573751E-02    2     1000025        13   # BR(~mu_L -> ~chi_30 mu-)
     2.75430249E-01    2     1000035        13   # BR(~mu_L -> ~chi_40 mu-)
     5.28202573E-03    2    -1000024        14   # BR(~mu_L -> ~chi_1- nu_mu)
     5.53093002E-01    2    -1000037        14   # BR(~mu_L -> ~chi_2- nu_mu)
#
#         PDG            Width
DECAY   2000013     1.69370996E+01   # smuon_R decays
#          BR         NDA      ID1       ID2
     5.59472950E-01    2     1000022        13   # BR(~mu_R -> ~chi_10 mu-)
     4.35648831E-06    2     1000023        13   # BR(~mu_R -> ~chi_20 mu-)
     4.40517306E-01    2     1000025        13   # BR(~mu_R -> ~chi_30 mu-)
     5.38831695E-06    2     1000035        13   # BR(~mu_R -> ~chi_40 mu-)
#
#         PDG            Width
DECAY   1000015     2.15647542E+01   # stau_1 decays
#          BR         NDA      ID1       ID2
     2.69632931E-01    2     1000022        15   # BR(~tau_1 -> ~chi_10  tau-)
     4.36135013E-04    2     1000023        15   # BR(~tau_1 -> ~chi_20  tau-)
     2.27351091E-01    2     1000025        15   # BR(~tau_1 -> ~chi_30  tau-)
     1.64948016E-01    2     1000035        15   # BR(~tau_1 -> ~chi_40  tau-)
     6.22662952E-03    2    -1000024        16   # BR(~tau_1 -> ~chi_1-  nu_tau)
     3.31238435E-01    2    -1000037        16   # BR(~tau_1 -> ~chi_2-  nu_tau)
     1.66762174E-04    2     1000039        15   # BR(~tau_1 -> ~G       tau-)
#
#         PDG            Width
DECAY   2000015     2.15367543E+01   # stau_2 decays
#          BR         NDA      ID1       ID2
     2.56653615E-01    2     1000022        15   # BR(~tau_2 -> ~chi_10  tau-)
     5.83554256E-04    2     1000023        15   # BR(~tau_2 -> ~chi_20  tau-)
     2.34516506E-01    2     1000025        15   # BR(~tau_2 -> ~chi_30  tau-)
     1.68573966E-01    2     1000035        15   # BR(~tau_2 -> ~chi_40  tau-)
     1.17647764E-03    2    -1000024        16   # BR(~tau_2 -> ~chi_1-  nu_tau)
     3.38495881E-01    2    -1000037        16   # BR(~tau_2 -> ~chi_2-  nu_tau)
#
#         PDG            Width
DECAY   1000012     2.60981915E+01   # snu_eL decays
#          BR         NDA      ID1       ID2
     1.12797522E-01    2     1000022        12   # BR(~nu_eL -> ~chi_10 nu_e)
     8.78856562E-06    2     1000023        12   # BR(~nu_eL -> ~chi_20 nu_e)
     5.12462562E-02    2     1000025        12   # BR(~nu_eL -> ~chi_30 nu_e)
     2.77317684E-01    2     1000035        12   # BR(~nu_eL -> ~chi_40 nu_e)
     6.18823776E-03    2     1000024        11   # BR(~nu_eL -> ~chi_1+ e-)
     5.52441512E-01    2     1000037        11   # BR(~nu_eL -> ~chi_2+ e-)
#
#         PDG            Width
DECAY   1000014     2.60981915E+01   # snu_muL decays
#          BR         NDA      ID1       ID2
     1.12797522E-01    2     1000022        14   # BR(~nu_muL -> ~chi_10 nu_mu)
     8.78856562E-06    2     1000023        14   # BR(~nu_muL -> ~chi_20 nu_mu)
     5.12462562E-02    2     1000025        14   # BR(~nu_muL -> ~chi_30 nu_mu)
     2.77317684E-01    2     1000035        14   # BR(~nu_muL -> ~chi_40 nu_mu)
     6.18823776E-03    2     1000024        13   # BR(~nu_muL -> ~chi_1+ mu-)
     5.52441512E-01    2     1000037        13   # BR(~nu_muL -> ~chi_2+ mu-)
#
#         PDG            Width
DECAY   1000016     2.61200412E+01   # snu_tauL decays
#          BR         NDA      ID1       ID2
     1.12703166E-01    2     1000022        16   # BR(~nu_tauL -> ~chi_10 nu_tau)
     8.78121390E-06    2     1000023        16   # BR(~nu_tauL -> ~chi_20 nu_tau)
     5.12033882E-02    2     1000025        16   # BR(~nu_tauL -> ~chi_30 nu_tau)
     2.77085705E-01    2     1000035        16   # BR(~nu_tauL -> ~chi_40 nu_tau)
     7.01591799E-03    2     1000024        15   # BR(~nu_tauL -> ~chi_1+ tau-)
     5.51983042E-01    2     1000037        15   # BR(~nu_tauL -> ~chi_2+ tau-)
#
#         PDG            Width
DECAY   1000024     1.83821211E-04   # chargino1+ decays
#          BR         NDA      ID1       ID2
     1.23899703E-01    2     1000039        24   # BR(~chi_1+ -> ~G       W+)
     5.07379584E-06    2     1000039        37   # BR(~chi_1+ -> ~G       H+)
#           BR         NDA      ID1       ID2       ID3
     2.92248260E-01    3     1000022         2        -1   # BR(~chi_1+ -> ~chi_10 u    db)
     2.92248260E-01    3     1000022         4        -3   # BR(~chi_1+ -> ~chi_10 c    sb)
     9.74161840E-02    3     1000022       -11        12   # BR(~chi_1+ -> ~chi_10 e+   nu_e)
     9.74161840E-02    3     1000022       -13        14   # BR(~chi_1+ -> ~chi_10 mu+  nu_mu)
     9.67663362E-02    3     1000022       -15        16   # BR(~chi_1+ -> ~chi_10 tau+ nu_tau)
#
#         PDG            Width
DECAY   1000037     3.48982472E+01   # chargino2+ decays
#          BR         NDA      ID1       ID2
     2.54150357E-01    2     1000024        23   # BR(~chi_2+ -> ~chi_1+  Z )
     1.02952945E-01    2     1000022        24   # BR(~chi_2+ -> ~chi_10  W+)
     2.46041401E-01    2     1000023        24   # BR(~chi_2+ -> ~chi_20  W+)
     1.44915558E-01    2     1000025        24   # BR(~chi_2+ -> ~chi_30  W+)
     2.51929955E-01    2     1000024        25   # BR(~chi_2+ -> ~chi_1+  h )
     9.77960517E-06    2     1000039        24   # BR(~chi_2+ -> ~G       W+)
     3.23953850E-09    2     1000039        37   # BR(~chi_2+ -> ~G       H+)
#
#         PDG            Width
DECAY   1000022    1.0E-05    # neutralino1 decays
#          BR         NDA      ID1       ID2
     5.02636037E-01    2     1000039        22   # BR(~chi_10 -> ~G        gam)
     4.86930703E-01    2     1000039        23   # BR(~chi_10 -> ~G        Z)
     1.04328788E-02    2     1000039        25   # BR(~chi_10 -> ~G        h)
     3.58447920E-07    2     1000039        35   # BR(~chi_10 -> ~G        H)
     2.26379198E-08    2     1000039        36   # BR(~chi_10 -> ~G        A)
#
#         PDG            Width
DECAY   1000023     2.56191078E-04   # neutralino2 decays
#          BR         NDA      ID1       ID2
     2.20390521E-04    2     1000022        22   # BR(~chi_20 -> ~chi_10 gam)
#          BR         NDA      ID1       ID2
     2.39561263E-08    2     1000039        22   # BR(~chi_20 -> ~G        gam)
     3.44712547E-03    2     1000039        23   # BR(~chi_20 -> ~G        Z)
     8.55366880E-02    2     1000039        25   # BR(~chi_20 -> ~G        h)
     1.60607810E-07    2     1000039        35   # BR(~chi_20 -> ~G        H)
     4.88017398E-06    2     1000039        36   # BR(~chi_20 -> ~G        A)
#           BR         NDA      ID1       ID2       ID3
     1.07802014E-01    3     1000022        -2         2   # BR(~chi_20 -> ~chi_10 ub      u)
     1.39597644E-01    3     1000022        -1         1   # BR(~chi_20 -> ~chi_10 db      d)
     1.07802014E-01    3     1000022        -4         4   # BR(~chi_20 -> ~chi_10 cb      c)
     1.39597644E-01    3     1000022        -3         3   # BR(~chi_20 -> ~chi_10 sb      s)
     1.29500571E-01    3     1000022        -5         5   # BR(~chi_20 -> ~chi_10 bb      b)
     3.18866185E-02    3     1000022       -11        11   # BR(~chi_20 -> ~chi_10 e+      e-)
     3.18866185E-02    3     1000022       -13        13   # BR(~chi_20 -> ~chi_10 mu+     mu-)
     3.16140197E-02    3     1000022       -15        15   # BR(~chi_20 -> ~chi_10 tau+    tau-)
     6.36824883E-02    3     1000022       -12        12   # BR(~chi_20 -> ~chi_10 nu_eb   nu_e)
     6.36824883E-02    3     1000022       -14        14   # BR(~chi_20 -> ~chi_10 nu_mub  nu_mu)
     6.36824883E-02    3     1000022       -16        16   # BR(~chi_20 -> ~chi_10 nu_taub nu_tau)
     9.74076123E-06    3     1000024        -2         1   # BR(~chi_20 -> ~chi_1+ ub      d)
     9.74076123E-06    3    -1000024        -1         2   # BR(~chi_20 -> ~chi_1- db      u)
     9.74076123E-06    3     1000024        -4         3   # BR(~chi_20 -> ~chi_1+ cb      s)
     9.74076123E-06    3    -1000024        -3         4   # BR(~chi_20 -> ~chi_1- sb      c)
     3.24692065E-06    3     1000024       -12        11   # BR(~chi_20 -> ~chi_1+ nu_eb   e-)
     3.24692065E-06    3    -1000024        12       -11   # BR(~chi_20 -> ~chi_1- nu_e    e+)
     3.24692065E-06    3     1000024       -14        13   # BR(~chi_20 -> ~chi_1+ nu_mub  mu-)
     3.24692065E-06    3    -1000024        14       -13   # BR(~chi_20 -> ~chi_1- nu_mu   mu+)
     2.08642359E-06    3     1000024       -16        15   # BR(~chi_20 -> ~chi_1+ nu_taub tau-)
     2.08642359E-06    3    -1000024        16       -15   # BR(~chi_20 -> ~chi_1- nu_tau  tau+)
#
#         PDG            Width
DECAY   1000025     1.88245453E-04   # neutralino3 decays
#          BR         NDA      ID1       ID2
     4.46809160E-04    2     1000022        22   # BR(~chi_30 -> ~chi_10 gam)
     5.35241201E-06    2     1000023        22   # BR(~chi_30 -> ~chi_20 gam)
#          BR         NDA      ID1       ID2
     9.96519460E-02    2     1000039        22   # BR(~chi_30 -> ~G        gam)
     8.98941068E-02    2     1000039        23   # BR(~chi_30 -> ~G        Z)
     2.74119580E-03    2     1000039        25   # BR(~chi_30 -> ~G        h)
     1.08328918E-05    2     1000039        35   # BR(~chi_30 -> ~G        H)
     4.83062321E-07    2     1000039        36   # BR(~chi_30 -> ~G        A)
#           BR         NDA      ID1       ID2       ID3
     1.93358701E-05    3     1000022        -2         2   # BR(~chi_30 -> ~chi_10 ub      u)
     2.31576629E-05    3     1000022        -1         1   # BR(~chi_30 -> ~chi_10 db      d)
     1.93358701E-05    3     1000022        -4         4   # BR(~chi_30 -> ~chi_10 cb      c)
     2.31576629E-05    3     1000022        -3         3   # BR(~chi_30 -> ~chi_10 sb      s)
     8.25957888E-05    3     1000022        -5         5   # BR(~chi_30 -> ~chi_10 bb      b)
     4.12625845E-06    3     1000022       -11        11   # BR(~chi_30 -> ~chi_10 e+      e-)
     4.12625845E-06    3     1000022       -13        13   # BR(~chi_30 -> ~chi_10 mu+     mu-)
     1.31616807E-05    3     1000022       -15        15   # BR(~chi_30 -> ~chi_10 tau+    tau-)
     1.12289320E-05    3     1000022       -12        12   # BR(~chi_30 -> ~chi_10 nu_eb   nu_e)
     1.12289320E-05    3     1000022       -14        14   # BR(~chi_30 -> ~chi_10 nu_mub  nu_mu)
     1.12289320E-05    3     1000022       -16        16   # BR(~chi_30 -> ~chi_10 nu_taub nu_tau)
     1.40968696E-02    3     1000023        -2         2   # BR(~chi_30 -> ~chi_20 ub      u)
     1.82546840E-02    3     1000023        -1         1   # BR(~chi_30 -> ~chi_20 db      d)
     1.40968696E-02    3     1000023        -4         4   # BR(~chi_30 -> ~chi_20 cb      c)
     1.82546840E-02    3     1000023        -3         3   # BR(~chi_30 -> ~chi_20 sb      s)
     1.51140565E-02    3     1000023        -5         5   # BR(~chi_30 -> ~chi_20 bb      b)
     4.16970220E-03    3     1000023       -11        11   # BR(~chi_30 -> ~chi_20 e+      e-)
     4.16970220E-03    3     1000023       -13        13   # BR(~chi_30 -> ~chi_20 mu+     mu-)
     4.09620503E-03    3     1000023       -15        15   # BR(~chi_30 -> ~chi_20 tau+    tau-)
     8.32750166E-03    3     1000023       -12        12   # BR(~chi_30 -> ~chi_20 nu_eb   nu_e)
     8.32750166E-03    3     1000023       -14        14   # BR(~chi_30 -> ~chi_20 nu_mub  nu_mu)
     8.32750166E-03    3     1000023       -16        16   # BR(~chi_30 -> ~chi_20 nu_taub nu_tau)
     1.15094782E-01    3     1000024        -2         1   # BR(~chi_30 -> ~chi_1+ ub      d)
     1.15094782E-01    3    -1000024        -1         2   # BR(~chi_30 -> ~chi_1- db      u)
     1.15094782E-01    3     1000024        -4         3   # BR(~chi_30 -> ~chi_1+ cb      s)
     1.15094782E-01    3    -1000024        -3         4   # BR(~chi_30 -> ~chi_1- sb      c)
     3.83648710E-02    3     1000024       -12        11   # BR(~chi_30 -> ~chi_1+ nu_eb   e-)
     3.83648710E-02    3    -1000024        12       -11   # BR(~chi_30 -> ~chi_1- nu_e    e+)
     3.83648710E-02    3     1000024       -14        13   # BR(~chi_30 -> ~chi_1+ nu_mub  mu-)
     3.83648710E-02    3    -1000024        14       -13   # BR(~chi_30 -> ~chi_1- nu_mu   mu+)
     3.79763509E-02    3     1000024       -16        15   # BR(~chi_30 -> ~chi_1+ nu_taub tau-)
     3.79763509E-02    3    -1000024        16       -15   # BR(~chi_30 -> ~chi_1- nu_tau  tau+)
#
#         PDG            Width
DECAY   1000035     3.48969331E+01   # neutralino4 decays
#          BR         NDA      ID1       ID2
     1.77939564E-04    2     1000022        23   # BR(~chi_40 -> ~chi_10   Z )
     2.52588926E-01    2     1000023        23   # BR(~chi_40 -> ~chi_20   Z )
     2.21420104E-04    2     1000025        23   # BR(~chi_40 -> ~chi_30   Z )
     2.47184410E-01    2     1000024       -24   # BR(~chi_40 -> ~chi_1+   W-)
     2.47184410E-01    2    -1000024        24   # BR(~chi_40 -> ~chi_1-   W+)
     1.04741039E-01    2     1000022        25   # BR(~chi_40 -> ~chi_10   h )
     3.85406861E-04    2     1000023        25   # BR(~chi_40 -> ~chi_20   h )
     1.47506666E-01    2     1000025        25   # BR(~chi_40 -> ~chi_30   h )
     2.32543603E-06    2     1000039        22   # BR(~chi_40 -> ~G        gam)
     7.45272291E-06    2     1000039        23   # BR(~chi_40 -> ~G        Z)
     1.48958644E-09    2     1000039        25   # BR(~chi_40 -> ~G        h)
     3.14968798E-09    2     1000039        35   # BR(~chi_40 -> ~G        H)
     8.31937660E-11    2     1000039        36   # BR(~chi_40 -> ~G        A)
#
#         PDG            Width
DECAY        25     4.22242784E-03   # h decays
#          BR         NDA      ID1       ID2
     6.02294321E-01    2           5        -5   # BR(h -> b       bb     )
     6.21781294E-02    2         -15        15   # BR(h -> tau+    tau-   )
     2.20083471E-04    2         -13        13   # BR(h -> mu+     mu-    )
     4.65654171E-04    2           3        -3   # BR(h -> s       sb     )
     2.00895586E-02    2           4        -4   # BR(h -> c       cb     )
     6.63462631E-02    2          21        21   # BR(h -> g       g      )
     2.30405900E-03    2          22        22   # BR(h -> gam     gam    )
     1.62512803E-03    2          22        23   # BR(h -> Z       gam    )
     2.16422912E-01    2          24       -24   # BR(h -> W+      W-     )
     2.80538904E-02    2          23        23   # BR(h -> Z       Z      )
#
#         PDG            Width
DECAY        35     3.78091009E+01   # H decays
#          BR         NDA      ID1       ID2
     1.46554607E-03    2           5        -5   # BR(H -> b       bb     )
     2.46433364E-04    2         -15        15   # BR(H -> tau+    tau-   )
     8.71233691E-07    2         -13        13   # BR(H -> mu+     mu-    )
     1.11549885E-06    2           3        -3   # BR(H -> s       sb     )
     1.00669071E-05    2           4        -4   # BR(H -> c       cb     )
     9.96073433E-01    2           6        -6   # BR(H -> t       tb     )
     7.97747543E-04    2          21        21   # BR(H -> g       g      )
     2.71804241E-06    2          22        22   # BR(H -> gam     gam    )
     1.16036196E-06    2          23        22   # BR(H -> Z       gam    )
     3.33540919E-04    2          24       -24   # BR(H -> W+      W-     )
     1.66315621E-04    2          23        23   # BR(H -> Z       Z      )
     9.01051489E-04    2          25        25   # BR(H -> h       h      )
     7.12578893E-24    2          36        36   # BR(H -> A       A      )
     2.89770335E-11    2          23        36   # BR(H -> Z       A      )
     6.43986239E-12    2          24       -37   # BR(H -> W+      H-     )
     6.43986239E-12    2         -24        37   # BR(H -> W-      H+     )
#
#         PDG            Width
DECAY        36     3.82379784E+01   # A decays
#          BR         NDA      ID1       ID2
     1.46846361E-03    2           5        -5   # BR(A -> b       bb     )
     2.43899306E-04    2         -15        15   # BR(A -> tau+    tau-   )
     8.62272153E-07    2         -13        13   # BR(A -> mu+     mu-    )
     1.13678135E-06    2           3        -3   # BR(A -> s       sb     )
     9.96182958E-06    2           4        -4   # BR(A -> c       cb     )
     9.97002472E-01    2           6        -6   # BR(A -> t       tb     )
     9.43681781E-04    2          21        21   # BR(A -> g       g      )
     3.13020420E-06    2          22        22   # BR(A -> gam     gam    )
     1.35295669E-06    2          23        22   # BR(A -> Z       gam    )
     3.25039139E-04    2          23        25   # BR(A -> Z       h      )
#
#         PDG            Width
DECAY        37     3.74471205E+01   # H+ decays
#          BR         NDA      ID1       ID2
     2.35202323E-06    2           4        -5   # BR(H+ -> c       bb     )
     2.49239521E-04    2         -15        16   # BR(H+ -> tau+    nu_tau )
     8.81151742E-07    2         -13        14   # BR(H+ -> mu+     nu_mu  )
     1.49530619E-08    2           2        -5   # BR(H+ -> u       bb     )
     5.45698157E-08    2           2        -3   # BR(H+ -> u       sb     )
     1.08732427E-05    2           4        -3   # BR(H+ -> c       sb     )
     9.99403452E-01    2           6        -5   # BR(H+ -> t       bb     )
     3.33132176E-04    2          24        25   # BR(H+ -> W+      h      )
     2.84545662E-13    2          24        36   # BR(H+ -> W+      A      )
