#
#                              ======================
#                              | THE SUSYHIT OUTPUT |
#                              ======================
#
#
#              ------------------------------------------------------
#              |     This is the output of the SUSY-HIT package     |
#              |  created by A.Djouadi, M.Muehlleitner and M.Spira. |
#              |  In case of problems with SUSY-HIT email to        |
#              |           margarete.muehlleitner@kit.edu           |
#              |           michael.spira@psi.ch                     |
#              |           abdelhak.djouadi@cern.ch                 |
#              ------------------------------------------------------
#
#              ------------------------------------------------------
#              |  SUSY Les Houches Accord - MSSM Spectrum + Decays  |
#              |              based on the decay programs           |
#              |                                                    |
#              |                     SDECAY 1.5                     |
#              |                                                    |
#              |  Authors: M.Muhlleitner, A.Djouadi and Y.Mambrini  |
#              |  Ref.:    Comput.Phys.Commun.168(2005)46           |
#              |           [hep-ph/0311167]                         |
#              |                                                    |
#              |                     HDECAY 3.4                     |
#              |                                                    |
#              |  By: A.Djouadi,J.Kalinowski,M.Muhlleitner,M.Spira  |
#              |  Ref.:    Comput.Phys.Commun.108(1998)56           |
#              |           [hep-ph/9704448]                         |
#              |                                                    |
#              |                                                    |
#              |  If not stated otherwise all DRbar couplings and   |
#              |  soft SUSY breaking masses are given at the scale  |
#              |  Q=  0.91187600E+02
#              |                                                    |
#              ------------------------------------------------------
#
#
BLOCK DCINFO  # Decay Program information
     1   SDECAY/HDECAY # decay calculator
     2   1.5  /3.4    # version number
#
BLOCK SPINFO  # Spectrum calculator information
     1   SuSpect     # RGE +Spectrum calculator            
     2   2.43         # version number                     
#
BLOCK MODSEL  # Model selection
     1     2   # GMSB                                              
#
BLOCK SMINPUTS  # Standard Model inputs
         1     1.27932904E+02   # alpha_em^-1(M_Z)^MSbar
         2     1.16639000E-05   # G_F [GeV^-2]
         3     1.17200000E-01   # alpha_S(M_Z)^MSbar
         4     9.11870000E+01   # M_Z pole mass
         5     4.25000000E+00   # mb(mb)^MSbar
         6     1.72900000E+02   # mt pole mass
         7     1.77700000E+00   # mtau pole mass
#
BLOCK MINPAR  # Input parameters - minimal models
#
BLOCK EXTPAR  # Input parameters - non-minimal models
         0     9.11876000E+01   # EWSB                
         1     8.54000000E+02   # M_1                 
         2     3.00000000E+03   # M_2                 
         3     1.90000000E+03   # M_3                 
        11     0.00000000E+00   # A_t                 
        12     0.00000000E+00   # A_b                 
        13     0.00000000E+00   # A_tau               
        14     0.00000000E+00   # A_u                 
        15     0.00000000E+00   # A_d                 
        16     0.00000000E+00   # A_e                 
        23     8.50000000E+02   # mu(EWSB)            
        25     1.50000000E+00   # tanbeta(in)         
        26     2.00000000E+03   # MA_pole             
        31     5.00000000E+03   # M_eL                
        32     5.00000000E+03   # M_muL               
        33     5.00000000E+03   # M_tauL              
        34     5.00000000E+03   # M_eR                
        35     5.00000000E+03   # M_muR               
        36     5.00000000E+03   # M_tauR              
        41     5.00000000E+03   # M_q1L               
        42     5.00000000E+03   # M_q2L               
        43     5.00000000E+03   # M_q3L               
        44     5.00000000E+03   # M_uR                
        45     5.00000000E+03   # M_cR                
        46     5.00000000E+03   # M_tR                
        47     5.00000000E+03   # M_dR                
        48     5.00000000E+03   # M_sR                
        49     5.00000000E+03   # M_bR                
#
BLOCK MASS  # Mass Spectrum
# PDG code           mass       particle
        24     8.05400806E+01   # W+
        25     1.26000000E+02   # h
        35     2.00404258E+03   # H
        36     2.00000000E+03   # A
        37     2.00148236E+03   # H+
         5     4.87877839E+00   # b-quark pole mass calculated from mb(mb)_Msbar
   1000001     4.95285070E+03   # ~d_L
   2000001     4.95274063E+03   # ~d_R
   1000002     4.95260463E+03   # ~u_L
   2000002     4.95266285E+03   # ~u_R
   1000003     4.95285070E+03   # ~s_L
   2000003     4.95274063E+03   # ~s_R
   1000004     4.95260463E+03   # ~c_L
   2000004     4.95266285E+03   # ~c_R
   1000005     4.95244154E+03   # ~b_1
   2000005     4.95315124E+03   # ~b_2
   1000006     5.07958670E+03   # ~t_1
   2000006     5.37888211E+03   # ~t_2
   1000011     5.00008227E+03   # ~e_L
   2000011     5.00007605E+03   # ~e_R
   1000012     4.99984168E+03   # ~nu_eL
   1000013     5.00008227E+03   # ~mu_L
   2000013     5.00007605E+03   # ~mu_R
   1000014     4.99984168E+03   # ~nu_muL
   1000015     4.99985276E+03   # ~tau_1
   2000015     5.00030618E+03   # ~tau_2
   1000016     4.99984168E+03   # ~nu_tauL
   1000021     1.97444413E+03   # ~g
   1000022     8.62248992E+02   # ~chi_10
   1000023    -9.09011714E+02   # ~chi_20
   1000025     9.49397837E+02   # ~chi_30
   1000035     3.12892889E+03   # ~chi_40
   1000024     9.06260293E+02   # ~chi_1+
   1000037     3.12892791E+03   # ~chi_2+
   1000039     1.00000000E-09   # ~gravitino
#
BLOCK NMIX  # Neutralino Mixing Matrix
  1  1     7.10153869E-01   # N_11
  1  2    -2.40785572E-02   # N_12
  1  3     5.00159437E-01   # N_13
  1  4    -4.94916400E-01   # N_14
  2  1     4.81285322E-03   # N_21
  2  2    -3.84922092E-03   # N_22
  2  3    -7.06895585E-01   # N_23
  2  4    -7.07291066E-01   # N_24
  3  1     7.04029707E-01   # N_31
  3  2     2.53079201E-02   # N_32
  3  3    -4.99655889E-01   # N_33
  3  4     5.04029437E-01   # N_34
  4  1     6.99953677E-04   # N_41
  4  2    -9.99382267E-01   # N_42
  4  3    -2.19809500E-02   # N_43
  4  4     2.74122626E-02   # N_44
#
BLOCK UMIX  # Chargino Mixing Matrix U
  1  1    -3.10719173E-02   # U_11
  1  2     9.99517151E-01   # U_12
  2  1     9.99517151E-01   # U_21
  2  2     3.10719173E-02   # U_22
#
BLOCK VMIX  # Chargino Mixing Matrix V
  1  1    -3.87550923E-02   # V_11
  1  2     9.99248739E-01   # V_12
  2  1     9.99248739E-01   # V_21
  2  2     3.87550923E-02   # V_22
#
BLOCK STOPMIX  # Stop Mixing Matrix
  1  1     9.99968175E-01   # cos(theta_t)
  1  2    -7.97803153E-03   # sin(theta_t)
  2  1     7.97803153E-03   # -sin(theta_t)
  2  2     9.99968175E-01   # cos(theta_t)
#
BLOCK SBOTMIX  # Sbottom Mixing Matrix
  1  1     6.49966037E-01   # cos(theta_b)
  1  2     7.59963256E-01   # sin(theta_b)
  2  1    -7.59963256E-01   # -sin(theta_b)
  2  2     6.49966037E-01   # cos(theta_b)
#
BLOCK STAUMIX  # Stau Mixing Matrix
  1  1     7.02237696E-01   # cos(theta_tau)
  1  2     7.11942567E-01   # sin(theta_tau)
  2  1    -7.11942567E-01   # -sin(theta_tau)
  2  2     7.02237696E-01   # cos(theta_tau)
#
BLOCK ALPHA  # Higgs mixing
          -5.90208365E-01   # Mixing angle in the neutral Higgs boson sector
#
BLOCK HMIX Q=  9.11876000E+01  # DRbar Higgs Parameters
         1     8.50000000E+02   # mu(Q)               
         2     1.49999979E+00   # tanbeta(Q)          
         3     2.52038695E+02   # vev(Q)              
         4     3.58605862E+06   # MA^2(Q)             
#
BLOCK GAUGE Q=  9.11876000E+01  # The gauge couplings
     1     3.52850463E-01   # gprime(Q) DRbar
     2     6.27604082E-01   # g(Q) DRbar
     3     1.08126674E+00   # g3(Q) DRbar
#
BLOCK AU Q=  9.11876000E+01  # The trilinear couplings
  1  1     0.00000000E+00   # A_u(Q) DRbar
  2  2     0.00000000E+00   # A_c(Q) DRbar
  3  3     0.00000000E+00   # A_t(Q) DRbar
#
BLOCK AD Q=  9.11876000E+01  # The trilinear couplings
  1  1     0.00000000E+00   # A_d(Q) DRbar
  2  2     0.00000000E+00   # A_s(Q) DRbar
  3  3     0.00000000E+00   # A_b(Q) DRbar
#
BLOCK AE Q=  9.11876000E+01  # The trilinear couplings
  1  1     0.00000000E+00   # A_e(Q) DRbar
  2  2     0.00000000E+00   # A_mu(Q) DRbar
  3  3     0.00000000E+00   # A_tau(Q) DRbar
#
BLOCK Yu Q=  9.11876000E+01  # The Yukawa couplings
  1  1     0.00000000E+00   # y_u(Q) DRbar
  2  2     0.00000000E+00   # y_c(Q) DRbar
  3  3     1.02608701E+00   # y_t(Q) DRbar
#
BLOCK Yd Q=  9.11876000E+01  # The Yukawa couplings
  1  1     0.00000000E+00   # y_d(Q) DRbar
  2  2     0.00000000E+00   # y_s(Q) DRbar
  3  3     2.71939819E-02   # y_b(Q) DRbar
#
BLOCK Ye Q=  9.11876000E+01  # The Yukawa couplings
  1  1     0.00000000E+00   # y_e(Q) DRbar
  2  2     0.00000000E+00   # y_mu(Q) DRbar
  3  3     1.79851958E-02   # y_tau(Q) DRbar
#
BLOCK MSOFT Q=  9.11876000E+01  # The soft SUSY breaking masses at the scale Q
         1     8.54000000E+02   # M_1                 
         2     3.00000000E+03   # M_2                 
         3     1.90000000E+03   # M_3                 
        14     0.00000000E+00   # A_u                 
        15     0.00000000E+00   # A_d                 
        16     0.00000000E+00   # A_e                 
        21     2.24374605E+06   # M^2_Hd              
        22    -6.09299474E+06   # M^2_Hu              
        31     5.00000000E+03   # M_eL                
        32     5.00000000E+03   # M_muL               
        33     5.00000000E+03   # M_tauL              
        34     5.00000000E+03   # M_eR                
        35     5.00000000E+03   # M_muR               
        36     5.00000000E+03   # M_tauR              
        41     5.00000000E+03   # M_q1L               
        42     5.00000000E+03   # M_q2L               
        43     5.00000000E+03   # M_q3L               
        44     5.00000000E+03   # M_uR                
        45     5.00000000E+03   # M_cR                
        46     5.00000000E+03   # M_tR                
        47     5.00000000E+03   # M_dR                
        48     5.00000000E+03   # M_sR                
        49     5.00000000E+03   # M_bR                
#
#
#
#                             =================
#                             |The decay table|
#                             =================
#
# - The QCD corrections to the decays gluino -> squark  + quark
#                                     squark -> gaugino + quark_prime
#                                     squark -> squark_prime + Higgs
#                                     squark -> gluino  + quark
#   are included.
#
# - The multi-body decays for the inos, stops and sbottoms are included.
#
# - The loop induced decays for the gluino, neutralinos and stops
#   are included.
#
# - The SUSY decays of the top quark are included.
#
# - Possible decays of the NLSP in GMSB models are included.
#
#
#         PDG            Width
DECAY         6     1.37240297E+00   # top decays
#          BR         NDA      ID1       ID2
     1.00000000E+00    2           5        24   # BR(t ->  b    W+)
#
#         PDG            Width
DECAY   1000021     8.20441530E-04   # gluino decays
#          BR         NDA      ID1       ID2
     8.91084477E-03    2     1000022        21   # BR(~g -> ~chi_10 g)
     1.65917111E-02    2     1000023        21   # BR(~g -> ~chi_20 g)
     7.61185661E-03    2     1000025        21   # BR(~g -> ~chi_30 g)
#          BR         NDA      ID1       ID2
0.0E+00    2     1000039    21 # BR(~g -> ~G      g)
#           BR         NDA      ID1       ID2       ID3
     6.06078194E-03    3     1000022         1        -1   # BR(~g -> ~chi_10 d  db)
     5.59531373E-07    3     1000023         1        -1   # BR(~g -> ~chi_20 d  db)
     3.86693865E-03    3     1000025         1        -1   # BR(~g -> ~chi_30 d  db)
     1.87314531E-02    3     1000022         2        -2   # BR(~g -> ~chi_10 u  ub)
     4.70250711E-07    3     1000023         2        -2   # BR(~g -> ~chi_20 u  ub)
     1.44782298E-02    3     1000025         2        -2   # BR(~g -> ~chi_30 u  ub)
     6.06078194E-03    3     1000022         3        -3   # BR(~g -> ~chi_10 s  sb)
     5.59531373E-07    3     1000023         3        -3   # BR(~g -> ~chi_20 s  sb)
     3.86693865E-03    3     1000025         3        -3   # BR(~g -> ~chi_30 s  sb)
     1.87314531E-02    3     1000022         4        -4   # BR(~g -> ~chi_10 c  cb)
     4.70250711E-07    3     1000023         4        -4   # BR(~g -> ~chi_20 c  cb)
     1.44782298E-02    3     1000025         4        -4   # BR(~g -> ~chi_30 c  cb)
     6.15526062E-03    3     1000022         5        -5   # BR(~g -> ~chi_10 b  bb)
     2.15721507E-04    3     1000023         5        -5   # BR(~g -> ~chi_20 b  bb)
     3.98027472E-03    3     1000025         5        -5   # BR(~g -> ~chi_30 b  bb)
     1.03199373E-01    3     1000022         6        -6   # BR(~g -> ~chi_10 t  tb)
     1.69820185E-01    3     1000023         6        -6   # BR(~g -> ~chi_20 t  tb)
     1.05246550E-01    3     1000025         6        -6   # BR(~g -> ~chi_30 t  tb)
     1.35282018E-04    3     1000024         1        -2   # BR(~g -> ~chi_1+ d  ub)
     1.35282018E-04    3    -1000024         2        -1   # BR(~g -> ~chi_1- u  db)
     1.35282018E-04    3     1000024         3        -4   # BR(~g -> ~chi_1+ s  cb)
     1.35282018E-04    3    -1000024         4        -3   # BR(~g -> ~chi_1- c  sb)
     2.24671192E-01    3     1000024         5        -6   # BR(~g -> ~chi_1+ b  tb)
     2.24671192E-01    3    -1000024         6        -5   # BR(~g -> ~chi_1- t  bb)
#
#         PDG            Width
DECAY   1000006     2.87736867E+02   # stop1 decays
#          BR         NDA      ID1       ID2
     5.77110017E-02    2     1000022         6   # BR(~t_1 -> ~chi_10 t )
     1.18798653E-01    2     1000023         6   # BR(~t_1 -> ~chi_20 t )
     6.30658076E-02    2     1000025         6   # BR(~t_1 -> ~chi_30 t )
     2.59970037E-02    2     1000035         6   # BR(~t_1 -> ~chi_40 t )
     1.72870900E-05    2     1000024         5   # BR(~t_1 -> ~chi_1+ b )
     5.17330298E-02    2     1000037         5   # BR(~t_1 -> ~chi_2+ b )
     6.65793376E-01    2     1000021         6   # BR(~t_1 -> ~g      t )
     7.24767147E-03    2     1000005        24   # BR(~t_1 -> ~b_1    W+)
     9.63616973E-03    2     2000005        24   # BR(~t_1 -> ~b_2    W+)
#
#         PDG            Width
DECAY   2000006     3.65524079E+02   # stop2 decays
#          BR         NDA      ID1       ID2
     6.53945601E-02    2     1000022         6   # BR(~t_2 -> ~chi_10 t )
     1.00359956E-01    2     1000023         6   # BR(~t_2 -> ~chi_20 t )
     6.42157531E-02    2     1000025         6   # BR(~t_2 -> ~chi_30 t )
    -1.53455873E-05    2     1000035         6   # BR(~t_2 -> ~chi_40 t )
     2.00989561E-01    2     1000024         5   # BR(~t_2 -> ~chi_1+ b )
    -3.03462138E-05    2     1000037         5   # BR(~t_2 -> ~chi_2+ b )
     5.69124529E-01    2     1000021         6   # BR(~t_2 -> ~g      t )
    -9.90699998E-05    2     1000006        25   # BR(~t_2 -> ~t_1    h )
     9.42129694E-06    2     1000006        23   # BR(~t_2 -> ~t_1    Z )
     2.15733369E-05    2     1000005        24   # BR(~t_2 -> ~b_1    W+)
     2.94078862E-05    2     2000005        24   # BR(~t_2 -> ~b_2    W+)
#
#         PDG            Width
DECAY   1000005     2.17196882E+02   # sbottom1 decays
#          BR         NDA      ID1       ID2
     5.31092587E-03    2     1000022         5   # BR(~b_1 -> ~chi_10 b )
     9.02385475E-05    2     1000023         5   # BR(~b_1 -> ~chi_20 b )
     3.18070631E-03    2     1000025         5   # BR(~b_1 -> ~chi_30 b )
     1.13024068E-02    2     1000035         5   # BR(~b_1 -> ~chi_40 b )
     1.03687887E-01    2    -1000024         6   # BR(~b_1 -> ~chi_1- t )
     2.27139790E-02    2    -1000037         6   # BR(~b_1 -> ~chi_2- t )
     8.53713857E-01    2     1000021         5   # BR(~b_1 -> ~g      b )
#
#         PDG            Width
DECAY   2000005     2.43629714E+02   # sbottom2 decays
#          BR         NDA      ID1       ID2
     2.26417062E-03    2     1000022         5   # BR(~b_2 -> ~chi_10 b )
     1.14470469E-04    2     1000023         5   # BR(~b_2 -> ~chi_20 b )
     3.03496305E-03    2     1000025         5   # BR(~b_2 -> ~chi_30 b )
     1.77982102E-02    2     1000035         5   # BR(~b_2 -> ~chi_40 b )
     1.80405727E-01    2    -1000024         6   # BR(~b_2 -> ~chi_1- t )
     3.57803851E-02    2    -1000037         6   # BR(~b_2 -> ~chi_2- t )
     7.60602074E-01    2     1000021         5   # BR(~b_2 -> ~g      b )
#
#         PDG            Width
DECAY   1000002     2.06401822E+02   # sup_L decays
#          BR         NDA      ID1       ID2
     1.01312833E-03    2     1000022         2   # BR(~u_L -> ~chi_10 u)
     7.35493763E-07    2     1000023         2   # BR(~u_L -> ~chi_20 u)
     2.08054332E-03    2     1000025         2   # BR(~u_L -> ~chi_30 u)
     3.28775197E-02    2     1000035         2   # BR(~u_L -> ~chi_40 u)
     2.54454506E-04    2     1000024         1   # BR(~u_L -> ~chi_1+ d)
     6.57547841E-02    2     1000037         1   # BR(~u_L -> ~chi_2+ d)
     8.98018835E-01    2     1000021         2   # BR(~u_L -> ~g      u)
#
#         PDG            Width
DECAY   2000002     1.95181205E+02   # sup_R decays
#          BR         NDA      ID1       ID2
     2.55515084E-02    2     1000022         2   # BR(~u_R -> ~chi_10 u)
     1.16550781E-06    2     1000023         2   # BR(~u_R -> ~chi_20 u)
     2.47833929E-02    2     1000025         2   # BR(~u_R -> ~chi_30 u)
     9.58671463E-09    2     1000035         2   # BR(~u_R -> ~chi_40 u)
     9.49663924E-01    2     1000021         2   # BR(~u_R -> ~g      u)
#
#         PDG            Width
DECAY   1000001     2.06407655E+02   # sdown_L decays
#          BR         NDA      ID1       ID2
     2.10606017E-03    2     1000022         1   # BR(~d_L -> ~chi_10 d)
     1.91142163E-06    2     1000023         1   # BR(~d_L -> ~chi_20 d)
     9.56740259E-04    2     1000025         1   # BR(~d_L -> ~chi_30 d)
     3.28997942E-02    2     1000035         1   # BR(~d_L -> ~chi_40 d)
     1.63569073E-04    2    -1000024         2   # BR(~d_L -> ~chi_1- u)
     6.58001308E-02    2    -1000037         2   # BR(~d_L -> ~chi_2- u)
     8.98071794E-01    2     1000021         1   # BR(~d_L -> ~g      d)
#
#         PDG            Width
DECAY   2000001     1.87817869E+02   # sdown_R decays
#          BR         NDA      ID1       ID2
     6.63842997E-03    2     1000022         1   # BR(~d_R -> ~chi_10 d)
     3.02805751E-07    2     1000023         1   # BR(~d_R -> ~chi_20 d)
     6.43887186E-03    2     1000025         1   # BR(~d_R -> ~chi_30 d)
     2.49078175E-09    2     1000035         1   # BR(~d_R -> ~chi_40 d)
     9.86922393E-01    2     1000021         1   # BR(~d_R -> ~g      d)
#
#         PDG            Width
DECAY   1000004     2.06401822E+02   # scharm_L decays
#          BR         NDA      ID1       ID2
     1.01312833E-03    2     1000022         4   # BR(~c_L -> ~chi_10 c)
     7.35493763E-07    2     1000023         4   # BR(~c_L -> ~chi_20 c)
     2.08054332E-03    2     1000025         4   # BR(~c_L -> ~chi_30 c)
     3.28775197E-02    2     1000035         4   # BR(~c_L -> ~chi_40 c)
     2.54454506E-04    2     1000024         3   # BR(~c_L -> ~chi_1+ s)
     6.57547841E-02    2     1000037         3   # BR(~c_L -> ~chi_2+ s)
     8.98018835E-01    2     1000021         4   # BR(~c_L -> ~g      c)
#
#         PDG            Width
DECAY   2000004     1.95181205E+02   # scharm_R decays
#          BR         NDA      ID1       ID2
     2.55515084E-02    2     1000022         4   # BR(~c_R -> ~chi_10 c)
     1.16550781E-06    2     1000023         4   # BR(~c_R -> ~chi_20 c)
     2.47833929E-02    2     1000025         4   # BR(~c_R -> ~chi_30 c)
     9.58671463E-09    2     1000035         4   # BR(~c_R -> ~chi_40 c)
     9.49663924E-01    2     1000021         4   # BR(~c_R -> ~g      c)
#
#         PDG            Width
DECAY   1000003     2.06407655E+02   # sstrange_L decays
#          BR         NDA      ID1       ID2
     2.10606017E-03    2     1000022         3   # BR(~s_L -> ~chi_10 s)
     1.91142163E-06    2     1000023         3   # BR(~s_L -> ~chi_20 s)
     9.56740259E-04    2     1000025         3   # BR(~s_L -> ~chi_30 s)
     3.28997942E-02    2     1000035         3   # BR(~s_L -> ~chi_40 s)
     1.63569073E-04    2    -1000024         4   # BR(~s_L -> ~chi_1- c)
     6.58001308E-02    2    -1000037         4   # BR(~s_L -> ~chi_2- c)
     8.98071794E-01    2     1000021         3   # BR(~s_L -> ~g      s)
#
#         PDG            Width
DECAY   2000003     1.87817869E+02   # sstrange_R decays
#          BR         NDA      ID1       ID2
     6.63842997E-03    2     1000022         3   # BR(~s_R -> ~chi_10 s)
     3.02805751E-07    2     1000023         3   # BR(~s_R -> ~chi_20 s)
     6.43887186E-03    2     1000025         3   # BR(~s_R -> ~chi_30 s)
     2.49078175E-09    2     1000035         3   # BR(~s_R -> ~chi_40 s)
     9.86922393E-01    2     1000021         3   # BR(~s_R -> ~g      s)
#
#         PDG            Width
DECAY   1000011     2.75859805E+01   # selectron_L decays
#          BR         NDA      ID1       ID2
     9.41075694E-02    2     1000022        11   # BR(~e_L -> ~chi_10 e-)
     8.68007899E-07    2     1000023        11   # BR(~e_L -> ~chi_20 e-)
     1.17028410E-01    2     1000025        11   # BR(~e_L -> ~chi_30 e-)
     2.62341620E-01    2     1000035        11   # BR(~e_L -> ~chi_40 e-)
     1.28266447E-03    2    -1000024        12   # BR(~e_L -> ~chi_1- nu_e)
     5.25238868E-01    2    -1000037        12   # BR(~e_L -> ~chi_2- nu_e)
#
#         PDG            Width
DECAY   2000011     2.31682866E+01   # selectron_R decays
#          BR         NDA      ID1       ID2
     5.07583097E-01    2     1000022        11   # BR(~e_R -> ~chi_10 e-)
     2.31545588E-05    2     1000023        11   # BR(~e_R -> ~chi_20 e-)
     4.92393555E-01    2     1000025        11   # BR(~e_R -> ~chi_30 e-)
     1.93886263E-07    2     1000035        11   # BR(~e_R -> ~chi_40 e-)
#
#         PDG            Width
DECAY   1000013     2.75859805E+01   # smuon_L decays
#          BR         NDA      ID1       ID2
     9.41075694E-02    2     1000022        13   # BR(~mu_L -> ~chi_10 mu-)
     8.68007899E-07    2     1000023        13   # BR(~mu_L -> ~chi_20 mu-)
     1.17028410E-01    2     1000025        13   # BR(~mu_L -> ~chi_30 mu-)
     2.62341620E-01    2     1000035        13   # BR(~mu_L -> ~chi_40 mu-)
     1.28266447E-03    2    -1000024        14   # BR(~mu_L -> ~chi_1- nu_mu)
     5.25238868E-01    2    -1000037        14   # BR(~mu_L -> ~chi_2- nu_mu)
#
#         PDG            Width
DECAY   2000013     2.31682866E+01   # smuon_R decays
#          BR         NDA      ID1       ID2
     5.07583097E-01    2     1000022        13   # BR(~mu_R -> ~chi_10 mu-)
     2.31545588E-05    2     1000023        13   # BR(~mu_R -> ~chi_20 mu-)
     4.92393555E-01    2     1000025        13   # BR(~mu_R -> ~chi_30 mu-)
     1.93886263E-07    2     1000035        13   # BR(~mu_R -> ~chi_40 mu-)
#
#         PDG            Width
DECAY   1000015     2.54262701E+01   # stau_1 decays
#          BR         NDA      ID1       ID2
     2.91310793E-01    2     1000022        15   # BR(~tau_1 -> ~chi_10  tau-)
     4.67174286E-04    2     1000023        15   # BR(~tau_1 -> ~chi_20  tau-)
     2.84967238E-01    2     1000025        15   # BR(~tau_1 -> ~chi_30  tau-)
     1.40082584E-01    2     1000035        15   # BR(~tau_1 -> ~chi_40  tau-)
     2.56823014E-03    2    -1000024        16   # BR(~tau_1 -> ~chi_1-  nu_tau)
     2.80462502E-01    2    -1000037        16   # BR(~tau_1 -> ~chi_2-  nu_tau)
     1.41478298E-04    2     1000039        15   # BR(~tau_1 -> ~G       tau-)
#
#         PDG            Width
DECAY   2000015     2.54218380E+01   # stau_2 decays
#          BR         NDA      ID1       ID2
     2.73938874E-01    2     1000022        15   # BR(~tau_2 -> ~chi_10  tau-)
     7.37475108E-04    2     1000023        15   # BR(~tau_2 -> ~chi_20  tau-)
     2.91307912E-01    2     1000025        15   # BR(~tau_2 -> ~chi_30  tau-)
     1.44568516E-01    2     1000035        15   # BR(~tau_2 -> ~chi_40  tau-)
     5.80831229E-06    2    -1000024        16   # BR(~tau_2 -> ~chi_1-  nu_tau)
     2.89441415E-01    2    -1000037        16   # BR(~tau_2 -> ~chi_2-  nu_tau)
#
#         PDG            Width
DECAY   1000012     2.75857823E+01   # snu_eL decays
#          BR         NDA      ID1       ID2
     1.19811025E-01    2     1000022        12   # BR(~nu_eL -> ~chi_10 nu_e)
     2.85302019E-05    2     1000023        12   # BR(~nu_eL -> ~chi_20 nu_e)
     9.05829803E-02    2     1000025        12   # BR(~nu_eL -> ~chi_30 nu_e)
     2.62711849E-01    2     1000035        12   # BR(~nu_eL -> ~chi_40 nu_e)
     1.99532615E-03    2     1000024        11   # BR(~nu_eL -> ~chi_1+ e-)
     5.24870289E-01    2     1000037        11   # BR(~nu_eL -> ~chi_2+ e-)
#
#         PDG            Width
DECAY   1000014     2.75857823E+01   # snu_muL decays
#          BR         NDA      ID1       ID2
     1.19811025E-01    2     1000022        14   # BR(~nu_muL -> ~chi_10 nu_mu)
     2.85302019E-05    2     1000023        14   # BR(~nu_muL -> ~chi_20 nu_mu)
     9.05829803E-02    2     1000025        14   # BR(~nu_muL -> ~chi_30 nu_mu)
     2.62711849E-01    2     1000035        14   # BR(~nu_muL -> ~chi_40 nu_mu)
     1.99532615E-03    2     1000024        13   # BR(~nu_muL -> ~chi_1+ mu-)
     5.24870289E-01    2     1000037        13   # BR(~nu_muL -> ~chi_2+ mu-)
#
#         PDG            Width
DECAY   1000016     2.76158583E+01   # snu_tauL decays
#          BR         NDA      ID1       ID2
     1.19680541E-01    2     1000022        16   # BR(~nu_tauL -> ~chi_10 nu_tau)
     2.84991301E-05    2     1000023        16   # BR(~nu_tauL -> ~chi_20 nu_tau)
     9.04843278E-02    2     1000025        16   # BR(~nu_tauL -> ~chi_30 nu_tau)
     2.62425734E-01    2     1000035        16   # BR(~nu_tauL -> ~chi_40 nu_tau)
     3.08149535E-03    2     1000024        15   # BR(~nu_tauL -> ~chi_1+ tau-)
     5.24299403E-01    2     1000037        15   # BR(~nu_tauL -> ~chi_2+ tau-)
#
#         PDG            Width
DECAY   1000024     1.03452966E-04   # chargino1+ decays
#          BR         NDA      ID1       ID2
     3.30284007E-03    2     1000039        24   # BR(~chi_1+ -> ~G       W+)
#           BR         NDA      ID1       ID2       ID3
     3.32529405E-01    3     1000022         2        -1   # BR(~chi_1+ -> ~chi_10 u    db)
     3.32529405E-01    3     1000022         4        -3   # BR(~chi_1+ -> ~chi_10 c    sb)
     1.10843267E-01    3     1000022       -11        12   # BR(~chi_1+ -> ~chi_10 e+   nu_e)
     1.10843267E-01    3     1000022       -13        14   # BR(~chi_1+ -> ~chi_10 mu+  nu_mu)
     1.09951816E-01    3     1000022       -15        16   # BR(~chi_1+ -> ~chi_10 tau+ nu_tau)
#
#         PDG            Width
DECAY   1000037     3.66901064E+01   # chargino2+ decays
#          BR         NDA      ID1       ID2
     2.44816967E-01    2     1000024        23   # BR(~chi_2+ -> ~chi_1+  Z )
     1.11764329E-01    2     1000022        24   # BR(~chi_2+ -> ~chi_10  W+)
     2.38469770E-01    2     1000023        24   # BR(~chi_2+ -> ~chi_20  W+)
     1.26902945E-01    2     1000025        24   # BR(~chi_2+ -> ~chi_30  W+)
     2.45920241E-01    2     1000024        25   # BR(~chi_2+ -> ~chi_1+  h )
     7.91310760E-03    2     1000024        35   # BR(~chi_2+ -> ~chi_1+  H )
     8.12733006E-03    2     1000024        36   # BR(~chi_2+ -> ~chi_1+  A )
     4.83572792E-03    2     1000022        37   # BR(~chi_2+ -> ~chi_10  H+)
     7.96542894E-03    2     1000023        37   # BR(~chi_2+ -> ~chi_20  H+)
     3.27477206E-03    2     1000025        37   # BR(~chi_2+ -> ~chi_30  H+)
     9.38113292E-06    2     1000039        24   # BR(~chi_2+ -> ~G       W+)
     6.48175917E-10    2     1000039        37   # BR(~chi_2+ -> ~G       H+)
#
#         PDG            Width
DECAY   1000022    1.0E-05    # neutralino1 decays
#          BR         NDA      ID1       ID2
     5.02299536E-01    2     1000039        22   # BR(~chi_10 -> ~G        gam)
     4.86676308E-01    2     1000039        23   # BR(~chi_10 -> ~G        Z)
     1.10241554E-02    2     1000039        25   # BR(~chi_10 -> ~G        h)
#
#         PDG            Width
DECAY   1000023     1.13144932E-04   # neutralino2 decays
#          BR         NDA      ID1       ID2
     3.11115509E-04    2     1000022        22   # BR(~chi_20 -> ~chi_10 gam)
#          BR         NDA      ID1       ID2
     3.36663159E-08    2     1000039        22   # BR(~chi_20 -> ~G        gam)
     1.17154005E-04    2     1000039        23   # BR(~chi_20 -> ~G        Z)
     2.81219933E-03    2     1000039        25   # BR(~chi_20 -> ~G        h)
#           BR         NDA      ID1       ID2       ID3
     1.18415568E-01    3     1000022        -2         2   # BR(~chi_20 -> ~chi_10 ub      u)
     1.53314882E-01    3     1000022        -1         1   # BR(~chi_20 -> ~chi_10 db      d)
     1.18415568E-01    3     1000022        -4         4   # BR(~chi_20 -> ~chi_10 cb      c)
     1.53314882E-01    3     1000022        -3         3   # BR(~chi_20 -> ~chi_10 sb      s)
     1.38919240E-01    3     1000022        -5         5   # BR(~chi_20 -> ~chi_10 bb      b)
     3.50073971E-02    3     1000022       -11        11   # BR(~chi_20 -> ~chi_10 e+      e-)
     3.50073971E-02    3     1000022       -13        13   # BR(~chi_20 -> ~chi_10 mu+     mu-)
     3.46405028E-02    3     1000022       -15        15   # BR(~chi_20 -> ~chi_10 tau+    tau-)
     6.99070916E-02    3     1000022       -12        12   # BR(~chi_20 -> ~chi_10 nu_eb   nu_e)
     6.99070916E-02    3     1000022       -14        14   # BR(~chi_20 -> ~chi_10 nu_mub  nu_mu)
     6.99070916E-02    3     1000022       -16        16   # BR(~chi_20 -> ~chi_10 nu_taub nu_tau)
     5.15270705E-07    3     1000024        -2         1   # BR(~chi_20 -> ~chi_1+ ub      d)
     5.15270705E-07    3    -1000024        -1         2   # BR(~chi_20 -> ~chi_1- db      u)
     5.15270705E-07    3     1000024        -4         3   # BR(~chi_20 -> ~chi_1+ cb      s)
     5.15270705E-07    3    -1000024        -3         4   # BR(~chi_20 -> ~chi_1- sb      c)
     1.71756913E-07    3     1000024       -12        11   # BR(~chi_20 -> ~chi_1+ nu_eb   e-)
     1.71756913E-07    3    -1000024        12       -11   # BR(~chi_20 -> ~chi_1- nu_e    e+)
     1.71756913E-07    3     1000024       -14        13   # BR(~chi_20 -> ~chi_1+ nu_mub  mu-)
     1.71756913E-07    3    -1000024        14       -13   # BR(~chi_20 -> ~chi_1- nu_mu   mu+)
     1.88589647E-08    3     1000024       -16        15   # BR(~chi_20 -> ~chi_1+ nu_taub tau-)
     1.88589647E-08    3    -1000024        16       -15   # BR(~chi_20 -> ~chi_1- nu_tau  tau+)
#
#         PDG            Width
DECAY   1000025     2.43026202E-04   # neutralino3 decays
#          BR         NDA      ID1       ID2
     3.45162866E-04    2     1000022        22   # BR(~chi_30 -> ~chi_10 gam)
     3.77368632E-04    2     1000023        22   # BR(~chi_30 -> ~chi_20 gam)
#          BR         NDA      ID1       ID2
     1.43235413E-03    2     1000039        22   # BR(~chi_30 -> ~G        gam)
     1.22142165E-03    2     1000039        23   # BR(~chi_30 -> ~G        Z)
     3.36796043E-05    2     1000039        25   # BR(~chi_30 -> ~G        h)
#           BR         NDA      ID1       ID2       ID3
     1.02955154E-05    3     1000022        -2         2   # BR(~chi_30 -> ~chi_10 ub      u)
     1.23252573E-05    3     1000022        -1         1   # BR(~chi_30 -> ~chi_10 db      d)
     1.02955154E-05    3     1000022        -4         4   # BR(~chi_30 -> ~chi_10 cb      c)
     1.23252573E-05    3     1000022        -3         3   # BR(~chi_30 -> ~chi_10 sb      s)
     1.60458215E-05    3     1000022        -5         5   # BR(~chi_30 -> ~chi_10 bb      b)
     2.20090697E-06    3     1000022       -11        11   # BR(~chi_30 -> ~chi_10 e+      e-)
     2.20090697E-06    3     1000022       -13        13   # BR(~chi_30 -> ~chi_10 mu+     mu-)
     2.79022307E-06    3     1000022       -15        15   # BR(~chi_30 -> ~chi_10 tau+    tau-)
     5.99707679E-06    3     1000022       -12        12   # BR(~chi_30 -> ~chi_10 nu_eb   nu_e)
     5.99707679E-06    3     1000022       -14        14   # BR(~chi_30 -> ~chi_10 nu_mub  nu_mu)
     5.99707679E-06    3     1000022       -16        16   # BR(~chi_30 -> ~chi_10 nu_taub nu_tau)
     2.60756780E-02    3     1000023        -2         2   # BR(~chi_30 -> ~chi_20 ub      u)
     3.37607429E-02    3     1000023        -1         1   # BR(~chi_30 -> ~chi_20 db      d)
     2.60756780E-02    3     1000023        -4         4   # BR(~chi_30 -> ~chi_20 cb      c)
     3.37607429E-02    3     1000023        -3         3   # BR(~chi_30 -> ~chi_20 sb      s)
     2.96343273E-02    3     1000023        -5         5   # BR(~chi_30 -> ~chi_20 bb      b)
     7.70884265E-03    3     1000023       -11        11   # BR(~chi_30 -> ~chi_20 e+      e-)
     7.70884265E-03    3     1000023       -13        13   # BR(~chi_30 -> ~chi_20 mu+     mu-)
     7.60838927E-03    3     1000023       -15        15   # BR(~chi_30 -> ~chi_20 tau+    tau-)
     1.53938363E-02    3     1000023       -12        12   # BR(~chi_30 -> ~chi_20 nu_eb   nu_e)
     1.53938363E-02    3     1000023       -14        14   # BR(~chi_30 -> ~chi_20 nu_mub  nu_mu)
     1.53938363E-02    3     1000023       -16        16   # BR(~chi_30 -> ~chi_20 nu_taub nu_tau)
     1.29785650E-01    3     1000024        -2         1   # BR(~chi_30 -> ~chi_1+ ub      d)
     1.29785650E-01    3    -1000024        -1         2   # BR(~chi_30 -> ~chi_1- db      u)
     1.29785650E-01    3     1000024        -4         3   # BR(~chi_30 -> ~chi_1+ cb      s)
     1.29785650E-01    3    -1000024        -3         4   # BR(~chi_30 -> ~chi_1- sb      c)
     4.32618143E-02    3     1000024       -12        11   # BR(~chi_30 -> ~chi_1+ nu_eb   e-)
     4.32618143E-02    3    -1000024        12       -11   # BR(~chi_30 -> ~chi_1- nu_e    e+)
     4.32618143E-02    3     1000024       -14        13   # BR(~chi_30 -> ~chi_1+ nu_mub  mu-)
     4.32618143E-02    3    -1000024        14       -13   # BR(~chi_30 -> ~chi_1- nu_mu   mu+)
     4.28994662E-02    3     1000024       -16        15   # BR(~chi_30 -> ~chi_1+ nu_taub tau-)
     4.28994662E-02    3    -1000024        16       -15   # BR(~chi_30 -> ~chi_1- nu_tau  tau+)
#
#         PDG            Width
DECAY   1000035     3.66905002E+01   # neutralino4 decays
#          BR         NDA      ID1       ID2
     1.35429560E-03    2     1000022        23   # BR(~chi_40 -> ~chi_10   Z )
     2.41965300E-01    2     1000023        23   # BR(~chi_40 -> ~chi_20   Z )
     1.55870390E-03    2     1000025        23   # BR(~chi_40 -> ~chi_30   Z )
     2.38394738E-01    2     1000024       -24   # BR(~chi_40 -> ~chi_1+   W-)
     2.38394738E-01    2    -1000024        24   # BR(~chi_40 -> ~chi_1-   W+)
     1.13952125E-01    2     1000022        25   # BR(~chi_40 -> ~chi_10   h )
     1.46241640E-03    2     1000022        35   # BR(~chi_40 -> ~chi_10   H )
     3.34253518E-03    2     1000022        36   # BR(~chi_40 -> ~chi_10   A )
     2.88094312E-03    2     1000023        25   # BR(~chi_40 -> ~chi_20   h )
     5.11727755E-03    2     1000023        35   # BR(~chi_40 -> ~chi_20   H )
     2.78465987E-03    2     1000023        36   # BR(~chi_40 -> ~chi_20   A )
     1.29373608E-01    2     1000025        25   # BR(~chi_40 -> ~chi_30   h )
     1.23245224E-03    2     1000025        35   # BR(~chi_40 -> ~chi_30   H )
     2.01602356E-03    2     1000025        36   # BR(~chi_40 -> ~chi_30   A )
     8.08040167E-03    2     1000024       -37   # BR(~chi_40 -> ~chi_1+   H-)
     8.08040167E-03    2    -1000024        37   # BR(~chi_40 -> ~chi_1-   H+)
     2.25170872E-06    2     1000039        22   # BR(~chi_40 -> ~G        gam)
     7.12854828E-06    2     1000039        23   # BR(~chi_40 -> ~G        Z)
     5.19486073E-10    2     1000039        25   # BR(~chi_40 -> ~G        h)
     6.39561536E-10    2     1000039        35   # BR(~chi_40 -> ~G        H)
     5.47418422E-12    2     1000039        36   # BR(~chi_40 -> ~G        A)
#
#         PDG            Width
DECAY        25     4.21869432E-03   # h decays
#          BR         NDA      ID1       ID2
     6.01876059E-01    2           5        -5   # BR(h -> b       bb     )
     6.22349994E-02    2         -15        15   # BR(h -> tau+    tau-   )
     2.20284765E-04    2         -13        13   # BR(h -> mu+     mu-    )
     4.66079813E-04    2           3        -3   # BR(h -> s       sb     )
     2.01070705E-02    2           4        -4   # BR(h -> c       cb     )
     6.64034652E-02    2          21        21   # BR(h -> g       g      )
     2.30836906E-03    2          22        22   # BR(h -> gam     gam    )
     1.62645018E-03    2          22        23   # BR(h -> Z       gam    )
     2.16678505E-01    2          24       -24   # BR(h -> W+      W-     )
     2.80787167E-02    2          23        23   # BR(h -> Z       Z      )
#
#         PDG            Width
DECAY        35     3.88096063E+01   # H decays
#          BR         NDA      ID1       ID2
     1.43377628E-03    2           5        -5   # BR(H -> b       bb     )
     2.40083079E-04    2         -15        15   # BR(H -> tau+    tau-   )
     8.48783067E-07    2         -13        13   # BR(H -> mu+     mu-    )
     1.08674982E-06    2           3        -3   # BR(H -> s       sb     )
     9.80788253E-06    2           4        -4   # BR(H -> c       cb     )
     9.70445485E-01    2           6        -6   # BR(H -> t       tb     )
     7.77235839E-04    2          21        21   # BR(H -> g       g      )
     2.63845798E-06    2          22        22   # BR(H -> gam     gam    )
     1.12987246E-06    2          23        22   # BR(H -> Z       gam    )
     3.27908605E-04    2          24       -24   # BR(H -> W+      W-     )
     1.63507086E-04    2          23        23   # BR(H -> Z       Z      )
     8.81057896E-04    2          25        25   # BR(H -> h       h      )
     7.56006643E-24    2          36        36   # BR(H -> A       A      )
     3.00179349E-11    2          23        36   # BR(H -> Z       A      )
     7.45165155E-12    2          24       -37   # BR(H -> W+      H-     )
     7.45165155E-12    2         -24        37   # BR(H -> W-      H+     )
     7.58291270E-06    2     1000024  -1000024   # BR(H -> ~chi_1+ ~chi_1-)
     1.83586329E-04    2     1000022   1000022   # BR(H -> ~chi_10 ~chi_10)
     1.29254044E-06    2     1000023   1000023   # BR(H -> ~chi_20 ~chi_20)
     3.16466247E-05    2     1000025   1000025   # BR(H -> ~chi_30 ~chi_30)
     1.58349089E-02    2     1000022   1000023   # BR(H -> ~chi_10 ~chi_20)
     4.59291301E-07    2     1000022   1000025   # BR(H -> ~chi_10 ~chi_30)
     9.65595816E-03    2     1000023   1000025   # BR(H -> ~chi_20 ~chi_30)
#
#         PDG            Width
DECAY        36     3.92441390E+01   # A decays
#          BR         NDA      ID1       ID2
     1.43676570E-03    2           5        -5   # BR(A -> b       bb     )
     2.37646095E-04    2         -15        15   # BR(A -> tau+    tau-   )
     8.40164795E-07    2         -13        13   # BR(A -> mu+     mu-    )
     1.10763599E-06    2           3        -3   # BR(A -> s       sb     )
     9.70642330E-06    2           4        -4   # BR(A -> c       cb     )
     9.71440833E-01    2           6        -6   # BR(A -> t       tb     )
     9.19487204E-04    2          21        21   # BR(A -> g       g      )
     2.99656719E-06    2          22        22   # BR(A -> gam     gam    )
     1.31759736E-06    2          23        22   # BR(A -> Z       gam    )
     3.19572814E-04    2          23        25   # BR(A -> Z       h      )
     4.48612213E-04    2     1000024  -1000024   # BR(A -> ~chi_1+ ~chi_1-)
     1.68684218E-02    2     1000022   1000022   # BR(A -> ~chi_10 ~chi_10)
     2.84496623E-07    2     1000023   1000023   # BR(A -> ~chi_20 ~chi_20)
     8.00131112E-03    2     1000025   1000025   # BR(A -> ~chi_30 ~chi_30)
     1.19370608E-04    2     1000022   1000023   # BR(A -> ~chi_10 ~chi_20)
     1.33862917E-04    2     1000022   1000025   # BR(A -> ~chi_10 ~chi_30)
     5.78638769E-05    2     1000023   1000025   # BR(A -> ~chi_20 ~chi_30)
#
#         PDG            Width
DECAY        37     3.84329117E+01   # H+ decays
#          BR         NDA      ID1       ID2
     2.30486621E-06    2           4        -5   # BR(H+ -> c       bb     )
     2.42842096E-04    2         -15        16   # BR(H+ -> tau+    nu_tau )
     8.58534531E-07    2         -13        14   # BR(H+ -> mu+     nu_mu  )
     1.46538204E-08    2           2        -5   # BR(H+ -> u       bb     )
     5.31692634E-08    2           2        -3   # BR(H+ -> u       sb     )
     1.05941774E-05    2           4        -3   # BR(H+ -> c       sb     )
     9.73761340E-01    2           6        -5   # BR(H+ -> t       bb     )
     3.27507596E-04    2          24        25   # BR(H+ -> W+      h      )
     2.44921211E-13    2          24        36   # BR(H+ -> W+      A      )
     1.42769997E-02    2     1000024   1000022   # BR(H+ -> ~chi_1+ ~chi_10)
     1.06587555E-04    2     1000024   1000023   # BR(H+ -> ~chi_1+ ~chi_20)
     1.12708975E-02    2     1000024   1000025   # BR(H+ -> ~chi_1+ ~chi_30)
