#
#                              ======================
#                              | THE SUSYHIT OUTPUT |
#                              ======================
#
#
#              ------------------------------------------------------
#              |     This is the output of the SUSY-HIT package     |
#              |  created by A.Djouadi, M.Muehlleitner and M.Spira. |
#              |  In case of problems with SUSY-HIT email to        |
#              |           margarete.muehlleitner@cern.ch           |
#              |           michael.spira@psi.ch                     |
#              |           abdelhak.djouadi@cern.ch                 |
#              ------------------------------------------------------
#
#              ------------------------------------------------------
#              |  SUSY Les Houches Accord - MSSM Spectrum + Decays  |
#              |              based on the decay programs           |
#              |                                                    |
#              |                     SDECAY 1.3b                    |
#              |                                                    |
#              |  Authors: M.Muhlleitner, A.Djouadi and Y.Mambrini  |
#              |  Ref.:    Comput.Phys.Commun.168(2005)46           |
#              |           [hep-ph/0311167]                         |
#              |                                                    |
#              |                     HDECAY 3.4                     |
#              |                                                    |
#              |  By: A.Djouadi,J.Kalinowski,M.Muhlleitner,M.Spira  |
#              |  Ref.:    Comput.Phys.Commun.108(1998)56           |
#              |           [hep-ph/9704448]                         |
#              |                                                    |
#              |                                                    |
#              |  If not stated otherwise all DRbar couplings and   |
#              |  soft SUSY breaking masses are given at the scale  |
#              |  Q=  0.50007281E+04
#              |                                                    |
#              ------------------------------------------------------
#
#
BLOCK DCINFO  # Decay Program information
     1   SDECAY/HDECAY # decay calculator
     2   1.3b  /3.4    # version number
#
BLOCK SPINFO  # Spectrum calculator information
     1    SOFTSUSY    # spectrum calculator                
     2    3.4.0       # version number                     
#
BLOCK MODSEL  # Model selection
     1     0   #  nonUniversal                                     
#
BLOCK SMINPUTS  # Standard Model inputs
         1     1.25778332E+02   # alpha_em^-1(M_Z)^MSbar
         2     1.16570000E-05   # G_F [GeV^-2]
         3     1.17200002E-01   # alpha_S(M_Z)^MSbar
         4     9.11876000E+01   # M_Z pole mass
         5     4.25000000E+00   # mb(mb)^MSbar
         6     1.72500000E+02   # mt pole mass
         7     1.77682000E+00   # mtau pole mass
#
BLOCK MINPAR  # Input parameters - minimal models
         3     1.00000000E+01   # tanb                
#
BLOCK EXTPAR  # Input parameters - non-minimal models
         0    -1.00000000E+00   # Set                 
         1     6.00000000E+01   # M_1(MX)             
         2     3.00000000E+03   # M_2(MX)             
         3     1.30154300E+03   # M_3(MX)             
        11     5.00000000E+03   # At(MX)              
        12     5.00000000E+03   # Ab(MX)              
        13     0.00000000E+00   # Atau(MX)            
        23    -1.15384100E+03   # mu(MX)              
        26     3.00000000E+03   # mA(pole)            
        31     5.00000000E+03   # meL(MX)             
        32     5.00000000E+03   # mmuL(MX)            
        33     5.00000000E+03   # mtauL(MX)           
        34     5.00000000E+03   # meR(MX)             
        35     5.00000000E+03   # mmuR(MX)            
        36     5.00000000E+03   # mtauR(MX)           
        41     5.00000000E+03   # mqL1(MX)            
        42     5.00000000E+03   # mqL2(MX)            
        43     5.00000000E+03   # mqL3(MX)            
        44     5.00000000E+03   # muR(MX)             
        45     5.00000000E+03   # mcR(MX)             
        46     5.00000000E+03   # mtR(MX)             
        47     5.00000000E+03   # mdR(MX)             
        48     5.00000000E+03   # msR(MX)             
        49     5.00000000E+03   # mbR(MX)             
#
BLOCK MASS  # Mass Spectrum
# PDG code           mass       particle
        24     8.00949941E+01   # W+
        25     1.24660235E+02   # h
        35     3.00007996E+03   # H
        36     2.99999986E+03   # A
        37     3.00086455E+03   # H+
         5     4.87878001E+00   # b-quark pole mass calculated from mb(mb)_Msbar
   1000001     5.06751548E+03   # ~d_L
   2000001     5.04970746E+03   # ~d_R
   1000002     5.06704023E+03   # ~u_L
   2000002     5.04942612E+03   # ~u_R
   1000003     5.06751548E+03   # ~s_L
   2000003     5.04970746E+03   # ~s_R
   1000004     5.06704023E+03   # ~c_L
   2000004     5.04942612E+03   # ~c_R
   1000005     5.01346622E+03   # ~b_1
   2000005     5.04837527E+03   # ~b_2
   1000006     4.90417891E+03   # ~t_1
   2000006     5.05932190E+03   # ~t_2
   1000011     5.01906235E+03   # ~e_L
   2000011     5.00591822E+03   # ~e_R
   1000012     5.01811386E+03   # ~nu_eL
   1000013     5.01906235E+03   # ~mu_L
   2000013     5.00591822E+03   # ~mu_R
   1000014     5.01811386E+03   # ~nu_muL
   1000015     5.00452465E+03   # ~tau_1
   2000015     5.01885039E+03   # ~tau_2
   1000016     5.01757028E+03   # ~nu_tauL
   1000021     1.60000089E+03   # ~g
   1000022     6.03022104E+01   # ~chi_10
   1000023     1.19954107E+03   # ~chi_20
   1000025    -1.20184443E+03   # ~chi_30
   1000035     3.07429272E+03   # ~chi_40
   1000024     1.20000024E+03   # ~chi_1+
   1000037     3.07446018E+03   # ~chi_2+
#
BLOCK NMIX  # Neutralino Mixing Matrix
  1  1     9.99308760E-01   # N_11
  1  2     1.64203365E-04   # N_12
  1  3    -3.71203631E-02   # N_13
  1  4     2.01359380E-03   # N_14
  2  1     2.48285498E-02   # N_21
  2  2     2.59768129E-02   # N_22
  2  3     7.06840487E-01   # N_23
  2  4     7.06459676E-01   # N_24
  3  1    -2.76653718E-02   # N_31
  3  2     1.42078692E-02   # N_32
  3  3    -7.06349295E-01   # N_33
  3  4     7.07179918E-01   # N_34
  4  1    -4.16172936E-04   # N_41
  4  2     9.99561561E-01   # N_42
  4  3    -8.32329871E-03   # N_43
  4  4    -2.84118781E-02   # N_44
#
BLOCK UMIX  # Chargino Mixing Matrix U
  1  1     1.17857815E-02   # U_11
  1  2     9.99930545E-01   # U_12
  2  1    -9.99930545E-01   # U_21
  2  2     1.17857815E-02   # U_22
#
BLOCK VMIX  # Chargino Mixing Matrix V
  1  1     4.02091856E-02   # V_11
  1  2    -9.99191284E-01   # V_12
  2  1    -9.99191284E-01   # V_21
  2  2    -4.02091856E-02   # V_22
#
BLOCK STOPMIX  # Stop Mixing Matrix
  1  1    -5.09775319E-01   # cos(theta_t)
  1  2     8.60307575E-01   # sin(theta_t)
  2  1    -8.60307575E-01   # -sin(theta_t)
  2  2    -5.09775319E-01   # cos(theta_t)
#
BLOCK SBOTMIX  # Sbottom Mixing Matrix
  1  1     9.96154490E-01   # cos(theta_b)
  1  2    -8.76141088E-02   # sin(theta_b)
  2  1     8.76141088E-02   # -sin(theta_b)
  2  2     9.96154490E-01   # cos(theta_b)
#
BLOCK STAUMIX  # Stau Mixing Matrix
  1  1    -1.36026595E-01   # cos(theta_tau)
  1  2     9.90705186E-01   # sin(theta_tau)
  2  1    -9.90705186E-01   # -sin(theta_tau)
  2  2    -1.36026595E-01   # cos(theta_tau)
#
BLOCK ALPHA  # Higgs mixing
          -1.05457120E-01   # Mixing angle in the neutral Higgs boson sector
#
BLOCK HMIX Q=  5.00072812E+03  # DRbar Higgs Parameters
         1    -1.17481705E+03   # mu(Q)MSSM           
         2     9.47118210E+00   # tan                 
         3     2.41910984E+02   # higgs               
         4     8.46162000E+06   # mA^2(Q)MSSM         
#
BLOCK GAUGE Q=  5.00072812E+03  # The gauge couplings
     1     3.70762586E-01   # gprime(Q) DRbar
     2     6.32367750E-01   # g(Q) DRbar
     3     1.00176461E+00   # g3(Q) DRbar
#
BLOCK AU Q=  5.00072812E+03  # The trilinear couplings
  1  1     5.00000001E+03   # A_u(Q) DRbar
  2  2     5.00000001E+03   # A_c(Q) DRbar
  3  3     5.00000001E+03   # A_t(Q) DRbar
#
BLOCK AD Q=  5.00072812E+03  # The trilinear couplings
  1  1     5.00000000E+03   # A_d(Q) DRbar
  2  2     5.00000000E+03   # A_s(Q) DRbar
  3  3     5.00000001E+03   # A_b(Q) DRbar
#
BLOCK AE Q=  5.00072812E+03  # The trilinear couplings
  1  1     0.00000000E+00   # A_e(Q) DRbar
  2  2     1.13331843E-07   # A_mu(Q) DRbar
  3  3     1.12730969E-07   # A_tau(Q) DRbar
#
BLOCK Yu Q=  5.00072812E+03  # The Yukawa couplings
  1  1     0.00000000E+00   # y_u(Q) DRbar
  2  2     0.00000000E+00   # y_c(Q) DRbar
  3  3     8.18159458E-01   # y_t(Q) DRbar
#
BLOCK Yd Q=  5.00072812E+03  # The Yukawa couplings
  1  1     0.00000000E+00   # y_d(Q) DRbar
  2  2     0.00000000E+00   # y_s(Q) DRbar
  3  3     1.30445627E-01   # y_b(Q) DRbar
#
BLOCK Ye Q=  5.00072812E+03  # The Yukawa couplings
  1  1     0.00000000E+00   # y_e(Q) DRbar
  2  2     0.00000000E+00   # y_mu(Q) DRbar
  3  3     9.67639262E-02   # y_tau(Q) DRbar
#
BLOCK MSOFT Q=  5.00072812E+03  # The soft SUSY breaking masses at the scale Q
         1     6.00000000E+01   # M_1(Q)              
         2     3.00000000E+03   # M_2(Q)              
         3     1.30154300E+03   # M_3(Q)              
        21     7.30471219E+06   # mH1^2(Q)            
        22    -8.23432091E+05   # mH2^2(Q)            
        31     5.00000000E+03   # meL(Q)              
        32     5.00000000E+03   # mmuL(Q)             
        33     5.00000000E+03   # mtauL(Q)            
        34     5.00000000E+03   # meR(Q)              
        35     5.00000000E+03   # mmuR(Q)             
        36     5.00000000E+03   # mtauR(Q)            
        41     5.00000000E+03   # mqL1(Q)             
        42     5.00000000E+03   # mqL2(Q)             
        43     5.00000000E+03   # mqL3(Q)             
        44     5.00000000E+03   # muR(Q)              
        45     5.00000000E+03   # mcR(Q)              
        46     4.99999999E+03   # mtR(Q)              
        47     5.00000000E+03   # mdR(Q)              
        48     5.00000000E+03   # msR(Q)              
        49     5.00000000E+03   # mbR(Q)              
#
#
#
#                             =================
#                             |The decay table|
#                             =================
#
# - The QCD corrections to the decays gluino -> squark  + quark
#                                     squark -> gaugino + quark_prime
#                                     squark -> squark_prime + Higgs
#                                     squark -> gluino  + quark
#   are included.
#
# - The multi-body decays for the inos, stops and sbottoms are included.
#
# - The loop induced decays for the gluino, neutralinos and stops
#   are included.
#
# - The SUSY decays of the top quark are included.
#
#
#         PDG            Width
DECAY         6     1.40134689E+00   # top decays
#          BR         NDA      ID1       ID2
     1.00000000E+00    2           5        24   # BR(t ->  b    W+)
#
#         PDG            Width
DECAY   1000021     9.90072227E-05   # gluino decays
#          BR         NDA      ID1       ID2
     1.04837548E-05    2     1000022        21   # BR(~g -> ~chi_10 g)
     6.91247960E-03    2     1000023        21   # BR(~g -> ~chi_20 g)
     6.77500924E-03    2     1000025        21   # BR(~g -> ~chi_30 g)
#           BR         NDA      ID1       ID2       ID3
     7.50822545E-02    3     1000022         1        -1   # BR(~g -> ~chi_10 d  db)
     2.67625984E-06    3     1000023         1        -1   # BR(~g -> ~chi_20 d  db)
     8.28703819E-07    3     1000025         1        -1   # BR(~g -> ~chi_30 d  db)
     2.55978036E-01    3     1000022         2        -2   # BR(~g -> ~chi_10 u  ub)
     6.58576245E-06    3     1000023         2        -2   # BR(~g -> ~chi_20 u  ub)
     9.09480542E-07    3     1000025         2        -2   # BR(~g -> ~chi_30 u  ub)
     7.50822545E-02    3     1000022         3        -3   # BR(~g -> ~chi_10 s  sb)
     2.67625984E-06    3     1000023         3        -3   # BR(~g -> ~chi_20 s  sb)
     8.28703819E-07    3     1000025         3        -3   # BR(~g -> ~chi_30 s  sb)
     2.55978036E-01    3     1000022         4        -4   # BR(~g -> ~chi_10 c  cb)
     6.58576245E-06    3     1000023         4        -4   # BR(~g -> ~chi_20 c  cb)
     9.09480542E-07    3     1000025         4        -4   # BR(~g -> ~chi_30 c  cb)
     7.60704271E-02    3     1000022         5        -5   # BR(~g -> ~chi_10 b  bb)
     4.39900857E-04    3     1000023         5        -5   # BR(~g -> ~chi_20 b  bb)
     4.23215154E-04    3     1000025         5        -5   # BR(~g -> ~chi_30 b  bb)
     2.30763913E-01    3     1000022         6        -6   # BR(~g -> ~chi_10 t  tb)
     1.43825289E-03    3     1000023         6        -6   # BR(~g -> ~chi_20 t  tb)
     4.32491939E-04    3     1000025         6        -6   # BR(~g -> ~chi_30 t  tb)
     7.32329984E-06    3     1000024         1        -2   # BR(~g -> ~chi_1+ d  ub)
     7.32329984E-06    3    -1000024         2        -1   # BR(~g -> ~chi_1- u  db)
     7.32329984E-06    3     1000024         3        -4   # BR(~g -> ~chi_1+ s  cb)
     7.32329984E-06    3    -1000024         4        -3   # BR(~g -> ~chi_1- c  sb)
     7.28097570E-03    3     1000024         5        -6   # BR(~g -> ~chi_1+ b  tb)
     7.28097570E-03    3    -1000024         6        -5   # BR(~g -> ~chi_1- t  bb)
#
#         PDG            Width
DECAY   1000006     3.70774209E+02   # stop1 decays
#          BR         NDA      ID1       ID2
     2.37699110E-02    2     1000022         6   # BR(~t_1 -> ~chi_10 t )
     7.87332911E-02    2     1000023         6   # BR(~t_1 -> ~chi_20 t )
     7.56895836E-02    2     1000025         6   # BR(~t_1 -> ~chi_30 t )
     5.71444369E-03    2     1000035         6   # BR(~t_1 -> ~chi_40 t )
     1.13812206E-01    2     1000024         5   # BR(~t_1 -> ~chi_1+ b )
     1.13791773E-02    2     1000037         5   # BR(~t_1 -> ~chi_2+ b )
     6.90901387E-01    2     1000021         6   # BR(~t_1 -> ~g      t )
#
#         PDG            Width
DECAY   2000006     3.77019356E+02   # stop2 decays
#          BR         NDA      ID1       ID2
     9.39388137E-03    2     1000022         6   # BR(~t_2 -> ~chi_10 t )
     7.96216851E-02    2     1000023         6   # BR(~t_2 -> ~chi_20 t )
     8.28818791E-02    2     1000025         6   # BR(~t_2 -> ~chi_30 t )
     1.45512857E-02    2     1000035         6   # BR(~t_2 -> ~chi_40 t )
     4.81824675E-02    2     1000024         5   # BR(~t_2 -> ~chi_1+ b )
     2.89335780E-02    2     1000037         5   # BR(~t_2 -> ~chi_2+ b )
     7.33002278E-01    2     1000021         6   # BR(~t_2 -> ~g      t )
     7.68482338E-04    2     1000006        25   # BR(~t_2 -> ~t_1    h )
     2.66446288E-03    2     1000006        23   # BR(~t_2 -> ~t_1    Z )
#
#         PDG            Width
DECAY   1000005     3.53718490E+02   # sbottom1 decays
#          BR         NDA      ID1       ID2
     2.19543387E-03    2     1000022         5   # BR(~b_1 -> ~chi_10 b )
     2.19038128E-03    2     1000023         5   # BR(~b_1 -> ~chi_20 b )
     2.11001367E-03    2     1000025         5   # BR(~b_1 -> ~chi_30 b )
     2.11929673E-02    2     1000035         5   # BR(~b_1 -> ~chi_40 b )
     1.67424309E-01    2    -1000024         6   # BR(~b_1 -> ~chi_1- t )
     4.26057210E-02    2    -1000037         6   # BR(~b_1 -> ~chi_2- t )
     7.60683174E-01    2     1000021         5   # BR(~b_1 -> ~g      b )
     1.59799999E-03    2     1000006       -24   # BR(~b_1 -> ~t_1    W-)
#
#         PDG            Width
DECAY   2000005     2.78190805E+02   # sbottom2 decays
#          BR         NDA      ID1       ID2
     1.05537360E-02    2     1000022         5   # BR(~b_2 -> ~chi_10 b )
     2.73616894E-03    2     1000023         5   # BR(~b_2 -> ~chi_20 b )
     2.82659932E-03    2     1000025         5   # BR(~b_2 -> ~chi_30 b )
     2.16734600E-04    2     1000035         5   # BR(~b_2 -> ~chi_40 b )
     7.09599786E-03    2    -1000024         6   # BR(~b_2 -> ~chi_1- t )
     4.35612313E-04    2    -1000037         6   # BR(~b_2 -> ~chi_2- t )
     9.76069919E-01    2     1000021         5   # BR(~b_2 -> ~g      b )
     6.52320440E-05    2     1000006       -24   # BR(~b_2 -> ~t_1    W-)
#
#         PDG            Width
DECAY   1000002     2.97169947E+02   # sup_L decays
#          BR         NDA      ID1       ID2
     2.51342025E-03    2     1000022         2   # BR(~u_L -> ~chi_10 u)
     5.57842707E-05    2     1000023         2   # BR(~u_L -> ~chi_20 u)
     4.54421049E-06    2     1000025         2   # BR(~u_L -> ~chi_30 u)
     2.63381202E-02    2     1000035         2   # BR(~u_L -> ~chi_40 u)
     1.89770234E-04    2     1000024         1   # BR(~u_L -> ~chi_1+ d)
     5.26391474E-02    2     1000037         1   # BR(~u_L -> ~chi_2+ d)
     9.18259213E-01    2     1000021         2   # BR(~u_L -> ~g      u)
#
#         PDG            Width
DECAY   2000002     2.83413072E+02   # sup_R decays
#          BR         NDA      ID1       ID2
     4.19484923E-02    2     1000022         2   # BR(~u_R -> ~chi_10 u)
     2.30847872E-05    2     1000023         2   # BR(~u_R -> ~chi_20 u)
     2.86481589E-05    2     1000025         2   # BR(~u_R -> ~chi_30 u)
     2.89245290E-09    2     1000035         2   # BR(~u_R -> ~chi_40 u)
     9.57999772E-01    2     1000021         2   # BR(~u_R -> ~g      u)
#
#         PDG            Width
DECAY   1000001     2.97182467E+02   # sdown_L decays
#          BR         NDA      ID1       ID2
     2.50511278E-03    2     1000022         1   # BR(~d_L -> ~chi_10 d)
     2.61932074E-05    2     1000023         1   # BR(~d_L -> ~chi_20 d)
     2.25727192E-05    2     1000025         1   # BR(~d_L -> ~chi_30 d)
     2.63537757E-02    2     1000035         1   # BR(~d_L -> ~chi_40 d)
     1.63052169E-05    2    -1000024         2   # BR(~d_L -> ~chi_1- u)
     5.27312385E-02    2    -1000037         2   # BR(~d_L -> ~chi_2- u)
     9.18344802E-01    2     1000021         1   # BR(~d_L -> ~g      d)
#
#         PDG            Width
DECAY   2000001     2.74507560E+02   # sdown_R decays
#          BR         NDA      ID1       ID2
     1.08279518E-02    2     1000022         1   # BR(~d_R -> ~chi_10 d)
     5.95883734E-06    2     1000023         1   # BR(~d_R -> ~chi_20 d)
     7.39490154E-06    2     1000025         1   # BR(~d_R -> ~chi_30 d)
     7.46711256E-10    2     1000035         1   # BR(~d_R -> ~chi_40 d)
     9.89158694E-01    2     1000021         1   # BR(~d_R -> ~g      d)
#
#         PDG            Width
DECAY   1000004     2.97169947E+02   # scharm_L decays
#          BR         NDA      ID1       ID2
     2.51342025E-03    2     1000022         4   # BR(~c_L -> ~chi_10 c)
     5.57842707E-05    2     1000023         4   # BR(~c_L -> ~chi_20 c)
     4.54421049E-06    2     1000025         4   # BR(~c_L -> ~chi_30 c)
     2.63381202E-02    2     1000035         4   # BR(~c_L -> ~chi_40 c)
     1.89770234E-04    2     1000024         3   # BR(~c_L -> ~chi_1+ s)
     5.26391474E-02    2     1000037         3   # BR(~c_L -> ~chi_2+ s)
     9.18259213E-01    2     1000021         4   # BR(~c_L -> ~g      c)
#
#         PDG            Width
DECAY   2000004     2.83413072E+02   # scharm_R decays
#          BR         NDA      ID1       ID2
     4.19484923E-02    2     1000022         4   # BR(~c_R -> ~chi_10 c)
     2.30847872E-05    2     1000023         4   # BR(~c_R -> ~chi_20 c)
     2.86481589E-05    2     1000025         4   # BR(~c_R -> ~chi_30 c)
     2.89245290E-09    2     1000035         4   # BR(~c_R -> ~chi_40 c)
     9.57999772E-01    2     1000021         4   # BR(~c_R -> ~g      c)
#
#         PDG            Width
DECAY   1000003     2.97182467E+02   # sstrange_L decays
#          BR         NDA      ID1       ID2
     2.50511278E-03    2     1000022         3   # BR(~s_L -> ~chi_10 s)
     2.61932074E-05    2     1000023         3   # BR(~s_L -> ~chi_20 s)
     2.25727192E-05    2     1000025         3   # BR(~s_L -> ~chi_30 s)
     2.63537757E-02    2     1000035         3   # BR(~s_L -> ~chi_40 s)
     1.63052169E-05    2    -1000024         4   # BR(~s_L -> ~chi_1- c)
     5.27312385E-02    2    -1000037         4   # BR(~s_L -> ~chi_2- c)
     9.18344802E-01    2     1000021         3   # BR(~s_L -> ~g      s)
#
#         PDG            Width
DECAY   2000003     2.74507560E+02   # sstrange_R decays
#          BR         NDA      ID1       ID2
     1.08279518E-02    2     1000022         3   # BR(~s_R -> ~chi_10 s)
     5.95883734E-06    2     1000023         3   # BR(~s_R -> ~chi_20 s)
     7.39490154E-06    2     1000025         3   # BR(~s_R -> ~chi_30 s)
     7.46711256E-10    2     1000035         3   # BR(~s_R -> ~chi_40 s)
     9.89158694E-01    2     1000021         3   # BR(~s_R -> ~g      s)
#
#         PDG            Width
DECAY   1000011     3.02569763E+01   # selectron_L decays
#          BR         NDA      ID1       ID2
     2.26572090E-01    2     1000022        11   # BR(~e_L -> ~chi_10 e-)
     9.63804283E-04    2     1000023        11   # BR(~e_L -> ~chi_20 e-)
     2.37493118E-06    2     1000025        11   # BR(~e_L -> ~chi_30 e-)
     2.57244932E-01    2     1000035        11   # BR(~e_L -> ~chi_40 e-)
     1.62950742E-04    2    -1000024        12   # BR(~e_L -> ~chi_1- nu_e)
     5.15053848E-01    2    -1000037        12   # BR(~e_L -> ~chi_2- nu_e)
#
#         PDG            Width
DECAY   2000011     2.73679755E+01   # selectron_R decays
#          BR         NDA      ID1       ID2
     9.98772009E-01    2     1000022        11   # BR(~e_R -> ~chi_10 e-)
     5.47939018E-04    2     1000023        11   # BR(~e_R -> ~chi_20 e-)
     6.79984663E-04    2     1000025        11   # BR(~e_R -> ~chi_30 e-)
     6.72197586E-08    2     1000035        11   # BR(~e_R -> ~chi_40 e-)
#
#         PDG            Width
DECAY   1000013     3.02569763E+01   # smuon_L decays
#          BR         NDA      ID1       ID2
     2.26572090E-01    2     1000022        13   # BR(~mu_L -> ~chi_10 mu-)
     9.63804283E-04    2     1000023        13   # BR(~mu_L -> ~chi_20 mu-)
     2.37493118E-06    2     1000025        13   # BR(~mu_L -> ~chi_30 mu-)
     2.57244932E-01    2     1000035        13   # BR(~mu_L -> ~chi_40 mu-)
     1.62950742E-04    2    -1000024        14   # BR(~mu_L -> ~chi_1- nu_mu)
     5.15053848E-01    2    -1000037        14   # BR(~mu_L -> ~chi_2- nu_mu)
#
#         PDG            Width
DECAY   2000013     2.73679755E+01   # smuon_R decays
#          BR         NDA      ID1       ID2
     9.98772009E-01    2     1000022        13   # BR(~mu_R -> ~chi_10 mu-)
     5.47939018E-04    2     1000023        13   # BR(~mu_R -> ~chi_20 mu-)
     6.79984663E-04    2     1000025        13   # BR(~mu_R -> ~chi_30 mu-)
     6.72197586E-08    2     1000035        13   # BR(~mu_R -> ~chi_40 mu-)
#
#         PDG            Width
DECAY   1000015     2.90674542E+01   # stau_1 decays
#          BR         NDA      ID1       ID2
     9.27982417E-01    2     1000022        15   # BR(~tau_1 -> ~chi_10  tau-)
     1.50460105E-02    2     1000023        15   # BR(~tau_1 -> ~chi_20  tau-)
     1.40749728E-02    2     1000025        15   # BR(~tau_1 -> ~chi_30  tau-)
     4.77790918E-03    2     1000035        15   # BR(~tau_1 -> ~chi_40  tau-)
     2.85526212E-02    2    -1000024        16   # BR(~tau_1 -> ~chi_1-  nu_tau)
     9.56606884E-03    2    -1000037        16   # BR(~tau_1 -> ~chi_2-  nu_tau)
#
#         PDG            Width
DECAY   2000015     3.10303936E+01   # stau_2 decays
#          BR         NDA      ID1       ID2
     2.32396111E-01    2     1000022        15   # BR(~tau_2 -> ~chi_10  tau-)
     1.40447982E-02    2     1000023        15   # BR(~tau_2 -> ~chi_20  tau-)
     1.40879984E-02    2     1000025        15   # BR(~tau_2 -> ~chi_30  tau-)
     2.46278547E-01    2     1000035        15   # BR(~tau_2 -> ~chi_40  tau-)
     9.54888049E-05    2    -1000024        16   # BR(~tau_2 -> ~chi_1-  nu_tau)
     4.93097057E-01    2    -1000037        16   # BR(~tau_2 -> ~chi_2-  nu_tau)
#
#         PDG            Width
DECAY   1000012     3.02595025E+01   # snu_eL decays
#          BR         NDA      ID1       ID2
     2.26256555E-01    2     1000022        12   # BR(~nu_eL -> ~chi_10 nu_e)
     7.64742421E-05    2     1000023        12   # BR(~nu_eL -> ~chi_20 nu_e)
     5.42706441E-04    2     1000025        12   # BR(~nu_eL -> ~chi_30 nu_e)
     2.57309221E-01    2     1000035        12   # BR(~nu_eL -> ~chi_40 nu_e)
     1.89605913E-03    2     1000024        11   # BR(~nu_eL -> ~chi_1+ e-)
     5.13918984E-01    2     1000037        11   # BR(~nu_eL -> ~chi_2+ e-)
#
#         PDG            Width
DECAY   1000014     3.02595025E+01   # snu_muL decays
#          BR         NDA      ID1       ID2
     2.26256555E-01    2     1000022        14   # BR(~nu_muL -> ~chi_10 nu_mu)
     7.64742421E-05    2     1000023        14   # BR(~nu_muL -> ~chi_20 nu_mu)
     5.42706441E-04    2     1000025        14   # BR(~nu_muL -> ~chi_30 nu_mu)
     2.57309221E-01    2     1000035        14   # BR(~nu_muL -> ~chi_40 nu_mu)
     1.89605913E-03    2     1000024        13   # BR(~nu_muL -> ~chi_1+ mu-)
     5.13918984E-01    2     1000037        13   # BR(~nu_muL -> ~chi_2+ mu-)
#
#         PDG            Width
DECAY   1000016     3.10809023E+01   # snu_tauL decays
#          BR         NDA      ID1       ID2
     2.20253217E-01    2     1000022        16   # BR(~nu_tauL -> ~chi_10 nu_tau)
     7.44431761E-05    2     1000023        16   # BR(~nu_tauL -> ~chi_20 nu_tau)
     5.28292739E-04    2     1000025        16   # BR(~nu_tauL -> ~chi_30 nu_tau)
     2.50416753E-01    2     1000035        16   # BR(~nu_tauL -> ~chi_40 nu_tau)
     2.85744803E-02    2     1000024        15   # BR(~nu_tauL -> ~chi_1+ tau-)
     5.00152814E-01    2     1000037        15   # BR(~nu_tauL -> ~chi_2+ tau-)
#
#         PDG            Width
DECAY   1000024     7.34635903E-01   # chargino1+ decays
#          BR         NDA      ID1       ID2
     1.00000000E+00    2     1000022        24   # BR(~chi_1+ -> ~chi_10  W+)
#
#         PDG            Width
DECAY   1000037     1.96770665E+01   # chargino2+ decays
#          BR         NDA      ID1       ID2
     2.53019781E-01    2     1000024        23   # BR(~chi_2+ -> ~chi_1+  Z )
     2.15544538E-04    2     1000022        24   # BR(~chi_2+ -> ~chi_10  W+)
     2.44007904E-01    2     1000023        24   # BR(~chi_2+ -> ~chi_20  W+)
     2.43970812E-01    2     1000025        24   # BR(~chi_2+ -> ~chi_30  W+)
     2.58785212E-01    2     1000024        25   # BR(~chi_2+ -> ~chi_1+  h )
     7.45770018E-07    2     1000022        37   # BR(~chi_2+ -> ~chi_10  H+)
#
#         PDG            Width
DECAY   1000022     0.00000000E+00   # neutralino1 decays
#
#         PDG            Width
DECAY   1000023     7.69834633E-01   # neutralino2 decays
#          BR         NDA      ID1       ID2
     5.48085628E-01    2     1000022        23   # BR(~chi_20 -> ~chi_10   Z )
     4.51914372E-01    2     1000022        25   # BR(~chi_20 -> ~chi_10   h )
#
#         PDG            Width
DECAY   1000025     7.75648789E-01   # neutralino3 decays
#          BR         NDA      ID1       ID2
     4.38147549E-01    2     1000022        23   # BR(~chi_30 -> ~chi_10   Z )
     5.61852451E-01    2     1000022        25   # BR(~chi_30 -> ~chi_10   h )
#
#         PDG            Width
DECAY   1000035     1.96886862E+01   # neutralino4 decays
#          BR         NDA      ID1       ID2
     6.35323768E-05    2     1000022        23   # BR(~chi_40 -> ~chi_10   Z )
     5.83457202E-02    2     1000023        23   # BR(~chi_40 -> ~chi_20   Z )
     1.93969336E-01    2     1000025        23   # BR(~chi_40 -> ~chi_30   Z )
     2.44621904E-01    2     1000024       -24   # BR(~chi_40 -> ~chi_1+   W-)
     2.44621904E-01    2    -1000024        24   # BR(~chi_40 -> ~chi_1-   W+)
     1.54920402E-04    2     1000022        25   # BR(~chi_40 -> ~chi_10   h )
     6.82728917E-07    2     1000022        35   # BR(~chi_40 -> ~chi_10   H )
     8.92266586E-08    2     1000022        36   # BR(~chi_40 -> ~chi_10   A )
     1.99773145E-01    2     1000023        25   # BR(~chi_40 -> ~chi_20   h )
     5.84487648E-02    2     1000025        25   # BR(~chi_40 -> ~chi_30   h )
#
#         PDG            Width
DECAY        25     4.04537942E-03   # h decays
#          BR         NDA      ID1       ID2
     6.10210301E-01    2           5        -5   # BR(h -> b       bb     )
     6.40548749E-02    2         -15        15   # BR(h -> tau+    tau-   )
     2.26778047E-04    2         -13        13   # BR(h -> mu+     mu-    )
     4.80841298E-04    2           3        -3   # BR(h -> s       sb     )
     2.08365448E-02    2           4        -4   # BR(h -> c       cb     )
     6.72703389E-02    2          21        21   # BR(h -> g       g      )
     2.31037023E-03    2          22        22   # BR(h -> gam     gam    )
     1.48011328E-03    2          22        23   # BR(h -> Z       gam    )
     2.08311381E-01    2          24       -24   # BR(h -> W+      W-     )
     2.47750981E-02    2          23        23   # BR(h -> Z       Z      )
     4.33580983E-05    2     1000022   1000022   # BR(h -> ~chi_10 ~chi_10)
#
#         PDG            Width
DECAY        35     7.79095966E+00   # H decays
#          BR         NDA      ID1       ID2
     4.16075961E-01    2           5        -5   # BR(H -> b       bb     )
     7.15276486E-02    2         -15        15   # BR(H -> tau+    tau-   )
     2.52927447E-04    2         -13        13   # BR(H -> mu+     mu-    )
     3.10050337E-04    2           3        -3   # BR(H -> s       sb     )
     1.73327597E-06    2           4        -4   # BR(H -> c       cb     )
     1.73167994E-01    2           6        -6   # BR(H -> t       tb     )
     5.75107097E-05    2          21        21   # BR(H -> g       g      )
     3.33364649E-07    2          22        22   # BR(H -> gam     gam    )
     1.02225434E-07    2          23        22   # BR(H -> Z       gam    )
     7.85369661E-05    2          24       -24   # BR(H -> W+      W-     )
     3.92187781E-05    2          23        23   # BR(H -> Z       Z      )
     2.94446333E-04    2          25        25   # BR(H -> h       h      )
     1.52815251E-23    2          36        36   # BR(H -> A       A      )
     7.03078539E-19    2          23        36   # BR(H -> Z       A      )
     1.18968145E-03    2     1000024  -1000024   # BR(H -> ~chi_1+ ~chi_1-)
     1.28720584E-03    2     1000022   1000022   # BR(H -> ~chi_10 ~chi_10)
     6.58519289E-05    2     1000023   1000023   # BR(H -> ~chi_20 ~chi_20)
     2.34501932E-04    2     1000025   1000025   # BR(H -> ~chi_30 ~chi_30)
     2.00531182E-01    2     1000022   1000023   # BR(H -> ~chi_10 ~chi_20)
     1.34668952E-01    2     1000022   1000025   # BR(H -> ~chi_10 ~chi_30)
     2.16160286E-04    2     1000023   1000025   # BR(H -> ~chi_20 ~chi_30)
#
#         PDG            Width
DECAY        36     7.81126440E+00   # A decays
#          BR         NDA      ID1       ID2
     4.15134740E-01    2           5        -5   # BR(A -> b       bb     )
     7.13438871E-02    2         -15        15   # BR(A -> tau+    tau-   )
     2.52277299E-04    2         -13        13   # BR(A -> mu+     mu-    )
     3.09479267E-04    2           3        -3   # BR(A -> s       sb     )
     1.73591880E-06    2           4        -4   # BR(A -> c       cb     )
     1.73336347E-01    2           6        -6   # BR(A -> t       tb     )
     1.71552559E-04    2          21        21   # BR(A -> g       g      )
     5.27403867E-07    2          22        22   # BR(A -> gam     gam    )
     2.07748388E-07    2          23        22   # BR(A -> Z       gam    )
     7.80376283E-05    2          23        25   # BR(A -> Z       h      )
     2.91168303E-03    2     1000024  -1000024   # BR(A -> ~chi_1+ ~chi_1-)
     1.31581493E-03    2     1000022   1000022   # BR(A -> ~chi_10 ~chi_10)
     1.19202109E-04    2     1000023   1000023   # BR(A -> ~chi_20 ~chi_20)
     9.99139553E-04    2     1000025   1000025   # BR(A -> ~chi_30 ~chi_30)
     1.36052503E-01    2     1000022   1000023   # BR(A -> ~chi_10 ~chi_20)
     1.97946415E-01    2     1000022   1000025   # BR(A -> ~chi_10 ~chi_30)
     2.64514668E-05    2     1000023   1000025   # BR(A -> ~chi_20 ~chi_30)
#
#         PDG            Width
DECAY        37     7.77161283E+00   # H+ decays
#          BR         NDA      ID1       ID2
     6.67961009E-04    2           4        -5   # BR(H+ -> c       bb     )
     7.17285594E-02    2         -15        16   # BR(H+ -> tau+    nu_tau )
     2.53637529E-04    2         -13        14   # BR(H+ -> mu+     nu_mu  )
     4.27492839E-06    2           2        -5   # BR(H+ -> u       bb     )
     1.48829274E-05    2           2        -3   # BR(H+ -> u       sb     )
     3.07778908E-04    2           4        -3   # BR(H+ -> c       sb     )
     5.88053401E-01    2           6        -5   # BR(H+ -> t       bb     )
     7.85539932E-05    2          24        25   # BR(H+ -> W+      h      )
     8.17509461E-14    2          24        36   # BR(H+ -> W+      A      )
     3.38324546E-01    2     1000024   1000022   # BR(H+ -> ~chi_1+ ~chi_10)
     5.05174078E-04    2     1000024   1000023   # BR(H+ -> ~chi_1+ ~chi_20)
     6.12303281E-05    2     1000024   1000025   # BR(H+ -> ~chi_1+ ~chi_30)
