#
#                              ======================
#                              | THE SUSYHIT OUTPUT |
#                              ======================
#
#
#              ------------------------------------------------------
#              |     This is the output of the SUSY-HIT package     |
#              |  created by A.Djouadi, M.Muehlleitner and M.Spira. |
#              |  In case of problems with SUSY-HIT email to        |
#              |           margarete.muehlleitner@kit.edu           |
#              |           michael.spira@psi.ch                     |
#              |           abdelhak.djouadi@cern.ch                 |
#              ------------------------------------------------------
#
#              ------------------------------------------------------
#              |  SUSY Les Houches Accord - MSSM Spectrum + Decays  |
#              |              based on the decay programs           |
#              |                                                    |
#              |                     SDECAY 1.5                     |
#              |                                                    |
#              |  Authors: M.Muhlleitner, A.Djouadi and Y.Mambrini  |
#              |  Ref.:    Comput.Phys.Commun.168(2005)46           |
#              |           [hep-ph/0311167]                         |
#              |                                                    |
#              |                     HDECAY 3.4                     |
#              |                                                    |
#              |  By: A.Djouadi,J.Kalinowski,M.Muhlleitner,M.Spira  |
#              |  Ref.:    Comput.Phys.Commun.108(1998)56           |
#              |           [hep-ph/9704448]                         |
#              |                                                    |
#              |                                                    |
#              |  If not stated otherwise all DRbar couplings and   |
#              |  soft SUSY breaking masses are given at the scale  |
#              |  Q=  0.91187600E+02
#              |                                                    |
#              ------------------------------------------------------
#
#
BLOCK DCINFO  # Decay Program information
     1   SDECAY/HDECAY # decay calculator
     2   1.5  /3.4    # version number
#
BLOCK SPINFO  # Spectrum calculator information
     1   SuSpect     # RGE +Spectrum calculator            
     2   2.43         # version number                     
#
BLOCK MODSEL  # Model selection
     1     2   # GMSB                                              
#
BLOCK SMINPUTS  # Standard Model inputs
         1     1.27932904E+02   # alpha_em^-1(M_Z)^MSbar
         2     1.16639000E-05   # G_F [GeV^-2]
         3     1.17200000E-01   # alpha_S(M_Z)^MSbar
         4     9.11870000E+01   # M_Z pole mass
         5     4.25000000E+00   # mb(mb)^MSbar
         6     1.72900000E+02   # mt pole mass
         7     1.77700000E+00   # mtau pole mass
#
BLOCK MINPAR  # Input parameters - minimal models
#
BLOCK EXTPAR  # Input parameters - non-minimal models
         0     9.11876000E+01   # EWSB                
         1     4.63000000E+02   # M_1                 
         2     3.00000000E+03   # M_2                 
         3     2.10000000E+03   # M_3                 
        11     0.00000000E+00   # A_t                 
        12     0.00000000E+00   # A_b                 
        13     0.00000000E+00   # A_tau               
        14     0.00000000E+00   # A_u                 
        15     0.00000000E+00   # A_d                 
        16     0.00000000E+00   # A_e                 
        23     4.50000000E+02   # mu(EWSB)            
        25     1.50000000E+00   # tanbeta(in)         
        26     2.00000000E+03   # MA_pole             
        31     5.00000000E+03   # M_eL                
        32     5.00000000E+03   # M_muL               
        33     5.00000000E+03   # M_tauL              
        34     5.00000000E+03   # M_eR                
        35     5.00000000E+03   # M_muR               
        36     5.00000000E+03   # M_tauR              
        41     5.00000000E+03   # M_q1L               
        42     5.00000000E+03   # M_q2L               
        43     5.00000000E+03   # M_q3L               
        44     5.00000000E+03   # M_uR                
        45     5.00000000E+03   # M_cR                
        46     5.00000000E+03   # M_tR                
        47     5.00000000E+03   # M_dR                
        48     5.00000000E+03   # M_sR                
        49     5.00000000E+03   # M_bR                
#
BLOCK MASS  # Mass Spectrum
# PDG code           mass       particle
        24     8.05385970E+01   # W+
        25     1.26000000E+02   # h
        35     2.00422633E+03   # H
        36     2.00000000E+03   # A
        37     2.00201676E+03   # H+
         5     4.87877839E+00   # b-quark pole mass calculated from mb(mb)_Msbar
   1000001     4.93206254E+03   # ~d_L
   2000001     4.93195205E+03   # ~d_R
   1000002     4.93181557E+03   # ~u_L
   2000002     4.93187411E+03   # ~u_R
   1000003     4.93206254E+03   # ~s_L
   2000003     4.93195205E+03   # ~s_R
   1000004     4.93181557E+03   # ~c_L
   2000004     4.93187411E+03   # ~c_R
   1000005     4.93181388E+03   # ~b_1
   2000005     4.93220218E+03   # ~b_2
   1000006     5.06304259E+03   # ~t_1
   2000006     5.36486066E+03   # ~t_2
   1000011     5.00008242E+03   # ~e_L
   2000011     5.00007601E+03   # ~e_R
   1000012     4.99984157E+03   # ~nu_eL
   1000013     5.00008242E+03   # ~mu_L
   2000013     5.00007601E+03   # ~mu_R
   1000014     4.99984157E+03   # ~nu_muL
   1000015     4.99995950E+03   # ~tau_1
   2000015     5.00019955E+03   # ~tau_2
   1000016     4.99984157E+03   # ~nu_tauL
   1000021     2.15116016E+03   # ~g
   1000022     4.42371887E+02   # ~chi_10
   1000023    -4.84206337E+02   # ~chi_20
   1000025     5.29942106E+02   # ~chi_30
   1000035     3.12901622E+03   # ~chi_40
   1000024     4.81851280E+02   # ~chi_1+
   1000037     3.12901566E+03   # ~chi_2+
   1000039     1.00000000E-09   # ~gravitino
#
BLOCK NMIX  # Neutralino Mixing Matrix
  1  1     6.70845603E-01   # N_11
  1  2    -2.13893091E-02   # N_12
  1  3     5.28866224E-01   # N_13
  1  4    -5.19431605E-01   # N_14
  2  1     8.97795116E-03   # N_21
  2  2    -4.31381296E-03   # N_22
  2  3    -7.06541253E-01   # N_23
  2  4    -7.07601756E-01   # N_24
  3  1     7.41542531E-01   # N_31
  3  2     2.00746696E-02   # N_32
  3  3    -4.69879261E-01   # N_33
  3  4     4.78461244E-01   # N_34
  4  1     4.98787438E-04   # N_41
  4  2    -9.99560351E-01   # N_42
  4  3    -1.77046510E-02   # N_43
  4  4     2.37781502E-02   # N_44
#
BLOCK UMIX  # Chargino Mixing Matrix U
  1  1    -2.50291871E-02   # U_11
  1  2     9.99686721E-01   # U_12
  2  1     9.99686721E-01   # U_21
  2  2     2.50291871E-02   # U_22
#
BLOCK VMIX  # Chargino Mixing Matrix V
  1  1    -3.36214229E-02   # V_11
  1  2     9.99434640E-01   # V_12
  2  1     9.99434640E-01   # V_21
  2  2     3.36214229E-02   # V_22
#
BLOCK STOPMIX  # Stop Mixing Matrix
  1  1     9.99811486E-01   # cos(theta_t)
  1  2    -1.94162937E-02   # sin(theta_t)
  2  1     1.94162937E-02   # -sin(theta_t)
  2  2     9.99811486E-01   # cos(theta_t)
#
BLOCK SBOTMIX  # Sbottom Mixing Matrix
  1  1     5.98098835E-01   # cos(theta_b)
  1  2     8.01422350E-01   # sin(theta_b)
  2  1    -8.01422350E-01   # -sin(theta_b)
  2  2     5.98098835E-01   # cos(theta_b)
#
BLOCK STAUMIX  # Stau Mixing Matrix
  1  1     6.97596918E-01   # cos(theta_tau)
  1  2     7.16490433E-01   # sin(theta_tau)
  2  1    -7.16490433E-01   # -sin(theta_tau)
  2  2     6.97596918E-01   # cos(theta_tau)
#
BLOCK ALPHA  # Higgs mixing
          -5.90209678E-01   # Mixing angle in the neutral Higgs boson sector
#
BLOCK HMIX Q=  9.11876000E+01  # DRbar Higgs Parameters
         1     4.50000000E+02   # mu(Q)               
         2     1.49999979E+00   # tanbeta(Q)          
         3     2.51893102E+02   # vev(Q)              
         4     3.75372492E+06   # MA^2(Q)             
#
BLOCK GAUGE Q=  9.11876000E+01  # The gauge couplings
     1     3.52960574E-01   # gprime(Q) DRbar
     2     6.28305731E-01   # g(Q) DRbar
     3     1.07966735E+00   # g3(Q) DRbar
#
BLOCK AU Q=  9.11876000E+01  # The trilinear couplings
  1  1     0.00000000E+00   # A_u(Q) DRbar
  2  2     0.00000000E+00   # A_c(Q) DRbar
  3  3     0.00000000E+00   # A_t(Q) DRbar
#
BLOCK AD Q=  9.11876000E+01  # The trilinear couplings
  1  1     0.00000000E+00   # A_d(Q) DRbar
  2  2     0.00000000E+00   # A_s(Q) DRbar
  3  3     0.00000000E+00   # A_b(Q) DRbar
#
BLOCK AE Q=  9.11876000E+01  # The trilinear couplings
  1  1     0.00000000E+00   # A_e(Q) DRbar
  2  2     0.00000000E+00   # A_mu(Q) DRbar
  3  3     0.00000000E+00   # A_tau(Q) DRbar
#
BLOCK Yu Q=  9.11876000E+01  # The Yukawa couplings
  1  1     0.00000000E+00   # y_u(Q) DRbar
  2  2     0.00000000E+00   # y_c(Q) DRbar
  3  3     1.02677094E+00   # y_t(Q) DRbar
#
BLOCK Yd Q=  9.11876000E+01  # The Yukawa couplings
  1  1     0.00000000E+00   # y_d(Q) DRbar
  2  2     0.00000000E+00   # y_s(Q) DRbar
  3  3     2.72172474E-02   # y_b(Q) DRbar
#
BLOCK Ye Q=  9.11876000E+01  # The Yukawa couplings
  1  1     0.00000000E+00   # y_e(Q) DRbar
  2  2     0.00000000E+00   # y_mu(Q) DRbar
  3  3     1.79911641E-02   # y_tau(Q) DRbar
#
BLOCK MSOFT Q=  9.11876000E+01  # The soft SUSY breaking masses at the scale Q
         1     4.63000000E+02   # M_1                 
         2     3.00000000E+03   # M_2                 
         3     2.10000000E+03   # M_3                 
        14     0.00000000E+00   # A_u                 
        15     0.00000000E+00   # A_d                 
        16     0.00000000E+00   # A_e                 
        21     2.83416457E+06   # M^2_Hd              
        22    -5.58527035E+06   # M^2_Hu              
        31     5.00000000E+03   # M_eL                
        32     5.00000000E+03   # M_muL               
        33     5.00000000E+03   # M_tauL              
        34     5.00000000E+03   # M_eR                
        35     5.00000000E+03   # M_muR               
        36     5.00000000E+03   # M_tauR              
        41     5.00000000E+03   # M_q1L               
        42     5.00000000E+03   # M_q2L               
        43     5.00000000E+03   # M_q3L               
        44     5.00000000E+03   # M_uR                
        45     5.00000000E+03   # M_cR                
        46     5.00000000E+03   # M_tR                
        47     5.00000000E+03   # M_dR                
        48     5.00000000E+03   # M_sR                
        49     5.00000000E+03   # M_bR                
#
#
#
#                             =================
#                             |The decay table|
#                             =================
#
# - The QCD corrections to the decays gluino -> squark  + quark
#                                     squark -> gaugino + quark_prime
#                                     squark -> squark_prime + Higgs
#                                     squark -> gluino  + quark
#   are included.
#
# - The multi-body decays for the inos, stops and sbottoms are included.
#
# - The loop induced decays for the gluino, neutralinos and stops
#   are included.
#
# - The SUSY decays of the top quark are included.
#
# - Possible decays of the NLSP in GMSB models are included.
#
#
#         PDG            Width
DECAY         6     1.37553675E+00   # top decays
#          BR         NDA      ID1       ID2
     1.00000000E+00    2           5        24   # BR(t ->  b    W+)
#
#         PDG            Width
DECAY   1000021     4.20555764E-03   # gluino decays
#          BR         NDA      ID1       ID2
     4.20223246E-03    2     1000022        21   # BR(~g -> ~chi_10 g)
     7.42612918E-03    2     1000023        21   # BR(~g -> ~chi_20 g)
     3.14459808E-03    2     1000025        21   # BR(~g -> ~chi_30 g)
#          BR         NDA      ID1       ID2
0.0E+00    2     1000039    21 # BR(~g -> ~G      g)
#           BR         NDA      ID1       ID2       ID3
     4.25671235E-03    3     1000022         1        -1   # BR(~g -> ~chi_10 d  db)
     1.21737124E-06    3     1000023         1        -1   # BR(~g -> ~chi_20 d  db)
     4.15042799E-03    3     1000025         1        -1   # BR(~g -> ~chi_30 d  db)
     1.32310850E-02    3     1000022         2        -2   # BR(~g -> ~chi_10 u  ub)
     1.34401407E-06    3     1000023         2        -2   # BR(~g -> ~chi_20 u  ub)
     1.51847128E-02    3     1000025         2        -2   # BR(~g -> ~chi_30 u  ub)
     4.25671235E-03    3     1000022         3        -3   # BR(~g -> ~chi_10 s  sb)
     1.21737124E-06    3     1000023         3        -3   # BR(~g -> ~chi_20 s  sb)
     4.15042799E-03    3     1000025         3        -3   # BR(~g -> ~chi_30 s  sb)
     1.32310850E-02    3     1000022         4        -4   # BR(~g -> ~chi_10 c  cb)
     1.34401407E-06    3     1000023         4        -4   # BR(~g -> ~chi_20 c  cb)
     1.51847128E-02    3     1000025         4        -4   # BR(~g -> ~chi_30 c  cb)
     4.36197790E-03    3     1000022         5        -5   # BR(~g -> ~chi_10 b  bb)
     2.08869718E-04    3     1000023         5        -5   # BR(~g -> ~chi_20 b  bb)
     4.24990100E-03    3     1000025         5        -5   # BR(~g -> ~chi_30 b  bb)
     1.14388940E-01    3     1000022         6        -6   # BR(~g -> ~chi_10 t  tb)
     2.00530599E-01    3     1000023         6        -6   # BR(~g -> ~chi_20 t  tb)
     1.09833965E-01    3     1000025         6        -6   # BR(~g -> ~chi_30 t  tb)
     8.38570055E-05    3     1000024         1        -2   # BR(~g -> ~chi_1+ d  ub)
     8.38570055E-05    3    -1000024         2        -1   # BR(~g -> ~chi_1- u  db)
     8.38570055E-05    3     1000024         3        -4   # BR(~g -> ~chi_1+ s  cb)
     8.38570055E-05    3    -1000024         4        -3   # BR(~g -> ~chi_1- c  sb)
     2.32528014E-01    3     1000024         5        -6   # BR(~g -> ~chi_1+ b  tb)
     2.32528014E-01    3    -1000024         6        -5   # BR(~g -> ~chi_1- t  bb)
#
#         PDG            Width
DECAY   1000006     2.78895104E+02   # stop1 decays
#          BR         NDA      ID1       ID2
     6.76574668E-02    2     1000022         6   # BR(~t_1 -> ~chi_10 t )
     1.28213146E-01    2     1000023         6   # BR(~t_1 -> ~chi_20 t )
     6.24793302E-02    2     1000025         6   # BR(~t_1 -> ~chi_30 t )
     2.65412691E-02    2     1000035         6   # BR(~t_1 -> ~chi_40 t )
     1.64568574E-04    2     1000024         5   # BR(~t_1 -> ~chi_1+ b )
     5.28962309E-02    2     1000037         5   # BR(~t_1 -> ~chi_2+ b )
     6.41392086E-01    2     1000021         6   # BR(~t_1 -> ~g      t )
     7.45598408E-03    2     1000005        24   # BR(~t_1 -> ~b_1    W+)
     1.31999175E-02    2     2000005        24   # BR(~t_1 -> ~b_2    W+)
#
#         PDG            Width
DECAY   2000006     3.60381906E+02   # stop2 decays
#          BR         NDA      ID1       ID2
     7.31273225E-02    2     1000022         6   # BR(~t_2 -> ~chi_10 t )
     1.06057323E-01    2     1000023         6   # BR(~t_2 -> ~chi_20 t )
     6.35573876E-02    2     1000025         6   # BR(~t_2 -> ~chi_30 t )
    -2.50035718E-05    2     1000035         6   # BR(~t_2 -> ~chi_40 t )
     2.12087444E-01    2     1000024         5   # BR(~t_2 -> ~chi_1+ b )
    -5.00336182E-05    2     1000037         5   # BR(~t_2 -> ~chi_2+ b )
     5.44909946E-01    2     1000021         6   # BR(~t_2 -> ~g      t )
    -8.28282658E-05    2     1000006        25   # BR(~t_2 -> ~t_1    h )
     6.08757508E-05    2     1000006        23   # BR(~t_2 -> ~t_1    Z )
     1.28057099E-04    2     1000005        24   # BR(~t_2 -> ~b_1    W+)
     2.29509761E-04    2     2000005        24   # BR(~t_2 -> ~b_2    W+)
#
#         PDG            Width
DECAY   1000005     1.84549034E+02   # sbottom1 decays
#          BR         NDA      ID1       ID2
     6.56614229E-03    2     1000022         5   # BR(~b_1 -> ~chi_10 b )
     1.06367541E-04    2     1000023         5   # BR(~b_1 -> ~chi_20 b )
     5.82339864E-03    2     1000025         5   # BR(~b_1 -> ~chi_30 b )
     6.14211443E-03    2     1000035         5   # BR(~b_1 -> ~chi_40 b )
     3.53041687E-02    2    -1000024         6   # BR(~b_1 -> ~chi_1- t )
     1.23147259E-02    2    -1000037         6   # BR(~b_1 -> ~chi_2- t )
     9.33743083E-01    2     1000021         5   # BR(~b_1 -> ~g      b )
#
#         PDG            Width
DECAY   2000005     2.53046832E+02   # sbottom2 decays
#          BR         NDA      ID1       ID2
     1.46321946E-03    2     1000022         5   # BR(~b_2 -> ~chi_10 b )
     1.20272325E-04    2     1000023         5   # BR(~b_2 -> ~chi_20 b )
     2.40778918E-03    2     1000025         5   # BR(~b_2 -> ~chi_30 b )
     2.20130394E-02    2     1000035         5   # BR(~b_2 -> ~chi_40 b )
     2.49250252E-01    2    -1000024         6   # BR(~b_2 -> ~chi_1- t )
     4.41859605E-02    2    -1000037         6   # BR(~b_2 -> ~chi_2- t )
     6.80559467E-01    2     1000021         5   # BR(~b_2 -> ~g      b )
#
#         PDG            Width
DECAY   1000002     1.93054600E+02   # sup_L decays
#          BR         NDA      ID1       ID2
     1.03231578E-03    2     1000022         2   # BR(~u_L -> ~chi_10 u)
     6.56537624E-07    2     1000023         2   # BR(~u_L -> ~chi_20 u)
     2.38381771E-03    2     1000025         2   # BR(~u_L -> ~chi_30 u)
     3.47038124E-02    2     1000035         2   # BR(~u_L -> ~chi_40 u)
     2.14198691E-04    2     1000024         1   # BR(~u_L -> ~chi_1+ d)
     6.94031705E-02    2     1000037         1   # BR(~u_L -> ~chi_2+ d)
     8.92262028E-01    2     1000021         2   # BR(~u_L -> ~g      u)
#
#         PDG            Width
DECAY   2000002     1.82512581E+02   # sup_R decays
#          BR         NDA      ID1       ID2
     2.53777186E-02    2     1000022         2   # BR(~u_R -> ~chi_10 u)
     4.53116802E-06    2     1000023         2   # BR(~u_R -> ~chi_20 u)
     3.07964787E-02    2     1000025         2   # BR(~u_R -> ~chi_30 u)
     5.12938646E-09    2     1000035         2   # BR(~u_R -> ~chi_40 u)
     9.43821266E-01    2     1000021         2   # BR(~u_R -> ~g      u)
#
#         PDG            Width
DECAY   1000001     1.93060440E+02   # sdown_L decays
#          BR         NDA      ID1       ID2
     2.05363019E-03    2     1000022         1   # BR(~d_L -> ~chi_10 d)
     3.40455609E-06    2     1000023         1   # BR(~d_L -> ~chi_20 d)
     1.33157939E-03    2     1000025         1   # BR(~d_L -> ~chi_30 d)
     3.47221170E-02    2     1000035         1   # BR(~d_L -> ~chi_40 d)
     1.18710157E-04    2    -1000024         2   # BR(~d_L -> ~chi_1- u)
     6.94488480E-02    2    -1000037         2   # BR(~d_L -> ~chi_2- u)
     8.92321711E-01    2     1000021         1   # BR(~d_L -> ~g      d)
#
#         PDG            Width
DECAY   2000001     1.74827910E+02   # sdown_R decays
#          BR         NDA      ID1       ID2
     6.62341262E-03    2     1000022         1   # BR(~d_R -> ~chi_10 d)
     1.18260427E-06    2     1000023         1   # BR(~d_R -> ~chi_20 d)
     8.03767405E-03    2     1000025         1   # BR(~d_R -> ~chi_30 d)
     1.33879062E-09    2     1000035         1   # BR(~d_R -> ~chi_40 d)
     9.85337729E-01    2     1000021         1   # BR(~d_R -> ~g      d)
#
#         PDG            Width
DECAY   1000004     1.93054600E+02   # scharm_L decays
#          BR         NDA      ID1       ID2
     1.03231578E-03    2     1000022         4   # BR(~c_L -> ~chi_10 c)
     6.56537624E-07    2     1000023         4   # BR(~c_L -> ~chi_20 c)
     2.38381771E-03    2     1000025         4   # BR(~c_L -> ~chi_30 c)
     3.47038124E-02    2     1000035         4   # BR(~c_L -> ~chi_40 c)
     2.14198691E-04    2     1000024         3   # BR(~c_L -> ~chi_1+ s)
     6.94031705E-02    2     1000037         3   # BR(~c_L -> ~chi_2+ s)
     8.92262028E-01    2     1000021         4   # BR(~c_L -> ~g      c)
#
#         PDG            Width
DECAY   2000004     1.82512581E+02   # scharm_R decays
#          BR         NDA      ID1       ID2
     2.53777186E-02    2     1000022         4   # BR(~c_R -> ~chi_10 c)
     4.53116802E-06    2     1000023         4   # BR(~c_R -> ~chi_20 c)
     3.07964787E-02    2     1000025         4   # BR(~c_R -> ~chi_30 c)
     5.12938646E-09    2     1000035         4   # BR(~c_R -> ~chi_40 c)
     9.43821266E-01    2     1000021         4   # BR(~c_R -> ~g      c)
#
#         PDG            Width
DECAY   1000003     1.93060440E+02   # sstrange_L decays
#          BR         NDA      ID1       ID2
     2.05363019E-03    2     1000022         3   # BR(~s_L -> ~chi_10 s)
     3.40455609E-06    2     1000023         3   # BR(~s_L -> ~chi_20 s)
     1.33157939E-03    2     1000025         3   # BR(~s_L -> ~chi_30 s)
     3.47221170E-02    2     1000035         3   # BR(~s_L -> ~chi_40 s)
     1.18710157E-04    2    -1000024         4   # BR(~s_L -> ~chi_1- c)
     6.94488480E-02    2    -1000037         4   # BR(~s_L -> ~chi_2- c)
     8.92321711E-01    2     1000021         3   # BR(~s_L -> ~g      s)
#
#         PDG            Width
DECAY   2000003     1.74827910E+02   # sstrange_R decays
#          BR         NDA      ID1       ID2
     6.62341262E-03    2     1000022         3   # BR(~s_R -> ~chi_10 s)
     1.18260427E-06    2     1000023         3   # BR(~s_R -> ~chi_20 s)
     8.03767405E-03    2     1000025         3   # BR(~s_R -> ~chi_30 s)
     1.33879062E-09    2     1000035         3   # BR(~s_R -> ~chi_40 s)
     9.85337729E-01    2     1000021         3   # BR(~s_R -> ~g      s)
#
#         PDG            Width
DECAY   1000011     2.79087233E+01   # selectron_L decays
#          BR         NDA      ID1       ID2
     8.75097682E-02    2     1000022        11   # BR(~e_L -> ~chi_10 e-)
     3.67598760E-07    2     1000023        11   # BR(~e_L -> ~chi_20 e-)
     1.31138341E-01    2     1000025        11   # BR(~e_L -> ~chi_30 e-)
     2.60020953E-01    2     1000035        11   # BR(~e_L -> ~chi_40 e-)
     8.65164445E-04    2    -1000024        12   # BR(~e_L -> ~chi_1- nu_e)
     5.20465406E-01    2    -1000037        12   # BR(~e_L -> ~chi_2- nu_e)
#
#         PDG            Width
DECAY   2000011     2.43065648E+01   # selectron_R decays
#          BR         NDA      ID1       ID2
     4.51736415E-01    2     1000022        11   # BR(~e_R -> ~chi_10 e-)
     8.06558768E-05    2     1000023        11   # BR(~e_R -> ~chi_20 e-)
     5.48182835E-01    2     1000025        11   # BR(~e_R -> ~chi_30 e-)
     9.38965373E-08    2     1000035        11   # BR(~e_R -> ~chi_40 e-)
#
#         PDG            Width
DECAY   1000013     2.79087233E+01   # smuon_L decays
#          BR         NDA      ID1       ID2
     8.75097682E-02    2     1000022        13   # BR(~mu_L -> ~chi_10 mu-)
     3.67598760E-07    2     1000023        13   # BR(~mu_L -> ~chi_20 mu-)
     1.31138341E-01    2     1000025        13   # BR(~mu_L -> ~chi_30 mu-)
     2.60020953E-01    2     1000035        13   # BR(~mu_L -> ~chi_40 mu-)
     8.65164445E-04    2    -1000024        14   # BR(~mu_L -> ~chi_1- nu_mu)
     5.20465406E-01    2    -1000037        14   # BR(~mu_L -> ~chi_2- nu_mu)
#
#         PDG            Width
DECAY   2000013     2.43065648E+01   # smuon_R decays
#          BR         NDA      ID1       ID2
     4.51736415E-01    2     1000022        13   # BR(~mu_R -> ~chi_10 mu-)
     8.06558768E-05    2     1000023        13   # BR(~mu_R -> ~chi_20 mu-)
     5.48182835E-01    2     1000025        13   # BR(~mu_R -> ~chi_30 mu-)
     9.38965373E-08    2     1000035        13   # BR(~mu_R -> ~chi_40 mu-)
#
#         PDG            Width
DECAY   1000015     2.61373283E+01   # stau_1 decays
#          BR         NDA      ID1       ID2
     2.67781011E-01    2     1000022        15   # BR(~tau_1 -> ~chi_10  tau-)
     4.44889402E-04    2     1000023        15   # BR(~tau_1 -> ~chi_20  tau-)
     3.24585109E-01    2     1000025        15   # BR(~tau_1 -> ~chi_30  tau-)
     1.34901744E-01    2     1000035        15   # BR(~tau_1 -> ~chi_40  tau-)
     2.12597040E-03    2    -1000024        16   # BR(~tau_1 -> ~chi_1-  nu_tau)
     2.70023631E-01    2    -1000037        16   # BR(~tau_1 -> ~chi_2-  nu_tau)
     1.37644115E-04    2     1000039        15   # BR(~tau_1 -> ~G       tau-)
#
#         PDG            Width
DECAY   2000015     2.61763346E+01   # stau_2 decays
#          BR         NDA      ID1       ID2
     2.46064437E-01    2     1000022        15   # BR(~tau_2 -> ~chi_10  tau-)
     8.36183030E-04    2     1000023        15   # BR(~tau_2 -> ~chi_20  tau-)
     3.25274106E-01    2     1000025        15   # BR(~tau_2 -> ~chi_30  tau-)
     1.42529374E-01    2     1000035        15   # BR(~tau_2 -> ~chi_40  tau-)
     6.10290313E-06    2    -1000024        16   # BR(~tau_2 -> ~chi_1-  nu_tau)
     2.85289797E-01    2    -1000037        16   # BR(~tau_2 -> ~chi_2-  nu_tau)
#
#         PDG            Width
DECAY   1000012     2.79076782E+01   # snu_eL decays
#          BR         NDA      ID1       ID2
     1.09838402E-01    2     1000022        12   # BR(~nu_eL -> ~chi_10 nu_e)
     6.04494942E-05    2     1000023        12   # BR(~nu_eL -> ~chi_20 nu_e)
     1.08129585E-01    2     1000025        12   # BR(~nu_eL -> ~chi_30 nu_e)
     2.60277601E-01    2     1000035        12   # BR(~nu_eL -> ~chi_40 nu_e)
     1.56110427E-03    2     1000024        11   # BR(~nu_eL -> ~chi_1+ e-)
     5.20132859E-01    2     1000037        11   # BR(~nu_eL -> ~chi_2+ e-)
#
#         PDG            Width
DECAY   1000014     2.79076782E+01   # snu_muL decays
#          BR         NDA      ID1       ID2
     1.09838402E-01    2     1000022        14   # BR(~nu_muL -> ~chi_10 nu_mu)
     6.04494942E-05    2     1000023        14   # BR(~nu_muL -> ~chi_20 nu_mu)
     1.08129585E-01    2     1000025        14   # BR(~nu_muL -> ~chi_30 nu_mu)
     2.60277601E-01    2     1000035        14   # BR(~nu_muL -> ~chi_40 nu_mu)
     1.56110427E-03    2     1000024        13   # BR(~nu_muL -> ~chi_1+ mu-)
     5.20132859E-01    2     1000037        13   # BR(~nu_muL -> ~chi_2+ mu-)
#
#         PDG            Width
DECAY   1000016     2.79392669E+01   # snu_tauL decays
#          BR         NDA      ID1       ID2
     1.09714216E-01    2     1000022        16   # BR(~nu_tauL -> ~chi_10 nu_tau)
     6.03811486E-05    2     1000023        16   # BR(~nu_tauL -> ~chi_20 nu_tau)
     1.08007331E-01    2     1000025        16   # BR(~nu_tauL -> ~chi_30 nu_tau)
     2.59983325E-01    2     1000035        16   # BR(~nu_tauL -> ~chi_40 nu_tau)
     2.68950451E-03    2     1000024        15   # BR(~nu_tauL -> ~chi_1+ tau-)
     5.19545243E-01    2     1000037        15   # BR(~nu_tauL -> ~chi_2+ tau-)
#
#         PDG            Width
DECAY   1000024     6.07616849E-05   # chargino1+ decays
#          BR         NDA      ID1       ID2
     2.20767450E-04    2     1000039        24   # BR(~chi_1+ -> ~G       W+)
#           BR         NDA      ID1       ID2       ID3
     3.33631042E-01    3     1000022         2        -1   # BR(~chi_1+ -> ~chi_10 u    db)
     3.33631042E-01    3     1000022         4        -3   # BR(~chi_1+ -> ~chi_10 c    sb)
     1.11210474E-01    3     1000022       -11        12   # BR(~chi_1+ -> ~chi_10 e+   nu_e)
     1.11210474E-01    3     1000022       -13        14   # BR(~chi_1+ -> ~chi_10 mu+  nu_mu)
     1.10096201E-01    3     1000022       -15        16   # BR(~chi_1+ -> ~chi_10 tau+ nu_tau)
#
#         PDG            Width
DECAY   1000037     3.50061372E+01   # chargino2+ decays
#          BR         NDA      ID1       ID2
     2.21829891E-01    2     1000024        23   # BR(~chi_2+ -> ~chi_1+  Z )
     1.12659439E-01    2     1000022        24   # BR(~chi_2+ -> ~chi_10  W+)
     2.16302658E-01    2     1000023        24   # BR(~chi_2+ -> ~chi_20  W+)
     1.03634813E-01    2     1000025        24   # BR(~chi_2+ -> ~chi_30  W+)
     2.22777859E-01    2     1000024        25   # BR(~chi_2+ -> ~chi_1+  h )
     3.05827139E-02    2     1000024        35   # BR(~chi_2+ -> ~chi_1+  H )
     3.08260645E-02    2     1000024        36   # BR(~chi_2+ -> ~chi_1+  A )
     1.79958900E-02    2     1000022        37   # BR(~chi_2+ -> ~chi_10  H+)
     3.05893873E-02    2     1000023        37   # BR(~chi_2+ -> ~chi_20  H+)
     1.27914472E-02    2     1000025        37   # BR(~chi_2+ -> ~chi_30  H+)
     9.83547774E-06    2     1000039        24   # BR(~chi_2+ -> ~G       W+)
     4.69069391E-10    2     1000039        37   # BR(~chi_2+ -> ~G       H+)
#
#         PDG            Width
DECAY   1000022    1.0E-05    # neutralino1 decays
#          BR         NDA      ID1       ID2
     5.00483883E-01    2     1000039        22   # BR(~chi_10 -> ~G        gam)
     4.89334655E-01    2     1000039        23   # BR(~chi_10 -> ~G        Z)
     1.01814619E-02    2     1000039        25   # BR(~chi_10 -> ~G        h)
#
#         PDG            Width
DECAY   1000023     6.56220852E-05   # neutralino2 decays
#          BR         NDA      ID1       ID2
     8.01887898E-04    2     1000022        22   # BR(~chi_20 -> ~chi_10 gam)
#          BR         NDA      ID1       ID2
     1.52497786E-08    2     1000039        22   # BR(~chi_20 -> ~G        gam)
     7.85693635E-06    2     1000039        23   # BR(~chi_20 -> ~G        Z)
     1.69780652E-04    2     1000039        25   # BR(~chi_20 -> ~G        h)
#           BR         NDA      ID1       ID2       ID3
     1.19102025E-01    3     1000022        -2         2   # BR(~chi_20 -> ~chi_10 ub      u)
     1.54182728E-01    3     1000022        -1         1   # BR(~chi_20 -> ~chi_10 db      d)
     1.19102025E-01    3     1000022        -4         4   # BR(~chi_20 -> ~chi_10 cb      c)
     1.54182728E-01    3     1000022        -3         3   # BR(~chi_20 -> ~chi_10 sb      s)
     1.36465633E-01    3     1000022        -5         5   # BR(~chi_20 -> ~chi_10 bb      b)
     3.51959515E-02    3     1000022       -11        11   # BR(~chi_20 -> ~chi_10 e+      e-)
     3.51959515E-02    3     1000022       -13        13   # BR(~chi_20 -> ~chi_10 mu+     mu-)
     3.47595051E-02    3     1000022       -15        15   # BR(~chi_20 -> ~chi_10 tau+    tau-)
     7.02772409E-02    3     1000022       -12        12   # BR(~chi_20 -> ~chi_10 nu_eb   nu_e)
     7.02772409E-02    3     1000022       -14        14   # BR(~chi_20 -> ~chi_10 nu_mub  nu_mu)
     7.02772409E-02    3     1000022       -16        16   # BR(~chi_20 -> ~chi_10 nu_taub nu_tau)
     4.08954057E-07    3     1000024        -2         1   # BR(~chi_20 -> ~chi_1+ ub      d)
     4.08954057E-07    3    -1000024        -1         2   # BR(~chi_20 -> ~chi_1- db      u)
     4.08954057E-07    3     1000024        -4         3   # BR(~chi_20 -> ~chi_1+ cb      s)
     4.08954057E-07    3    -1000024        -3         4   # BR(~chi_20 -> ~chi_1- sb      c)
     1.36318033E-07    3     1000024       -12        11   # BR(~chi_20 -> ~chi_1+ nu_eb   e-)
     1.36318033E-07    3    -1000024        12       -11   # BR(~chi_20 -> ~chi_1- nu_e    e+)
     1.36318033E-07    3     1000024       -14        13   # BR(~chi_20 -> ~chi_1+ nu_mub  mu-)
     1.36318033E-07    3    -1000024        14       -13   # BR(~chi_20 -> ~chi_1- nu_mu   mu+)
     4.81897997E-09    3     1000024       -16        15   # BR(~chi_20 -> ~chi_1+ nu_taub tau-)
     4.81897997E-09    3    -1000024        16       -15   # BR(~chi_20 -> ~chi_1- nu_tau  tau+)
#
#         PDG            Width
DECAY   1000025     3.73868758E-04   # neutralino3 decays
#          BR         NDA      ID1       ID2
     2.16965219E-04    2     1000022        22   # BR(~chi_30 -> ~chi_10 gam)
     5.22801973E-04    2     1000023        22   # BR(~chi_30 -> ~chi_20 gam)
#          BR         NDA      ID1       ID2
     5.54464760E-05    2     1000039        22   # BR(~chi_30 -> ~G        gam)
     3.84014584E-05    2     1000039        23   # BR(~chi_30 -> ~G        Z)
     9.43299359E-07    2     1000039        25   # BR(~chi_30 -> ~G        h)
#           BR         NDA      ID1       ID2       ID3
     3.23149058E-08    3     1000022        -2         2   # BR(~chi_30 -> ~chi_10 ub      u)
     3.04552944E-08    3     1000022        -1         1   # BR(~chi_30 -> ~chi_10 db      d)
     3.23149058E-08    3     1000022        -4         4   # BR(~chi_30 -> ~chi_10 cb      c)
     3.04552944E-08    3     1000022        -3         3   # BR(~chi_30 -> ~chi_10 sb      s)
     1.00451466E-06    3     1000022        -5         5   # BR(~chi_30 -> ~chi_10 bb      b)
     8.56707096E-08    3     1000022       -11        11   # BR(~chi_30 -> ~chi_10 e+      e-)
     8.56707096E-08    3     1000022       -13        13   # BR(~chi_30 -> ~chi_10 mu+     mu-)
     2.31737290E-07    3     1000022       -15        15   # BR(~chi_30 -> ~chi_10 tau+    tau-)
     4.19518545E-09    3     1000022       -12        12   # BR(~chi_30 -> ~chi_10 nu_eb   nu_e)
     4.19518545E-09    3     1000022       -14        14   # BR(~chi_30 -> ~chi_10 nu_mub  nu_mu)
     4.19518545E-09    3     1000022       -16        16   # BR(~chi_30 -> ~chi_10 nu_taub nu_tau)
     2.74997575E-02    3     1000023        -2         2   # BR(~chi_30 -> ~chi_20 ub      u)
     3.55997599E-02    3     1000023        -1         1   # BR(~chi_30 -> ~chi_20 db      d)
     2.74997575E-02    3     1000023        -4         4   # BR(~chi_30 -> ~chi_20 cb      c)
     3.55997599E-02    3     1000023        -3         3   # BR(~chi_30 -> ~chi_20 sb      s)
     3.21156246E-02    3     1000023        -5         5   # BR(~chi_30 -> ~chi_20 bb      b)
     8.12658451E-03    3     1000023       -11        11   # BR(~chi_30 -> ~chi_20 e+      e-)
     8.12658451E-03    3     1000023       -13        13   # BR(~chi_30 -> ~chi_20 mu+     mu-)
     8.03832786E-03    3     1000023       -15        15   # BR(~chi_30 -> ~chi_20 tau+    tau-)
     1.62264385E-02    3     1000023       -12        12   # BR(~chi_30 -> ~chi_20 nu_eb   nu_e)
     1.62264385E-02    3     1000023       -14        14   # BR(~chi_30 -> ~chi_20 nu_mub  nu_mu)
     1.62264385E-02    3     1000023       -16        16   # BR(~chi_30 -> ~chi_20 nu_taub nu_tau)
     1.28075402E-01    3     1000024        -2         1   # BR(~chi_30 -> ~chi_1+ ub      d)
     1.28075402E-01    3    -1000024        -1         2   # BR(~chi_30 -> ~chi_1- db      u)
     1.28075402E-01    3     1000024        -4         3   # BR(~chi_30 -> ~chi_1+ cb      s)
     1.28075402E-01    3    -1000024        -3         4   # BR(~chi_30 -> ~chi_1- sb      c)
     4.26917150E-02    3     1000024       -12        11   # BR(~chi_30 -> ~chi_1+ nu_eb   e-)
     4.26917150E-02    3    -1000024        12       -11   # BR(~chi_30 -> ~chi_1- nu_e    e+)
     4.26917150E-02    3     1000024       -14        13   # BR(~chi_30 -> ~chi_1+ nu_mub  mu-)
     4.26917150E-02    3    -1000024        14       -13   # BR(~chi_30 -> ~chi_1- nu_mu   mu+)
     4.24049776E-02    3     1000024       -16        15   # BR(~chi_30 -> ~chi_1+ nu_taub tau-)
     4.24049776E-02    3    -1000024        16       -15   # BR(~chi_30 -> ~chi_1- nu_tau  tau+)
#
#         PDG            Width
DECAY   1000035     3.50065321E+01   # neutralino4 decays
#          BR         NDA      ID1       ID2
     2.28578796E-03    2     1000022        23   # BR(~chi_40 -> ~chi_10   Z )
     2.17346366E-01    2     1000023        23   # BR(~chi_40 -> ~chi_20   Z )
     2.33158101E-03    2     1000025        23   # BR(~chi_40 -> ~chi_30   Z )
     2.16114338E-01    2     1000024       -24   # BR(~chi_40 -> ~chi_1+   W-)
     2.16114338E-01    2    -1000024        24   # BR(~chi_40 -> ~chi_1-   W+)
     1.13878374E-01    2     1000022        25   # BR(~chi_40 -> ~chi_10   h )
     1.89603492E-03    2     1000022        35   # BR(~chi_40 -> ~chi_10   H )
     1.60735229E-02    2     1000022        36   # BR(~chi_40 -> ~chi_10   A )
     4.60494536E-03    2     1000023        25   # BR(~chi_40 -> ~chi_20   h )
     2.72044538E-02    2     1000023        35   # BR(~chi_40 -> ~chi_20   H )
     3.30322000E-03    2     1000023        36   # BR(~chi_40 -> ~chi_20   A )
     1.04530352E-01    2     1000025        25   # BR(~chi_40 -> ~chi_30   h )
     1.35080509E-03    2     1000025        35   # BR(~chi_40 -> ~chi_30   H )
     1.14243446E-02    2     1000025        36   # BR(~chi_40 -> ~chi_30   A )
     3.07658511E-02    2     1000024       -37   # BR(~chi_40 -> ~chi_1+   H-)
     3.07658511E-02    2    -1000024        37   # BR(~chi_40 -> ~chi_1-   H+)
     2.35999532E-06    2     1000039        22   # BR(~chi_40 -> ~G        gam)
     7.47464478E-06    2     1000039        23   # BR(~chi_40 -> ~G        Z)
     4.80491778E-10    2     1000039        25   # BR(~chi_40 -> ~G        h)
     4.65771667E-10    2     1000039        35   # BR(~chi_40 -> ~G        H)
     1.43401926E-12    2     1000039        36   # BR(~chi_40 -> ~G        A)
#
#         PDG            Width
DECAY        25     4.21772793E-03   # h decays
#          BR         NDA      ID1       ID2
     6.01734374E-01    2           5        -5   # BR(h -> b       bb     )
     6.22495031E-02    2         -15        15   # BR(h -> tau+    tau-   )
     2.20336102E-04    2         -13        13   # BR(h -> mu+     mu-    )
     4.66188398E-04    2           3        -3   # BR(h -> s       sb     )
     2.01116422E-02    2           4        -4   # BR(h -> c       cb     )
     6.64190456E-02    2          21        21   # BR(h -> g       g      )
     2.31237713E-03    2          22        22   # BR(h -> gam     gam    )
     1.62673790E-03    2          22        23   # BR(h -> Z       gam    )
     2.16774646E-01    2          24       -24   # BR(h -> W+      W-     )
     2.80851501E-02    2          23        23   # BR(h -> Z       Z      )
#
#         PDG            Width
DECAY        35     3.99039241E+01   # H decays
#          BR         NDA      ID1       ID2
     1.39627357E-03    2           5        -5   # BR(H -> b       bb     )
     2.33520084E-04    2         -15        15   # BR(H -> tau+    tau-   )
     8.25580438E-07    2         -13        13   # BR(H -> mu+     mu-    )
     1.05702854E-06    2           3        -3   # BR(H -> s       sb     )
     9.53970392E-06    2           4        -4   # BR(H -> c       cb     )
     9.43915228E-01    2           6        -6   # BR(H -> t       tb     )
     7.55921516E-04    2          21        21   # BR(H -> g       g      )
     2.63726492E-06    2          22        22   # BR(H -> gam     gam    )
     1.09850695E-06    2          23        22   # BR(H -> Z       gam    )
     3.19384418E-04    2          24       -24   # BR(H -> W+      W-     )
     1.59256641E-04    2          23        23   # BR(H -> Z       Z      )
     8.57361816E-04    2          25        25   # BR(H -> h       h      )
     9.06570721E-24    2          36        36   # BR(H -> A       A      )
     3.64586102E-11    2          23        36   # BR(H -> Z       A      )
     3.47039406E-12    2          24       -37   # BR(H -> W+      H-     )
     3.47039406E-12    2         -24        37   # BR(H -> W-      H+     )
     5.65258876E-05    2     1000024  -1000024   # BR(H -> ~chi_1+ ~chi_1-)
     9.95153440E-04    2     1000022   1000022   # BR(H -> ~chi_10 ~chi_10)
     2.27664856E-05    2     1000023   1000023   # BR(H -> ~chi_20 ~chi_20)
     5.62231633E-04    2     1000025   1000025   # BR(H -> ~chi_30 ~chi_30)
     2.57951347E-02    2     1000022   1000023   # BR(H -> ~chi_10 ~chi_20)
     1.23659692E-05    2     1000022   1000025   # BR(H -> ~chi_10 ~chi_30)
     2.49037178E-02    2     1000023   1000025   # BR(H -> ~chi_20 ~chi_30)
#
#         PDG            Width
DECAY        36     4.03526838E+01   # A decays
#          BR         NDA      ID1       ID2
     1.39899078E-03    2           5        -5   # BR(A -> b       bb     )
     2.31117624E-04    2         -15        15   # BR(A -> tau+    tau-   )
     8.17084290E-07    2         -13        13   # BR(A -> mu+     mu-    )
     1.07720767E-06    2           3        -3   # BR(A -> s       sb     )
     9.43977423E-06    2           4        -4   # BR(A -> c       cb     )
     9.44753990E-01    2           6        -6   # BR(A -> t       tb     )
     8.94227600E-04    2          21        21   # BR(A -> g       g      )
     2.66894013E-06    2          22        22   # BR(A -> gam     gam    )
     1.28092751E-06    2          23        22   # BR(A -> Z       gam    )
     3.11163827E-04    2          23        25   # BR(A -> Z       h      )
     6.47388214E-04    2     1000024  -1000024   # BR(A -> ~chi_1+ ~chi_1-)
     2.86090562E-02    2     1000022   1000022   # BR(A -> ~chi_10 ~chi_10)
     1.16213456E-06    2     1000023   1000023   # BR(A -> ~chi_20 ~chi_20)
     2.15252267E-02    2     1000025   1000025   # BR(A -> ~chi_30 ~chi_30)
     6.62147099E-04    2     1000022   1000023   # BR(A -> ~chi_10 ~chi_20)
     1.08143762E-04    2     1000022   1000025   # BR(A -> ~chi_10 ~chi_30)
     8.42101715E-04    2     1000023   1000025   # BR(A -> ~chi_20 ~chi_30)
#
#         PDG            Width
DECAY        37     3.95431385E+01   # H+ decays
#          BR         NDA      ID1       ID2
     2.24442853E-06    2           4        -5   # BR(H+ -> c       bb     )
     2.36086996E-04    2         -15        16   # BR(H+ -> tau+    nu_tau )
     8.34652814E-07    2         -13        14   # BR(H+ -> mu+     nu_mu  )
     1.42697298E-08    2           2        -5   # BR(H+ -> u       bb     )
     5.16883946E-08    2           2        -3   # BR(H+ -> u       sb     )
     1.02991076E-05    2           4        -3   # BR(H+ -> c       sb     )
     9.46646918E-01    2           6        -5   # BR(H+ -> t       bb     )
     3.18949740E-04    2          24        25   # BR(H+ -> W+      h      )
     1.10932394E-12    2          24        36   # BR(H+ -> W+      A      )
     2.39310193E-02    2     1000024   1000022   # BR(H+ -> ~chi_1+ ~chi_10)
     1.46295903E-04    2     1000024   1000023   # BR(H+ -> ~chi_1+ ~chi_20)
     2.87072858E-02    2     1000024   1000025   # BR(H+ -> ~chi_1+ ~chi_30)
