#
#                              ======================
#                              | THE SUSYHIT OUTPUT |
#                              ======================
#
#
#              ------------------------------------------------------
#              |     This is the output of the SUSY-HIT package     |
#              |  created by A.Djouadi, M.Muehlleitner and M.Spira. |
#              |  In case of problems with SUSY-HIT email to        |
#              |           margarete.muehlleitner@cern.ch           |
#              |           michael.spira@psi.ch                     |
#              |           abdelhak.djouadi@cern.ch                 |
#              ------------------------------------------------------
#
#              ------------------------------------------------------
#              |  SUSY Les Houches Accord - MSSM Spectrum + Decays  |
#              |              based on the decay programs           |
#              |                                                    |
#              |                     SDECAY 1.3b                    |
#              |                                                    |
#              |  Authors: M.Muhlleitner, A.Djouadi and Y.Mambrini  |
#              |  Ref.:    Comput.Phys.Commun.168(2005)46           |
#              |           [hep-ph/0311167]                         |
#              |                                                    |
#              |                     HDECAY 3.4                     |
#              |                                                    |
#              |  By: A.Djouadi,J.Kalinowski,M.Muhlleitner,M.Spira  |
#              |  Ref.:    Comput.Phys.Commun.108(1998)56           |
#              |           [hep-ph/9704448]                         |
#              |                                                    |
#              |                                                    |
#              |  If not stated otherwise all DRbar couplings and   |
#              |  soft SUSY breaking masses are given at the scale  |
#              |  Q=  0.50007711E+04
#              |                                                    |
#              ------------------------------------------------------
#
#
BLOCK DCINFO  # Decay Program information
     1   SDECAY/HDECAY # decay calculator
     2   1.3b  /3.4    # version number
#
BLOCK SPINFO  # Spectrum calculator information
     1    SOFTSUSY    # spectrum calculator                
     2    3.4.0       # version number                     
#
BLOCK MODSEL  # Model selection
     1     0   #  nonUniversal                                     
#
BLOCK SMINPUTS  # Standard Model inputs
         1     1.25778332E+02   # alpha_em^-1(M_Z)^MSbar
         2     1.16570000E-05   # G_F [GeV^-2]
         3     1.17200002E-01   # alpha_S(M_Z)^MSbar
         4     9.11876000E+01   # M_Z pole mass
         5     4.25000000E+00   # mb(mb)^MSbar
         6     1.72500000E+02   # mt pole mass
         7     1.77682000E+00   # mtau pole mass
#
BLOCK MINPAR  # Input parameters - minimal models
         3     1.00000000E+01   # tanb                
#
BLOCK EXTPAR  # Input parameters - non-minimal models
         0    -1.00000000E+00   # Set                 
         1     6.00000000E+01   # M_1(MX)             
         2     3.00000000E+03   # M_2(MX)             
         3     2.23496800E+03   # M_3(MX)             
        11     5.00000000E+03   # At(MX)              
        12     5.00000000E+03   # Ab(MX)              
        13     0.00000000E+00   # Atau(MX)            
        23    -2.82771000E+02   # mu(MX)              
        26     3.00000000E+03   # mA(pole)            
        31     5.00000000E+03   # meL(MX)             
        32     5.00000000E+03   # mmuL(MX)            
        33     5.00000000E+03   # mtauL(MX)           
        34     5.00000000E+03   # meR(MX)             
        35     5.00000000E+03   # mmuR(MX)            
        36     5.00000000E+03   # mtauR(MX)           
        41     5.00000000E+03   # mqL1(MX)            
        42     5.00000000E+03   # mqL2(MX)            
        43     5.00000000E+03   # mqL3(MX)            
        44     5.00000000E+03   # muR(MX)             
        45     5.00000000E+03   # mcR(MX)             
        46     5.00000000E+03   # mtR(MX)             
        47     5.00000000E+03   # mdR(MX)             
        48     5.00000000E+03   # msR(MX)             
        49     5.00000000E+03   # mbR(MX)             
#
BLOCK MASS  # Mass Spectrum
# PDG code           mass       particle
        24     8.00919245E+01   # W+
        25     1.24800105E+02   # h
        35     3.00008911E+03   # H
        36     2.99999971E+03   # A
        37     3.00146928E+03   # H+
         5     4.87878001E+00   # b-quark pole mass calculated from mb(mb)_Msbar
   1000001     5.08199738E+03   # ~d_L
   2000001     5.06416146E+03   # ~d_R
   1000002     5.08152544E+03   # ~u_L
   2000002     5.06385587E+03   # ~u_R
   1000003     5.08199738E+03   # ~s_L
   2000003     5.06416146E+03   # ~s_R
   1000004     5.08152544E+03   # ~c_L
   2000004     5.06385587E+03   # ~c_R
   1000005     5.02792649E+03   # ~b_1
   2000005     5.06227809E+03   # ~b_2
   1000006     4.92003415E+03   # ~t_1
   2000006     5.07054987E+03   # ~t_2
   1000011     5.01913688E+03   # ~e_L
   2000011     5.00595377E+03   # ~e_R
   1000012     5.01818542E+03   # ~nu_eL
   1000013     5.01913688E+03   # ~mu_L
   2000013     5.00595377E+03   # ~mu_R
   1000014     5.01818542E+03   # ~nu_muL
   1000015     5.00481619E+03   # ~tau_1
   2000015     5.01861838E+03   # ~tau_2
   1000016     5.01763167E+03   # ~nu_tauL
   1000021     2.60000022E+03   # ~g
   1000022     5.97919690E+01   # ~chi_10
   1000023     3.01966847E+02   # ~chi_20
   1000025    -3.03835846E+02   # ~chi_30
   1000035     3.07422271E+03   # ~chi_40
   1000024     3.00000226E+02   # ~chi_1+
   1000037     3.07439064E+03   # ~chi_2+
#
BLOCK NMIX  # Neutralino Mixing Matrix
  1  1     9.88607352E-01   # N_11
  1  2     6.02074026E-05   # N_12
  1  3    -1.49795841E-01   # N_13
  1  4    -1.47209452E-02   # N_14
  2  1     1.16361002E-01   # N_21
  2  2     1.76944382E-02   # N_22
  2  3     6.98596274E-01   # N_23
  2  4     7.05769275E-01   # N_24
  3  1    -9.54749344E-02   # N_31
  3  2     1.80269090E-02   # N_32
  3  3    -6.99660191E-01   # N_33
  3  4     7.07838388E-01   # N_34
  4  1    -3.97472921E-04   # N_41
  4  2     9.99680916E-01   # N_42
  4  3     2.60543891E-04   # N_43
  4  4    -2.52555014E-02   # N_44
#
BLOCK UMIX  # Chargino Mixing Matrix U
  1  1    -3.65918955E-04   # U_11
  1  2     9.99999933E-01   # U_12
  2  1    -9.99999933E-01   # U_21
  2  2    -3.65918955E-04   # U_22
#
BLOCK VMIX  # Chargino Mixing Matrix V
  1  1     3.57257197E-02   # V_11
  1  2    -9.99361633E-01   # V_12
  2  1    -9.99361633E-01   # V_21
  2  2    -3.57257197E-02   # V_22
#
BLOCK STOPMIX  # Stop Mixing Matrix
  1  1    -5.00424963E-01   # cos(theta_t)
  1  2     8.65779912E-01   # sin(theta_t)
  2  1    -8.65779912E-01   # -sin(theta_t)
  2  2    -5.00424963E-01   # cos(theta_t)
#
BLOCK SBOTMIX  # Sbottom Mixing Matrix
  1  1     9.99228876E-01   # cos(theta_b)
  1  2    -3.92638939E-02   # sin(theta_b)
  2  1     3.92638939E-02   # -sin(theta_b)
  2  2     9.99228876E-01   # cos(theta_b)
#
BLOCK STAUMIX  # Stau Mixing Matrix
  1  1    -3.37583715E-02   # cos(theta_tau)
  1  2     9.99430024E-01   # sin(theta_tau)
  2  1    -9.99430024E-01   # -sin(theta_tau)
  2  2    -3.37583715E-02   # cos(theta_tau)
#
BLOCK ALPHA  # Higgs mixing
          -1.05498555E-01   # Mixing angle in the neutral Higgs boson sector
#
BLOCK HMIX Q=  5.00077108E+03  # DRbar Higgs Parameters
         1    -2.87951574E+02   # mu(Q)MSSM           
         2     9.46829145E+00   # tan                 
         3     2.41697462E+02   # higgs               
         4     8.75200180E+06   # mA^2(Q)MSSM         
#
BLOCK GAUGE Q=  5.00077108E+03  # The gauge couplings
     1     3.71058283E-01   # gprime(Q) DRbar
     2     6.33863128E-01   # g(Q) DRbar
     3     9.94633112E-01   # g3(Q) DRbar
#
BLOCK AU Q=  5.00077108E+03  # The trilinear couplings
  1  1     5.00000002E+03   # A_u(Q) DRbar
  2  2     5.00000002E+03   # A_c(Q) DRbar
  3  3     5.00000002E+03   # A_t(Q) DRbar
#
BLOCK AD Q=  5.00077108E+03  # The trilinear couplings
  1  1     5.00000001E+03   # A_d(Q) DRbar
  2  2     5.00000001E+03   # A_s(Q) DRbar
  3  3     5.00000001E+03   # A_b(Q) DRbar
#
BLOCK AE Q=  5.00077108E+03  # The trilinear couplings
  1  1     0.00000000E+00   # A_e(Q) DRbar
  2  2     2.60341417E-07   # A_mu(Q) DRbar
  3  3     2.60320784E-07   # A_tau(Q) DRbar
#
BLOCK Yu Q=  5.00077108E+03  # The Yukawa couplings
  1  1     0.00000000E+00   # y_u(Q) DRbar
  2  2     0.00000000E+00   # y_c(Q) DRbar
  3  3     8.21681997E-01   # y_t(Q) DRbar
#
BLOCK Yd Q=  5.00077108E+03  # The Yukawa couplings
  1  1     0.00000000E+00   # y_d(Q) DRbar
  2  2     0.00000000E+00   # y_s(Q) DRbar
  3  3     1.30109486E-01   # y_b(Q) DRbar
#
BLOCK Ye Q=  5.00077108E+03  # The Yukawa couplings
  1  1     0.00000000E+00   # y_e(Q) DRbar
  2  2     0.00000000E+00   # y_mu(Q) DRbar
  3  3     9.72703380E-02   # y_tau(Q) DRbar
#
BLOCK MSOFT Q=  5.00077108E+03  # The soft SUSY breaking masses at the scale Q
         1     6.00000000E+01   # M_1(Q)              
         2     3.00000000E+03   # M_2(Q)              
         3     2.23496800E+03   # M_3(Q)              
        21     8.64853601E+06   # mH1^2(Q)            
        22     4.97884767E+05   # mH2^2(Q)            
        31     5.00000000E+03   # meL(Q)              
        32     5.00000000E+03   # mmuL(Q)             
        33     5.00000000E+03   # mtauL(Q)            
        34     5.00000000E+03   # meR(Q)              
        35     5.00000000E+03   # mmuR(Q)             
        36     5.00000000E+03   # mtauR(Q)            
        41     4.99999999E+03   # mqL1(Q)             
        42     4.99999999E+03   # mqL2(Q)             
        43     4.99999999E+03   # mqL3(Q)             
        44     4.99999999E+03   # muR(Q)              
        45     4.99999999E+03   # mcR(Q)              
        46     4.99999999E+03   # mtR(Q)              
        47     4.99999999E+03   # mdR(Q)              
        48     4.99999999E+03   # msR(Q)              
        49     4.99999999E+03   # mbR(Q)              
#
#
#
#                             =================
#                             |The decay table|
#                             =================
#
# - The QCD corrections to the decays gluino -> squark  + quark
#                                     squark -> gaugino + quark_prime
#                                     squark -> squark_prime + Higgs
#                                     squark -> gluino  + quark
#   are included.
#
# - The multi-body decays for the inos, stops and sbottoms are included.
#
# - The loop induced decays for the gluino, neutralinos and stops
#   are included.
#
# - The SUSY decays of the top quark are included.
#
#
#         PDG            Width
DECAY         6     1.40811707E+00   # top decays
#          BR         NDA      ID1       ID2
     1.00000000E+00    2           5        24   # BR(t ->  b    W+)
#
#         PDG            Width
DECAY   1000021     1.03525683E-02   # gluino decays
#          BR         NDA      ID1       ID2
     4.03274483E-07    2     1000022        21   # BR(~g -> ~chi_10 g)
     3.59324649E-03    2     1000023        21   # BR(~g -> ~chi_20 g)
     3.48230705E-03    2     1000025        21   # BR(~g -> ~chi_30 g)
#           BR         NDA      ID1       ID2       ID3
     8.84991760E-03    3     1000022         1        -1   # BR(~g -> ~chi_10 d  db)
     1.03202002E-04    3     1000023         1        -1   # BR(~g -> ~chi_20 d  db)
     9.23523856E-05    3     1000025         1        -1   # BR(~g -> ~chi_30 d  db)
     3.01700453E-02    3     1000022         2        -2   # BR(~g -> ~chi_10 u  ub)
     4.87508441E-04    3     1000023         2        -2   # BR(~g -> ~chi_20 u  ub)
     1.89268920E-04    3     1000025         2        -2   # BR(~g -> ~chi_30 u  ub)
     8.84991760E-03    3     1000022         3        -3   # BR(~g -> ~chi_10 s  sb)
     1.03202002E-04    3     1000023         3        -3   # BR(~g -> ~chi_20 s  sb)
     9.23523856E-05    3     1000025         3        -3   # BR(~g -> ~chi_30 s  sb)
     3.01700453E-02    3     1000022         4        -4   # BR(~g -> ~chi_10 c  cb)
     4.87508441E-04    3     1000023         4        -4   # BR(~g -> ~chi_20 c  cb)
     1.89268920E-04    3     1000025         4        -4   # BR(~g -> ~chi_30 c  cb)
     9.24328424E-03    3     1000022         5        -5   # BR(~g -> ~chi_10 b  bb)
     5.32666391E-03    3     1000023         5        -5   # BR(~g -> ~chi_20 b  bb)
     5.32492432E-03    3     1000025         5        -5   # BR(~g -> ~chi_30 b  bb)
     3.03188422E-02    3     1000022         6        -6   # BR(~g -> ~chi_10 t  tb)
     2.14933598E-01    3     1000023         6        -6   # BR(~g -> ~chi_20 t  tb)
     2.05681688E-01    3     1000025         6        -6   # BR(~g -> ~chi_30 t  tb)
     5.24024740E-05    3     1000024         1        -2   # BR(~g -> ~chi_1+ d  ub)
     5.24024740E-05    3    -1000024         2        -1   # BR(~g -> ~chi_1- u  db)
     5.24024740E-05    3     1000024         3        -4   # BR(~g -> ~chi_1+ s  cb)
     5.24024740E-05    3    -1000024         4        -3   # BR(~g -> ~chi_1- c  sb)
     2.21050422E-01    3     1000024         5        -6   # BR(~g -> ~chi_1+ b  tb)
     2.21050422E-01    3    -1000024         6        -5   # BR(~g -> ~chi_1- t  bb)
#
#         PDG            Width
DECAY   1000006     2.93414724E+02   # stop1 decays
#          BR         NDA      ID1       ID2
     2.89392271E-02    2     1000022         6   # BR(~t_1 -> ~chi_10 t )
     1.15424031E-01    2     1000023         6   # BR(~t_1 -> ~chi_20 t )
     1.06223072E-01    2     1000025         6   # BR(~t_1 -> ~chi_30 t )
     6.80598454E-03    2     1000035         6   # BR(~t_1 -> ~chi_40 t )
     1.65871459E-01    2     1000024         5   # BR(~t_1 -> ~chi_1+ b )
     1.35679997E-02    2     1000037         5   # BR(~t_1 -> ~chi_2+ b )
     5.63168226E-01    2     1000021         6   # BR(~t_1 -> ~g      t )
#
#         PDG            Width
DECAY   2000006     2.99691391E+02   # stop2 decays
#          BR         NDA      ID1       ID2
     1.20631323E-02    2     1000022         6   # BR(~t_2 -> ~chi_10 t )
     1.08618699E-01    2     1000023         6   # BR(~t_2 -> ~chi_20 t )
     1.18915260E-01    2     1000025         6   # BR(~t_2 -> ~chi_30 t )
     1.90513478E-02    2     1000035         6   # BR(~t_2 -> ~chi_40 t )
     6.37368585E-02    2     1000024         5   # BR(~t_2 -> ~chi_1+ b )
     3.79394605E-02    2     1000037         5   # BR(~t_2 -> ~chi_2+ b )
     6.35811018E-01    2     1000021         6   # BR(~t_2 -> ~g      t )
     9.00737132E-04    2     1000006        25   # BR(~t_2 -> ~t_1    h )
     2.96348727E-03    2     1000006        23   # BR(~t_2 -> ~t_1    Z )
#
#         PDG            Width
DECAY   1000005     2.73936463E+02   # sbottom1 decays
#          BR         NDA      ID1       ID2
     2.91003860E-03    2     1000022         5   # BR(~b_1 -> ~chi_10 b )
     2.94349850E-03    2     1000023         5   # BR(~b_1 -> ~chi_20 b )
     3.02011652E-03    2     1000025         5   # BR(~b_1 -> ~chi_30 b )
     2.79419053E-02    2     1000035         5   # BR(~b_1 -> ~chi_40 b )
     2.43898717E-01    2    -1000024         6   # BR(~b_1 -> ~chi_1- t )
     5.60947613E-02    2    -1000037         6   # BR(~b_1 -> ~chi_2- t )
     6.61249151E-01    2     1000021         5   # BR(~b_1 -> ~g      b )
     1.94181106E-03    2     1000006       -24   # BR(~b_1 -> ~t_1    W-)
#
#         PDG            Width
DECAY   2000005     1.90434449E+02   # sbottom2 decays
#          BR         NDA      ID1       ID2
     1.52479835E-02    2     1000022         5   # BR(~b_2 -> ~chi_10 b )
     4.62472117E-03    2     1000023         5   # BR(~b_2 -> ~chi_20 b )
     4.60486275E-03    2     1000025         5   # BR(~b_2 -> ~chi_30 b )
     5.28926231E-05    2     1000035         5   # BR(~b_2 -> ~chi_40 b )
     9.33873541E-03    2    -1000024         6   # BR(~b_2 -> ~chi_1- t )
     1.06214367E-04    2    -1000037         6   # BR(~b_2 -> ~chi_2- t )
     9.66006268E-01    2     1000021         5   # BR(~b_2 -> ~g      b )
     1.83222024E-05    2     1000006       -24   # BR(~b_2 -> ~t_1    W-)
#
#         PDG            Width
DECAY   1000002     2.10186311E+02   # sup_L decays
#          BR         NDA      ID1       ID2
     3.47005959E-03    2     1000022         2   # BR(~u_L -> ~chi_10 u)
     1.51186553E-04    2     1000023         2   # BR(~u_L -> ~chi_20 u)
     3.36974498E-08    2     1000025         2   # BR(~u_L -> ~chi_30 u)
     3.77640474E-02    2     1000035         2   # BR(~u_L -> ~chi_40 u)
     2.36471704E-04    2     1000024         1   # BR(~u_L -> ~chi_1+ d)
     7.54821312E-02    2     1000037         1   # BR(~u_L -> ~chi_2+ d)
     8.82896070E-01    2     1000021         2   # BR(~u_L -> ~g      u)
#
#         PDG            Width
DECAY   2000002     1.95900402E+02   # sup_R decays
#          BR         NDA      ID1       ID2
     5.93213435E-02    2     1000022         2   # BR(~u_R -> ~chi_10 u)
     8.16850270E-04    2     1000023         2   # BR(~u_R -> ~chi_20 u)
     5.49882901E-04    2     1000025         2   # BR(~u_R -> ~chi_30 u)
     3.85810632E-09    2     1000035         2   # BR(~u_R -> ~chi_40 u)
     9.39311919E-01    2     1000021         2   # BR(~u_R -> ~g      u)
#
#         PDG            Width
DECAY   1000001     2.10202350E+02   # sdown_L decays
#          BR         NDA      ID1       ID2
     3.46579422E-03    2     1000022         1   # BR(~d_L -> ~chi_10 d)
     2.32612916E-06    2     1000023         1   # BR(~d_L -> ~chi_20 d)
     1.24461799E-04    2     1000025         1   # BR(~d_L -> ~chi_30 d)
     3.77844462E-02    2     1000035         1   # BR(~d_L -> ~chi_40 d)
     2.48082150E-08    2    -1000024         2   # BR(~d_L -> ~chi_1- u)
     7.55959480E-02    2    -1000037         2   # BR(~d_L -> ~chi_2- u)
     8.83026999E-01    2     1000021         1   # BR(~d_L -> ~g      d)
#
#         PDG            Width
DECAY   2000001     1.87010977E+02   # sdown_R decays
#          BR         NDA      ID1       ID2
     1.55362416E-02    2     1000022         1   # BR(~d_R -> ~chi_10 d)
     2.13932989E-04    2     1000023         1   # BR(~d_R -> ~chi_20 d)
     1.44014268E-04    2     1000025         1   # BR(~d_R -> ~chi_30 d)
     1.01057708E-09    2     1000035         1   # BR(~d_R -> ~chi_40 d)
     9.84105810E-01    2     1000021         1   # BR(~d_R -> ~g      d)
#
#         PDG            Width
DECAY   1000004     2.10186311E+02   # scharm_L decays
#          BR         NDA      ID1       ID2
     3.47005959E-03    2     1000022         4   # BR(~c_L -> ~chi_10 c)
     1.51186553E-04    2     1000023         4   # BR(~c_L -> ~chi_20 c)
     3.36974498E-08    2     1000025         4   # BR(~c_L -> ~chi_30 c)
     3.77640474E-02    2     1000035         4   # BR(~c_L -> ~chi_40 c)
     2.36471704E-04    2     1000024         3   # BR(~c_L -> ~chi_1+ s)
     7.54821312E-02    2     1000037         3   # BR(~c_L -> ~chi_2+ s)
     8.82896070E-01    2     1000021         4   # BR(~c_L -> ~g      c)
#
#         PDG            Width
DECAY   2000004     1.95900402E+02   # scharm_R decays
#          BR         NDA      ID1       ID2
     5.93213435E-02    2     1000022         4   # BR(~c_R -> ~chi_10 c)
     8.16850270E-04    2     1000023         4   # BR(~c_R -> ~chi_20 c)
     5.49882901E-04    2     1000025         4   # BR(~c_R -> ~chi_30 c)
     3.85810632E-09    2     1000035         4   # BR(~c_R -> ~chi_40 c)
     9.39311919E-01    2     1000021         4   # BR(~c_R -> ~g      c)
#
#         PDG            Width
DECAY   1000003     2.10202350E+02   # sstrange_L decays
#          BR         NDA      ID1       ID2
     3.46579422E-03    2     1000022         3   # BR(~s_L -> ~chi_10 s)
     2.32612916E-06    2     1000023         3   # BR(~s_L -> ~chi_20 s)
     1.24461799E-04    2     1000025         3   # BR(~s_L -> ~chi_30 s)
     3.77844462E-02    2     1000035         3   # BR(~s_L -> ~chi_40 s)
     2.48082150E-08    2    -1000024         4   # BR(~s_L -> ~chi_1- c)
     7.55959480E-02    2    -1000037         4   # BR(~s_L -> ~chi_2- c)
     8.83026999E-01    2     1000021         3   # BR(~s_L -> ~g      s)
#
#         PDG            Width
DECAY   2000003     1.87010977E+02   # sstrange_R decays
#          BR         NDA      ID1       ID2
     1.55362416E-02    2     1000022         3   # BR(~s_R -> ~chi_10 s)
     2.13932989E-04    2     1000023         3   # BR(~s_R -> ~chi_20 s)
     1.44014268E-04    2     1000025         3   # BR(~s_R -> ~chi_30 s)
     1.01057708E-09    2     1000035         3   # BR(~s_R -> ~chi_40 s)
     9.84105810E-01    2     1000021         3   # BR(~s_R -> ~g      s)
#
#         PDG            Width
DECAY   1000011     3.03777681E+01   # selectron_L decays
#          BR         NDA      ID1       ID2
     2.21142566E-01    2     1000022        11   # BR(~e_L -> ~chi_10 e-)
     4.82728307E-03    2     1000023        11   # BR(~e_L -> ~chi_20 e-)
     9.39751909E-04    2     1000025        11   # BR(~e_L -> ~chi_30 e-)
     2.57529695E-01    2     1000035        11   # BR(~e_L -> ~chi_40 e-)
     1.75572071E-07    2    -1000024        12   # BR(~e_L -> ~chi_1- nu_e)
     5.15560528E-01    2    -1000037        12   # BR(~e_L -> ~chi_2- nu_e)
#
#         PDG            Width
DECAY   2000011     2.74118422E+01   # selectron_R decays
#          BR         NDA      ID1       ID2
     9.77499988E-01    2     1000022        11   # BR(~e_R -> ~chi_10 e-)
     1.34475024E-02    2     1000023        11   # BR(~e_R -> ~chi_20 e-)
     9.05244872E-03    2     1000025        11   # BR(~e_R -> ~chi_30 e-)
     6.13191020E-08    2     1000035        11   # BR(~e_R -> ~chi_40 e-)
#
#         PDG            Width
DECAY   1000013     3.03777681E+01   # smuon_L decays
#          BR         NDA      ID1       ID2
     2.21142566E-01    2     1000022        13   # BR(~mu_L -> ~chi_10 mu-)
     4.82728307E-03    2     1000023        13   # BR(~mu_L -> ~chi_20 mu-)
     9.39751909E-04    2     1000025        13   # BR(~mu_L -> ~chi_30 mu-)
     2.57529695E-01    2     1000035        13   # BR(~mu_L -> ~chi_40 mu-)
     1.75572071E-07    2    -1000024        14   # BR(~mu_L -> ~chi_1- nu_mu)
     5.15560528E-01    2    -1000037        14   # BR(~mu_L -> ~chi_2- nu_mu)
#
#         PDG            Width
DECAY   2000013     2.74118422E+01   # smuon_R decays
#          BR         NDA      ID1       ID2
     9.77499988E-01    2     1000022        13   # BR(~mu_R -> ~chi_10 mu-)
     1.34475024E-02    2     1000023        13   # BR(~mu_R -> ~chi_20 mu-)
     9.05244872E-03    2     1000025        13   # BR(~mu_R -> ~chi_30 mu-)
     6.13191020E-08    2     1000035        13   # BR(~mu_R -> ~chi_40 mu-)
#
#         PDG            Width
DECAY   1000015     2.92783032E+01   # stau_1 decays
#          BR         NDA      ID1       ID2
     9.15783993E-01    2     1000022        15   # BR(~tau_1 -> ~chi_10  tau-)
     2.78166388E-02    2     1000023        15   # BR(~tau_1 -> ~chi_20  tau-)
     2.35873068E-02    2     1000025        15   # BR(~tau_1 -> ~chi_30  tau-)
     3.02628703E-04    2     1000035        15   # BR(~tau_1 -> ~chi_40  tau-)
     3.19037296E-02    2    -1000024        16   # BR(~tau_1 -> ~chi_1-  nu_tau)
     6.05703480E-04    2    -1000037        16   # BR(~tau_1 -> ~chi_2-  nu_tau)
#
#         PDG            Width
DECAY   2000015     3.13044847E+01   # stau_2 decays
#          BR         NDA      ID1       ID2
     2.15171067E-01    2     1000022        15   # BR(~tau_2 -> ~chi_10  tau-)
     1.96415936E-02    2     1000023        15   # BR(~tau_2 -> ~chi_20  tau-)
     1.60653040E-02    2     1000025        15   # BR(~tau_2 -> ~chi_30  tau-)
     2.49532347E-01    2     1000035        15   # BR(~tau_2 -> ~chi_40  tau-)
     3.91356203E-05    2    -1000024        16   # BR(~tau_2 -> ~chi_1-  nu_tau)
     4.99550553E-01    2    -1000037        16   # BR(~tau_2 -> ~chi_2-  nu_tau)
#
#         PDG            Width
DECAY   1000012     3.03808961E+01   # snu_eL decays
#          BR         NDA      ID1       ID2
     2.20985876E-01    2     1000022        12   # BR(~nu_eL -> ~chi_10 nu_e)
     1.66622017E-03    2     1000023        12   # BR(~nu_eL -> ~chi_20 nu_e)
     3.58045056E-03    2     1000025        12   # BR(~nu_eL -> ~chi_30 nu_e)
     2.57576831E-01    2     1000035        12   # BR(~nu_eL -> ~chi_40 nu_e)
     1.67309021E-03    2     1000024        11   # BR(~nu_eL -> ~chi_1+ e-)
     5.14517532E-01    2     1000037        11   # BR(~nu_eL -> ~chi_2+ e-)
#
#         PDG            Width
DECAY   1000014     3.03808961E+01   # snu_muL decays
#          BR         NDA      ID1       ID2
     2.20985876E-01    2     1000022        14   # BR(~nu_muL -> ~chi_10 nu_mu)
     1.66622017E-03    2     1000023        14   # BR(~nu_muL -> ~chi_20 nu_mu)
     3.58045056E-03    2     1000025        14   # BR(~nu_muL -> ~chi_30 nu_mu)
     2.57576831E-01    2     1000035        14   # BR(~nu_muL -> ~chi_40 nu_mu)
     1.67309021E-03    2     1000024        13   # BR(~nu_muL -> ~chi_1+ mu-)
     5.14517532E-01    2     1000037        13   # BR(~nu_muL -> ~chi_2+ mu-)
#
#         PDG            Width
DECAY   1000016     3.13090645E+01   # snu_tauL decays
#          BR         NDA      ID1       ID2
     2.14410995E-01    2     1000022        16   # BR(~nu_tauL -> ~chi_10 nu_tau)
     1.61664347E-03    2     1000023        16   # BR(~nu_tauL -> ~chi_20 nu_tau)
     3.47391780E-03    2     1000025        16   # BR(~nu_tauL -> ~chi_30 nu_tau)
     2.49847016E-01    2     1000035        16   # BR(~nu_tauL -> ~chi_40 nu_tau)
     3.15747383E-02    2     1000024        15   # BR(~nu_tauL -> ~chi_1+ tau-)
     4.99076690E-01    2     1000037        15   # BR(~nu_tauL -> ~chi_2+ tau-)
#
#         PDG            Width
DECAY   1000024     1.63054008E-01   # chargino1+ decays
#          BR         NDA      ID1       ID2
     1.00000000E+00    2     1000022        24   # BR(~chi_1+ -> ~chi_10  W+)
#
#         PDG            Width
DECAY   1000037     2.28965535E+01   # chargino2+ decays
#          BR         NDA      ID1       ID2
     2.53647987E-01    2     1000024        23   # BR(~chi_2+ -> ~chi_1+  Z )
     1.47794000E-04    2     1000022        24   # BR(~chi_2+ -> ~chi_10  W+)
     2.45427536E-01    2     1000023        24   # BR(~chi_2+ -> ~chi_20  W+)
     2.44531708E-01    2     1000025        24   # BR(~chi_2+ -> ~chi_30  W+)
     2.56229845E-01    2     1000024        25   # BR(~chi_2+ -> ~chi_1+  h )
     1.51306735E-05    2     1000022        37   # BR(~chi_2+ -> ~chi_10  H+)
#
#         PDG            Width
DECAY   1000022     0.00000000E+00   # neutralino1 decays
#
#         PDG            Width
DECAY   1000023     1.53405835E-01   # neutralino2 decays
#          BR         NDA      ID1       ID2
     4.91776803E-01    2     1000022        23   # BR(~chi_20 -> ~chi_10   Z )
     5.08223197E-01    2     1000022        25   # BR(~chi_20 -> ~chi_10   h )
#
#         PDG            Width
DECAY   1000025     1.38258147E-01   # neutralino3 decays
#          BR         NDA      ID1       ID2
     6.71457524E-01    2     1000022        23   # BR(~chi_30 -> ~chi_10   Z )
     3.28542476E-01    2     1000022        25   # BR(~chi_30 -> ~chi_10   h )
#
#         PDG            Width
DECAY   1000035     2.28980451E+01   # neutralino4 decays
#          BR         NDA      ID1       ID2
     6.90256178E-05    2     1000022        23   # BR(~chi_40 -> ~chi_10   Z )
     1.29011854E-01    2     1000023        23   # BR(~chi_40 -> ~chi_20   Z )
     1.24401975E-01    2     1000025        23   # BR(~chi_40 -> ~chi_30   Z )
     2.45258578E-01    2     1000024       -24   # BR(~chi_40 -> ~chi_1+   W-)
     2.45258578E-01    2    -1000024        24   # BR(~chi_40 -> ~chi_1-   W+)
     6.83376998E-05    2     1000022        25   # BR(~chi_40 -> ~chi_10   h )
     1.46049019E-05    2     1000022        35   # BR(~chi_40 -> ~chi_10   H )
     1.54796062E-06    2     1000022        36   # BR(~chi_40 -> ~chi_10   A )
     1.26596936E-01    2     1000023        25   # BR(~chi_40 -> ~chi_20   h )
     1.29318564E-01    2     1000025        25   # BR(~chi_40 -> ~chi_30   h )
#
#         PDG            Width
DECAY        25     4.07688085E-03   # h decays
#          BR         NDA      ID1       ID2
     6.09208950E-01    2           5        -5   # BR(h -> b       bb     )
     6.36428112E-02    2         -15        15   # BR(h -> tau+    tau-   )
     2.25318575E-04    2         -13        13   # BR(h -> mu+     mu-    )
     4.77641260E-04    2           3        -3   # BR(h -> s       sb     )
     2.06941673E-02    2           4        -4   # BR(h -> c       cb     )
     6.69721463E-02    2          21        21   # BR(h -> g       g      )
     2.30142474E-03    2          22        22   # BR(h -> gam     gam    )
     1.48717478E-03    2          22        23   # BR(h -> Z       gam    )
     2.09968066E-01    2          24       -24   # BR(h -> W+      W-     )
     2.50200508E-02    2          23        23   # BR(h -> Z       Z      )
     2.24881945E-06    2     1000022   1000022   # BR(h -> ~chi_10 ~chi_10)
#
#         PDG            Width
DECAY        35     8.77844154E+00   # H decays
#          BR         NDA      ID1       ID2
     3.61395160E-01    2           5        -5   # BR(H -> b       bb     )
     6.34428644E-02    2         -15        15   # BR(H -> tau+    tau-   )
     2.24339008E-04    2         -13        13   # BR(H -> mu+     mu-    )
     2.75005119E-04    2           3        -3   # BR(H -> s       sb     )
     1.53951976E-06    2           4        -4   # BR(H -> c       cb     )
     1.53810225E-01    2           6        -6   # BR(H -> t       tb     )
     5.11791081E-05    2          21        21   # BR(H -> g       g      )
     1.38373708E-07    2          22        22   # BR(H -> gam     gam    )
     9.07480926E-08    2          23        22   # BR(H -> Z       gam    )
     7.48520460E-05    2          24       -24   # BR(H -> W+      W-     )
     3.73786383E-05    2          23        23   # BR(H -> Z       Z      )
     2.67640051E-04    2          25        25   # BR(H -> h       h      )
    -7.64122204E-24    2          36        36   # BR(H -> A       A      )
     5.97940781E-19    2          23        36   # BR(H -> Z       A      )
     3.40699753E-03    2     1000024  -1000024   # BR(H -> ~chi_1+ ~chi_1-)
     1.88161798E-02    2     1000022   1000022   # BR(H -> ~chi_10 ~chi_10)
     3.32997224E-03    2     1000023   1000023   # BR(H -> ~chi_20 ~chi_20)
     5.10656304E-03    2     1000025   1000025   # BR(H -> ~chi_30 ~chi_30)
     2.32152845E-01    2     1000022   1000023   # BR(H -> ~chi_10 ~chi_20)
     1.48095173E-01    2     1000022   1000025   # BR(H -> ~chi_10 ~chi_30)
     9.51185752E-03    2     1000023   1000025   # BR(H -> ~chi_20 ~chi_30)
#
#         PDG            Width
DECAY        36     8.78377022E+00   # A decays
#          BR         NDA      ID1       ID2
     3.61299564E-01    2           5        -5   # BR(A -> b       bb     )
     6.34062370E-02    2         -15        15   # BR(A -> tau+    tau-   )
     2.24209177E-04    2         -13        13   # BR(A -> mu+     mu-    )
     2.75046987E-04    2           3        -3   # BR(A -> s       sb     )
     1.54466710E-06    2           4        -4   # BR(A -> c       cb     )
     1.54239330E-01    2           6        -6   # BR(A -> t       tb     )
     1.52613335E-04    2          21        21   # BR(A -> g       g      )
     5.64010958E-07    2          22        22   # BR(A -> gam     gam    )
     1.84693858E-07    2          23        22   # BR(A -> Z       gam    )
     7.45231474E-05    2          23        25   # BR(A -> Z       h      )
     3.56228006E-03    2     1000024  -1000024   # BR(A -> ~chi_1+ ~chi_1-)
     1.80682499E-02    2     1000022   1000022   # BR(A -> ~chi_10 ~chi_10)
     2.25876094E-03    2     1000023   1000023   # BR(A -> ~chi_20 ~chi_20)
     8.17845083E-03    2     1000025   1000025   # BR(A -> ~chi_30 ~chi_30)
     1.51223866E-01    2     1000022   1000023   # BR(A -> ~chi_10 ~chi_20)
     2.28696263E-01    2     1000022   1000025   # BR(A -> ~chi_10 ~chi_30)
     8.33831343E-03    2     1000023   1000025   # BR(A -> ~chi_20 ~chi_30)
#
#         PDG            Width
DECAY        37     8.72748312E+00   # H+ decays
#          BR         NDA      ID1       ID2
     5.79461646E-04    2           4        -5   # BR(H+ -> c       bb     )
     6.38464301E-02    2         -15        16   # BR(H+ -> tau+    nu_tau )
     2.25765732E-04    2         -13        14   # BR(H+ -> mu+     nu_mu  )
     3.70853499E-06    2           2        -5   # BR(H+ -> u       bb     )
     1.32471220E-05    2           2        -3   # BR(H+ -> u       sb     )
     2.73952276E-04    2           4        -3   # BR(H+ -> c       sb     )
     5.14193431E-01    2           6        -5   # BR(H+ -> t       bb     )
     7.51624831E-05    2          24        25   # BR(H+ -> W+      h      )
     1.03198206E-12    2          24        36   # BR(H+ -> W+      A      )
     4.09973566E-01    2     1000024   1000022   # BR(H+ -> ~chi_1+ ~chi_10)
     9.11047126E-03    2     1000024   1000023   # BR(H+ -> ~chi_1+ ~chi_20)
     1.70480374E-03    2     1000024   1000025   # BR(H+ -> ~chi_1+ ~chi_30)
