#
#                              ======================
#                              | THE SUSYHIT OUTPUT |
#                              ======================
#
#
#              ------------------------------------------------------
#              |     This is the output of the SUSY-HIT package     |
#              |  created by A.Djouadi, M.Muehlleitner and M.Spira. |
#              |  In case of problems with SUSY-HIT email to        |
#              |           margarete.muehlleitner@cern.ch           |
#              |           michael.spira@psi.ch                     |
#              |           abdelhak.djouadi@cern.ch                 |
#              ------------------------------------------------------
#
#              ------------------------------------------------------
#              |  SUSY Les Houches Accord - MSSM Spectrum + Decays  |
#              |              based on the decay programs           |
#              |                                                    |
#              |                     SDECAY 1.3b                    |
#              |                                                    |
#              |  Authors: M.Muhlleitner, A.Djouadi and Y.Mambrini  |
#              |  Ref.:    Comput.Phys.Commun.168(2005)46           |
#              |           [hep-ph/0311167]                         |
#              |                                                    |
#              |                     HDECAY 3.4                     |
#              |                                                    |
#              |  By: A.Djouadi,J.Kalinowski,M.Muhlleitner,M.Spira  |
#              |  Ref.:    Comput.Phys.Commun.108(1998)56           |
#              |           [hep-ph/9704448]                         |
#              |                                                    |
#              |                                                    |
#              |  If not stated otherwise all DRbar couplings and   |
#              |  soft SUSY breaking masses are given at the scale  |
#              |  Q=  0.50007766E+04
#              |                                                    |
#              ------------------------------------------------------
#
#
BLOCK DCINFO  # Decay Program information
     1   SDECAY/HDECAY # decay calculator
     2   1.3b  /3.4    # version number
#
BLOCK SPINFO  # Spectrum calculator information
     1    SOFTSUSY    # spectrum calculator                
     2    3.4.0       # version number                     
#
BLOCK MODSEL  # Model selection
     1     0   #  nonUniversal                                     
#
BLOCK SMINPUTS  # Standard Model inputs
         1     1.25778332E+02   # alpha_em^-1(M_Z)^MSbar
         2     1.16570000E-05   # G_F [GeV^-2]
         3     1.17200002E-01   # alpha_S(M_Z)^MSbar
         4     9.11876000E+01   # M_Z pole mass
         5     4.25000000E+00   # mb(mb)^MSbar
         6     1.72500000E+02   # mt pole mass
         7     1.77682000E+00   # mtau pole mass
#
BLOCK MINPAR  # Input parameters - minimal models
         3     1.00000000E+01   # tanb                
#
BLOCK EXTPAR  # Input parameters - non-minimal models
         0    -1.00000000E+00   # Set                 
         1     6.00000000E+01   # M_1(MX)             
         2     3.00000000E+03   # M_2(MX)             
         3     2.42817500E+03   # M_3(MX)             
        11     5.00000000E+03   # At(MX)              
        12     5.00000000E+03   # Ab(MX)              
        13     0.00000000E+00   # Atau(MX)            
        23    -1.58711000E+02   # mu(MX)              
        26     3.00000000E+03   # mA(pole)            
        31     5.00000000E+03   # meL(MX)             
        32     5.00000000E+03   # mmuL(MX)            
        33     5.00000000E+03   # mtauL(MX)           
        34     5.00000000E+03   # meR(MX)             
        35     5.00000000E+03   # mmuR(MX)            
        36     5.00000000E+03   # mtauR(MX)           
        41     5.00000000E+03   # mqL1(MX)            
        42     5.00000000E+03   # mqL2(MX)            
        43     5.00000000E+03   # mqL3(MX)            
        44     5.00000000E+03   # muR(MX)             
        45     5.00000000E+03   # mcR(MX)             
        46     5.00000000E+03   # mtR(MX)             
        47     5.00000000E+03   # mdR(MX)             
        48     5.00000000E+03   # msR(MX)             
        49     5.00000000E+03   # mbR(MX)             
#
BLOCK MASS  # Mass Spectrum
# PDG code           mass       particle
        24     8.00909427E+01   # W+
        25     1.24802047E+02   # h
        35     3.00009183E+03   # H
        36     2.99999980E+03   # A
        37     3.00148464E+03   # H+
         5     4.87878001E+00   # b-quark pole mass calculated from mb(mb)_Msbar
   1000001     5.08639666E+03   # ~d_L
   2000001     5.06854183E+03   # ~d_R
   1000002     5.08592518E+03   # ~u_L
   2000002     5.06823230E+03   # ~u_R
   1000003     5.08639666E+03   # ~s_L
   2000003     5.06854183E+03   # ~s_R
   1000004     5.08592518E+03   # ~c_L
   2000004     5.06823230E+03   # ~c_R
   1000005     5.03244113E+03   # ~b_1
   2000005     5.06659384E+03   # ~b_2
   1000006     4.92502379E+03   # ~t_1
   2000006     5.07446896E+03   # ~t_2
   1000011     5.01917149E+03   # ~e_L
   2000011     5.00596202E+03   # ~e_R
   1000012     5.01821843E+03   # ~nu_eL
   1000013     5.01917149E+03   # ~mu_L
   2000013     5.00596202E+03   # ~mu_R
   1000014     5.01821843E+03   # ~nu_muL
   1000015     5.00483718E+03   # ~tau_1
   2000015     5.01863280E+03   # ~tau_2
   1000016     5.01766323E+03   # ~nu_tauL
   1000021     2.80000079E+03   # ~g
   1000022     5.78426672E+01   # ~chi_10
   1000023    -1.75655975E+02   # ~chi_20
   1000025     1.75673397E+02   # ~chi_30
   1000035     3.07433788E+03   # ~chi_40
   1000024     1.70000680E+02   # ~chi_1+
   1000037     3.07450608E+03   # ~chi_2+
#
BLOCK NMIX  # Neutralino Mixing Matrix
  1  1     9.59063485E-01   # N_11
  1  2    -9.56151118E-04   # N_12
  1  3    -2.74939312E-01   # N_13
  1  4    -6.78578769E-02   # N_14
  2  1    -1.47312364E-01   # N_21
  2  2     1.87603211E-02   # N_22
  2  3    -6.89011660E-01   # N_23
  2  4     7.09372998E-01   # N_24
  3  1     2.41859727E-01   # N_31
  3  2     1.69291009E-02   # N_32
  3  3     6.70574073E-01   # N_33
  3  4     7.01104622E-01   # N_34
  4  1    -4.13963235E-04   # N_41
  4  2     9.99680220E-01   # N_42
  4  3     1.31139966E-03   # N_43
  4  4    -2.52500930E-02   # N_44
#
BLOCK UMIX  # Chargino Mixing Matrix U
  1  1    -1.84877355E-03   # U_11
  1  2     9.99998291E-01   # U_12
  2  1    -9.99998291E-01   # U_21
  2  2    -1.84877355E-03   # U_22
#
BLOCK VMIX  # Chargino Mixing Matrix V
  1  1     3.57277898E-02   # V_11
  1  2    -9.99361559E-01   # V_12
  2  1    -9.99361559E-01   # V_21
  2  2    -3.57277898E-02   # V_22
#
BLOCK STOPMIX  # Stop Mixing Matrix
  1  1    -4.98918273E-01   # cos(theta_t)
  1  2     8.66649039E-01   # sin(theta_t)
  2  1    -8.66649039E-01   # -sin(theta_t)
  2  2    -4.98918273E-01   # cos(theta_t)
#
BLOCK SBOTMIX  # Sbottom Mixing Matrix
  1  1     9.99467160E-01   # cos(theta_b)
  1  2    -3.26404057E-02   # sin(theta_b)
  2  1     3.26404057E-02   # -sin(theta_b)
  2  2     9.99467160E-01   # cos(theta_b)
#
BLOCK STAUMIX  # Stau Mixing Matrix
  1  1    -1.87293677E-02   # cos(theta_tau)
  1  2     9.99824590E-01   # sin(theta_tau)
  2  1    -9.99824590E-01   # -sin(theta_tau)
  2  2    -1.87293677E-02   # cos(theta_tau)
#
BLOCK ALPHA  # Higgs mixing
          -1.05503515E-01   # Mixing angle in the neutral Higgs boson sector
#
BLOCK HMIX Q=  5.00077663E+03  # DRbar Higgs Parameters
         1    -1.61613036E+02   # mu(Q)MSSM           
         2     9.46800140E+00   # tan                 
         3     2.41656098E+02   # higgs               
         4     8.80186652E+06   # mA^2(Q)MSSM         
#
BLOCK GAUGE Q=  5.00077663E+03  # The gauge couplings
     1     3.71177757E-01   # gprime(Q) DRbar
     2     6.34491876E-01   # g(Q) DRbar
     3     9.93525419E-01   # g3(Q) DRbar
#
BLOCK AU Q=  5.00077663E+03  # The trilinear couplings
  1  1     5.00000002E+03   # A_u(Q) DRbar
  2  2     5.00000002E+03   # A_c(Q) DRbar
  3  3     5.00000003E+03   # A_t(Q) DRbar
#
BLOCK AD Q=  5.00077663E+03  # The trilinear couplings
  1  1     5.00000001E+03   # A_d(Q) DRbar
  2  2     5.00000001E+03   # A_s(Q) DRbar
  3  3     5.00000001E+03   # A_b(Q) DRbar
#
BLOCK AE Q=  5.00077663E+03  # The trilinear couplings
  1  1     0.00000000E+00   # A_e(Q) DRbar
  2  2     2.88430380E-07   # A_mu(Q) DRbar
  3  3     2.88520353E-07   # A_tau(Q) DRbar
#
BLOCK Yu Q=  5.00077663E+03  # The Yukawa couplings
  1  1     0.00000000E+00   # y_u(Q) DRbar
  2  2     0.00000000E+00   # y_c(Q) DRbar
  3  3     8.22065574E-01   # y_t(Q) DRbar
#
BLOCK Yd Q=  5.00077663E+03  # The Yukawa couplings
  1  1     0.00000000E+00   # y_d(Q) DRbar
  2  2     0.00000000E+00   # y_s(Q) DRbar
  3  3     1.30016367E-01   # y_b(Q) DRbar
#
BLOCK Ye Q=  5.00077663E+03  # The Yukawa couplings
  1  1     0.00000000E+00   # y_e(Q) DRbar
  2  2     0.00000000E+00   # y_mu(Q) DRbar
  3  3     9.73667571E-02   # y_tau(Q) DRbar
#
BLOCK MSOFT Q=  5.00077663E+03  # The soft SUSY breaking masses at the scale Q
         1     6.00000000E+01   # M_1(Q)              
         2     3.00000000E+03   # M_2(Q)              
         3     2.42817500E+03   # M_3(Q)              
        21     8.70895520E+06   # mH1^2(Q)            
        22     5.56491803E+05   # mH2^2(Q)            
        31     5.00000000E+03   # meL(Q)              
        32     5.00000000E+03   # mmuL(Q)             
        33     5.00000000E+03   # mtauL(Q)            
        34     5.00000000E+03   # meR(Q)              
        35     5.00000000E+03   # mmuR(Q)             
        36     5.00000000E+03   # mtauR(Q)            
        41     4.99999999E+03   # mqL1(Q)             
        42     4.99999999E+03   # mqL2(Q)             
        43     4.99999999E+03   # mqL3(Q)             
        44     4.99999999E+03   # muR(Q)              
        45     4.99999999E+03   # mcR(Q)              
        46     4.99999999E+03   # mtR(Q)              
        47     4.99999999E+03   # mdR(Q)              
        48     4.99999999E+03   # msR(Q)              
        49     4.99999999E+03   # mbR(Q)              
#
#
#
#                             =================
#                             |The decay table|
#                             =================
#
# - The QCD corrections to the decays gluino -> squark  + quark
#                                     squark -> gaugino + quark_prime
#                                     squark -> squark_prime + Higgs
#                                     squark -> gluino  + quark
#   are included.
#
# - The multi-body decays for the inos, stops and sbottoms are included.
#
# - The loop induced decays for the gluino, neutralinos and stops
#   are included.
#
# - The SUSY decays of the top quark are included.
#
#
#         PDG            Width
DECAY         6     1.41095515E+00   # top decays
#          BR         NDA      ID1       ID2
     1.00000000E+00    2           5        24   # BR(t ->  b    W+)
#
#         PDG            Width
DECAY   1000021     1.66413850E-02   # gluino decays
#          BR         NDA      ID1       ID2
     2.24128316E-05    2     1000022        21   # BR(~g -> ~chi_10 g)
     2.89202275E-03    2     1000023        21   # BR(~g -> ~chi_20 g)
     2.95261633E-03    2     1000025        21   # BR(~g -> ~chi_30 g)
#           BR         NDA      ID1       ID2       ID3
     7.77350495E-03    3     1000022         1        -1   # BR(~g -> ~chi_10 d  db)
     2.06611610E-04    3     1000023         1        -1   # BR(~g -> ~chi_20 d  db)
     4.53493269E-04    3     1000025         1        -1   # BR(~g -> ~chi_30 d  db)
     2.64287313E-02    3     1000022         2        -2   # BR(~g -> ~chi_10 u  ub)
     4.98066247E-04    3     1000023         2        -2   # BR(~g -> ~chi_20 u  ub)
     1.83508039E-03    3     1000025         2        -2   # BR(~g -> ~chi_30 u  ub)
     7.77350495E-03    3     1000022         3        -3   # BR(~g -> ~chi_10 s  sb)
     2.06611610E-04    3     1000023         3        -3   # BR(~g -> ~chi_20 s  sb)
     4.53493269E-04    3     1000025         3        -3   # BR(~g -> ~chi_30 s  sb)
     2.64287313E-02    3     1000022         4        -4   # BR(~g -> ~chi_10 c  cb)
     4.98066247E-04    3     1000023         4        -4   # BR(~g -> ~chi_20 c  cb)
     1.83508039E-03    3     1000025         4        -4   # BR(~g -> ~chi_30 c  cb)
     8.74040584E-03    3     1000022         5        -5   # BR(~g -> ~chi_10 b  bb)
     5.27132795E-03    3     1000023         5        -5   # BR(~g -> ~chi_20 b  bb)
     5.24247974E-03    3     1000025         5        -5   # BR(~g -> ~chi_30 b  bb)
     2.67131394E-02    3     1000022         6        -6   # BR(~g -> ~chi_10 t  tb)
     2.09425903E-01    3     1000023         6        -6   # BR(~g -> ~chi_20 t  tb)
     2.18669737E-01    3     1000025         6        -6   # BR(~g -> ~chi_30 t  tb)
     5.22733180E-05    3     1000024         1        -2   # BR(~g -> ~chi_1+ d  ub)
     5.22733180E-05    3    -1000024         2        -1   # BR(~g -> ~chi_1- u  db)
     5.22733180E-05    3     1000024         3        -4   # BR(~g -> ~chi_1+ s  cb)
     5.22733180E-05    3    -1000024         4        -3   # BR(~g -> ~chi_1- c  sb)
     2.22734943E-01    3     1000024         5        -6   # BR(~g -> ~chi_1+ b  tb)
     2.22734943E-01    3    -1000024         6        -5   # BR(~g -> ~chi_1- t  bb)
#
#         PDG            Width
DECAY   1000006     2.74137229E+02   # stop1 decays
#          BR         NDA      ID1       ID2
     2.69994097E-02    2     1000022         6   # BR(~t_1 -> ~chi_10 t )
     1.12864494E-01    2     1000023         6   # BR(~t_1 -> ~chi_20 t )
     1.29454467E-01    2     1000025         6   # BR(~t_1 -> ~chi_30 t )
     7.24351683E-03    2     1000035         6   # BR(~t_1 -> ~chi_40 t )
     1.78931764E-01    2     1000024         5   # BR(~t_1 -> ~chi_1+ b )
     1.44410112E-02    2     1000037         5   # BR(~t_1 -> ~chi_2+ b )
     5.30065338E-01    2     1000021         6   # BR(~t_1 -> ~g      t )
#
#         PDG            Width
DECAY   2000006     2.80426733E+02   # stop2 decays
#          BR         NDA      ID1       ID2
     1.64089089E-02    2     1000022         6   # BR(~t_2 -> ~chi_10 t )
     1.30535299E-01    2     1000023         6   # BR(~t_2 -> ~chi_20 t )
     1.10011132E-01    2     1000025         6   # BR(~t_2 -> ~chi_30 t )
     2.05237743E-02    2     1000035         6   # BR(~t_2 -> ~chi_40 t )
     6.77485069E-02    2     1000024         5   # BR(~t_2 -> ~chi_1+ b )
     4.08721779E-02    2     1000037         5   # BR(~t_2 -> ~chi_2+ b )
     6.09862230E-01    2     1000021         6   # BR(~t_2 -> ~g      t )
     9.41476592E-04    2     1000006        25   # BR(~t_2 -> ~t_1    h )
     3.09649449E-03    2     1000006        23   # BR(~t_2 -> ~t_1    Z )
#
#         PDG            Width
DECAY   1000005     2.54661301E+02   # sbottom1 decays
#          BR         NDA      ID1       ID2
     3.40181930E-03    2     1000022         5   # BR(~b_1 -> ~chi_10 b )
     3.21560365E-03    2     1000023         5   # BR(~b_1 -> ~chi_20 b )
     2.93374823E-03    2     1000025         5   # BR(~b_1 -> ~chi_30 b )
     3.02047592E-02    2     1000035         5   # BR(~b_1 -> ~chi_40 b )
     2.63578570E-01    2    -1000024         6   # BR(~b_1 -> ~chi_1- t )
     6.06364912E-02    2    -1000037         6   # BR(~b_1 -> ~chi_2- t )
     6.33972722E-01    2     1000021         5   # BR(~b_1 -> ~g      b )
     2.05628666E-03    2     1000006       -24   # BR(~b_1 -> ~t_1    W-)
#
#         PDG            Width
DECAY   2000005     1.70738634E+02   # sbottom2 decays
#          BR         NDA      ID1       ID2
     1.64473864E-02    2     1000022         5   # BR(~b_2 -> ~chi_10 b )
     5.23357353E-03    2     1000023         5   # BR(~b_2 -> ~chi_20 b )
     5.64555050E-03    2     1000025         5   # BR(~b_2 -> ~chi_30 b )
     3.75331996E-05    2     1000035         5   # BR(~b_2 -> ~chi_40 b )
     1.02547003E-02    2    -1000024         6   # BR(~b_2 -> ~chi_1- t )
     7.53891704E-05    2    -1000037         6   # BR(~b_2 -> ~chi_2- t )
     9.62291859E-01    2     1000021         5   # BR(~b_2 -> ~g      b )
     1.40077609E-05    2     1000006       -24   # BR(~b_2 -> ~t_1    W-)
#
#         PDG            Width
DECAY   1000002     1.90663238E+02   # sup_L decays
#          BR         NDA      ID1       ID2
     3.56126973E-03    2     1000022         2   # BR(~u_L -> ~chi_10 u)
     1.01990406E-05    2     1000023         2   # BR(~u_L -> ~chi_20 u)
     4.21849270E-04    2     1000025         2   # BR(~u_L -> ~chi_30 u)
     4.18088627E-02    2     1000035         2   # BR(~u_L -> ~chi_40 u)
     2.62212060E-04    2     1000024         1   # BR(~u_L -> ~chi_1+ d)
     8.35674887E-02    2     1000037         1   # BR(~u_L -> ~chi_2+ d)
     8.70368119E-01    2     1000021         2   # BR(~u_L -> ~g      u)
#
#         PDG            Width
DECAY   2000002     1.76254258E+02   # sup_R decays
#          BR         NDA      ID1       ID2
     6.20519269E-02    2     1000022         2   # BR(~u_R -> ~chi_10 u)
     1.46148384E-03    2     1000023         2   # BR(~u_R -> ~chi_20 u)
     3.93951316E-03    2     1000025         2   # BR(~u_R -> ~chi_30 u)
     4.66506578E-09    2     1000035         2   # BR(~u_R -> ~chi_40 u)
     9.32547071E-01    2     1000021         2   # BR(~u_R -> ~g      u)
#
#         PDG            Width
DECAY   1000001     1.90679483E+02   # sdown_L decays
#          BR         NDA      ID1       ID2
     3.63488520E-03    2     1000022         1   # BR(~d_L -> ~chi_10 d)
     2.31575713E-04    2     1000023         1   # BR(~d_L -> ~chi_20 d)
     9.38718983E-05    2     1000025         1   # BR(~d_L -> ~chi_30 d)
     4.18315614E-02    2     1000035         1   # BR(~d_L -> ~chi_40 d)
     7.02121265E-07    2    -1000024         2   # BR(~d_L -> ~chi_1- u)
     8.36924051E-02    2    -1000037         2   # BR(~d_L -> ~chi_2- u)
     8.70514999E-01    2     1000021         1   # BR(~d_L -> ~g      d)
#
#         PDG            Width
DECAY   2000001     1.67365471E+02   # sdown_R decays
#          BR         NDA      ID1       ID2
     1.63378981E-02    2     1000022         1   # BR(~d_R -> ~chi_10 d)
     3.84799959E-04    2     1000023         1   # BR(~d_R -> ~chi_20 d)
     1.03725027E-03    2     1000025         1   # BR(~d_R -> ~chi_30 d)
     1.22845559E-09    2     1000035         1   # BR(~d_R -> ~chi_40 d)
     9.82240050E-01    2     1000021         1   # BR(~d_R -> ~g      d)
#
#         PDG            Width
DECAY   1000004     1.90663238E+02   # scharm_L decays
#          BR         NDA      ID1       ID2
     3.56126973E-03    2     1000022         4   # BR(~c_L -> ~chi_10 c)
     1.01990406E-05    2     1000023         4   # BR(~c_L -> ~chi_20 c)
     4.21849270E-04    2     1000025         4   # BR(~c_L -> ~chi_30 c)
     4.18088627E-02    2     1000035         4   # BR(~c_L -> ~chi_40 c)
     2.62212060E-04    2     1000024         3   # BR(~c_L -> ~chi_1+ s)
     8.35674887E-02    2     1000037         3   # BR(~c_L -> ~chi_2+ s)
     8.70368119E-01    2     1000021         4   # BR(~c_L -> ~g      c)
#
#         PDG            Width
DECAY   2000004     1.76254258E+02   # scharm_R decays
#          BR         NDA      ID1       ID2
     6.20519269E-02    2     1000022         4   # BR(~c_R -> ~chi_10 c)
     1.46148384E-03    2     1000023         4   # BR(~c_R -> ~chi_20 c)
     3.93951316E-03    2     1000025         4   # BR(~c_R -> ~chi_30 c)
     4.66506578E-09    2     1000035         4   # BR(~c_R -> ~chi_40 c)
     9.32547071E-01    2     1000021         4   # BR(~c_R -> ~g      c)
#
#         PDG            Width
DECAY   1000003     1.90679483E+02   # sstrange_L decays
#          BR         NDA      ID1       ID2
     3.63488520E-03    2     1000022         3   # BR(~s_L -> ~chi_10 s)
     2.31575713E-04    2     1000023         3   # BR(~s_L -> ~chi_20 s)
     9.38718983E-05    2     1000025         3   # BR(~s_L -> ~chi_30 s)
     4.18315614E-02    2     1000035         3   # BR(~s_L -> ~chi_40 s)
     7.02121265E-07    2    -1000024         4   # BR(~s_L -> ~chi_1- c)
     8.36924051E-02    2    -1000037         4   # BR(~s_L -> ~chi_2- c)
     8.70514999E-01    2     1000021         3   # BR(~s_L -> ~g      s)
#
#         PDG            Width
DECAY   2000003     1.67365471E+02   # sstrange_R decays
#          BR         NDA      ID1       ID2
     1.63378981E-02    2     1000022         3   # BR(~s_R -> ~chi_10 s)
     3.84799959E-04    2     1000023         3   # BR(~s_R -> ~chi_20 s)
     1.03725027E-03    2     1000025         3   # BR(~s_R -> ~chi_30 s)
     1.22845559E-09    2     1000035         3   # BR(~s_R -> ~chi_40 s)
     9.82240050E-01    2     1000021         3   # BR(~s_R -> ~g      s)
#
#         PDG            Width
DECAY   1000011     3.04277131E+01   # selectron_L decays
#          BR         NDA      ID1       ID2
     2.07168911E-01    2     1000022        11   # BR(~e_L -> ~chi_10 e-)
     2.99498528E-03    2     1000023        11   # BR(~e_L -> ~chi_20 e-)
     1.65369006E-02    2     1000025        11   # BR(~e_L -> ~chi_30 e-)
     2.57594909E-01    2     1000035        11   # BR(~e_L -> ~chi_40 e-)
     4.50521399E-06    2    -1000024        12   # BR(~e_L -> ~chi_1- nu_e)
     5.15699789E-01    2    -1000037        12   # BR(~e_L -> ~chi_2- nu_e)
#
#         PDG            Width
DECAY   2000011     2.74295764E+01   # selectron_R decays
#          BR         NDA      ID1       ID2
     9.19964805E-01    2     1000022        11   # BR(~e_R -> ~chi_10 e-)
     2.16571225E-02    2     1000023        11   # BR(~e_R -> ~chi_20 e-)
     5.83780064E-02    2     1000025        11   # BR(~e_R -> ~chi_30 e-)
     6.65067961E-08    2     1000035        11   # BR(~e_R -> ~chi_40 e-)
#
#         PDG            Width
DECAY   1000013     3.04277131E+01   # smuon_L decays
#          BR         NDA      ID1       ID2
     2.07168911E-01    2     1000022        13   # BR(~mu_L -> ~chi_10 mu-)
     2.99498528E-03    2     1000023        13   # BR(~mu_L -> ~chi_20 mu-)
     1.65369006E-02    2     1000025        13   # BR(~mu_L -> ~chi_30 mu-)
     2.57594909E-01    2     1000035        13   # BR(~mu_L -> ~chi_40 mu-)
     4.50521399E-06    2    -1000024        14   # BR(~mu_L -> ~chi_1- nu_mu)
     5.15699789E-01    2    -1000037        14   # BR(~mu_L -> ~chi_2- nu_mu)
#
#         PDG            Width
DECAY   2000013     2.74295764E+01   # smuon_R decays
#          BR         NDA      ID1       ID2
     9.19964805E-01    2     1000022        13   # BR(~mu_R -> ~chi_10 mu-)
     2.16571225E-02    2     1000023        13   # BR(~mu_R -> ~chi_20 mu-)
     5.83780064E-02    2     1000025        13   # BR(~mu_R -> ~chi_30 mu-)
     6.65067961E-08    2     1000035        13   # BR(~mu_R -> ~chi_40 mu-)
#
#         PDG            Width
DECAY   1000015     2.93072242E+01   # stau_1 decays
#          BR         NDA      ID1       ID2
     8.63897481E-01    2     1000022        15   # BR(~tau_1 -> ~chi_10  tau-)
     3.51117579E-02    2     1000023        15   # BR(~tau_1 -> ~chi_20  tau-)
     6.85952043E-02    2     1000025        15   # BR(~tau_1 -> ~chi_30  tau-)
     9.58179542E-05    2     1000035        15   # BR(~tau_1 -> ~chi_40  tau-)
     3.21080686E-02    2    -1000024        16   # BR(~tau_1 -> ~chi_1-  nu_tau)
     1.91670108E-04    2    -1000037        16   # BR(~tau_1 -> ~chi_2-  nu_tau)
#
#         PDG            Width
DECAY   2000015     3.13623976E+01   # stau_2 decays
#          BR         NDA      ID1       ID2
     2.02661529E-01    2     1000022        15   # BR(~tau_2 -> ~chi_10  tau-)
     1.75791635E-02    2     1000023        15   # BR(~tau_2 -> ~chi_20  tau-)
     3.00274191E-02    2     1000025        15   # BR(~tau_2 -> ~chi_30  tau-)
     2.49736289E-01    2     1000035        15   # BR(~tau_2 -> ~chi_40  tau-)
     2.85180917E-05    2    -1000024        16   # BR(~tau_2 -> ~chi_1-  nu_tau)
     4.99967080E-01    2    -1000037        16   # BR(~tau_2 -> ~chi_2-  nu_tau)
#
#         PDG            Width
DECAY   1000012     3.04305626E+01   # snu_eL decays
#          BR         NDA      ID1       ID2
     2.08526818E-01    2     1000022        12   # BR(~nu_eL -> ~chi_10 nu_e)
     7.25425795E-03    2     1000023        12   # BR(~nu_eL -> ~chi_20 nu_e)
     1.02205880E-02    2     1000025        12   # BR(~nu_eL -> ~chi_30 nu_e)
     2.57653952E-01    2     1000035        12   # BR(~nu_eL -> ~chi_40 nu_e)
     1.68204172E-03    2     1000024        11   # BR(~nu_eL -> ~chi_1+ e-)
     5.14662342E-01    2     1000037        11   # BR(~nu_eL -> ~chi_2+ e-)
#
#         PDG            Width
DECAY   1000014     3.04305626E+01   # snu_muL decays
#          BR         NDA      ID1       ID2
     2.08526818E-01    2     1000022        14   # BR(~nu_muL -> ~chi_10 nu_mu)
     7.25425795E-03    2     1000023        14   # BR(~nu_muL -> ~chi_20 nu_mu)
     1.02205880E-02    2     1000025        14   # BR(~nu_muL -> ~chi_30 nu_mu)
     2.57653952E-01    2     1000035        14   # BR(~nu_muL -> ~chi_40 nu_mu)
     1.68204172E-03    2     1000024        13   # BR(~nu_muL -> ~chi_1+ mu-)
     5.14662342E-01    2     1000037        13   # BR(~nu_muL -> ~chi_2+ mu-)
#
#         PDG            Width
DECAY   1000016     3.13651314E+01   # snu_tauL decays
#          BR         NDA      ID1       ID2
     2.02291069E-01    2     1000022        16   # BR(~nu_tauL -> ~chi_10 nu_tau)
     7.03732451E-03    2     1000023        16   # BR(~nu_tauL -> ~chi_20 nu_tau)
     9.91494859E-03    2     1000025        16   # BR(~nu_tauL -> ~chi_30 nu_tau)
     2.49882663E-01    2     1000035        16   # BR(~nu_tauL -> ~chi_40 nu_tau)
     3.17348678E-02    2     1000024        15   # BR(~nu_tauL -> ~chi_1+ tau-)
     4.99139127E-01    2     1000037        15   # BR(~nu_tauL -> ~chi_2+ tau-)
#
#         PDG            Width
DECAY   1000024     5.13253382E-02   # chargino1+ decays
#          BR         NDA      ID1       ID2
     1.00000000E+00    2     1000022        24   # BR(~chi_1+ -> ~chi_10  W+)
#
#         PDG            Width
DECAY   1000037     2.34279782E+01   # chargino2+ decays
#          BR         NDA      ID1       ID2
     2.53910300E-01    2     1000024        23   # BR(~chi_2+ -> ~chi_1+  Z )
     1.78439977E-03    2     1000022        24   # BR(~chi_2+ -> ~chi_10  W+)
     2.45130734E-01    2     1000023        24   # BR(~chi_2+ -> ~chi_20  W+)
     2.43615706E-01    2     1000025        24   # BR(~chi_2+ -> ~chi_30  W+)
     2.55503580E-01    2     1000024        25   # BR(~chi_2+ -> ~chi_1+  h )
     5.52804705E-05    2     1000022        37   # BR(~chi_2+ -> ~chi_10  H+)
#
#         PDG            Width
DECAY   1000022     0.00000000E+00   # neutralino1 decays
#
#         PDG            Width
DECAY   1000023     2.13694520E-02   # neutralino2 decays
#          BR         NDA      ID1       ID2
     1.00000000E+00    2     1000022        23   # BR(~chi_20 -> ~chi_10   Z )
#
#         PDG            Width
DECAY   1000025     2.52369092E-02   # neutralino3 decays
#          BR         NDA      ID1       ID2
     1.00000000E+00    2     1000022        23   # BR(~chi_30 -> ~chi_10   Z )
#
#         PDG            Width
DECAY   1000035     2.34387819E+01   # neutralino4 decays
#          BR         NDA      ID1       ID2
     1.72180046E-03    2     1000022        23   # BR(~chi_40 -> ~chi_10   Z )
     1.14740739E-01    2     1000023        23   # BR(~chi_40 -> ~chi_20   Z )
     1.37046049E-01    2     1000025        23   # BR(~chi_40 -> ~chi_30   Z )
     2.45631052E-01    2     1000024       -24   # BR(~chi_40 -> ~chi_1+   W-)
     2.45631052E-01    2    -1000024        24   # BR(~chi_40 -> ~chi_1-   W+)
     1.60851367E-04    2     1000022        25   # BR(~chi_40 -> ~chi_10   h )
     5.27008302E-05    2     1000022        35   # BR(~chi_40 -> ~chi_10   H )
     5.96558283E-06    2     1000022        36   # BR(~chi_40 -> ~chi_10   A )
     1.39380342E-01    2     1000023        25   # BR(~chi_40 -> ~chi_20   h )
     1.15629447E-01    2     1000025        25   # BR(~chi_40 -> ~chi_30   h )
#
#         PDG            Width
DECAY        25     4.10289190E-03   # h decays
#          BR         NDA      ID1       ID2
     6.06115232E-01    2           5        -5   # BR(h -> b       bb     )
     6.32424145E-02    2         -15        15   # BR(h -> tau+    tau-   )
     2.23901017E-04    2         -13        13   # BR(h -> mu+     mu-    )
     4.74634607E-04    2           3        -3   # BR(h -> s       sb     )
     2.05632225E-02    2           4        -4   # BR(h -> c       cb     )
     6.65507814E-02    2          21        21   # BR(h -> g       g      )
     2.28490623E-03    2          22        22   # BR(h -> gam     gam    )
     1.47795328E-03    2          22        23   # BR(h -> Z       gam    )
     2.08710747E-01    2          24       -24   # BR(h -> W+      W-     )
     2.48674976E-02    2          23        23   # BR(h -> Z       Z      )
     5.48871008E-03    2     1000022   1000022   # BR(h -> ~chi_10 ~chi_10)
#
#         PDG            Width
DECAY        35     8.81953506E+00   # H decays
#          BR         NDA      ID1       ID2
     3.58366038E-01    2           5        -5   # BR(H -> b       bb     )
     6.31434251E-02    2         -15        15   # BR(H -> tau+    tau-   )
     2.23280167E-04    2         -13        13   # BR(H -> mu+     mu-    )
     2.73707104E-04    2           3        -3   # BR(H -> s       sb     )
     1.53249235E-06    2           4        -4   # BR(H -> c       cb     )
     1.53108135E-01    2           6        -6   # BR(H -> t       tb     )
     5.09581121E-05    2          21        21   # BR(H -> g       g      )
     1.52059481E-07    2          22        22   # BR(H -> gam     gam    )
     9.03123808E-08    2          23        22   # BR(H -> Z       gam    )
     7.54674118E-05    2          24       -24   # BR(H -> W+      W-     )
     3.76859278E-05    2          23        23   # BR(H -> Z       Z      )
     2.67327225E-04    2          25        25   # BR(H -> h       h      )
     9.53759974E-24    2          36        36   # BR(H -> A       A      )
     8.89518666E-19    2          23        36   # BR(H -> Z       A      )
     3.50529400E-03    2     1000024  -1000024   # BR(H -> ~chi_1+ ~chi_1-)
     6.14938127E-02    2     1000022   1000022   # BR(H -> ~chi_10 ~chi_10)
     1.02305727E-02    2     1000023   1000023   # BR(H -> ~chi_20 ~chi_20)
     2.02446370E-02    2     1000025   1000025   # BR(H -> ~chi_30 ~chi_30)
     1.20986943E-01    2     1000022   1000023   # BR(H -> ~chi_10 ~chi_20)
     1.78792767E-01    2     1000022   1000025   # BR(H -> ~chi_10 ~chi_30)
     2.91981743E-02    2     1000023   1000025   # BR(H -> ~chi_20 ~chi_30)
#
#         PDG            Width
DECAY        36     8.82448379E+00   # A decays
#          BR         NDA      ID1       ID2
     3.58287871E-01    2           5        -5   # BR(A -> b       bb     )
     6.31098344E-02    2         -15        15   # BR(A -> tau+    tau-   )
     2.23161075E-04    2         -13        13   # BR(A -> mu+     mu-    )
     2.73761243E-04    2           3        -3   # BR(A -> s       sb     )
     1.53763471E-06    2           4        -4   # BR(A -> c       cb     )
     1.53537126E-01    2           6        -6   # BR(A -> t       tb     )
     1.51914660E-04    2          21        21   # BR(A -> g       g      )
     5.21726232E-07    2          22        22   # BR(A -> gam     gam    )
     1.83807188E-07    2          23        22   # BR(A -> Z       gam    )
     7.51390386E-05    2          23        25   # BR(A -> Z       h      )
     3.62750139E-03    2     1000024  -1000024   # BR(A -> ~chi_1+ ~chi_1-)
     5.54489279E-02    2     1000022   1000022   # BR(A -> ~chi_10 ~chi_10)
     1.60544011E-02    2     1000023   1000023   # BR(A -> ~chi_20 ~chi_20)
     1.31592354E-02    2     1000025   1000025   # BR(A -> ~chi_30 ~chi_30)
     1.94928713E-01    2     1000022   1000023   # BR(A -> ~chi_10 ~chi_20)
     1.11314338E-01    2     1000022   1000025   # BR(A -> ~chi_10 ~chi_30)
     2.98058331E-02    2     1000023   1000025   # BR(A -> ~chi_20 ~chi_30)
#
#         PDG            Width
DECAY        37     8.76453498E+00   # H+ decays
#          BR         NDA      ID1       ID2
     5.74173843E-04    2           4        -5   # BR(H+ -> c       bb     )
     6.35729510E-02    2         -15        16   # BR(H+ -> tau+    nu_tau )
     2.24798690E-04    2         -13        14   # BR(H+ -> mu+     nu_mu  )
     3.67469315E-06    2           2        -5   # BR(H+ -> u       bb     )
     1.31903707E-05    2           2        -3   # BR(H+ -> u       sb     )
     2.72778833E-04    2           4        -3   # BR(H+ -> c       sb     )
     5.10258467E-01    2           6        -5   # BR(H+ -> t       bb     )
     7.58142305E-05    2          24        25   # BR(H+ -> W+      h      )
     1.08212406E-12    2          24        36   # BR(H+ -> W+      A      )
     3.87276250E-01    2     1000024   1000022   # BR(H+ -> ~chi_1+ ~chi_10)
     5.78189251E-03    2     1000024   1000023   # BR(H+ -> ~chi_1+ ~chi_20)
     3.19460093E-02    2     1000024   1000025   # BR(H+ -> ~chi_1+ ~chi_30)
