#
#                              ======================
#                              | THE SUSYHIT OUTPUT |
#                              ======================
#
#
#              ------------------------------------------------------
#              |     This is the output of the SUSY-HIT package     |
#              |  created by A.Djouadi, M.Muehlleitner and M.Spira. |
#              |  In case of problems with SUSY-HIT email to        |
#              |           margarete.muehlleitner@cern.ch           |
#              |           michael.spira@psi.ch                     |
#              |           abdelhak.djouadi@cern.ch                 |
#              ------------------------------------------------------
#
#              ------------------------------------------------------
#              |  SUSY Les Houches Accord - MSSM Spectrum + Decays  |
#              |              based on the decay programs           |
#              |                                                    |
#              |                     SDECAY 1.3b                    |
#              |                                                    |
#              |  Authors: M.Muhlleitner, A.Djouadi and Y.Mambrini  |
#              |  Ref.:    Comput.Phys.Commun.168(2005)46           |
#              |           [hep-ph/0311167]                         |
#              |                                                    |
#              |                     HDECAY 3.4                     |
#              |                                                    |
#              |  By: A.Djouadi,J.Kalinowski,M.Muhlleitner,M.Spira  |
#              |  Ref.:    Comput.Phys.Commun.108(1998)56           |
#              |           [hep-ph/9704448]                         |
#              |                                                    |
#              |                                                    |
#              |  If not stated otherwise all DRbar couplings and   |
#              |  soft SUSY breaking masses are given at the scale  |
#              |  Q=  0.50007104E+04
#              |                                                    |
#              ------------------------------------------------------
#
#
BLOCK DCINFO  # Decay Program information
     1   SDECAY/HDECAY # decay calculator
     2   1.3b  /3.4    # version number
#
BLOCK SPINFO  # Spectrum calculator information
     1    SOFTSUSY    # spectrum calculator                
     2    3.4.0       # version number                     
#
BLOCK MODSEL  # Model selection
     1     0   #  nonUniversal                                     
#
BLOCK SMINPUTS  # Standard Model inputs
         1     1.25778332E+02   # alpha_em^-1(M_Z)^MSbar
         2     1.16570000E-05   # G_F [GeV^-2]
         3     1.17200002E-01   # alpha_S(M_Z)^MSbar
         4     9.11876000E+01   # M_Z pole mass
         5     4.25000000E+00   # mb(mb)^MSbar
         6     1.72500000E+02   # mt pole mass
         7     1.77682000E+00   # mtau pole mass
#
BLOCK MINPAR  # Input parameters - minimal models
         3     1.00000000E+01   # tanb                
#
BLOCK EXTPAR  # Input parameters - non-minimal models
         0    -1.00000000E+00   # Set                 
         1     6.00000000E+01   # M_1(MX)             
         2     3.00000000E+03   # M_2(MX)             
         3     1.21156800E+03   # M_3(MX)             
        11     5.00000000E+03   # At(MX)              
        12     5.00000000E+03   # Ab(MX)              
        13     0.00000000E+00   # Atau(MX)            
        23    -1.54476000E+03   # mu(MX)              
        26     3.00000000E+03   # mA(pole)            
        31     5.00000000E+03   # meL(MX)             
        32     5.00000000E+03   # mmuL(MX)            
        33     5.00000000E+03   # mtauL(MX)           
        34     5.00000000E+03   # meR(MX)             
        35     5.00000000E+03   # mmuR(MX)            
        36     5.00000000E+03   # mtauR(MX)           
        41     5.00000000E+03   # mqL1(MX)            
        42     5.00000000E+03   # mqL2(MX)            
        43     5.00000000E+03   # mqL3(MX)            
        44     5.00000000E+03   # muR(MX)             
        45     5.00000000E+03   # mcR(MX)             
        46     5.00000000E+03   # mtR(MX)             
        47     5.00000000E+03   # mdR(MX)             
        48     5.00000000E+03   # msR(MX)             
        49     5.00000000E+03   # mbR(MX)             
#
BLOCK MASS  # Mass Spectrum
# PDG code           mass       particle
        24     8.00956720E+01   # W+
        25     1.24622563E+02   # h
        35     3.00008249E+03   # H
        36     2.99999996E+03   # A
        37     3.00087435E+03   # H+
         5     4.87878001E+00   # b-quark pole mass calculated from mb(mb)_Msbar
   1000001     5.06664973E+03   # ~d_L
   2000001     5.04885560E+03   # ~d_R
   1000002     5.06617414E+03   # ~u_L
   2000002     5.04858166E+03   # ~u_R
   1000003     5.06664973E+03   # ~s_L
   2000003     5.04885560E+03   # ~s_R
   1000004     5.06617414E+03   # ~c_L
   2000004     5.04858166E+03   # ~c_R
   1000005     5.01297585E+03   # ~b_1
   2000005     5.04782053E+03   # ~b_2
   1000006     4.90401969E+03   # ~t_1
   2000006     5.05985952E+03   # ~t_2
   1000011     5.01904721E+03   # ~e_L
   2000011     5.00590862E+03   # ~e_R
   1000012     5.01809904E+03   # ~nu_eL
   1000013     5.01904721E+03   # ~mu_L
   2000013     5.00590862E+03   # ~mu_R
   1000014     5.01809904E+03   # ~nu_muL
   1000015     5.00431331E+03   # ~tau_1
   2000015     5.01906391E+03   # ~tau_2
   1000016     5.01756186E+03   # ~nu_tauL
   1000021     1.50000083E+03   # ~g
   1000022     6.03024216E+01   # ~chi_10
   1000023     1.59942839E+03   # ~chi_20
   1000025    -1.60195094E+03   # ~chi_30
   1000035     3.07434568E+03   # ~chi_40
   1000024     1.60000074E+03   # ~chi_1+
   1000037     3.07451323E+03   # ~chi_2+
#
BLOCK NMIX  # Neutralino Mixing Matrix
  1  1     9.99609583E-01   # N_11
  1  2     1.33198017E-04   # N_12
  1  3    -2.78776436E-02   # N_13
  1  4     1.87105762E-03   # N_14
  2  1     1.83876200E-02   # N_21
  2  2     3.29907218E-02   # N_22
  2  3     7.06888754E-01   # N_23
  2  4     7.06315650E-01   # N_24
  3  1    -2.10323292E-02   # N_31
  3  2     1.29788659E-02   # N_32
  3  3    -7.06633407E-01   # N_33
  3  4     7.07148088E-01   # N_34
  4  1    -4.67084712E-04   # N_41
  4  2     9.99371374E-01   # N_42
  4  3    -1.41546547E-02   # N_43
  4  4    -3.25005231E-02   # N_44
#
BLOCK UMIX  # Chargino Mixing Matrix U
  1  1     2.00216107E-02   # U_11
  1  2     9.99799547E-01   # U_12
  2  1    -9.99799547E-01   # U_21
  2  2     2.00216107E-02   # U_22
#
BLOCK VMIX  # Chargino Mixing Matrix V
  1  1     4.59745705E-02   # V_11
  1  2    -9.98942610E-01   # V_12
  2  1    -9.98942610E-01   # V_21
  2  2    -4.59745705E-02   # V_22
#
BLOCK STOPMIX  # Stop Mixing Matrix
  1  1    -5.13673034E-01   # cos(theta_t)
  1  2     8.57986022E-01   # sin(theta_t)
  2  1    -8.57986022E-01   # -sin(theta_t)
  2  2    -5.13673034E-01   # cos(theta_t)
#
BLOCK SBOTMIX  # Sbottom Mixing Matrix
  1  1     9.93823364E-01   # cos(theta_b)
  1  2    -1.10973516E-01   # sin(theta_b)
  2  1     1.10973516E-01   # -sin(theta_b)
  2  2     9.93823364E-01   # cos(theta_b)
#
BLOCK STAUMIX  # Stau Mixing Matrix
  1  1    -1.78622562E-01   # cos(theta_tau)
  1  2     9.83917669E-01   # sin(theta_tau)
  2  1    -9.83917669E-01   # -sin(theta_tau)
  2  2    -1.78622562E-01   # cos(theta_tau)
#
BLOCK ALPHA  # Higgs mixing
          -1.05445034E-01   # Mixing angle in the neutral Higgs boson sector
#
BLOCK HMIX Q=  5.00071038E+03  # DRbar Higgs Parameters
         1    -1.57278310E+03   # mu(Q)MSSM           
         2     9.47196615E+00   # tan                 
         3     2.41998847E+02   # higgs               
         4     8.37928809E+06   # mA^2(Q)MSSM         
#
BLOCK GAUGE Q=  5.00071038E+03  # The gauge couplings
     1     3.70696860E-01   # gprime(Q) DRbar
     2     6.32045071E-01   # g(Q) DRbar
     3     1.00270266E+00   # g3(Q) DRbar
#
BLOCK AU Q=  5.00071038E+03  # The trilinear couplings
  1  1     5.00000001E+03   # A_u(Q) DRbar
  2  2     5.00000001E+03   # A_c(Q) DRbar
  3  3     5.00000001E+03   # A_t(Q) DRbar
#
BLOCK AD Q=  5.00071038E+03  # The trilinear couplings
  1  1     5.00000000E+03   # A_d(Q) DRbar
  2  2     5.00000000E+03   # A_s(Q) DRbar
  3  3     5.00000001E+03   # A_b(Q) DRbar
#
BLOCK AE Q=  5.00071038E+03  # The trilinear couplings
  1  1     0.00000000E+00   # A_e(Q) DRbar
  2  2     9.85130938E-08   # A_mu(Q) DRbar
  3  3     9.78532400E-08   # A_tau(Q) DRbar
#
BLOCK Yu Q=  5.00071038E+03  # The Yukawa couplings
  1  1     0.00000000E+00   # y_u(Q) DRbar
  2  2     0.00000000E+00   # y_c(Q) DRbar
  3  3     8.17396590E-01   # y_t(Q) DRbar
#
BLOCK Yd Q=  5.00071038E+03  # The Yukawa couplings
  1  1     0.00000000E+00   # y_d(Q) DRbar
  2  2     0.00000000E+00   # y_s(Q) DRbar
  3  3     1.30732231E-01   # y_b(Q) DRbar
#
BLOCK Ye Q=  5.00071038E+03  # The Yukawa couplings
  1  1     0.00000000E+00   # y_e(Q) DRbar
  2  2     0.00000000E+00   # y_mu(Q) DRbar
  3  3     9.65990258E-02   # y_tau(Q) DRbar
#
BLOCK MSOFT Q=  5.00071038E+03  # The soft SUSY breaking masses at the scale Q
         1     6.00000000E+01   # M_1(Q)              
         2     3.00000000E+03   # M_2(Q)              
         3     1.21156800E+03   # M_3(Q)              
        21     6.19070081E+06   # mH1^2(Q)            
        22    -1.93066535E+06   # mH2^2(Q)            
        31     5.00000000E+03   # meL(Q)              
        32     5.00000000E+03   # mmuL(Q)             
        33     5.00000000E+03   # mtauL(Q)            
        34     5.00000000E+03   # meR(Q)              
        35     5.00000000E+03   # mmuR(Q)             
        36     5.00000000E+03   # mtauR(Q)            
        41     5.00000000E+03   # mqL1(Q)             
        42     5.00000000E+03   # mqL2(Q)             
        43     5.00000000E+03   # mqL3(Q)             
        44     5.00000000E+03   # muR(Q)              
        45     5.00000000E+03   # mcR(Q)              
        46     5.00000000E+03   # mtR(Q)              
        47     5.00000000E+03   # mdR(Q)              
        48     5.00000000E+03   # msR(Q)              
        49     5.00000000E+03   # mbR(Q)              
#
#
#
#                             =================
#                             |The decay table|
#                             =================
#
# - The QCD corrections to the decays gluino -> squark  + quark
#                                     squark -> gaugino + quark_prime
#                                     squark -> squark_prime + Higgs
#                                     squark -> gluino  + quark
#   are included.
#
# - The multi-body decays for the inos, stops and sbottoms are included.
#
# - The loop induced decays for the gluino, neutralinos and stops
#   are included.
#
# - The SUSY decays of the top quark are included.
#
#
#         PDG            Width
DECAY         6     1.39988754E+00   # top decays
#          BR         NDA      ID1       ID2
     1.00000000E+00    2           5        24   # BR(t ->  b    W+)
#
#         PDG            Width
DECAY   1000021     6.86588993E-05   # gluino decays
#          BR         NDA      ID1       ID2
     1.15458498E-05    2     1000022        21   # BR(~g -> ~chi_10 g)
#           BR         NDA      ID1       ID2       ID3
     7.80445745E-02    3     1000022         1        -1   # BR(~g -> ~chi_10 d  db)
     2.66050793E-01    3     1000022         2        -2   # BR(~g -> ~chi_10 u  ub)
     7.80445745E-02    3     1000022         3        -3   # BR(~g -> ~chi_10 s  sb)
     2.66050793E-01    3     1000022         4        -4   # BR(~g -> ~chi_10 c  cb)
     7.89746279E-02    3     1000022         5        -5   # BR(~g -> ~chi_10 b  bb)
     2.32823090E-01    3     1000022         6        -6   # BR(~g -> ~chi_10 t  tb)
#
#         PDG            Width
DECAY   1000006     3.68418964E+02   # stop1 decays
#          BR         NDA      ID1       ID2
     2.37975660E-02    2     1000022         6   # BR(~t_1 -> ~chi_10 t )
     7.13358793E-02    2     1000023         6   # BR(~t_1 -> ~chi_20 t )
     6.85039094E-02    2     1000025         6   # BR(~t_1 -> ~chi_30 t )
     5.98103531E-03    2     1000035         6   # BR(~t_1 -> ~chi_40 t )
     1.02102605E-01    2     1000024         5   # BR(~t_1 -> ~chi_1+ b )
     1.18904249E-02    2     1000037         5   # BR(~t_1 -> ~chi_2+ b )
     7.16388580E-01    2     1000021         6   # BR(~t_1 -> ~g      t )
#
#         PDG            Width
DECAY   2000006     3.77215729E+02   # stop2 decays
#          BR         NDA      ID1       ID2
     9.53514311E-03    2     1000022         6   # BR(~t_2 -> ~chi_10 t )
     7.23580189E-02    2     1000023         6   # BR(~t_2 -> ~chi_20 t )
     7.53565709E-02    2     1000025         6   # BR(~t_2 -> ~chi_30 t )
     1.43197517E-02    2     1000035         6   # BR(~t_2 -> ~chi_40 t )
     4.49862045E-02    2     1000024         5   # BR(~t_2 -> ~chi_1+ b )
     2.84170606E-02    2     1000037         5   # BR(~t_2 -> ~chi_2+ b )
     7.51524903E-01    2     1000021         6   # BR(~t_2 -> ~g      t )
     7.65009698E-04    2     1000006        25   # BR(~t_2 -> ~t_1    h )
     2.73733767E-03    2     1000006        23   # BR(~t_2 -> ~t_1    Z )
#
#         PDG            Width
DECAY   1000005     3.54985001E+02   # sbottom1 decays
#          BR         NDA      ID1       ID2
     2.21254789E-03    2     1000022         5   # BR(~b_1 -> ~chi_10 b )
     2.03565611E-03    2     1000023         5   # BR(~b_1 -> ~chi_20 b )
     1.91181897E-03    2     1000025         5   # BR(~b_1 -> ~chi_30 b )
     2.09701160E-02    2     1000035         5   # BR(~b_1 -> ~chi_40 b )
     1.50366960E-01    2    -1000024         6   # BR(~b_1 -> ~chi_1- t )
     4.22365602E-02    2    -1000037         6   # BR(~b_1 -> ~chi_2- t )
     7.78694163E-01    2     1000021         5   # BR(~b_1 -> ~g      b )
     1.57217829E-03    2     1000006       -24   # BR(~b_1 -> ~t_1    W-)
#
#         PDG            Width
DECAY   2000005     2.85557903E+02   # sbottom2 decays
#          BR         NDA      ID1       ID2
     1.02505005E-02    2     1000022         5   # BR(~b_2 -> ~chi_10 b )
     2.39946315E-03    2     1000023         5   # BR(~b_2 -> ~chi_20 b )
     2.51710962E-03    2     1000025         5   # BR(~b_2 -> ~chi_30 b )
     3.48416338E-04    2     1000035         5   # BR(~b_2 -> ~chi_40 b )
     7.16289338E-03    2    -1000024         6   # BR(~b_2 -> ~chi_1- t )
     7.01370702E-04    2    -1000037         6   # BR(~b_2 -> ~chi_2- t )
     9.76518301E-01    2     1000021         5   # BR(~b_2 -> ~g      b )
     1.01945842E-04    2     1000006       -24   # BR(~b_2 -> ~t_1    W-)
#
#         PDG            Width
DECAY   1000002     3.04405826E+02   # sup_L decays
#          BR         NDA      ID1       ID2
     2.45398115E-03    2     1000022         2   # BR(~u_L -> ~chi_10 u)
     6.96990658E-05    2     1000023         2   # BR(~u_L -> ~chi_20 u)
     4.09128817E-06    2     1000025         2   # BR(~u_L -> ~chi_30 u)
     2.56570270E-02    2     1000035         2   # BR(~u_L -> ~chi_40 u)
     2.20092331E-04    2     1000024         1   # BR(~u_L -> ~chi_1+ d)
     5.12729260E-02    2     1000037         1   # BR(~u_L -> ~chi_2+ d)
     9.20322183E-01    2     1000021         2   # BR(~u_L -> ~g      u)
#
#         PDG            Width
DECAY   2000002     2.90705789E+02   # sup_R decays
#          BR         NDA      ID1       ID2
     4.09145678E-02    2     1000022         2   # BR(~u_R -> ~chi_10 u)
     1.12173932E-05    2     1000023         2   # BR(~u_R -> ~chi_20 u)
     1.46659349E-05    2     1000025         2   # BR(~u_R -> ~chi_30 u)
     3.54823183E-09    2     1000035         2   # BR(~u_R -> ~chi_40 u)
     9.59059545E-01    2     1000021         2   # BR(~u_R -> ~g      u)
#
#         PDG            Width
DECAY   1000001     3.04418790E+02   # sdown_L decays
#          BR         NDA      ID1       ID2
     2.44742693E-03    2     1000022         1   # BR(~d_L -> ~chi_10 d)
     4.50010726E-05    2     1000023         1   # BR(~d_L -> ~chi_20 d)
     1.52007733E-05    2     1000025         1   # BR(~d_L -> ~chi_30 d)
     2.56733039E-02    2     1000035         1   # BR(~d_L -> ~chi_40 d)
     4.17453406E-05    2    -1000024         2   # BR(~d_L -> ~chi_1- u)
     5.13747371E-02    2    -1000037         2   # BR(~d_L -> ~chi_2- u)
     9.20402585E-01    2     1000021         1   # BR(~d_L -> ~g      d)
#
#         PDG            Width
DECAY   2000001     2.81800718E+02   # sdown_R decays
#          BR         NDA      ID1       ID2
     1.05524495E-02    2     1000022         1   # BR(~d_R -> ~chi_10 d)
     2.89319477E-06    2     1000023         1   # BR(~d_R -> ~chi_20 d)
     3.78264444E-06    2     1000025         1   # BR(~d_R -> ~chi_30 d)
     9.15255465E-10    2     1000035         1   # BR(~d_R -> ~chi_40 d)
     9.89440874E-01    2     1000021         1   # BR(~d_R -> ~g      d)
#
#         PDG            Width
DECAY   1000004     3.04405826E+02   # scharm_L decays
#          BR         NDA      ID1       ID2
     2.45398115E-03    2     1000022         4   # BR(~c_L -> ~chi_10 c)
     6.96990658E-05    2     1000023         4   # BR(~c_L -> ~chi_20 c)
     4.09128817E-06    2     1000025         4   # BR(~c_L -> ~chi_30 c)
     2.56570270E-02    2     1000035         4   # BR(~c_L -> ~chi_40 c)
     2.20092331E-04    2     1000024         3   # BR(~c_L -> ~chi_1+ s)
     5.12729260E-02    2     1000037         3   # BR(~c_L -> ~chi_2+ s)
     9.20322183E-01    2     1000021         4   # BR(~c_L -> ~g      c)
#
#         PDG            Width
DECAY   2000004     2.90705789E+02   # scharm_R decays
#          BR         NDA      ID1       ID2
     4.09145678E-02    2     1000022         4   # BR(~c_R -> ~chi_10 c)
     1.12173932E-05    2     1000023         4   # BR(~c_R -> ~chi_20 c)
     1.46659349E-05    2     1000025         4   # BR(~c_R -> ~chi_30 c)
     3.54823183E-09    2     1000035         4   # BR(~c_R -> ~chi_40 c)
     9.59059545E-01    2     1000021         4   # BR(~c_R -> ~g      c)
#
#         PDG            Width
DECAY   1000003     3.04418790E+02   # sstrange_L decays
#          BR         NDA      ID1       ID2
     2.44742693E-03    2     1000022         3   # BR(~s_L -> ~chi_10 s)
     4.50010726E-05    2     1000023         3   # BR(~s_L -> ~chi_20 s)
     1.52007733E-05    2     1000025         3   # BR(~s_L -> ~chi_30 s)
     2.56733039E-02    2     1000035         3   # BR(~s_L -> ~chi_40 s)
     4.17453406E-05    2    -1000024         4   # BR(~s_L -> ~chi_1- c)
     5.13747371E-02    2    -1000037         4   # BR(~s_L -> ~chi_2- c)
     9.20402585E-01    2     1000021         3   # BR(~s_L -> ~g      s)
#
#         PDG            Width
DECAY   2000003     2.81800718E+02   # sstrange_R decays
#          BR         NDA      ID1       ID2
     1.05524495E-02    2     1000022         3   # BR(~s_R -> ~chi_10 s)
     2.89319477E-06    2     1000023         3   # BR(~s_R -> ~chi_20 s)
     3.78264444E-06    2     1000025         3   # BR(~s_R -> ~chi_30 s)
     9.15255465E-10    2     1000035         3   # BR(~s_R -> ~chi_40 s)
     9.89440874E-01    2     1000021         3   # BR(~s_R -> ~g      s)
#
#         PDG            Width
DECAY   1000011     3.02349707E+01   # selectron_L decays
#          BR         NDA      ID1       ID2
     2.26768348E-01    2     1000022        11   # BR(~e_L -> ~chi_10 e-)
     1.02034987E-03    2     1000023        11   # BR(~e_L -> ~chi_20 e-)
     2.20213458E-07    2     1000025        11   # BR(~e_L -> ~chi_30 e-)
     2.57042947E-01    2     1000035        11   # BR(~e_L -> ~chi_40 e-)
     4.26827050E-04    2    -1000024        12   # BR(~e_L -> ~chi_1- nu_e)
     5.14741307E-01    2    -1000037        12   # BR(~e_L -> ~chi_2- nu_e)
#
#         PDG            Width
DECAY   2000011     2.73582966E+01   # selectron_R decays
#          BR         NDA      ID1       ID2
     9.99370644E-01    2     1000022        11   # BR(~e_R -> ~chi_10 e-)
     2.72717430E-04    2     1000023        11   # BR(~e_R -> ~chi_20 e-)
     3.56553581E-04    2     1000025        11   # BR(~e_R -> ~chi_30 e-)
     8.46679881E-08    2     1000035        11   # BR(~e_R -> ~chi_40 e-)
#
#         PDG            Width
DECAY   1000013     3.02349707E+01   # smuon_L decays
#          BR         NDA      ID1       ID2
     2.26768348E-01    2     1000022        13   # BR(~mu_L -> ~chi_10 mu-)
     1.02034987E-03    2     1000023        13   # BR(~mu_L -> ~chi_20 mu-)
     2.20213458E-07    2     1000025        13   # BR(~mu_L -> ~chi_30 mu-)
     2.57042947E-01    2     1000035        13   # BR(~mu_L -> ~chi_40 mu-)
     4.26827050E-04    2    -1000024        14   # BR(~mu_L -> ~chi_1- nu_mu)
     5.14741307E-01    2    -1000037        14   # BR(~mu_L -> ~chi_2- nu_mu)
#
#         PDG            Width
DECAY   2000013     2.73582966E+01   # smuon_R decays
#          BR         NDA      ID1       ID2
     9.99370644E-01    2     1000022        13   # BR(~mu_R -> ~chi_10 mu-)
     2.72717430E-04    2     1000023        13   # BR(~mu_R -> ~chi_20 mu-)
     3.56553581E-04    2     1000025        13   # BR(~mu_R -> ~chi_30 mu-)
     8.46679881E-08    2     1000035        13   # BR(~mu_R -> ~chi_40 mu-)
#
#         PDG            Width
DECAY   1000015     2.89385859E+01   # stau_1 decays
#          BR         NDA      ID1       ID2
     9.22773668E-01    2     1000022        15   # BR(~tau_1 -> ~chi_10  tau-)
     1.38758460E-02    2     1000023        15   # BR(~tau_1 -> ~chi_20  tau-)
     1.24867351E-02    2     1000025        15   # BR(~tau_1 -> ~chi_30  tau-)
     8.19928680E-03    2     1000035        15   # BR(~tau_1 -> ~chi_40  tau-)
     2.62447067E-02    2    -1000024        16   # BR(~tau_1 -> ~chi_1-  nu_tau)
     1.64197574E-02    2    -1000037        16   # BR(~tau_1 -> ~chi_2-  nu_tau)
#
#         PDG            Width
DECAY   2000015     3.08901189E+01   # stau_2 decays
#          BR         NDA      ID1       ID2
     2.42415593E-01    2     1000022        15   # BR(~tau_2 -> ~chi_10  tau-)
     1.25202244E-02    2     1000023        15   # BR(~tau_2 -> ~chi_20  tau-)
     1.28683353E-02    2     1000025        15   # BR(~tau_2 -> ~chi_30  tau-)
     2.43838894E-01    2     1000035        15   # BR(~tau_2 -> ~chi_40  tau-)
     6.01145523E-05    2    -1000024        16   # BR(~tau_2 -> ~chi_1-  nu_tau)
     4.88296838E-01    2    -1000037        16   # BR(~tau_2 -> ~chi_2-  nu_tau)
#
#         PDG            Width
DECAY   1000012     3.02368280E+01   # snu_eL decays
#          BR         NDA      ID1       ID2
     2.26505621E-01    2     1000022        12   # BR(~nu_eL -> ~chi_10 nu_e)
     2.62483034E-04    2     1000023        12   # BR(~nu_eL -> ~chi_20 nu_e)
     3.40858234E-04    2     1000025        12   # BR(~nu_eL -> ~chi_30 nu_e)
     2.57143768E-01    2     1000035        12   # BR(~nu_eL -> ~chi_40 nu_e)
     2.24979738E-03    2     1000024        11   # BR(~nu_eL -> ~chi_1+ e-)
     5.13497472E-01    2     1000037        11   # BR(~nu_eL -> ~chi_2+ e-)
#
#         PDG            Width
DECAY   1000014     3.02368280E+01   # snu_muL decays
#          BR         NDA      ID1       ID2
     2.26505621E-01    2     1000022        14   # BR(~nu_muL -> ~chi_10 nu_mu)
     2.62483034E-04    2     1000023        14   # BR(~nu_muL -> ~chi_20 nu_mu)
     3.40858234E-04    2     1000025        14   # BR(~nu_muL -> ~chi_30 nu_mu)
     2.57143768E-01    2     1000035        14   # BR(~nu_muL -> ~chi_40 nu_mu)
     2.24979738E-03    2     1000024        13   # BR(~nu_muL -> ~chi_1+ mu-)
     5.13497472E-01    2     1000037        13   # BR(~nu_muL -> ~chi_2+ mu-)
#
#         PDG            Width
DECAY   1000016     3.09791404E+01   # snu_tauL decays
#          BR         NDA      ID1       ID2
     2.21054485E-01    2     1000022        16   # BR(~nu_tauL -> ~chi_10 nu_tau)
     2.56153668E-04    2     1000023        16   # BR(~nu_tauL -> ~chi_20 nu_tau)
     3.32638916E-04    2     1000025        16   # BR(~nu_tauL -> ~chi_30 nu_tau)
     2.50890728E-01    2     1000035        16   # BR(~nu_tauL -> ~chi_40 nu_tau)
     2.64531668E-02    2     1000024        15   # BR(~nu_tauL -> ~chi_1+ tau-)
     5.01012828E-01    2     1000037        15   # BR(~nu_tauL -> ~chi_2+ tau-)
#
#         PDG            Width
DECAY   1000024     9.85528451E-01   # chargino1+ decays
#          BR         NDA      ID1       ID2
     1.00000000E+00    2     1000022        24   # BR(~chi_1+ -> ~chi_10  W+)
#
#         PDG            Width
DECAY   1000037     1.79095300E+01   # chargino2+ decays
#          BR         NDA      ID1       ID2
     2.52586509E-01    2     1000024        23   # BR(~chi_2+ -> ~chi_1+  Z )
     2.84960503E-04    2     1000022        24   # BR(~chi_2+ -> ~chi_10  W+)
     2.44129235E-01    2     1000023        24   # BR(~chi_2+ -> ~chi_20  W+)
     2.43565700E-01    2     1000025        24   # BR(~chi_2+ -> ~chi_30  W+)
     2.59433319E-01    2     1000024        25   # BR(~chi_2+ -> ~chi_1+  h )
     2.76963474E-07    2     1000022        37   # BR(~chi_2+ -> ~chi_10  H+)
#
#         PDG            Width
DECAY   1000022     0.00000000E+00   # neutralino1 decays
#
#         PDG            Width
DECAY   1000023     1.03624511E+00   # neutralino2 decays
#          BR         NDA      ID1       ID2
     5.58685486E-01    2     1000022        23   # BR(~chi_20 -> ~chi_10   Z )
     4.41314514E-01    2     1000022        25   # BR(~chi_20 -> ~chi_10   h )
#
#         PDG            Width
DECAY   1000025     1.04704623E+00   # neutralino3 decays
#          BR         NDA      ID1       ID2
     4.23644817E-01    2     1000022        23   # BR(~chi_30 -> ~chi_10   Z )
     5.76355183E-01    2     1000022        25   # BR(~chi_30 -> ~chi_10   h )
#
#         PDG            Width
DECAY   1000035     1.79038870E+01   # neutralino4 decays
#          BR         NDA      ID1       ID2
     1.07980615E-04    2     1000022        23   # BR(~chi_40 -> ~chi_10   Z )
     3.40838379E-02    2     1000023        23   # BR(~chi_40 -> ~chi_20   Z )
     2.18090097E-01    2     1000025        23   # BR(~chi_40 -> ~chi_30   Z )
     2.44221233E-01    2     1000024       -24   # BR(~chi_40 -> ~chi_1+   W-)
     2.44221233E-01    2    -1000024        24   # BR(~chi_40 -> ~chi_1-   W+)
     1.84747157E-04    2     1000022        25   # BR(~chi_40 -> ~chi_10   h )
     2.47289762E-07    2     1000022        35   # BR(~chi_40 -> ~chi_10   H )
     3.99670749E-08    2     1000022        36   # BR(~chi_40 -> ~chi_10   A )
     2.25095016E-01    2     1000023        25   # BR(~chi_40 -> ~chi_20   h )
     3.39955675E-02    2     1000025        25   # BR(~chi_40 -> ~chi_30   h )
#
#         PDG            Width
DECAY        25     4.03375980E-03   # h decays
#          BR         NDA      ID1       ID2
     6.10194974E-01    2           5        -5   # BR(h -> b       bb     )
     6.42157795E-02    2         -15        15   # BR(h -> tau+    tau-   )
     2.27347876E-04    2         -13        13   # BR(h -> mu+     mu-    )
     4.82078318E-04    2           3        -3   # BR(h -> s       sb     )
     2.08915002E-02    2           4        -4   # BR(h -> c       cb     )
     6.74037941E-02    2          21        21   # BR(h -> g       g      )
     2.31423837E-03    2          22        22   # BR(h -> gam     gam    )
     1.47936222E-03    2          22        23   # BR(h -> Z       gam    )
     2.08033881E-01    2          24       -24   # BR(h -> W+      W-     )
     2.47287949E-02    2          23        23   # BR(h -> Z       Z      )
     2.82500375E-05    2     1000022   1000022   # BR(h -> ~chi_10 ~chi_10)
#
#         PDG            Width
DECAY        35     7.08120545E+00   # H decays
#          BR         NDA      ID1       ID2
     4.61354789E-01    2           5        -5   # BR(H -> b       bb     )
     7.87100693E-02    2         -15        15   # BR(H -> tau+    tau-   )
     2.78325057E-04    2         -13        13   # BR(H -> mu+     mu-    )
     3.41183901E-04    2           3        -3   # BR(H -> s       sb     )
     1.90656589E-06    2           4        -4   # BR(H -> c       cb     )
     1.90481034E-01    2           6        -6   # BR(H -> t       tb     )
     6.32092737E-05    2          21        21   # BR(H -> g       g      )
     3.82600361E-07    2          22        22   # BR(H -> gam     gam    )
     1.12455706E-07    2          23        22   # BR(H -> Z       gam    )
     8.41652109E-05    2          24       -24   # BR(H -> W+      W-     )
     4.20293416E-05    2          23        23   # BR(H -> Z       Z      )
     3.20618073E-04    2          25        25   # BR(H -> h       h      )
     1.39697091E-23    2          36        36   # BR(H -> A       A      )
     5.80269554E-19    2          23        36   # BR(H -> Z       A      )
     7.97107253E-04    2     1000022   1000022   # BR(H -> ~chi_10 ~chi_10)
     1.58559964E-01    2     1000022   1000023   # BR(H -> ~chi_10 ~chi_20)
     1.08965104E-01    2     1000022   1000025   # BR(H -> ~chi_10 ~chi_30)
#
#         PDG            Width
DECAY        36     7.08398337E+00   # A decays
#          BR         NDA      ID1       ID2
     4.61328314E-01    2           5        -5   # BR(A -> b       bb     )
     7.86814742E-02    2         -15        15   # BR(A -> tau+    tau-   )
     2.78223554E-04    2         -13        13   # BR(A -> mu+     mu-    )
     3.41308613E-04    2           3        -3   # BR(A -> s       sb     )
     1.91382103E-06    2           4        -4   # BR(A -> c       cb     )
     1.91100382E-01    2           6        -6   # BR(A -> t       tb     )
     1.89146803E-04    2          21        21   # BR(A -> g       g      )
     3.23513725E-07    2          22        22   # BR(A -> gam     gam    )
     2.29086600E-07    2          23        22   # BR(A -> Z       gam    )
     8.38152301E-05    2          23        25   # BR(A -> Z       h      )
     8.21080511E-04    2     1000022   1000022   # BR(A -> ~chi_10 ~chi_10)
     1.10212932E-01    2     1000022   1000023   # BR(A -> ~chi_10 ~chi_20)
     1.56960856E-01    2     1000022   1000025   # BR(A -> ~chi_10 ~chi_30)
#
#         PDG            Width
DECAY        37     7.07594191E+00   # H+ decays
#          BR         NDA      ID1       ID2
     7.41181135E-04    2           4        -5   # BR(H+ -> c       bb     )
     7.87938507E-02    2         -15        16   # BR(H+ -> tau+    nu_tau )
     2.78620925E-04    2         -13        14   # BR(H+ -> mu+     nu_mu  )
     4.74353498E-06    2           2        -5   # BR(H+ -> u       bb     )
     1.63488947E-05    2           2        -3   # BR(H+ -> u       sb     )
     3.38094500E-04    2           4        -3   # BR(H+ -> c       sb     )
     6.50548776E-01    2           6        -5   # BR(H+ -> t       bb     )
     8.40377571E-05    2          24        25   # BR(H+ -> W+      h      )
     9.49350080E-14    2          24        36   # BR(H+ -> W+      A      )
     2.69194347E-01    2     1000024   1000022   # BR(H+ -> ~chi_1+ ~chi_10)
