#
#                              ======================
#                              | THE SUSYHIT OUTPUT |
#                              ======================
#
#
#              ------------------------------------------------------
#              |     This is the output of the SUSY-HIT package     |
#              |  created by A.Djouadi, M.Muehlleitner and M.Spira. |
#              |  In case of problems with SUSY-HIT email to        |
#              |           margarete.muehlleitner@cern.ch           |
#              |           michael.spira@psi.ch                     |
#              |           abdelhak.djouadi@cern.ch                 |
#              ------------------------------------------------------
#
#              ------------------------------------------------------
#              |  SUSY Les Houches Accord - MSSM Spectrum + Decays  |
#              |              based on the decay programs           |
#              |                                                    |
#              |                     SDECAY 1.3b                    |
#              |                                                    |
#              |  Authors: M.Muhlleitner, A.Djouadi and Y.Mambrini  |
#              |  Ref.:    Comput.Phys.Commun.168(2005)46           |
#              |           [hep-ph/0311167]                         |
#              |                                                    |
#              |                     HDECAY 3.4                     |
#              |                                                    |
#              |  By: A.Djouadi,J.Kalinowski,M.Muhlleitner,M.Spira  |
#              |  Ref.:    Comput.Phys.Commun.108(1998)56           |
#              |           [hep-ph/9704448]                         |
#              |                                                    |
#              |                                                    |
#              |  If not stated otherwise all DRbar couplings and   |
#              |  soft SUSY breaking masses are given at the scale  |
#              |  Q=  0.50007015E+04
#              |                                                    |
#              ------------------------------------------------------
#
#
BLOCK DCINFO  # Decay Program information
     1   SDECAY/HDECAY # decay calculator
     2   1.3b  /3.4    # version number
#
BLOCK SPINFO  # Spectrum calculator information
     1    SOFTSUSY    # spectrum calculator                
     2    3.4.0       # version number                     
#
BLOCK MODSEL  # Model selection
     1     0   #  nonUniversal                                     
#
BLOCK SMINPUTS  # Standard Model inputs
         1     1.25778332E+02   # alpha_em^-1(M_Z)^MSbar
         2     1.16570000E-05   # G_F [GeV^-2]
         3     1.17200002E-01   # alpha_S(M_Z)^MSbar
         4     9.11876000E+01   # M_Z pole mass
         5     4.25000000E+00   # mb(mb)^MSbar
         6     1.72500000E+02   # mt pole mass
         7     1.77682000E+00   # mtau pole mass
#
BLOCK MINPAR  # Input parameters - minimal models
         3     1.00000000E+01   # tanb                
#
BLOCK EXTPAR  # Input parameters - non-minimal models
         0    -1.00000000E+00   # Set                 
         1     6.00000000E+01   # M_1(MX)             
         2     3.00000000E+03   # M_2(MX)             
         3     2.42819100E+03   # M_3(MX)             
        11     5.00000000E+03   # At(MX)              
        12     5.00000000E+03   # Ab(MX)              
        13     0.00000000E+00   # Atau(MX)            
        23    -1.93689300E+03   # mu(MX)              
        26     3.00000000E+03   # mA(pole)            
        31     5.00000000E+03   # meL(MX)             
        32     5.00000000E+03   # mmuL(MX)            
        33     5.00000000E+03   # mtauL(MX)           
        34     5.00000000E+03   # meR(MX)             
        35     5.00000000E+03   # mmuR(MX)            
        36     5.00000000E+03   # mtauR(MX)           
        41     5.00000000E+03   # mqL1(MX)            
        42     5.00000000E+03   # mqL2(MX)            
        43     5.00000000E+03   # mqL3(MX)            
        44     5.00000000E+03   # muR(MX)             
        45     5.00000000E+03   # mcR(MX)             
        46     5.00000000E+03   # mtR(MX)             
        47     5.00000000E+03   # mdR(MX)             
        48     5.00000000E+03   # msR(MX)             
        49     5.00000000E+03   # mbR(MX)             
#
BLOCK MASS  # Mass Spectrum
# PDG code           mass       particle
        24     8.00977994E+01   # W+
        25     1.24830049E+02   # h
        35     3.00007626E+03   # H
        36     2.99999995E+03   # A
        37     3.00087245E+03   # H+
         5     4.87878001E+00   # b-quark pole mass calculated from mb(mb)_Msbar
   1000001     5.08622798E+03   # ~d_L
   2000001     5.06852243E+03   # ~d_R
   1000002     5.08575860E+03   # ~u_L
   2000002     5.06825546E+03   # ~u_R
   1000003     5.08622798E+03   # ~s_L
   2000003     5.06852243E+03   # ~s_R
   1000004     5.08575860E+03   # ~c_L
   2000004     5.06825546E+03   # ~c_R
   1000005     5.03297177E+03   # ~b_1
   2000005     5.06772594E+03   # ~b_2
   1000006     4.92662765E+03   # ~t_1
   2000006     5.07887771E+03   # ~t_2
   1000011     5.01902996E+03   # ~e_L
   2000011     5.00590177E+03   # ~e_R
   1000012     5.01808233E+03   # ~nu_eL
   1000013     5.01902996E+03   # ~mu_L
   2000013     5.00590177E+03   # ~mu_R
   1000014     5.01808233E+03   # ~nu_muL
   1000015     5.00405764E+03   # ~tau_1
   2000015     5.01932927E+03   # ~tau_2
   1000016     5.01755417E+03   # ~nu_tauL
   1000021     2.80000098E+03   # ~g
   1000022     6.02993647E+01   # ~chi_10
   1000023     1.99938284E+03   # ~chi_20
   1000025    -2.00239673E+03   # ~chi_30
   1000035     3.07449037E+03   # ~chi_40
   1000024     2.00000031E+03   # ~chi_1+
   1000037     3.07465825E+03   # ~chi_2+
#
BLOCK NMIX  # Neutralino Mixing Matrix
  1  1     9.99749436E-01   # N_11
  1  2     1.11645618E-04   # N_12
  1  3    -2.23215211E-02   # N_13
  1  4     1.67386265E-03   # N_14
  2  1     1.45913755E-02   # N_21
  2  2     4.52816366E-02   # N_22
  2  3     7.06689821E-01   # N_23
  2  4     7.05922207E-01   # N_24
  3  1    -1.69655833E-02   # N_31
  3  2     1.19411811E-02   # N_32
  3  3    -7.06777940E-01   # N_33
  3  4     7.07131190E-01   # N_34
  4  1    -5.70375674E-04   # N_41
  4  2     9.98902883E-01   # N_42
  4  3    -2.35836903E-02   # N_43
  4  4    -4.04538640E-02   # N_44
#
BLOCK UMIX  # Chargino Mixing Matrix U
  1  1     3.32825352E-02   # U_11
  1  2     9.99445983E-01   # U_12
  2  1    -9.99445983E-01   # U_21
  2  2     3.32825352E-02   # U_22
#
BLOCK VMIX  # Chargino Mixing Matrix V
  1  1     5.71416943E-02   # V_11
  1  2    -9.98366079E-01   # V_12
  2  1    -9.98366079E-01   # V_21
  2  2    -5.71416943E-02   # V_22
#
BLOCK STOPMIX  # Stop Mixing Matrix
  1  1    -5.13548733E-01   # cos(theta_t)
  1  2     8.58060428E-01   # sin(theta_t)
  2  1    -8.58060428E-01   # -sin(theta_t)
  2  2    -5.13548733E-01   # cos(theta_t)
#
BLOCK SBOTMIX  # Sbottom Mixing Matrix
  1  1     9.90709655E-01   # cos(theta_b)
  1  2    -1.35994042E-01   # sin(theta_b)
  2  1     1.35994042E-01   # -sin(theta_b)
  2  2     9.90709655E-01   # cos(theta_b)
#
BLOCK STAUMIX  # Stau Mixing Matrix
  1  1    -2.18694769E-01   # cos(theta_tau)
  1  2     9.75793317E-01   # sin(theta_tau)
  2  1    -9.75793317E-01   # -sin(theta_tau)
  2  2    -2.18694769E-01   # cos(theta_tau)
#
BLOCK ALPHA  # Higgs mixing
          -1.05463758E-01   # Mixing angle in the neutral Higgs boson sector
#
BLOCK HMIX Q=  5.00070153E+03  # DRbar Higgs Parameters
         1    -1.97263968E+03   # mu(Q)MSSM           
         2     9.47010555E+00   # tan                 
         3     2.42062234E+02   # higgs               
         4     8.33179504E+06   # mA^2(Q)MSSM         
#
BLOCK GAUGE Q=  5.00070153E+03  # The gauge couplings
     1     3.70618343E-01   # gprime(Q) DRbar
     2     6.31712611E-01   # g(Q) DRbar
     3     9.93509115E-01   # g3(Q) DRbar
#
BLOCK AU Q=  5.00070153E+03  # The trilinear couplings
  1  1     5.00000002E+03   # A_u(Q) DRbar
  2  2     5.00000002E+03   # A_c(Q) DRbar
  3  3     5.00000003E+03   # A_t(Q) DRbar
#
BLOCK AD Q=  5.00070153E+03  # The trilinear couplings
  1  1     5.00000001E+03   # A_d(Q) DRbar
  2  2     5.00000001E+03   # A_s(Q) DRbar
  3  3     5.00000001E+03   # A_b(Q) DRbar
#
BLOCK AE Q=  5.00070153E+03  # The trilinear couplings
  1  1     0.00000000E+00   # A_e(Q) DRbar
  2  2     3.02249431E-07   # A_mu(Q) DRbar
  3  3     3.02368948E-07   # A_tau(Q) DRbar
#
BLOCK Yu Q=  5.00070153E+03  # The Yukawa couplings
  1  1     0.00000000E+00   # y_u(Q) DRbar
  2  2     0.00000000E+00   # y_c(Q) DRbar
  3  3     8.20880720E-01   # y_t(Q) DRbar
#
BLOCK Yd Q=  5.00070153E+03  # The Yukawa couplings
  1  1     0.00000000E+00   # y_d(Q) DRbar
  2  2     0.00000000E+00   # y_s(Q) DRbar
  3  3     1.32724022E-01   # y_b(Q) DRbar
#
BLOCK Ye Q=  5.00070153E+03  # The Yukawa couplings
  1  1     0.00000000E+00   # y_e(Q) DRbar
  2  2     0.00000000E+00   # y_mu(Q) DRbar
  3  3     9.64480169E-02   # y_tau(Q) DRbar
#
BLOCK MSOFT Q=  5.00070153E+03  # The soft SUSY breaking masses at the scale Q
         1     6.00000000E+01   # M_1(Q)              
         2     3.00000000E+03   # M_2(Q)              
         3     2.42819100E+03   # M_3(Q)              
        21     4.75206467E+06   # mH1^2(Q)            
        22    -3.35759005E+06   # mH2^2(Q)            
        31     5.00000000E+03   # meL(Q)              
        32     5.00000000E+03   # mmuL(Q)             
        33     5.00000000E+03   # mtauL(Q)            
        34     5.00000000E+03   # meR(Q)              
        35     5.00000000E+03   # mmuR(Q)             
        36     5.00000000E+03   # mtauR(Q)            
        41     4.99999999E+03   # mqL1(Q)             
        42     4.99999999E+03   # mqL2(Q)             
        43     4.99999999E+03   # mqL3(Q)             
        44     4.99999999E+03   # muR(Q)              
        45     4.99999999E+03   # mcR(Q)              
        46     4.99999999E+03   # mtR(Q)              
        47     4.99999999E+03   # mdR(Q)              
        48     4.99999999E+03   # msR(Q)              
        49     4.99999999E+03   # mbR(Q)              
#
#
#
#                             =================
#                             |The decay table|
#                             =================
#
# - The QCD corrections to the decays gluino -> squark  + quark
#                                     squark -> gaugino + quark_prime
#                                     squark -> squark_prime + Higgs
#                                     squark -> gluino  + quark
#   are included.
#
# - The multi-body decays for the inos, stops and sbottoms are included.
#
# - The loop induced decays for the gluino, neutralinos and stops
#   are included.
#
# - The SUSY decays of the top quark are included.
#
#
#         PDG            Width
DECAY         6     1.39832249E+00   # top decays
#          BR         NDA      ID1       ID2
     1.00000000E+00    2           5        24   # BR(t ->  b    W+)
#
#         PDG            Width
DECAY   1000021     2.09971860E-03   # gluino decays
#          BR         NDA      ID1       ID2
     5.41421339E-06    2     1000022        21   # BR(~g -> ~chi_10 g)
     3.11934434E-03    2     1000023        21   # BR(~g -> ~chi_20 g)
     3.15125807E-03    2     1000025        21   # BR(~g -> ~chi_30 g)
#           BR         NDA      ID1       ID2       ID3
     6.66767443E-02    3     1000022         1        -1   # BR(~g -> ~chi_10 d  db)
     1.75176322E-05    3     1000023         1        -1   # BR(~g -> ~chi_20 d  db)
     9.11551809E-07    3     1000025         1        -1   # BR(~g -> ~chi_30 d  db)
     2.27337486E-01    3     1000022         2        -2   # BR(~g -> ~chi_10 u  ub)
     2.34178162E-05    3     1000023         2        -2   # BR(~g -> ~chi_20 u  ub)
     8.33210406E-07    3     1000025         2        -2   # BR(~g -> ~chi_30 u  ub)
     6.66767443E-02    3     1000022         3        -3   # BR(~g -> ~chi_10 s  sb)
     1.75176322E-05    3     1000023         3        -3   # BR(~g -> ~chi_20 s  sb)
     9.11551809E-07    3     1000025         3        -3   # BR(~g -> ~chi_30 s  sb)
     2.27337486E-01    3     1000022         4        -4   # BR(~g -> ~chi_10 c  cb)
     2.34178162E-05    3     1000023         4        -4   # BR(~g -> ~chi_20 c  cb)
     8.33210406E-07    3     1000025         4        -4   # BR(~g -> ~chi_30 c  cb)
     6.74819591E-02    3     1000022         5        -5   # BR(~g -> ~chi_10 b  bb)
     9.06734494E-04    3     1000023         5        -5   # BR(~g -> ~chi_20 b  bb)
     8.69264452E-04    3     1000025         5        -5   # BR(~g -> ~chi_30 b  bb)
     2.35311272E-01    3     1000022         6        -6   # BR(~g -> ~chi_10 t  tb)
     2.51687803E-02    3     1000023         6        -6   # BR(~g -> ~chi_20 t  tb)
     1.88160840E-02    3     1000025         6        -6   # BR(~g -> ~chi_30 t  tb)
     3.98951927E-05    3     1000024         1        -2   # BR(~g -> ~chi_1+ d  ub)
     3.98951927E-05    3    -1000024         2        -1   # BR(~g -> ~chi_1- u  db)
     3.98951927E-05    3     1000024         3        -4   # BR(~g -> ~chi_1+ s  cb)
     3.98951927E-05    3    -1000024         4        -3   # BR(~g -> ~chi_1- c  sb)
     2.84482435E-02    3     1000024         5        -6   # BR(~g -> ~chi_1+ b  tb)
     2.84482435E-02    3    -1000024         6        -5   # BR(~g -> ~chi_1- t  bb)
#
#         PDG            Width
DECAY   1000006     2.38523692E+02   # stop1 decays
#          BR         NDA      ID1       ID2
     3.68926500E-02    2     1000022         6   # BR(~t_1 -> ~chi_10 t )
     9.58103191E-02    2     1000023         6   # BR(~t_1 -> ~chi_20 t )
     9.19842223E-02    2     1000025         6   # BR(~t_1 -> ~chi_30 t )
     9.60313644E-03    2     1000035         6   # BR(~t_1 -> ~chi_40 t )
     1.37522498E-01    2     1000024         5   # BR(~t_1 -> ~chi_1+ b )
     1.90257051E-02    2     1000037         5   # BR(~t_1 -> ~chi_2+ b )
     6.09161469E-01    2     1000021         6   # BR(~t_1 -> ~g      t )
#
#         PDG            Width
DECAY   2000006     2.56829963E+02   # stop2 decays
#          BR         NDA      ID1       ID2
     1.36922305E-02    2     1000022         6   # BR(~t_2 -> ~chi_10 t )
     9.40240830E-02    2     1000023         6   # BR(~t_2 -> ~chi_20 t )
     9.79894897E-02    2     1000025         6   # BR(~t_2 -> ~chi_30 t )
     2.11567217E-02    2     1000035         6   # BR(~t_2 -> ~chi_40 t )
     5.86589962E-02    2     1000024         5   # BR(~t_2 -> ~chi_1+ b )
     4.18119366E-02    2     1000037         5   # BR(~t_2 -> ~chi_2+ b )
     6.67824673E-01    2     1000021         6   # BR(~t_2 -> ~g      t )
     1.03922412E-03    2     1000006        25   # BR(~t_2 -> ~t_1    h )
     3.80264496E-03    2     1000006        23   # BR(~t_2 -> ~t_1    Z )
#
#         PDG            Width
DECAY   1000005     2.33241795E+02   # sbottom1 decays
#          BR         NDA      ID1       ID2
     3.40477117E-03    2     1000022         5   # BR(~b_1 -> ~chi_10 b )
     2.89739067E-03    2     1000023         5   # BR(~b_1 -> ~chi_20 b )
     2.61027891E-03    2     1000025         5   # BR(~b_1 -> ~chi_30 b )
     3.20410417E-02    2     1000035         5   # BR(~b_1 -> ~chi_40 b )
     1.99896980E-01    2    -1000024         6   # BR(~b_1 -> ~chi_1- t )
     6.47886479E-02    2    -1000037         6   # BR(~b_1 -> ~chi_2- t )
     6.92198785E-01    2     1000021         5   # BR(~b_1 -> ~g      b )
     2.16210484E-03    2     1000006       -24   # BR(~b_1 -> ~t_1    W-)
#
#         PDG            Width
DECAY   2000005     1.71170660E+02   # sbottom2 decays
#          BR         NDA      ID1       ID2
     1.69624891E-02    2     1000022         5   # BR(~b_2 -> ~chi_10 b )
     3.52271946E-03    2     1000023         5   # BR(~b_2 -> ~chi_20 b )
     3.78536402E-03    2     1000025         5   # BR(~b_2 -> ~chi_30 b )
     8.88946470E-04    2     1000035         5   # BR(~b_2 -> ~chi_40 b )
     1.21983719E-02    2    -1000024         6   # BR(~b_2 -> ~chi_1- t )
     1.79514624E-03    2    -1000037         6   # BR(~b_2 -> ~chi_2- t )
     9.60595665E-01    2     1000021         5   # BR(~b_2 -> ~g      b )
     2.51297519E-04    2     1000006       -24   # BR(~b_2 -> ~t_1    W-)
#
#         PDG            Width
DECAY   1000002     1.90442096E+02   # sup_L decays
#          BR         NDA      ID1       ID2
     3.90674139E-03    2     1000022         2   # BR(~u_L -> ~chi_10 u)
     1.69974906E-04    2     1000023         2   # BR(~u_L -> ~chi_20 u)
     5.44923695E-06    2     1000025         2   # BR(~u_L -> ~chi_30 u)
     4.14153408E-02    2     1000035         2   # BR(~u_L -> ~chi_40 u)
     4.78959403E-04    2     1000024         1   # BR(~u_L -> ~chi_1+ d)
     8.27498479E-02    2     1000037         1   # BR(~u_L -> ~chi_2+ d)
     8.71273686E-01    2     1000021         2   # BR(~u_L -> ~g      u)
#
#         PDG            Width
DECAY   2000002     1.76215299E+02   # sup_R decays
#          BR         NDA      ID1       ID2
     6.72396734E-02    2     1000022         2   # BR(~u_R -> ~chi_10 u)
     1.02672385E-05    2     1000023         2   # BR(~u_R -> ~chi_20 u)
     1.38649780E-05    2     1000025         2   # BR(~u_R -> ~chi_30 u)
     8.83078767E-09    2     1000035         2   # BR(~u_R -> ~chi_40 u)
     9.32736186E-01    2     1000021         2   # BR(~u_R -> ~g      u)
#
#         PDG            Width
DECAY   1000001     1.90461985E+02   # sdown_L decays
#          BR         NDA      ID1       ID2
     3.89778912E-03    2     1000022         1   # BR(~d_L -> ~chi_10 d)
     1.32066168E-04    2     1000023         1   # BR(~d_L -> ~chi_20 d)
     1.70632505E-05    2     1000025         1   # BR(~d_L -> ~chi_30 d)
     4.14421001E-02    2     1000035         1   # BR(~d_L -> ~chi_40 d)
     1.62498627E-04    2    -1000024         2   # BR(~d_L -> ~chi_1- u)
     8.29454889E-02    2    -1000037         2   # BR(~d_L -> ~chi_2- u)
     8.71402994E-01    2     1000021         1   # BR(~d_L -> ~g      d)
#
#         PDG            Width
DECAY   2000001     1.67349644E+02   # sdown_R decays
#          BR         NDA      ID1       ID2
     1.77014090E-02    2     1000022         1   # BR(~d_R -> ~chi_10 d)
     2.70303970E-06    2     1000023         1   # BR(~d_R -> ~chi_20 d)
     3.65021140E-06    2     1000025         1   # BR(~d_R -> ~chi_30 d)
     2.32505973E-09    2     1000035         1   # BR(~d_R -> ~chi_40 d)
     9.82292235E-01    2     1000021         1   # BR(~d_R -> ~g      d)
#
#         PDG            Width
DECAY   1000004     1.90442096E+02   # scharm_L decays
#          BR         NDA      ID1       ID2
     3.90674139E-03    2     1000022         4   # BR(~c_L -> ~chi_10 c)
     1.69974906E-04    2     1000023         4   # BR(~c_L -> ~chi_20 c)
     5.44923695E-06    2     1000025         4   # BR(~c_L -> ~chi_30 c)
     4.14153408E-02    2     1000035         4   # BR(~c_L -> ~chi_40 c)
     4.78959403E-04    2     1000024         3   # BR(~c_L -> ~chi_1+ s)
     8.27498479E-02    2     1000037         3   # BR(~c_L -> ~chi_2+ s)
     8.71273686E-01    2     1000021         4   # BR(~c_L -> ~g      c)
#
#         PDG            Width
DECAY   2000004     1.76215299E+02   # scharm_R decays
#          BR         NDA      ID1       ID2
     6.72396734E-02    2     1000022         4   # BR(~c_R -> ~chi_10 c)
     1.02672385E-05    2     1000023         4   # BR(~c_R -> ~chi_20 c)
     1.38649780E-05    2     1000025         4   # BR(~c_R -> ~chi_30 c)
     8.83078767E-09    2     1000035         4   # BR(~c_R -> ~chi_40 c)
     9.32736186E-01    2     1000021         4   # BR(~c_R -> ~g      c)
#
#         PDG            Width
DECAY   1000003     1.90461985E+02   # sstrange_L decays
#          BR         NDA      ID1       ID2
     3.89778912E-03    2     1000022         3   # BR(~s_L -> ~chi_10 s)
     1.32066168E-04    2     1000023         3   # BR(~s_L -> ~chi_20 s)
     1.70632505E-05    2     1000025         3   # BR(~s_L -> ~chi_30 s)
     4.14421001E-02    2     1000035         3   # BR(~s_L -> ~chi_40 s)
     1.62498627E-04    2    -1000024         4   # BR(~s_L -> ~chi_1- c)
     8.29454889E-02    2    -1000037         4   # BR(~s_L -> ~chi_2- c)
     8.71402994E-01    2     1000021         3   # BR(~s_L -> ~g      s)
#
#         PDG            Width
DECAY   2000003     1.67349644E+02   # sstrange_R decays
#          BR         NDA      ID1       ID2
     1.77014090E-02    2     1000022         3   # BR(~s_R -> ~chi_10 s)
     2.70303970E-06    2     1000023         3   # BR(~s_R -> ~chi_20 s)
     3.65021140E-06    2     1000025         3   # BR(~s_R -> ~chi_30 s)
     2.32505973E-09    2     1000035         3   # BR(~s_R -> ~chi_40 s)
     9.82292235E-01    2     1000021         3   # BR(~s_R -> ~g      s)
#
#         PDG            Width
DECAY   1000011     3.02151969E+01   # selectron_L decays
#          BR         NDA      ID1       ID2
     2.26866619E-01    2     1000022        11   # BR(~e_L -> ~chi_10 e-)
     1.35297772E-03    2     1000023        11   # BR(~e_L -> ~chi_20 e-)
     1.84179051E-06    2     1000025        11   # BR(~e_L -> ~chi_30 e-)
     2.56636521E-01    2     1000035        11   # BR(~e_L -> ~chi_40 e-)
     1.03372789E-03    2    -1000024        12   # BR(~e_L -> ~chi_1- nu_e)
     5.14108313E-01    2    -1000037        12   # BR(~e_L -> ~chi_2- nu_e)
#
#         PDG            Width
DECAY   2000011     2.73467832E+01   # selectron_R decays
#          BR         NDA      ID1       ID2
     9.99646230E-01    2     1000022        11   # BR(~e_R -> ~chi_10 e-)
     1.50464022E-04    2     1000023        11   # BR(~e_R -> ~chi_20 e-)
     2.03179669E-04    2     1000025        11   # BR(~e_R -> ~chi_30 e-)
     1.26240059E-07    2     1000035        11   # BR(~e_R -> ~chi_40 e-)
#
#         PDG            Width
DECAY   1000013     3.02151969E+01   # smuon_L decays
#          BR         NDA      ID1       ID2
     2.26866619E-01    2     1000022        13   # BR(~mu_L -> ~chi_10 mu-)
     1.35297772E-03    2     1000023        13   # BR(~mu_L -> ~chi_20 mu-)
     1.84179051E-06    2     1000025        13   # BR(~mu_L -> ~chi_30 mu-)
     2.56636521E-01    2     1000035        13   # BR(~mu_L -> ~chi_40 mu-)
     1.03372789E-03    2    -1000024        14   # BR(~mu_L -> ~chi_1- nu_mu)
     5.14108313E-01    2    -1000037        14   # BR(~mu_L -> ~chi_2- nu_mu)
#
#         PDG            Width
DECAY   2000013     2.73467832E+01   # smuon_R decays
#          BR         NDA      ID1       ID2
     9.99646230E-01    2     1000022        13   # BR(~mu_R -> ~chi_10 mu-)
     1.50464022E-04    2     1000023        13   # BR(~mu_R -> ~chi_20 mu-)
     2.03179669E-04    2     1000025        13   # BR(~mu_R -> ~chi_30 mu-)
     1.26240059E-07    2     1000035        13   # BR(~mu_R -> ~chi_40 mu-)
#
#         PDG            Width
DECAY   1000015     2.87860868E+01   # stau_1 decays
#          BR         NDA      ID1       ID2
     9.16112085E-01    2     1000022        15   # BR(~tau_1 -> ~chi_10  tau-)
     1.27158342E-02    2     1000023        15   # BR(~tau_1 -> ~chi_20  tau-)
     1.08247593E-02    2     1000025        15   # BR(~tau_1 -> ~chi_30  tau-)
     1.21791624E-02    2     1000035        15   # BR(~tau_1 -> ~chi_40  tau-)
     2.37668755E-02    2    -1000024        16   # BR(~tau_1 -> ~chi_1-  nu_tau)
     2.44012841E-02    2    -1000037        16   # BR(~tau_1 -> ~chi_2-  nu_tau)
#
#         PDG            Width
DECAY   2000015     3.07268155E+01   # stau_2 decays
#          BR         NDA      ID1       ID2
     2.54332072E-01    2     1000022        15   # BR(~tau_2 -> ~chi_10  tau-)
     1.08630919E-02    2     1000023        15   # BR(~tau_2 -> ~chi_20  tau-)
     1.13428167E-02    2     1000025        15   # BR(~tau_2 -> ~chi_30  tau-)
     2.40896650E-01    2     1000035        15   # BR(~tau_2 -> ~chi_40  tau-)
     7.33991857E-07    2    -1000024        16   # BR(~tau_2 -> ~chi_1-  nu_tau)
     4.82564635E-01    2    -1000037        16   # BR(~tau_2 -> ~chi_2-  nu_tau)
#
#         PDG            Width
DECAY   1000012     3.02162115E+01   # snu_eL decays
#          BR         NDA      ID1       ID2
     2.26643516E-01    2     1000022        12   # BR(~nu_eL -> ~chi_10 nu_e)
     6.29095135E-04    2     1000023        12   # BR(~nu_eL -> ~chi_20 nu_e)
     2.23392743E-04    2     1000025        12   # BR(~nu_eL -> ~chi_30 nu_e)
     2.56806938E-01    2     1000035        12   # BR(~nu_eL -> ~chi_40 nu_e)
     3.04593856E-03    2     1000024        11   # BR(~nu_eL -> ~chi_1+ e-)
     5.12651119E-01    2     1000037        11   # BR(~nu_eL -> ~chi_2+ e-)
#
#         PDG            Width
DECAY   1000014     3.02162115E+01   # snu_muL decays
#          BR         NDA      ID1       ID2
     2.26643516E-01    2     1000022        14   # BR(~nu_muL -> ~chi_10 nu_mu)
     6.29095135E-04    2     1000023        14   # BR(~nu_muL -> ~chi_20 nu_mu)
     2.23392743E-04    2     1000025        14   # BR(~nu_muL -> ~chi_30 nu_mu)
     2.56806938E-01    2     1000035        14   # BR(~nu_muL -> ~chi_40 nu_mu)
     3.04593856E-03    2     1000024        13   # BR(~nu_muL -> ~chi_1+ mu-)
     5.12651119E-01    2     1000037        13   # BR(~nu_muL -> ~chi_2+ mu-)
#
#         PDG            Width
DECAY   1000016     3.08637915E+01   # snu_tauL decays
#          BR         NDA      ID1       ID2
     2.21864744E-01    2     1000022        16   # BR(~nu_tauL -> ~chi_10 nu_tau)
     6.15781786E-04    2     1000023        16   # BR(~nu_tauL -> ~chi_20 nu_tau)
     2.18665088E-04    2     1000025        16   # BR(~nu_tauL -> ~chi_30 nu_tau)
     2.51328575E-01    2     1000035        16   # BR(~nu_tauL -> ~chi_40 nu_tau)
     2.42481996E-02    2     1000024        15   # BR(~nu_tauL -> ~chi_1+ tau-)
     5.01724035E-01    2     1000037        15   # BR(~nu_tauL -> ~chi_2+ tau-)
#
#         PDG            Width
DECAY   1000024     1.23483236E+00   # chargino1+ decays
#          BR         NDA      ID1       ID2
     1.00000000E+00    2     1000022        24   # BR(~chi_1+ -> ~chi_10  W+)
#
#         PDG            Width
DECAY   1000037     1.53599614E+01   # chargino2+ decays
#          BR         NDA      ID1       ID2
     2.51882433E-01    2     1000024        23   # BR(~chi_2+ -> ~chi_1+  Z )
     4.76643354E-04    2     1000022        24   # BR(~chi_2+ -> ~chi_10  W+)
     2.45380117E-01    2     1000023        24   # BR(~chi_2+ -> ~chi_20  W+)
     2.42767165E-01    2     1000025        24   # BR(~chi_2+ -> ~chi_30  W+)
     2.59493599E-01    2     1000024        25   # BR(~chi_2+ -> ~chi_1+  h )
     4.32095159E-08    2     1000022        37   # BR(~chi_2+ -> ~chi_10  H+)
#
#         PDG            Width
DECAY   1000022     0.00000000E+00   # neutralino1 decays
#
#         PDG            Width
DECAY   1000023     1.30071728E+00   # neutralino2 decays
#          BR         NDA      ID1       ID2
     5.65492604E-01    2     1000022        23   # BR(~chi_20 -> ~chi_10   Z )
     4.34507396E-01    2     1000022        25   # BR(~chi_20 -> ~chi_10   h )
#
#         PDG            Width
DECAY   1000025     1.31704209E+00   # neutralino3 decays
#          BR         NDA      ID1       ID2
     4.15217178E-01    2     1000022        23   # BR(~chi_30 -> ~chi_10   Z )
     5.84782822E-01    2     1000022        25   # BR(~chi_30 -> ~chi_10   h )
#
#         PDG            Width
DECAY   1000035     1.53133357E+01   # neutralino4 decays
#          BR         NDA      ID1       ID2
     2.14718554E-04    2     1000022        23   # BR(~chi_40 -> ~chi_10   Z )
     1.67164918E-02    2     1000023        23   # BR(~chi_40 -> ~chi_20   Z )
     2.35827129E-01    2     1000025        23   # BR(~chi_40 -> ~chi_30   Z )
     2.43570156E-01    2     1000024       -24   # BR(~chi_40 -> ~chi_1+   W-)
     2.43570156E-01    2    -1000024        24   # BR(~chi_40 -> ~chi_1-   W+)
     2.82195447E-04    2     1000022        25   # BR(~chi_40 -> ~chi_10   h )
     3.23213895E-08    2     1000022        35   # BR(~chi_40 -> ~chi_10   H )
     1.24462699E-08    2     1000022        36   # BR(~chi_40 -> ~chi_10   A )
     2.43355620E-01    2     1000023        25   # BR(~chi_40 -> ~chi_20   h )
     1.64634877E-02    2     1000025        25   # BR(~chi_40 -> ~chi_30   h )
#
#         PDG            Width
DECAY        25     4.02501176E-03   # h decays
#          BR         NDA      ID1       ID2
     6.03489390E-01    2           5        -5   # BR(h -> b       bb     )
     6.44605131E-02    2         -15        15   # BR(h -> tau+    tau-   )
     2.28213402E-04    2         -13        13   # BR(h -> mu+     mu-    )
     4.83757016E-04    2           3        -3   # BR(h -> s       sb     )
     2.09649595E-02    2           4        -4   # BR(h -> c       cb     )
     6.78818184E-02    2          21        21   # BR(h -> g       g      )
     2.33554161E-03    2          22        22   # BR(h -> gam     gam    )
     1.51072513E-03    2          22        23   # BR(h -> Z       gam    )
     2.13185711E-01    2          24       -24   # BR(h -> W+      W-     )
     2.54379636E-02    2          23        23   # BR(h -> Z       Z      )
     2.14071539E-05    2     1000022   1000022   # BR(h -> ~chi_10 ~chi_10)
#
#         PDG            Width
DECAY        35     6.36898461E+00   # H decays
#          BR         NDA      ID1       ID2
     5.20341102E-01    2           5        -5   # BR(H -> b       bb     )
     8.74774094E-02    2         -15        15   # BR(H -> tau+    tau-   )
     3.09327068E-04    2         -13        13   # BR(H -> mu+     mu-    )
     3.79187683E-04    2           3        -3   # BR(H -> s       sb     )
     2.12052582E-06    2           4        -4   # BR(H -> c       cb     )
     2.11857315E-01    2           6        -6   # BR(H -> t       tb     )
     7.02751318E-05    2          21        21   # BR(H -> g       g      )
     3.97476147E-07    2          22        22   # BR(H -> gam     gam    )
     1.25164345E-07    2          23        22   # BR(H -> Z       gam    )
     9.22925800E-05    2          24       -24   # BR(H -> W+      W-     )
     4.60878931E-05    2          23        23   # BR(H -> Z       Z      )
     3.52379933E-04    2          25        25   # BR(H -> h       h      )
     3.92783018E-23    2          36        36   # BR(H -> A       A      )
     1.82378454E-19    2          23        36   # BR(H -> Z       A      )
     5.67328138E-04    2     1000022   1000022   # BR(H -> ~chi_10 ~chi_10)
     1.04255517E-01    2     1000022   1000023   # BR(H -> ~chi_10 ~chi_20)
     7.42491347E-02    2     1000022   1000025   # BR(H -> ~chi_10 ~chi_30)
#
#         PDG            Width
DECAY        36     6.37234048E+00   # A decays
#          BR         NDA      ID1       ID2
     5.20239409E-01    2           5        -5   # BR(A -> b       bb     )
     8.74340130E-02    2         -15        15   # BR(A -> tau+    tau-   )
     3.09173183E-04    2         -13        13   # BR(A -> mu+     mu-    )
     3.79275899E-04    2           3        -3   # BR(A -> s       sb     )
     2.12838661E-06    2           4        -4   # BR(A -> c       cb     )
     2.12525355E-01    2           6        -6   # BR(A -> t       tb     )
     2.10318387E-04    2          21        21   # BR(A -> g       g      )
     4.11109375E-07    2          22        22   # BR(A -> gam     gam    )
     2.54869286E-07    2          23        22   # BR(A -> Z       gam    )
     9.18954393E-05    2          23        25   # BR(A -> Z       h      )
     5.86264730E-04    2     1000022   1000022   # BR(A -> ~chi_10 ~chi_10)
     7.51759276E-02    2     1000022   1000023   # BR(A -> ~chi_10 ~chi_20)
     1.03045573E-01    2     1000022   1000025   # BR(A -> ~chi_10 ~chi_30)
#
#         PDG            Width
DECAY        37     6.40868270E+00   # H+ decays
#          BR         NDA      ID1       ID2
     8.41766565E-04    2           4        -5   # BR(H+ -> c       bb     )
     8.69634787E-02    2         -15        16   # BR(H+ -> tau+    nu_tau )
     3.07509338E-04    2         -13        14   # BR(H+ -> mu+     nu_mu  )
     5.38727902E-06    2           2        -5   # BR(H+ -> u       bb     )
     1.80440080E-05    2           2        -3   # BR(H+ -> u       sb     )
     3.73150970E-04    2           4        -3   # BR(H+ -> c       sb     )
     7.32976951E-01    2           6        -5   # BR(H+ -> t       bb     )
     9.15127345E-05    2          24        25   # BR(H+ -> W+      h      )
     1.03693078E-13    2          24        36   # BR(H+ -> W+      A      )
     1.78422199E-01    2     1000024   1000022   # BR(H+ -> ~chi_1+ ~chi_10)
