#
#                              ======================
#                              | THE SUSYHIT OUTPUT |
#                              ======================
#
#
#              ------------------------------------------------------
#              |     This is the output of the SUSY-HIT package     |
#              |  created by A.Djouadi, M.Muehlleitner and M.Spira. |
#              |  In case of problems with SUSY-HIT email to        |
#              |           margarete.muehlleitner@cern.ch           |
#              |           michael.spira@psi.ch                     |
#              |           abdelhak.djouadi@cern.ch                 |
#              ------------------------------------------------------
#
#              ------------------------------------------------------
#              |  SUSY Les Houches Accord - MSSM Spectrum + Decays  |
#              |              based on the decay programs           |
#              |                                                    |
#              |                     SDECAY 1.3b                    |
#              |                                                    |
#              |  Authors: M.Muhlleitner, A.Djouadi and Y.Mambrini  |
#              |  Ref.:    Comput.Phys.Commun.168(2005)46           |
#              |           [hep-ph/0311167]                         |
#              |                                                    |
#              |                     HDECAY 3.4                     |
#              |                                                    |
#              |  By: A.Djouadi,J.Kalinowski,M.Muhlleitner,M.Spira  |
#              |  Ref.:    Comput.Phys.Commun.108(1998)56           |
#              |           [hep-ph/9704448]                         |
#              |                                                    |
#              |                                                    |
#              |  If not stated otherwise all DRbar couplings and   |
#              |  soft SUSY breaking masses are given at the scale  |
#              |  Q=  0.50006878E+04
#              |                                                    |
#              ------------------------------------------------------
#
#
BLOCK DCINFO  # Decay Program information
     1   SDECAY/HDECAY # decay calculator
     2   1.3b  /3.4    # version number
#
BLOCK SPINFO  # Spectrum calculator information
     1    SOFTSUSY    # spectrum calculator                
     2    3.4.0       # version number                     
#
BLOCK MODSEL  # Model selection
     1     0   #  nonUniversal                                     
#
BLOCK SMINPUTS  # Standard Model inputs
         1     1.25778332E+02   # alpha_em^-1(M_Z)^MSbar
         2     1.16570000E-05   # G_F [GeV^-2]
         3     1.17200002E-01   # alpha_S(M_Z)^MSbar
         4     9.11876000E+01   # M_Z pole mass
         5     4.25000000E+00   # mb(mb)^MSbar
         6     1.72500000E+02   # mt pole mass
         7     1.77682000E+00   # mtau pole mass
#
BLOCK MINPAR  # Input parameters - minimal models
         3     1.00000000E+01   # tanb                
#
BLOCK EXTPAR  # Input parameters - non-minimal models
         0    -1.00000000E+00   # Set                 
         1     6.00000000E+01   # M_1(MX)             
         2     3.00000000E+03   # M_2(MX)             
         3     8.59149000E+02   # M_3(MX)             
        11     5.00000000E+03   # At(MX)              
        12     5.00000000E+03   # Ab(MX)              
        13     0.00000000E+00   # Atau(MX)            
        23    -1.93787000E+03   # mu(MX)              
        26     3.00000000E+03   # mA(pole)            
        31     5.00000000E+03   # meL(MX)             
        32     5.00000000E+03   # mmuL(MX)            
        33     5.00000000E+03   # mtauL(MX)           
        34     5.00000000E+03   # meR(MX)             
        35     5.00000000E+03   # mmuR(MX)            
        36     5.00000000E+03   # mtauR(MX)           
        41     5.00000000E+03   # mqL1(MX)            
        42     5.00000000E+03   # mqL2(MX)            
        43     5.00000000E+03   # mqL3(MX)            
        44     5.00000000E+03   # muR(MX)             
        45     5.00000000E+03   # mcR(MX)             
        46     5.00000000E+03   # mtR(MX)             
        47     5.00000000E+03   # mdR(MX)             
        48     5.00000000E+03   # msR(MX)             
        49     5.00000000E+03   # mbR(MX)             
#
BLOCK MASS  # Mass Spectrum
# PDG code           mass       particle
        24     8.00950093E+01   # W+
        25     1.24390734E+02   # h
        35     3.00007573E+03   # H
        36     2.99999995E+03   # A
        37     3.00087443E+03   # H+
         5     4.87878001E+00   # b-quark pole mass calculated from mb(mb)_Msbar
   1000001     5.06415193E+03   # ~d_L
   2000001     5.04636135E+03   # ~d_R
   1000002     5.06367503E+03   # ~u_L
   2000002     5.04609261E+03   # ~u_R
   1000003     5.06415193E+03   # ~s_L
   2000003     5.04636135E+03   # ~s_R
   1000004     5.06367503E+03   # ~c_L
   2000004     5.04609261E+03   # ~c_R
   1000005     5.01144639E+03   # ~b_1
   2000005     5.04570686E+03   # ~b_2
   1000006     4.90311460E+03   # ~t_1
   2000006     5.05969522E+03   # ~t_2
   1000011     5.01903601E+03   # ~e_L
   2000011     5.00590158E+03   # ~e_R
   1000012     5.01808766E+03   # ~nu_eL
   1000013     5.01903601E+03   # ~mu_L
   2000013     5.00590158E+03   # ~mu_R
   1000014     5.01808766E+03   # ~nu_muL
   1000015     5.00405689E+03   # ~tau_1
   2000015     5.01933547E+03   # ~tau_2
   1000016     5.01755936E+03   # ~nu_tauL
   1000021     1.10000011E+03   # ~g
   1000022     6.02987916E+01   # ~chi_10
   1000023     1.99938101E+03   # ~chi_20
   1000025    -2.00239984E+03   # ~chi_30
   1000035     3.07450317E+03   # ~chi_40
   1000024     2.00000068E+03   # ~chi_1+
   1000037     3.07467115E+03   # ~chi_2+
#
BLOCK NMIX  # Neutralino Mixing Matrix
  1  1     9.99749349E-01   # N_11
  1  2     1.11598131E-04   # N_12
  1  3    -2.23255018E-02   # N_13
  1  4     1.67293892E-03   # N_14
  2  1     1.45948453E-02   # N_21
  2  2     4.52952987E-02   # N_22
  2  3     7.06689832E-01   # N_23
  2  4     7.05921248E-01   # N_24
  3  1    -1.69677369E-02   # N_31
  3  2     1.19437429E-02   # N_32
  3  3    -7.06777540E-01   # N_33
  3  4     7.07131495E-01   # N_34
  4  1    -5.70616152E-04   # N_41
  4  2     9.98902233E-01   # N_42
  4  3    -2.35915643E-02   # N_43
  4  4    -4.04653188E-02   # N_44
#
BLOCK UMIX  # Chargino Mixing Matrix U
  1  1     3.32939454E-02   # U_11
  1  2     9.99445603E-01   # U_12
  2  1    -9.99445603E-01   # U_21
  2  2     3.32939454E-02   # U_22
#
BLOCK VMIX  # Chargino Mixing Matrix V
  1  1     5.71579438E-02   # V_11
  1  2    -9.98365148E-01   # V_12
  2  1    -9.98365148E-01   # V_21
  2  2    -5.71579438E-02   # V_22
#
BLOCK STOPMIX  # Stop Mixing Matrix
  1  1    -5.19441574E-01   # cos(theta_t)
  1  2     8.54505969E-01   # sin(theta_t)
  2  1    -8.54505969E-01   # -sin(theta_t)
  2  2    -5.19441574E-01   # cos(theta_t)
#
BLOCK SBOTMIX  # Sbottom Mixing Matrix
  1  1     9.90580034E-01   # cos(theta_b)
  1  2    -1.36935007E-01   # sin(theta_b)
  2  1     1.36935007E-01   # -sin(theta_b)
  2  2     9.90580034E-01   # cos(theta_b)
#
BLOCK STAUMIX  # Stau Mixing Matrix
  1  1    -2.18680960E-01   # cos(theta_tau)
  1  2     9.75796412E-01   # sin(theta_tau)
  2  1    -9.75796412E-01   # -sin(theta_tau)
  2  2    -2.18680960E-01   # cos(theta_tau)
#
BLOCK ALPHA  # Higgs mixing
          -1.05413378E-01   # Mixing angle in the neutral Higgs boson sector
#
BLOCK HMIX Q=  5.00068781E+03  # DRbar Higgs Parameters
         1    -1.97251945E+03   # mu(Q)MSSM           
         2     9.47448884E+00   # tan                 
         3     2.42117371E+02   # higgs               
         4     8.31734236E+06   # mA^2(Q)MSSM         
#
BLOCK GAUGE Q=  5.00068781E+03  # The gauge couplings
     1     3.70651439E-01   # gprime(Q) DRbar
     2     6.31806083E-01   # g(Q) DRbar
     3     1.00723244E+00   # g3(Q) DRbar
#
BLOCK AU Q=  5.00068781E+03  # The trilinear couplings
  1  1     5.00000001E+03   # A_u(Q) DRbar
  2  2     5.00000001E+03   # A_c(Q) DRbar
  3  3     5.00000001E+03   # A_t(Q) DRbar
#
BLOCK AD Q=  5.00068781E+03  # The trilinear couplings
  1  1     5.00000000E+03   # A_d(Q) DRbar
  2  2     5.00000000E+03   # A_s(Q) DRbar
  3  3     5.00000001E+03   # A_b(Q) DRbar
#
BLOCK AE Q=  5.00068781E+03  # The trilinear couplings
  1  1     0.00000000E+00   # A_e(Q) DRbar
  2  2     3.41847194E-08   # A_mu(Q) DRbar
  3  3     3.32776042E-08   # A_tau(Q) DRbar
#
BLOCK Yu Q=  5.00068781E+03  # The Yukawa couplings
  1  1     0.00000000E+00   # y_u(Q) DRbar
  2  2     0.00000000E+00   # y_c(Q) DRbar
  3  3     8.14413779E-01   # y_t(Q) DRbar
#
BLOCK Yd Q=  5.00068781E+03  # The Yukawa couplings
  1  1     0.00000000E+00   # y_d(Q) DRbar
  2  2     0.00000000E+00   # y_s(Q) DRbar
  3  3     1.30334440E-01   # y_b(Q) DRbar
#
BLOCK Ye Q=  5.00068781E+03  # The Yukawa couplings
  1  1     0.00000000E+00   # y_e(Q) DRbar
  2  2     0.00000000E+00   # y_mu(Q) DRbar
  3  3     9.64693928E-02   # y_tau(Q) DRbar
#
BLOCK MSOFT Q=  5.00068781E+03  # The soft SUSY breaking masses at the scale Q
         1     6.00000000E+01   # M_1(Q)              
         2     3.00000000E+03   # M_2(Q)              
         3     8.59149000E+02   # M_3(Q)              
        21     4.75133556E+06   # mH1^2(Q)            
        22    -3.36451828E+06   # mH2^2(Q)            
        31     5.00000000E+03   # meL(Q)              
        32     5.00000000E+03   # mmuL(Q)             
        33     5.00000000E+03   # mtauL(Q)            
        34     5.00000000E+03   # meR(Q)              
        35     5.00000000E+03   # mmuR(Q)             
        36     5.00000000E+03   # mtauR(Q)            
        41     5.00000000E+03   # mqL1(Q)             
        42     5.00000000E+03   # mqL2(Q)             
        43     5.00000000E+03   # mqL3(Q)             
        44     5.00000000E+03   # muR(Q)              
        45     5.00000000E+03   # mcR(Q)              
        46     5.00000000E+03   # mtR(Q)              
        47     5.00000000E+03   # mdR(Q)              
        48     5.00000000E+03   # msR(Q)              
        49     5.00000000E+03   # mbR(Q)              
#
#
#
#                             =================
#                             |The decay table|
#                             =================
#
# - The QCD corrections to the decays gluino -> squark  + quark
#                                     squark -> gaugino + quark_prime
#                                     squark -> squark_prime + Higgs
#                                     squark -> gluino  + quark
#   are included.
#
# - The multi-body decays for the inos, stops and sbottoms are included.
#
# - The loop induced decays for the gluino, neutralinos and stops
#   are included.
#
# - The SUSY decays of the top quark are included.
#
#
#         PDG            Width
DECAY         6     1.39885799E+00   # top decays
#          BR         NDA      ID1       ID2
     1.00000000E+00    2           5        24   # BR(t ->  b    W+)
#
#         PDG            Width
DECAY   1000021     1.37870370E-05   # gluino decays
#          BR         NDA      ID1       ID2
     1.71028454E-05    2     1000022        21   # BR(~g -> ~chi_10 g)
#           BR         NDA      ID1       ID2       ID3
     8.16375796E-02    3     1000022         1        -1   # BR(~g -> ~chi_10 d  db)
     2.78271833E-01    3     1000022         2        -2   # BR(~g -> ~chi_10 u  ub)
     8.16375796E-02    3     1000022         3        -3   # BR(~g -> ~chi_10 s  sb)
     2.78271833E-01    3     1000022         4        -4   # BR(~g -> ~chi_10 c  cb)
     8.25404595E-02    3     1000022         5        -5   # BR(~g -> ~chi_10 b  bb)
     1.97623613E-01    3     1000022         6        -6   # BR(~g -> ~chi_10 t  tb)
#
#         PDG            Width
DECAY   1000006     3.83862893E+02   # stop1 decays
#          BR         NDA      ID1       ID2
     2.26399351E-02    2     1000022         6   # BR(~t_1 -> ~chi_10 t )
     5.90178135E-02    2     1000023         6   # BR(~t_1 -> ~chi_20 t )
     5.65870232E-02    2     1000025         6   # BR(~t_1 -> ~chi_30 t )
     6.15582350E-03    2     1000035         6   # BR(~t_1 -> ~chi_40 t )
     8.29463912E-02    2     1000024         5   # BR(~t_1 -> ~chi_1+ b )
     1.21953983E-02    2     1000037         5   # BR(~t_1 -> ~chi_2+ b )
     7.60457615E-01    2     1000021         6   # BR(~t_1 -> ~g      t )
#
#         PDG            Width
DECAY   2000006     3.93655506E+02   # stop2 decays
#          BR         NDA      ID1       ID2
     9.37212374E-03    2     1000022         6   # BR(~t_2 -> ~chi_10 t )
     6.07073095E-02    2     1000023         6   # BR(~t_2 -> ~chi_20 t )
     6.33253851E-02    2     1000025         6   # BR(~t_2 -> ~chi_30 t )
     1.33280934E-02    2     1000035         6   # BR(~t_2 -> ~chi_40 t )
     3.95562533E-02    2     1000024         5   # BR(~t_2 -> ~chi_1+ b )
     2.63398559E-02    2     1000037         5   # BR(~t_2 -> ~chi_2+ b )
     7.83948588E-01    2     1000021         6   # BR(~t_2 -> ~g      t )
     7.18943945E-04    2     1000006        25   # BR(~t_2 -> ~t_1    h )
     2.70344711E-03    2     1000006        23   # BR(~t_2 -> ~t_1    Z )
#
#         PDG            Width
DECAY   1000005     3.73736420E+02   # sbottom1 decays
#          BR         NDA      ID1       ID2
     2.14030437E-03    2     1000022         5   # BR(~b_1 -> ~chi_10 b )
     1.75867120E-03    2     1000023         5   # BR(~b_1 -> ~chi_20 b )
     1.57885191E-03    2     1000025         5   # BR(~b_1 -> ~chi_30 b )
     1.96986109E-02    2     1000035         5   # BR(~b_1 -> ~chi_40 b )
     1.23414907E-01    2    -1000024         6   # BR(~b_1 -> ~chi_1- t )
     3.98309332E-02    2    -1000037         6   # BR(~b_1 -> ~chi_2- t )
     8.10128193E-01    2     1000021         5   # BR(~b_1 -> ~g      b )
     1.44952917E-03    2     1000006       -24   # BR(~b_1 -> ~t_1    W-)
#
#         PDG            Width
DECAY   2000005     3.11747992E+02   # sbottom2 decays
#          BR         NDA      ID1       ID2
     9.34885103E-03    2     1000022         5   # BR(~b_2 -> ~chi_10 b )
     1.87261009E-03    2     1000023         5   # BR(~b_2 -> ~chi_20 b )
     2.01793366E-03    2     1000025         5   # BR(~b_2 -> ~chi_30 b )
     5.02527694E-04    2     1000035         5   # BR(~b_2 -> ~chi_40 b )
     6.67483731E-03    2    -1000024         6   # BR(~b_2 -> ~chi_1- t )
     1.01480429E-03    2    -1000037         6   # BR(~b_2 -> ~chi_2- t )
     9.78429338E-01    2     1000021         5   # BR(~b_2 -> ~g      b )
     1.39098265E-04    2     1000006       -24   # BR(~b_2 -> ~t_1    W-)
#
#         PDG            Width
DECAY   1000002     3.30416756E+02   # sup_L decays
#          BR         NDA      ID1       ID2
     2.26172746E-03    2     1000022         2   # BR(~u_L -> ~chi_10 u)
     9.76396967E-05    2     1000023         2   # BR(~u_L -> ~chi_20 u)
     3.13002112E-06    2     1000025         2   # BR(~u_L -> ~chi_30 u)
     2.35386135E-02    2     1000035         2   # BR(~u_L -> ~chi_40 u)
     2.75124604E-04    2     1000024         1   # BR(~u_L -> ~chi_1+ d)
     4.70311533E-02    2     1000037         1   # BR(~u_L -> ~chi_2+ d)
     9.26792611E-01    2     1000021         2   # BR(~u_L -> ~g      u)
#
#         PDG            Width
DECAY   2000002     3.16859506E+02   # sup_R decays
#          BR         NDA      ID1       ID2
     3.75615878E-02    2     1000022         2   # BR(~u_R -> ~chi_10 u)
     5.68917585E-06    2     1000023         2   # BR(~u_R -> ~chi_20 u)
     7.68084479E-06    2     1000025         2   # BR(~u_R -> ~chi_30 u)
     4.84528545E-09    2     1000035         2   # BR(~u_R -> ~chi_40 u)
     9.62425037E-01    2     1000021         2   # BR(~u_R -> ~g      u)
#
#         PDG            Width
DECAY   1000001     3.30429068E+02   # sdown_L decays
#          BR         NDA      ID1       ID2
     2.25669830E-03    2     1000022         1   # BR(~d_L -> ~chi_10 d)
     7.58712451E-05    2     1000023         1   # BR(~d_L -> ~chi_20 d)
     9.80003024E-06    2     1000025         1   # BR(~d_L -> ~chi_30 d)
     2.35556233E-02    2     1000035         1   # BR(~d_L -> ~chi_40 d)
     9.33601916E-05    2    -1000024         2   # BR(~d_L -> ~chi_1- u)
     4.71459956E-02    2    -1000037         2   # BR(~d_L -> ~chi_2- u)
     9.26862651E-01    2     1000021         1   # BR(~d_L -> ~g      d)
#
#         PDG            Width
DECAY   2000001     3.07949659E+02   # sdown_R decays
#          BR         NDA      ID1       ID2
     9.66260386E-03    2     1000022         1   # BR(~d_R -> ~chi_10 d)
     1.46358095E-06    2     1000023         1   # BR(~d_R -> ~chi_20 d)
     1.97595222E-06    2     1000025         1   # BR(~d_R -> ~chi_30 d)
     1.24659048E-09    2     1000035         1   # BR(~d_R -> ~chi_40 d)
     9.90333955E-01    2     1000021         1   # BR(~d_R -> ~g      d)
#
#         PDG            Width
DECAY   1000004     3.30416756E+02   # scharm_L decays
#          BR         NDA      ID1       ID2
     2.26172746E-03    2     1000022         4   # BR(~c_L -> ~chi_10 c)
     9.76396967E-05    2     1000023         4   # BR(~c_L -> ~chi_20 c)
     3.13002112E-06    2     1000025         4   # BR(~c_L -> ~chi_30 c)
     2.35386135E-02    2     1000035         4   # BR(~c_L -> ~chi_40 c)
     2.75124604E-04    2     1000024         3   # BR(~c_L -> ~chi_1+ s)
     4.70311533E-02    2     1000037         3   # BR(~c_L -> ~chi_2+ s)
     9.26792611E-01    2     1000021         4   # BR(~c_L -> ~g      c)
#
#         PDG            Width
DECAY   2000004     3.16859506E+02   # scharm_R decays
#          BR         NDA      ID1       ID2
     3.75615878E-02    2     1000022         4   # BR(~c_R -> ~chi_10 c)
     5.68917585E-06    2     1000023         4   # BR(~c_R -> ~chi_20 c)
     7.68084479E-06    2     1000025         4   # BR(~c_R -> ~chi_30 c)
     4.84528545E-09    2     1000035         4   # BR(~c_R -> ~chi_40 c)
     9.62425037E-01    2     1000021         4   # BR(~c_R -> ~g      c)
#
#         PDG            Width
DECAY   1000003     3.30429068E+02   # sstrange_L decays
#          BR         NDA      ID1       ID2
     2.25669830E-03    2     1000022         3   # BR(~s_L -> ~chi_10 s)
     7.58712451E-05    2     1000023         3   # BR(~s_L -> ~chi_20 s)
     9.80003024E-06    2     1000025         3   # BR(~s_L -> ~chi_30 s)
     2.35556233E-02    2     1000035         3   # BR(~s_L -> ~chi_40 s)
     9.33601916E-05    2    -1000024         4   # BR(~s_L -> ~chi_1- c)
     4.71459956E-02    2    -1000037         4   # BR(~s_L -> ~chi_2- c)
     9.26862651E-01    2     1000021         3   # BR(~s_L -> ~g      s)
#
#         PDG            Width
DECAY   2000003     3.07949659E+02   # sstrange_R decays
#          BR         NDA      ID1       ID2
     9.66260386E-03    2     1000022         3   # BR(~s_R -> ~chi_10 s)
     1.46358095E-06    2     1000023         3   # BR(~s_R -> ~chi_20 s)
     1.97595222E-06    2     1000025         3   # BR(~s_R -> ~chi_30 s)
     1.24659048E-09    2     1000035         3   # BR(~s_R -> ~chi_40 s)
     9.90333955E-01    2     1000021         3   # BR(~s_R -> ~g      s)
#
#         PDG            Width
DECAY   1000011     3.02232233E+01   # selectron_L decays
#          BR         NDA      ID1       ID2
     2.26847083E-01    2     1000022        11   # BR(~e_L -> ~chi_10 e-)
     1.35378633E-03    2     1000023        11   # BR(~e_L -> ~chi_20 e-)
     1.84533800E-06    2     1000025        11   # BR(~e_L -> ~chi_30 e-)
     2.56642387E-01    2     1000035        11   # BR(~e_L -> ~chi_40 e-)
     1.03447018E-03    2    -1000024        12   # BR(~e_L -> ~chi_1- nu_e)
     5.14120428E-01    2    -1000037        12   # BR(~e_L -> ~chi_2- nu_e)
#
#         PDG            Width
DECAY   2000011     2.73516652E+01   # selectron_R decays
#          BR         NDA      ID1       ID2
     9.99646107E-01    2     1000022        11   # BR(~e_R -> ~chi_10 e-)
     1.50535697E-04    2     1000023        11   # BR(~e_R -> ~chi_20 e-)
     2.03231018E-04    2     1000025        11   # BR(~e_R -> ~chi_30 e-)
     1.26345250E-07    2     1000035        11   # BR(~e_R -> ~chi_40 e-)
#
#         PDG            Width
DECAY   1000013     3.02232233E+01   # smuon_L decays
#          BR         NDA      ID1       ID2
     2.26847083E-01    2     1000022        13   # BR(~mu_L -> ~chi_10 mu-)
     1.35378633E-03    2     1000023        13   # BR(~mu_L -> ~chi_20 mu-)
     1.84533800E-06    2     1000025        13   # BR(~mu_L -> ~chi_30 mu-)
     2.56642387E-01    2     1000035        13   # BR(~mu_L -> ~chi_40 mu-)
     1.03447018E-03    2    -1000024        14   # BR(~mu_L -> ~chi_1- nu_mu)
     5.14120428E-01    2    -1000037        14   # BR(~mu_L -> ~chi_2- nu_mu)
#
#         PDG            Width
DECAY   2000013     2.73516652E+01   # smuon_R decays
#          BR         NDA      ID1       ID2
     9.99646107E-01    2     1000022        13   # BR(~mu_R -> ~chi_10 mu-)
     1.50535697E-04    2     1000023        13   # BR(~mu_R -> ~chi_20 mu-)
     2.03231018E-04    2     1000025        13   # BR(~mu_R -> ~chi_30 mu-)
     1.26345250E-07    2     1000035        13   # BR(~mu_R -> ~chi_40 mu-)
#
#         PDG            Width
DECAY   1000015     2.87916886E+01   # stau_1 decays
#          BR         NDA      ID1       ID2
     9.16101659E-01    2     1000022        15   # BR(~tau_1 -> ~chi_10  tau-)
     1.27192802E-02    2     1000023        15   # BR(~tau_1 -> ~chi_20  tau-)
     1.08274123E-02    2     1000025        15   # BR(~tau_1 -> ~chi_30  tau-)
     1.21784411E-02    2     1000035        15   # BR(~tau_1 -> ~chi_40  tau-)
     2.37733587E-02    2    -1000024        16   # BR(~tau_1 -> ~chi_1-  nu_tau)
     2.43998482E-02    2    -1000037        16   # BR(~tau_1 -> ~chi_2-  nu_tau)
#
#         PDG            Width
DECAY   2000015     3.07349868E+01   # stau_2 decays
#          BR         NDA      ID1       ID2
     2.54305883E-01    2     1000022        15   # BR(~tau_2 -> ~chi_10  tau-)
     1.08653716E-02    2     1000023        15   # BR(~tau_2 -> ~chi_20  tau-)
     1.13448381E-02    2     1000025        15   # BR(~tau_2 -> ~chi_30  tau-)
     2.40903831E-01    2     1000035        15   # BR(~tau_2 -> ~chi_40  tau-)
     7.16233040E-07    2    -1000024        16   # BR(~tau_2 -> ~chi_1-  nu_tau)
     4.82579360E-01    2    -1000037        16   # BR(~tau_2 -> ~chi_2-  nu_tau)
#
#         PDG            Width
DECAY   1000012     3.02242377E+01   # snu_eL decays
#          BR         NDA      ID1       ID2
     2.26624033E-01    2     1000022        12   # BR(~nu_eL -> ~chi_10 nu_e)
     6.29531469E-04    2     1000023        12   # BR(~nu_eL -> ~chi_20 nu_e)
     2.23465821E-04    2     1000025        12   # BR(~nu_eL -> ~chi_30 nu_e)
     2.56812811E-01    2     1000035        12   # BR(~nu_eL -> ~chi_40 nu_e)
     3.04776883E-03    2     1000024        11   # BR(~nu_eL -> ~chi_1+ e-)
     5.12662389E-01    2     1000037        11   # BR(~nu_eL -> ~chi_2+ e-)
#
#         PDG            Width
DECAY   1000014     3.02242377E+01   # snu_muL decays
#          BR         NDA      ID1       ID2
     2.26624033E-01    2     1000022        14   # BR(~nu_muL -> ~chi_10 nu_mu)
     6.29531469E-04    2     1000023        14   # BR(~nu_muL -> ~chi_20 nu_mu)
     2.23465821E-04    2     1000025        14   # BR(~nu_muL -> ~chi_30 nu_mu)
     2.56812811E-01    2     1000035        14   # BR(~nu_muL -> ~chi_40 nu_mu)
     3.04776883E-03    2     1000024        13   # BR(~nu_muL -> ~chi_1+ mu-)
     5.12662389E-01    2     1000037        13   # BR(~nu_muL -> ~chi_2+ mu-)
#
#         PDG            Width
DECAY   1000016     3.08721047E+01   # snu_tauL decays
#          BR         NDA      ID1       ID2
     2.21844840E-01    2     1000022        16   # BR(~nu_tauL -> ~chi_10 nu_tau)
     6.16206562E-04    2     1000023        16   # BR(~nu_tauL -> ~chi_20 nu_tau)
     2.18735794E-04    2     1000025        16   # BR(~nu_tauL -> ~chi_30 nu_tau)
     2.51333362E-01    2     1000035        16   # BR(~nu_tauL -> ~chi_40 nu_tau)
     2.42536990E-02    2     1000024        15   # BR(~nu_tauL -> ~chi_1+ tau-)
     5.01733156E-01    2     1000037        15   # BR(~nu_tauL -> ~chi_2+ tau-)
#
#         PDG            Width
DECAY   1000024     1.23571427E+00   # chargino1+ decays
#          BR         NDA      ID1       ID2
     1.00000000E+00    2     1000022        24   # BR(~chi_1+ -> ~chi_10  W+)
#
#         PDG            Width
DECAY   1000037     1.53727089E+01   # chargino2+ decays
#          BR         NDA      ID1       ID2
     2.51898359E-01    2     1000024        23   # BR(~chi_2+ -> ~chi_1+  Z )
     4.76762287E-04    2     1000022        24   # BR(~chi_2+ -> ~chi_10  W+)
     2.45417727E-01    2     1000023        24   # BR(~chi_2+ -> ~chi_20  W+)
     2.42806492E-01    2     1000025        24   # BR(~chi_2+ -> ~chi_30  W+)
     2.59400617E-01    2     1000024        25   # BR(~chi_2+ -> ~chi_1+  h )
     4.32263503E-08    2     1000022        37   # BR(~chi_2+ -> ~chi_10  H+)
#
#         PDG            Width
DECAY   1000022     0.00000000E+00   # neutralino1 decays
#
#         PDG            Width
DECAY   1000023     1.30129750E+00   # neutralino2 decays
#          BR         NDA      ID1       ID2
     5.65533272E-01    2     1000022        23   # BR(~chi_20 -> ~chi_10   Z )
     4.34466728E-01    2     1000022        25   # BR(~chi_20 -> ~chi_10   h )
#
#         PDG            Width
DECAY   1000025     1.31757006E+00   # neutralino3 decays
#          BR         NDA      ID1       ID2
     4.15359859E-01    2     1000022        23   # BR(~chi_30 -> ~chi_10   Z )
     5.84640141E-01    2     1000022        25   # BR(~chi_30 -> ~chi_10   h )
#
#         PDG            Width
DECAY   1000035     1.53260854E+01   # neutralino4 decays
#          BR         NDA      ID1       ID2
     2.14781360E-04    2     1000022        23   # BR(~chi_40 -> ~chi_10   Z )
     1.67145812E-02    2     1000023        23   # BR(~chi_40 -> ~chi_20   Z )
     2.35841645E-01    2     1000025        23   # BR(~chi_40 -> ~chi_30   Z )
     2.43610909E-01    2     1000024       -24   # BR(~chi_40 -> ~chi_1+   W-)
     2.43610909E-01    2    -1000024        24   # BR(~chi_40 -> ~chi_1-   W+)
     2.82140139E-04    2     1000022        25   # BR(~chi_40 -> ~chi_10   h )
     3.23356665E-08    2     1000022        35   # BR(~chi_40 -> ~chi_10   H )
     1.24563991E-08    2     1000022        36   # BR(~chi_40 -> ~chi_10   A )
     2.43268978E-01    2     1000023        25   # BR(~chi_40 -> ~chi_20   h )
     1.64560129E-02    2     1000025        25   # BR(~chi_40 -> ~chi_30   h )
#
#         PDG            Width
DECAY        25     4.00741935E-03   # h decays
#          BR         NDA      ID1       ID2
     6.14169857E-01    2           5        -5   # BR(h -> b       bb     )
     6.45127114E-02    2         -15        15   # BR(h -> tau+    tau-   )
     2.28400163E-04    2         -13        13   # BR(h -> mu+     mu-    )
     4.84485880E-04    2           3        -3   # BR(h -> s       sb     )
     2.09973540E-02    2           4        -4   # BR(h -> c       cb     )
     6.74760186E-02    2          21        21   # BR(h -> g       g      )
     2.31148074E-03    2          22        22   # BR(h -> gam     gam    )
     1.45803975E-03    2          22        23   # BR(h -> Z       gam    )
     2.04170477E-01    2          24       -24   # BR(h -> W+      W-     )
     2.41728564E-02    2          23        23   # BR(h -> Z       Z      )
     1.83186605E-05    2     1000022   1000022   # BR(h -> ~chi_10 ~chi_10)
#
#         PDG            Width
DECAY        35     6.33825204E+00   # H decays
#          BR         NDA      ID1       ID2
     5.18096804E-01    2           5        -5   # BR(H -> b       bb     )
     8.79829803E-02    2         -15        15   # BR(H -> tau+    tau-   )
     3.11114807E-04    2         -13        13   # BR(H -> mu+     mu-    )
     3.81379290E-04    2           3        -3   # BR(H -> s       sb     )
     2.12875792E-06    2           4        -4   # BR(H -> c       cb     )
     2.12679767E-01    2           6        -6   # BR(H -> t       tb     )
     7.05037721E-05    2          21        21   # BR(H -> g       g      )
     3.98811766E-07    2          22        22   # BR(H -> gam     gam    )
     1.25509098E-07    2          23        22   # BR(H -> Z       gam    )
     9.12620340E-05    2          24       -24   # BR(H -> W+      W-     )
     4.55732585E-05    2          23        23   # BR(H -> Z       Z      )
     3.54530684E-04    2          25        25   # BR(H -> h       h      )
     3.64155249E-23    2          36        36   # BR(H -> A       A      )
     6.91866069E-19    2          23        36   # BR(H -> Z       A      )
     5.70433599E-04    2     1000022   1000022   # BR(H -> ~chi_10 ~chi_10)
     1.04777573E-01    2     1000022   1000023   # BR(H -> ~chi_10 ~chi_20)
     7.46354250E-02    2     1000022   1000025   # BR(H -> ~chi_10 ~chi_30)
#
#         PDG            Width
DECAY        36     6.34165724E+00   # A decays
#          BR         NDA      ID1       ID2
     5.17992244E-01    2           5        -5   # BR(A -> b       bb     )
     8.79383996E-02    2         -15        15   # BR(A -> tau+    tau-   )
     3.10956731E-04    2         -13        13   # BR(A -> mu+     mu-    )
     3.81463699E-04    2           3        -3   # BR(A -> s       sb     )
     2.13670609E-06    2           4        -4   # BR(A -> c       cb     )
     2.13356078E-01    2           6        -6   # BR(A -> t       tb     )
     2.11221777E-04    2          21        21   # BR(A -> g       g      )
     4.12710479E-07    2          22        22   # BR(A -> gam     gam    )
     2.55765506E-07    2          23        22   # BR(A -> Z       gam    )
     9.08717415E-05    2          23        25   # BR(A -> Z       h      )
     5.89445105E-04    2     1000022   1000022   # BR(A -> ~chi_10 ~chi_10)
     7.55667511E-02    2     1000022   1000023   # BR(A -> ~chi_10 ~chi_20)
     1.03559763E-01    2     1000022   1000025   # BR(A -> ~chi_10 ~chi_30)
#
#         PDG            Width
DECAY        37     6.32624234E+00   # H+ decays
#          BR         NDA      ID1       ID2
     8.32000239E-04    2           4        -5   # BR(H+ -> c       bb     )
     8.81783715E-02    2         -15        16   # BR(H+ -> tau+    nu_tau )
     3.11805289E-04    2         -13        14   # BR(H+ -> mu+     nu_mu  )
     5.32477435E-06    2           2        -5   # BR(H+ -> u       bb     )
     1.82960839E-05    2           2        -3   # BR(H+ -> u       sb     )
     3.78360107E-04    2           4        -3   # BR(H+ -> c       sb     )
     7.29393465E-01    2           6        -5   # BR(H+ -> t       bb     )
     9.12313441E-05    2          24        25   # BR(H+ -> W+      h      )
     1.06241573E-13    2          24        36   # BR(H+ -> W+      A      )
     1.80791145E-01    2     1000024   1000022   # BR(H+ -> ~chi_1+ ~chi_10)
