#
#                              ======================
#                              | THE SUSYHIT OUTPUT |
#                              ======================
#
#
#              ------------------------------------------------------
#              |     This is the output of the SUSY-HIT package     |
#              |  created by A.Djouadi, M.Muehlleitner and M.Spira. |
#              |  In case of problems with SUSY-HIT email to        |
#              |           margarete.muehlleitner@kit.edu           |
#              |           michael.spira@psi.ch                     |
#              |           abdelhak.djouadi@cern.ch                 |
#              ------------------------------------------------------
#
#              ------------------------------------------------------
#              |  SUSY Les Houches Accord - MSSM Spectrum + Decays  |
#              |              based on the decay programs           |
#              |                                                    |
#              |                     SDECAY 1.5                     |
#              |                                                    |
#              |  Authors: M.Muhlleitner, A.Djouadi and Y.Mambrini  |
#              |  Ref.:    Comput.Phys.Commun.168(2005)46           |
#              |           [hep-ph/0311167]                         |
#              |                                                    |
#              |                     HDECAY 3.4                     |
#              |                                                    |
#              |  By: A.Djouadi,J.Kalinowski,M.Muhlleitner,M.Spira  |
#              |  Ref.:    Comput.Phys.Commun.108(1998)56           |
#              |           [hep-ph/9704448]                         |
#              |                                                    |
#              |                                                    |
#              |  If not stated otherwise all DRbar couplings and   |
#              |  soft SUSY breaking masses are given at the scale  |
#              |  Q=  0.91187600E+02
#              |                                                    |
#              ------------------------------------------------------
#
#
BLOCK DCINFO  # Decay Program information
     1   SDECAY/HDECAY # decay calculator
     2   1.5  /3.4    # version number
#
BLOCK SPINFO  # Spectrum calculator information
     1   SuSpect     # RGE +Spectrum calculator            
     2   2.43         # version number                     
#
BLOCK MODSEL  # Model selection
     1     2   # GMSB                                              
#
BLOCK SMINPUTS  # Standard Model inputs
         1     1.27932904E+02   # alpha_em^-1(M_Z)^MSbar
         2     1.16639000E-05   # G_F [GeV^-2]
         3     1.17200000E-01   # alpha_S(M_Z)^MSbar
         4     9.11870000E+01   # M_Z pole mass
         5     4.25000000E+00   # mb(mb)^MSbar
         6     1.72900000E+02   # mt pole mass
         7     1.77700000E+00   # mtau pole mass
#
BLOCK MINPAR  # Input parameters - minimal models
#
BLOCK EXTPAR  # Input parameters - non-minimal models
         0     9.11876000E+01   # EWSB                
         1     1.64200000E+03   # M_1                 
         2     3.00000000E+03   # M_2                 
         3     2.20000000E+03   # M_3                 
        11     0.00000000E+00   # A_t                 
        12     0.00000000E+00   # A_b                 
        13     0.00000000E+00   # A_tau               
        14     0.00000000E+00   # A_u                 
        15     0.00000000E+00   # A_d                 
        16     0.00000000E+00   # A_e                 
        23     1.65000000E+03   # mu(EWSB)            
        25     1.50000000E+00   # tanbeta(in)         
        26     2.00000000E+03   # MA_pole             
        31     5.00000000E+03   # M_eL                
        32     5.00000000E+03   # M_muL               
        33     5.00000000E+03   # M_tauL              
        34     5.00000000E+03   # M_eR                
        35     5.00000000E+03   # M_muR               
        36     5.00000000E+03   # M_tauR              
        41     5.00000000E+03   # M_q1L               
        42     5.00000000E+03   # M_q2L               
        43     5.00000000E+03   # M_q3L               
        44     5.00000000E+03   # M_uR                
        45     5.00000000E+03   # M_cR                
        46     5.00000000E+03   # M_tR                
        47     5.00000000E+03   # M_dR                
        48     5.00000000E+03   # M_sR                
        49     5.00000000E+03   # M_bR                
#
BLOCK MASS  # Mass Spectrum
# PDG code           mass       particle
        24     8.05416901E+01   # W+
        25     1.26000000E+02   # h
        35     2.00400424E+03   # H
        36     2.00000000E+03   # A
        37     2.00151607E+03   # H+
         5     4.87877839E+00   # b-quark pole mass calculated from mb(mb)_Msbar
   1000001     4.92095263E+03   # ~d_L
   2000001     4.92084221E+03   # ~d_R
   1000002     4.92070572E+03   # ~u_L
   2000002     4.92076403E+03   # ~u_R
   1000003     4.92095263E+03   # ~s_L
   2000003     4.92084221E+03   # ~s_R
   1000004     4.92070572E+03   # ~c_L
   2000004     4.92076403E+03   # ~c_R
   1000005     4.92021327E+03   # ~b_1
   2000005     4.92158296E+03   # ~b_2
   1000006     5.03681657E+03   # ~t_1
   2000006     5.33063893E+03   # ~t_2
   1000011     5.00008216E+03   # ~e_L
   2000011     5.00007613E+03   # ~e_R
   1000012     4.99984170E+03   # ~nu_eL
   1000013     5.00008216E+03   # ~mu_L
   2000013     5.00007613E+03   # ~mu_R
   1000014     4.99984170E+03   # ~nu_muL
   1000015     4.99963923E+03   # ~tau_1
   2000015     5.00051965E+03   # ~tau_2
   1000016     4.99984170E+03   # ~nu_tauL
   1000021     2.23870984E+03   # ~g
   1000022     1.70132146E+03   # ~chi_10
   1000023    -1.75208137E+03   # ~chi_20
   1000025     1.78859595E+03   # ~chi_30
   1000035     3.12643762E+03   # ~chi_40
   1000024     1.74768560E+03   # ~chi_1+
   1000037     3.12643336E+03   # ~chi_2+
   1000039     1.00000000E-09   # ~gravitino
#
BLOCK NMIX  # Neutralino Mixing Matrix
  1  1     7.28475946E-01   # N_11
  1  2    -3.73099028E-02   # N_12
  1  3     4.85117562E-01   # N_13
  1  4    -4.82277636E-01   # N_14
  2  1     2.49823184E-03   # N_21
  2  2    -3.18304072E-03   # N_22
  2  3    -7.07029194E-01   # N_23
  2  4    -7.07172784E-01   # N_24
  3  1     6.85064468E-01   # N_31
  3  2     4.23046580E-02   # N_32
  3  3    -5.13181704E-01   # N_33
  3  4     5.15307217E-01   # N_34
  4  1     1.79696945E-03   # N_41
  4  2    -9.98402802E-01   # N_42
  4  3    -3.76192483E-02   # N_43
  4  4     4.21118480E-02   # N_44
#
BLOCK UMIX  # Chargino Mixing Matrix U
  1  1    -5.31474213E-02   # U_11
  1  2     9.98586677E-01   # U_12
  2  1     9.98586677E-01   # U_21
  2  2     5.31474213E-02   # U_22
#
BLOCK VMIX  # Chargino Mixing Matrix V
  1  1    -5.95002200E-02   # V_11
  1  2     9.98228292E-01   # V_12
  2  1     9.98228292E-01   # V_21
  2  2     5.95002200E-02   # V_22
#
BLOCK STOPMIX  # Stop Mixing Matrix
  1  1     9.99949627E-01   # cos(theta_t)
  1  2     1.00371043E-02   # sin(theta_t)
  2  1    -1.00371043E-02   # -sin(theta_t)
  2  2     9.99949627E-01   # cos(theta_t)
#
BLOCK SBOTMIX  # Sbottom Mixing Matrix
  1  1     6.78004700E-01   # cos(theta_b)
  1  2     7.35057567E-01   # sin(theta_b)
  2  1    -7.35057567E-01   # -sin(theta_b)
  2  2     6.78004700E-01   # cos(theta_b)
#
BLOCK STAUMIX  # Stau Mixing Matrix
  1  1     7.04680486E-01   # cos(theta_tau)
  1  2     7.09524779E-01   # sin(theta_tau)
  2  1    -7.09524779E-01   # -sin(theta_tau)
  2  2     7.04680486E-01   # cos(theta_tau)
#
BLOCK ALPHA  # Higgs mixing
          -5.90202290E-01   # Mixing angle in the neutral Higgs boson sector
#
BLOCK HMIX Q=  9.11876000E+01  # DRbar Higgs Parameters
         1     1.65000000E+03   # mu(Q)               
         2     1.49999979E+00   # tanbeta(Q)          
         3     2.52259299E+02   # vev(Q)              
         4     3.19695877E+06   # MA^2(Q)             
#
BLOCK GAUGE Q=  9.11876000E+01  # The gauge couplings
     1     3.52737208E-01   # gprime(Q) DRbar
     2     6.26886079E-01   # g(Q) DRbar
     3     1.07892746E+00   # g3(Q) DRbar
#
BLOCK AU Q=  9.11876000E+01  # The trilinear couplings
  1  1     0.00000000E+00   # A_u(Q) DRbar
  2  2     0.00000000E+00   # A_c(Q) DRbar
  3  3     0.00000000E+00   # A_t(Q) DRbar
#
BLOCK AD Q=  9.11876000E+01  # The trilinear couplings
  1  1     0.00000000E+00   # A_d(Q) DRbar
  2  2     0.00000000E+00   # A_s(Q) DRbar
  3  3     0.00000000E+00   # A_b(Q) DRbar
#
BLOCK AE Q=  9.11876000E+01  # The trilinear couplings
  1  1     0.00000000E+00   # A_e(Q) DRbar
  2  2     0.00000000E+00   # A_mu(Q) DRbar
  3  3     0.00000000E+00   # A_tau(Q) DRbar
#
BLOCK Yu Q=  9.11876000E+01  # The Yukawa couplings
  1  1     0.00000000E+00   # y_u(Q) DRbar
  2  2     0.00000000E+00   # y_c(Q) DRbar
  3  3     1.02513921E+00   # y_t(Q) DRbar
#
BLOCK Yd Q=  9.11876000E+01  # The Yukawa couplings
  1  1     0.00000000E+00   # y_d(Q) DRbar
  2  2     0.00000000E+00   # y_s(Q) DRbar
  3  3     2.71468977E-02   # y_b(Q) DRbar
#
BLOCK Ye Q=  9.11876000E+01  # The Yukawa couplings
  1  1     0.00000000E+00   # y_e(Q) DRbar
  2  2     0.00000000E+00   # y_mu(Q) DRbar
  3  3     1.79759116E-02   # y_tau(Q) DRbar
#
BLOCK MSOFT Q=  9.11876000E+01  # The soft SUSY breaking masses at the scale Q
         1     1.64200000E+03   # M_1                 
         2     3.00000000E+03   # M_2                 
         3     2.20000000E+03   # M_3                 
        14     0.00000000E+00   # A_u                 
        15     0.00000000E+00   # A_d                 
        16     0.00000000E+00   # A_e                 
        21    -2.82447566E+03   # M^2_Hd              
        22    -7.89786436E+06   # M^2_Hu              
        31     5.00000000E+03   # M_eL                
        32     5.00000000E+03   # M_muL               
        33     5.00000000E+03   # M_tauL              
        34     5.00000000E+03   # M_eR                
        35     5.00000000E+03   # M_muR               
        36     5.00000000E+03   # M_tauR              
        41     5.00000000E+03   # M_q1L               
        42     5.00000000E+03   # M_q2L               
        43     5.00000000E+03   # M_q3L               
        44     5.00000000E+03   # M_uR                
        45     5.00000000E+03   # M_cR                
        46     5.00000000E+03   # M_tR                
        47     5.00000000E+03   # M_dR                
        48     5.00000000E+03   # M_sR                
        49     5.00000000E+03   # M_bR                
#
#
#
#                             =================
#                             |The decay table|
#                             =================
#
# - The QCD corrections to the decays gluino -> squark  + quark
#                                     squark -> gaugino + quark_prime
#                                     squark -> squark_prime + Higgs
#                                     squark -> gluino  + quark
#   are included.
#
# - The multi-body decays for the inos, stops and sbottoms are included.
#
# - The loop induced decays for the gluino, neutralinos and stops
#   are included.
#
# - The SUSY decays of the top quark are included.
#
# - Possible decays of the NLSP in GMSB models are included.
#
#
#         PDG            Width
DECAY         6     1.36919611E+00   # top decays
#          BR         NDA      ID1       ID2
     1.00000000E+00    2           5        24   # BR(t ->  b    W+)
#
#         PDG            Width
DECAY   1000021     8.92250711E-05   # gluino decays
#          BR         NDA      ID1       ID2
     1.80268991E-02    2     1000022        21   # BR(~g -> ~chi_10 g)
     2.98302828E-02    2     1000023        21   # BR(~g -> ~chi_20 g)
     1.27335078E-02    2     1000025        21   # BR(~g -> ~chi_30 g)
#          BR         NDA      ID1       ID2
0.0E+00    2     1000039    21 # BR(~g -> ~G      g)
#           BR         NDA      ID1       ID2       ID3
     3.96225318E-03    3     1000022         1        -1   # BR(~g -> ~chi_10 d  db)
     1.17138998E-07    3     1000023         1        -1   # BR(~g -> ~chi_20 d  db)
     1.24709986E-03    3     1000025         1        -1   # BR(~g -> ~chi_30 d  db)
     1.16528154E-02    3     1000022         2        -2   # BR(~g -> ~chi_10 u  ub)
     8.97025960E-08    3     1000023         2        -2   # BR(~g -> ~chi_20 u  ub)
     4.97967590E-03    3     1000025         2        -2   # BR(~g -> ~chi_30 u  ub)
     3.96225318E-03    3     1000022         3        -3   # BR(~g -> ~chi_10 s  sb)
     1.17138998E-07    3     1000023         3        -3   # BR(~g -> ~chi_20 s  sb)
     1.24709986E-03    3     1000025         3        -3   # BR(~g -> ~chi_30 s  sb)
     1.16528154E-02    3     1000022         4        -4   # BR(~g -> ~chi_10 c  cb)
     8.97025960E-08    3     1000023         4        -4   # BR(~g -> ~chi_20 c  cb)
     4.97967590E-03    3     1000025         4        -4   # BR(~g -> ~chi_30 c  cb)
     3.99166516E-03    3     1000022         5        -5   # BR(~g -> ~chi_10 b  bb)
     9.13132107E-05    3     1000023         5        -5   # BR(~g -> ~chi_20 b  bb)
     1.29435214E-03    3     1000025         5        -5   # BR(~g -> ~chi_30 b  bb)
     2.16737385E-02    3     1000022         6        -6   # BR(~g -> ~chi_10 t  tb)
     1.37162711E-02    3     1000023         6        -6   # BR(~g -> ~chi_20 t  tb)
     9.04441866E-03    3     1000025         6        -6   # BR(~g -> ~chi_30 t  tb)
     1.59988419E-04    3     1000024         1        -2   # BR(~g -> ~chi_1+ d  ub)
     1.59988419E-04    3    -1000024         2        -1   # BR(~g -> ~chi_1- u  db)
     1.59988419E-04    3     1000024         3        -4   # BR(~g -> ~chi_1+ s  cb)
     1.59988419E-04    3    -1000024         4        -3   # BR(~g -> ~chi_1- c  sb)
     5.98440401E-02    3     1000024         5        -6   # BR(~g -> ~chi_1+ b  tb)
     5.98440401E-02    3    -1000024         6        -5   # BR(~g -> ~chi_1- t  bb)
#
#         PDG            Width
DECAY   1000006     2.52374601E+02   # stop1 decays
#          BR         NDA      ID1       ID2
     5.18162002E-02    2     1000022         6   # BR(~t_1 -> ~chi_10 t )
     1.10231053E-01    2     1000023         6   # BR(~t_1 -> ~chi_20 t )
     6.02851135E-02    2     1000025         6   # BR(~t_1 -> ~chi_30 t )
     2.89513213E-02    2     1000035         6   # BR(~t_1 -> ~chi_40 t )
    -7.34855085E-05    2     1000024         5   # BR(~t_1 -> ~chi_1+ b )
     5.72197442E-02    2     1000037         5   # BR(~t_1 -> ~chi_2+ b )
     6.79545391E-01    2     1000021         6   # BR(~t_1 -> ~g      t )
     5.73130735E-03    2     1000005        24   # BR(~t_1 -> ~b_1    W+)
     6.29335420E-03    2     2000005        24   # BR(~t_1 -> ~b_2    W+)
#
#         PDG            Width
DECAY   2000006     3.19952161E+02   # stop2 decays
#          BR         NDA      ID1       ID2
     6.01572157E-02    2     1000022         6   # BR(~t_2 -> ~chi_10 t )
     9.55439797E-02    2     1000023         6   # BR(~t_2 -> ~chi_20 t )
     6.32256467E-02    2     1000025         6   # BR(~t_2 -> ~chi_30 t )
     5.15373967E-05    2     1000035         6   # BR(~t_2 -> ~chi_40 t )
     1.91408358E-01    2     1000024         5   # BR(~t_2 -> ~chi_1+ b )
     1.04889693E-04    2     1000037         5   # BR(~t_2 -> ~chi_2+ b )
     5.89467222E-01    2     1000021         6   # BR(~t_2 -> ~g      t )
    -9.13035839E-05    2     1000006        25   # BR(~t_2 -> ~t_1    h )
     1.84608509E-05    2     1000006        23   # BR(~t_2 -> ~t_1    Z )
     5.27176326E-05    2     1000005        24   # BR(~t_2 -> ~b_1    W+)
     6.12751029E-05    2     2000005        24   # BR(~t_2 -> ~b_2    W+)
#
#         PDG            Width
DECAY   1000005     1.98744806E+02   # sbottom1 decays
#          BR         NDA      ID1       ID2
     4.85553460E-03    2     1000022         5   # BR(~b_1 -> ~chi_10 b )
     8.40650839E-05    2     1000023         5   # BR(~b_1 -> ~chi_20 b )
     2.23879941E-03    2     1000025         5   # BR(~b_1 -> ~chi_30 b )
     1.45433569E-02    2     1000035         5   # BR(~b_1 -> ~chi_40 b )
     1.16224685E-01    2    -1000024         6   # BR(~b_1 -> ~chi_1- t )
     2.94377850E-02    2    -1000037         6   # BR(~b_1 -> ~chi_2- t )
     8.32615774E-01    2     1000021         5   # BR(~b_1 -> ~g      b )
#
#         PDG            Width
DECAY   2000005     2.08372295E+02   # sbottom2 decays
#          BR         NDA      ID1       ID2
     2.69746796E-03    2     1000022         5   # BR(~b_2 -> ~chi_10 b )
     1.03043323E-04    2     1000023         5   # BR(~b_2 -> ~chi_20 b )
     2.88802351E-03    2     1000025         5   # BR(~b_2 -> ~chi_30 b )
     1.79008104E-02    2     1000035         5   # BR(~b_2 -> ~chi_40 b )
     1.46556396E-01    2    -1000024         6   # BR(~b_2 -> ~chi_1- t )
     3.62428994E-02    2    -1000037         6   # BR(~b_2 -> ~chi_2- t )
     7.93611359E-01    2     1000021         5   # BR(~b_2 -> ~g      b )
#
#         PDG            Width
DECAY   1000002     1.85894422E+02   # sup_L decays
#          BR         NDA      ID1       ID2
     7.63192549E-04    2     1000022         2   # BR(~u_L -> ~chi_10 u)
     5.60752329E-07    2     1000023         2   # BR(~u_L -> ~chi_20 u)
     2.19309543E-03    2     1000025         2   # BR(~u_L -> ~chi_30 u)
     3.55581401E-02    2     1000035         2   # BR(~u_L -> ~chi_40 u)
     5.39629791E-04    2     1000024         1   # BR(~u_L -> ~chi_1+ d)
     7.11397038E-02    2     1000037         1   # BR(~u_L -> ~chi_2+ d)
     8.89805678E-01    2     1000021         2   # BR(~u_L -> ~g      u)
#
#         PDG            Width
DECAY   2000002     1.73401574E+02   # sup_R decays
#          BR         NDA      ID1       ID2
     2.47733851E-02    2     1000022         2   # BR(~u_R -> ~chi_10 u)
     2.86609370E-07    2     1000023         2   # BR(~u_R -> ~chi_20 u)
     2.12907509E-02    2     1000025         2   # BR(~u_R -> ~chi_30 u)
     6.95564095E-08    2     1000035         2   # BR(~u_R -> ~chi_40 u)
     9.53935508E-01    2     1000021         2   # BR(~u_R -> ~g      u)
#
#         PDG            Width
DECAY   1000001     1.85902719E+02   # sdown_L decays
#          BR         NDA      ID1       ID2
     2.34077820E-03    2     1000022         1   # BR(~d_L -> ~chi_10 d)
     1.01480996E-06    2     1000023         1   # BR(~d_L -> ~chi_20 d)
     5.58466064E-04    2     1000025         1   # BR(~d_L -> ~chi_30 d)
     3.56111789E-02    2     1000035         1   # BR(~d_L -> ~chi_40 d)
     4.30564598E-04    2    -1000024         2   # BR(~d_L -> ~chi_1- u)
     7.12007742E-02    2    -1000037         2   # BR(~d_L -> ~chi_2- u)
     8.89857223E-01    2     1000021         1   # BR(~d_L -> ~g      d)
#
#         PDG            Width
DECAY   2000001     1.67416255E+02   # sdown_R decays
#          BR         NDA      ID1       ID2
     6.41492343E-03    2     1000022         1   # BR(~d_R -> ~chi_10 d)
     7.42158668E-08    2     1000023         1   # BR(~d_R -> ~chi_20 d)
     5.51312134E-03    2     1000025         1   # BR(~d_R -> ~chi_30 d)
     1.80118363E-08    2     1000035         1   # BR(~d_R -> ~chi_40 d)
     9.88071863E-01    2     1000021         1   # BR(~d_R -> ~g      d)
#
#         PDG            Width
DECAY   1000004     1.85894422E+02   # scharm_L decays
#          BR         NDA      ID1       ID2
     7.63192549E-04    2     1000022         4   # BR(~c_L -> ~chi_10 c)
     5.60752329E-07    2     1000023         4   # BR(~c_L -> ~chi_20 c)
     2.19309543E-03    2     1000025         4   # BR(~c_L -> ~chi_30 c)
     3.55581401E-02    2     1000035         4   # BR(~c_L -> ~chi_40 c)
     5.39629791E-04    2     1000024         3   # BR(~c_L -> ~chi_1+ s)
     7.11397038E-02    2     1000037         3   # BR(~c_L -> ~chi_2+ s)
     8.89805678E-01    2     1000021         4   # BR(~c_L -> ~g      c)
#
#         PDG            Width
DECAY   2000004     1.73401574E+02   # scharm_R decays
#          BR         NDA      ID1       ID2
     2.47733851E-02    2     1000022         4   # BR(~c_R -> ~chi_10 c)
     2.86609370E-07    2     1000023         4   # BR(~c_R -> ~chi_20 c)
     2.12907509E-02    2     1000025         4   # BR(~c_R -> ~chi_30 c)
     6.95564095E-08    2     1000035         4   # BR(~c_R -> ~chi_40 c)
     9.53935508E-01    2     1000021         4   # BR(~c_R -> ~g      c)
#
#         PDG            Width
DECAY   1000003     1.85902719E+02   # sstrange_L decays
#          BR         NDA      ID1       ID2
     2.34077820E-03    2     1000022         3   # BR(~s_L -> ~chi_10 s)
     1.01480996E-06    2     1000023         3   # BR(~s_L -> ~chi_20 s)
     5.58466064E-04    2     1000025         3   # BR(~s_L -> ~chi_30 s)
     3.56111789E-02    2     1000035         3   # BR(~s_L -> ~chi_40 s)
     4.30564598E-04    2    -1000024         4   # BR(~s_L -> ~chi_1- c)
     7.12007742E-02    2    -1000037         4   # BR(~s_L -> ~chi_2- c)
     8.89857223E-01    2     1000021         3   # BR(~s_L -> ~g      s)
#
#         PDG            Width
DECAY   2000003     1.67416255E+02   # sstrange_R decays
#          BR         NDA      ID1       ID2
     6.41492343E-03    2     1000022         3   # BR(~s_R -> ~chi_10 s)
     7.42158668E-08    2     1000023         3   # BR(~s_R -> ~chi_20 s)
     5.51312134E-03    2     1000025         3   # BR(~s_R -> ~chi_30 s)
     1.80118363E-08    2     1000035         3   # BR(~s_R -> ~chi_40 s)
     9.88071863E-01    2     1000021         3   # BR(~s_R -> ~g      s)
#
#         PDG            Width
DECAY   1000011     2.65975051E+01   # selectron_L decays
#          BR         NDA      ID1       ID2
     7.97628657E-02    2     1000022        11   # BR(~e_L -> ~chi_10 e-)
     1.78632419E-06    2     1000023        11   # BR(~e_L -> ~chi_20 e-)
     1.02264302E-01    2     1000025        11   # BR(~e_L -> ~chi_30 e-)
     2.71156586E-01    2     1000035        11   # BR(~e_L -> ~chi_40 e-)
     3.19909184E-03    2    -1000024        12   # BR(~e_L -> ~chi_1- nu_e)
     5.43615368E-01    2    -1000037        12   # BR(~e_L -> ~chi_2- nu_e)
#
#         PDG            Width
DECAY   2000011     1.91050833E+01   # selectron_R decays
#          BR         NDA      ID1       ID2
     5.37582521E-01    2     1000022        11   # BR(~e_R -> ~chi_10 e-)
     6.22250346E-06    2     1000023        11   # BR(~e_R -> ~chi_20 e-)
     4.62409705E-01    2     1000025        11   # BR(~e_R -> ~chi_30 e-)
     1.55183465E-06    2     1000035        11   # BR(~e_R -> ~chi_40 e-)
#
#         PDG            Width
DECAY   1000013     2.65975051E+01   # smuon_L decays
#          BR         NDA      ID1       ID2
     7.97628657E-02    2     1000022        13   # BR(~mu_L -> ~chi_10 mu-)
     1.78632419E-06    2     1000023        13   # BR(~mu_L -> ~chi_20 mu-)
     1.02264302E-01    2     1000025        13   # BR(~mu_L -> ~chi_30 mu-)
     2.71156586E-01    2     1000035        13   # BR(~mu_L -> ~chi_40 mu-)
     3.19909184E-03    2    -1000024        14   # BR(~mu_L -> ~chi_1- nu_mu)
     5.43615368E-01    2    -1000037        14   # BR(~mu_L -> ~chi_2- nu_mu)
#
#         PDG            Width
DECAY   2000013     1.91050833E+01   # smuon_R decays
#          BR         NDA      ID1       ID2
     5.37582521E-01    2     1000022        13   # BR(~mu_R -> ~chi_10 mu-)
     6.22250346E-06    2     1000023        13   # BR(~mu_R -> ~chi_20 mu-)
     4.62409705E-01    2     1000025        13   # BR(~mu_R -> ~chi_30 mu-)
     1.55183465E-06    2     1000035        13   # BR(~mu_R -> ~chi_40 mu-)
#
#         PDG            Width
DECAY   1000015     2.29030931E+01   # stau_1 decays
#          BR         NDA      ID1       ID2
     2.77896324E-01    2     1000022        15   # BR(~tau_1 -> ~chi_10  tau-)
     4.57168220E-04    2     1000023        15   # BR(~tau_1 -> ~chi_20  tau-)
     2.48834222E-01    2     1000025        15   # BR(~tau_1 -> ~chi_30  tau-)
     1.55838555E-01    2     1000035        15   # BR(~tau_1 -> ~chi_40  tau-)
     4.38869462E-03    2    -1000024        16   # BR(~tau_1 -> ~chi_1-  nu_tau)
     3.12428004E-01    2    -1000037        16   # BR(~tau_1 -> ~chi_2-  nu_tau)
     1.57031075E-04    2     1000039        15   # BR(~tau_1 -> ~G       tau-)
#
#         PDG            Width
DECAY   2000015     2.28772903E+01   # stau_2 decays
#          BR         NDA      ID1       ID2
     2.63977197E-01    2     1000022        15   # BR(~tau_2 -> ~chi_10  tau-)
     6.30495963E-04    2     1000023        15   # BR(~tau_2 -> ~chi_20  tau-)
     2.56509462E-01    2     1000025        15   # BR(~tau_2 -> ~chi_30  tau-)
     1.59240312E-01    2     1000035        15   # BR(~tau_2 -> ~chi_40  tau-)
     4.04749706E-04    2    -1000024        16   # BR(~tau_2 -> ~chi_1-  nu_tau)
     3.19237783E-01    2    -1000037        16   # BR(~tau_2 -> ~chi_2-  nu_tau)
#
#         PDG            Width
DECAY   1000012     2.65994399E+01   # snu_eL decays
#          BR         NDA      ID1       ID2
     1.14894056E-01    2     1000022        12   # BR(~nu_eL -> ~chi_10 nu_e)
     1.19055039E-05    2     1000023        12   # BR(~nu_eL -> ~chi_20 nu_e)
     6.58017758E-02    2     1000025        12   # BR(~nu_eL -> ~chi_30 nu_e)
     2.72190744E-01    2     1000035        12   # BR(~nu_eL -> ~chi_40 nu_e)
     4.00899349E-03    2     1000024        11   # BR(~nu_eL -> ~chi_1+ e-)
     5.43092526E-01    2     1000037        11   # BR(~nu_eL -> ~chi_2+ e-)
#
#         PDG            Width
DECAY   1000014     2.65994399E+01   # snu_muL decays
#          BR         NDA      ID1       ID2
     1.14894056E-01    2     1000022        14   # BR(~nu_muL -> ~chi_10 nu_mu)
     1.19055039E-05    2     1000023        14   # BR(~nu_muL -> ~chi_20 nu_mu)
     6.58017758E-02    2     1000025        14   # BR(~nu_muL -> ~chi_30 nu_mu)
     2.72190744E-01    2     1000035        14   # BR(~nu_muL -> ~chi_40 nu_mu)
     4.00899349E-03    2     1000024        13   # BR(~nu_muL -> ~chi_1+ mu-)
     5.43092526E-01    2     1000037        13   # BR(~nu_muL -> ~chi_2+ mu-)
#
#         PDG            Width
DECAY   1000016     2.66241640E+01   # snu_tauL decays
#          BR         NDA      ID1       ID2
     1.14787361E-01    2     1000022        16   # BR(~nu_tauL -> ~chi_10 nu_tau)
     1.18944480E-05    2     1000023        16   # BR(~nu_tauL -> ~chi_20 nu_tau)
     6.57406701E-02    2     1000025        16   # BR(~nu_tauL -> ~chi_30 nu_tau)
     2.71937979E-01    2     1000035        16   # BR(~nu_tauL -> ~chi_40 nu_tau)
     4.93179941E-03    2     1000024        15   # BR(~nu_tauL -> ~chi_1+ tau-)
     5.42590296E-01    2     1000037        15   # BR(~nu_tauL -> ~chi_2+ tau-)
#
#         PDG            Width
DECAY   1000024     1.43497896E-04   # chargino1+ decays
#          BR         NDA      ID1       ID2
     6.50711357E-02    2     1000039        24   # BR(~chi_1+ -> ~G       W+)
#           BR         NDA      ID1       ID2       ID3
     3.11893449E-01    3     1000022         2        -1   # BR(~chi_1+ -> ~chi_10 u    db)
     3.11893449E-01    3     1000022         4        -3   # BR(~chi_1+ -> ~chi_10 c    sb)
     1.03964594E-01    3     1000022       -11        12   # BR(~chi_1+ -> ~chi_10 e+   nu_e)
     1.03964594E-01    3     1000022       -13        14   # BR(~chi_1+ -> ~chi_10 mu+  nu_mu)
     1.03212777E-01    3     1000022       -15        16   # BR(~chi_1+ -> ~chi_10 tau+ nu_tau)
#
#         PDG            Width
DECAY   1000037     3.82355723E+01   # chargino2+ decays
#          BR         NDA      ID1       ID2
     2.53461955E-01    2     1000024        23   # BR(~chi_2+ -> ~chi_1+  Z )
     1.08596425E-01    2     1000022        24   # BR(~chi_2+ -> ~chi_10  W+)
     2.46189536E-01    2     1000023        24   # BR(~chi_2+ -> ~chi_20  W+)
     1.38506795E-01    2     1000025        24   # BR(~chi_2+ -> ~chi_30  W+)
     2.53236330E-01    2     1000024        25   # BR(~chi_2+ -> ~chi_1+  h )
     8.95751722E-06    2     1000039        24   # BR(~chi_2+ -> ~G       W+)
     1.66096088E-09    2     1000039        37   # BR(~chi_2+ -> ~G       H+)
#
#         PDG            Width
DECAY   1000022    1.0E-05    # neutralino1 decays
#          BR         NDA      ID1       ID2
     4.99681725E-01    2     1000039        22   # BR(~chi_10 -> ~G        gam)
     4.89334846E-01    2     1000039        23   # BR(~chi_10 -> ~G        Z)
     1.09834292E-02    2     1000039        25   # BR(~chi_10 -> ~G        h)
#
#         PDG            Width
DECAY   1000023     1.81102106E-04   # neutralino2 decays
#          BR         NDA      ID1       ID2
     4.15065157E-04    2     1000022        22   # BR(~chi_20 -> ~chi_10 gam)
#          BR         NDA      ID1       ID2
     3.98706838E-08    2     1000039        22   # BR(~chi_20 -> ~G        gam)
     2.00038320E-03    2     1000039        23   # BR(~chi_20 -> ~G        Z)
     4.94713467E-02    2     1000039        25   # BR(~chi_20 -> ~G        h)
#           BR         NDA      ID1       ID2       ID3
     1.12382907E-01    3     1000022        -2         2   # BR(~chi_20 -> ~chi_10 ub      u)
     1.45524326E-01    3     1000022        -1         1   # BR(~chi_20 -> ~chi_10 db      d)
     1.12382907E-01    3     1000022        -4         4   # BR(~chi_20 -> ~chi_10 cb      c)
     1.45524326E-01    3     1000022        -3         3   # BR(~chi_20 -> ~chi_10 sb      s)
     1.33737482E-01    3     1000022        -5         5   # BR(~chi_20 -> ~chi_10 bb      b)
     3.32378719E-02    3     1000022       -11        11   # BR(~chi_20 -> ~chi_10 e+      e-)
     3.32378719E-02    3     1000022       -13        13   # BR(~chi_20 -> ~chi_10 mu+     mu-)
     3.29280417E-02    3     1000022       -15        15   # BR(~chi_20 -> ~chi_10 tau+    tau-)
     6.63795446E-02    3     1000022       -12        12   # BR(~chi_20 -> ~chi_10 nu_eb   nu_e)
     6.63795446E-02    3     1000022       -14        14   # BR(~chi_20 -> ~chi_10 nu_mub  nu_mu)
     6.63795446E-02    3     1000022       -16        16   # BR(~chi_20 -> ~chi_10 nu_taub nu_tau)
     3.33468188E-06    3     1000024        -2         1   # BR(~chi_20 -> ~chi_1+ ub      d)
     3.33468188E-06    3    -1000024        -1         2   # BR(~chi_20 -> ~chi_1- db      u)
     3.33468188E-06    3     1000024        -4         3   # BR(~chi_20 -> ~chi_1+ cb      s)
     3.33468188E-06    3    -1000024        -3         4   # BR(~chi_20 -> ~chi_1- sb      c)
     1.11156070E-06    3     1000024       -12        11   # BR(~chi_20 -> ~chi_1+ nu_eb   e-)
     1.11156070E-06    3    -1000024        12       -11   # BR(~chi_20 -> ~chi_1- nu_e    e+)
     1.11156070E-06    3     1000024       -14        13   # BR(~chi_20 -> ~chi_1+ nu_mub  mu-)
     1.11156070E-06    3    -1000024        14       -13   # BR(~chi_20 -> ~chi_1- nu_mu   mu+)
     5.06590461E-07    3     1000024       -16        15   # BR(~chi_20 -> ~chi_1+ nu_taub tau-)
     5.06590461E-07    3    -1000024        16       -15   # BR(~chi_20 -> ~chi_1- nu_tau  tau+)
#
#         PDG            Width
DECAY   1000025     2.03843289E-04   # neutralino3 decays
#          BR         NDA      ID1       ID2
     4.10859550E-04    2     1000022        22   # BR(~chi_30 -> ~chi_10 gam)
     7.53444085E-06    2     1000023        22   # BR(~chi_30 -> ~chi_20 gam)
#          BR         NDA      ID1       ID2
     3.94571098E-02    2     1000039        22   # BR(~chi_30 -> ~G        gam)
     3.51886345E-02    2     1000039        23   # BR(~chi_30 -> ~G        Z)
     1.02943371E-03    2     1000039        25   # BR(~chi_30 -> ~G        h)
#           BR         NDA      ID1       ID2       ID3
     1.23055507E-05    3     1000022        -2         2   # BR(~chi_30 -> ~chi_10 ub      u)
     1.45518301E-05    3     1000022        -1         1   # BR(~chi_30 -> ~chi_10 db      d)
     1.23055507E-05    3     1000022        -4         4   # BR(~chi_30 -> ~chi_10 cb      c)
     1.45518301E-05    3     1000022        -3         3   # BR(~chi_30 -> ~chi_10 sb      s)
     4.00532313E-05    3     1000022        -5         5   # BR(~chi_30 -> ~chi_10 bb      b)
     2.51252695E-06    3     1000022       -11        11   # BR(~chi_30 -> ~chi_10 e+      e-)
     2.51252695E-06    3     1000022       -13        13   # BR(~chi_30 -> ~chi_10 mu+     mu-)
     6.39871039E-06    3     1000022       -15        15   # BR(~chi_30 -> ~chi_10 tau+    tau-)
     7.13395101E-06    3     1000022       -12        12   # BR(~chi_30 -> ~chi_10 nu_eb   nu_e)
     7.13395101E-06    3     1000022       -14        14   # BR(~chi_30 -> ~chi_10 nu_mub  nu_mu)
     7.13395101E-06    3     1000022       -16        16   # BR(~chi_30 -> ~chi_10 nu_taub nu_tau)
     1.98322440E-02    3     1000023        -2         2   # BR(~chi_30 -> ~chi_20 ub      u)
     2.56807489E-02    3     1000023        -1         1   # BR(~chi_30 -> ~chi_20 db      d)
     1.98322440E-02    3     1000023        -4         4   # BR(~chi_30 -> ~chi_20 cb      c)
     2.56807489E-02    3     1000023        -3         3   # BR(~chi_30 -> ~chi_20 sb      s)
     2.19176763E-02    3     1000023        -5         5   # BR(~chi_30 -> ~chi_20 bb      b)
     5.86551049E-03    3     1000023       -11        11   # BR(~chi_30 -> ~chi_20 e+      e-)
     5.86551049E-03    3     1000023       -13        13   # BR(~chi_30 -> ~chi_20 mu+     mu-)
     5.77606771E-03    3     1000023       -15        15   # BR(~chi_30 -> ~chi_20 tau+    tau-)
     1.17139875E-02    3     1000023       -12        12   # BR(~chi_30 -> ~chi_20 nu_eb   nu_e)
     1.17139875E-02    3     1000023       -14        14   # BR(~chi_30 -> ~chi_20 nu_mub  nu_mu)
     1.17139875E-02    3     1000023       -16        16   # BR(~chi_30 -> ~chi_20 nu_taub nu_tau)
     1.26495557E-01    3     1000024        -2         1   # BR(~chi_30 -> ~chi_1+ ub      d)
     1.26495557E-01    3    -1000024        -1         2   # BR(~chi_30 -> ~chi_1- db      u)
     1.26495557E-01    3     1000024        -4         3   # BR(~chi_30 -> ~chi_1+ cb      s)
     1.26495557E-01    3    -1000024        -3         4   # BR(~chi_30 -> ~chi_1- sb      c)
     4.21651246E-02    3     1000024       -12        11   # BR(~chi_30 -> ~chi_1+ nu_eb   e-)
     4.21651246E-02    3    -1000024        12       -11   # BR(~chi_30 -> ~chi_1- nu_e    e+)
     4.21651246E-02    3     1000024       -14        13   # BR(~chi_30 -> ~chi_1+ nu_mub  mu-)
     4.21651246E-02    3    -1000024        14       -13   # BR(~chi_30 -> ~chi_1- nu_mu   mu+)
     4.17721963E-02    3     1000024       -16        15   # BR(~chi_30 -> ~chi_1+ nu_taub tau-)
     4.17721963E-02    3    -1000024        16       -15   # BR(~chi_30 -> ~chi_1- nu_tau  tau+)
#
#         PDG            Width
DECAY   1000035     3.82353718E+01   # neutralino4 decays
#          BR         NDA      ID1       ID2
     3.68040090E-04    2     1000022        23   # BR(~chi_40 -> ~chi_10   Z )
     2.52208098E-01    2     1000023        23   # BR(~chi_40 -> ~chi_20   Z )
     4.34727189E-04    2     1000025        23   # BR(~chi_40 -> ~chi_30   Z )
     2.46631267E-01    2     1000024       -24   # BR(~chi_40 -> ~chi_1+   W-)
     2.46631267E-01    2    -1000024        24   # BR(~chi_40 -> ~chi_1-   W+)
     1.11134685E-01    2     1000022        25   # BR(~chi_40 -> ~chi_10   h )
     7.84457551E-04    2     1000023        25   # BR(~chi_40 -> ~chi_20   h )
     1.41798499E-01    2     1000025        25   # BR(~chi_40 -> ~chi_30   h )
     2.14221376E-06    2     1000039        22   # BR(~chi_40 -> ~G        gam)
     6.81419917E-06    2     1000039        23   # BR(~chi_40 -> ~G        Z)
     8.82180872E-10    2     1000039        25   # BR(~chi_40 -> ~G        h)
     1.62046816E-09    2     1000039        35   # BR(~chi_40 -> ~G        H)
     3.45502321E-11    2     1000039        36   # BR(~chi_40 -> ~G        A)
#
#         PDG            Width
DECAY        25     4.22156670E-03   # h decays
#          BR         NDA      ID1       ID2
     6.02198553E-01    2           5        -5   # BR(h -> b       bb     )
     6.21915264E-02    2         -15        15   # BR(h -> tau+    tau-   )
     2.20130890E-04    2         -13        13   # BR(h -> mu+     mu-    )
     4.65754401E-04    2           3        -3   # BR(h -> s       sb     )
     2.00935531E-02    2           4        -4   # BR(h -> c       cb     )
     6.63598676E-02    2          21        21   # BR(h -> g       g      )
     2.30486822E-03    2          22        22   # BR(h -> gam     gam    )
     1.62543504E-03    2          22        23   # BR(h -> Z       gam    )
     2.16480699E-01    2          24       -24   # BR(h -> W+      W-     )
     2.80596125E-02    2          23        23   # BR(h -> Z       Z      )
#
#         PDG            Width
DECAY        35     3.78098896E+01   # H decays
#          BR         NDA      ID1       ID2
     1.46692737E-03    2           5        -5   # BR(H -> b       bb     )
     2.46428314E-04    2         -15        15   # BR(H -> tau+    tau-   )
     8.71215837E-07    2         -13        13   # BR(H -> mu+     mu-    )
     1.11547503E-06    2           3        -3   # BR(H -> s       sb     )
     1.00668605E-05    2           4        -4   # BR(H -> c       cb     )
     9.96069118E-01    2           6        -6   # BR(H -> t       tb     )
     7.97748313E-04    2          21        21   # BR(H -> g       g      )
     2.71633542E-06    2          22        22   # BR(H -> gam     gam    )
     1.16021134E-06    2          23        22   # BR(H -> Z       gam    )
     3.34707771E-04    2          24       -24   # BR(H -> W+      W-     )
     1.66897443E-04    2          23        23   # BR(H -> Z       Z      )
     9.02242955E-04    2          25        25   # BR(H -> h       h      )
     7.24420351E-24    2          36        36   # BR(H -> A       A      )
     2.93792304E-11    2          23        36   # BR(H -> Z       A      )
     6.63146946E-12    2          24       -37   # BR(H -> W+      H-     )
     6.63146946E-12    2         -24        37   # BR(H -> W-      H+     )
#
#         PDG            Width
DECAY        36     3.82380760E+01   # A decays
#          BR         NDA      ID1       ID2
     1.46986057E-03    2           5        -5   # BR(A -> b       bb     )
     2.43898684E-04    2         -15        15   # BR(A -> tau+    tau-   )
     8.62269954E-07    2         -13        13   # BR(A -> mu+     mu-    )
     1.13677845E-06    2           3        -3   # BR(A -> s       sb     )
     9.96180417E-06    2           4        -4   # BR(A -> c       cb     )
     9.96999929E-01    2           6        -6   # BR(A -> t       tb     )
     9.43679374E-04    2          21        21   # BR(A -> g       g      )
     3.14150601E-06    2          22        22   # BR(A -> gam     gam    )
     1.35280634E-06    2          23        22   # BR(A -> Z       gam    )
     3.26176756E-04    2          23        25   # BR(A -> Z       h      )
#
#         PDG            Width
DECAY        37     3.74471790E+01   # H+ decays
#          BR         NDA      ID1       ID2
     2.35513645E-06    2           4        -5   # BR(H+ -> c       bb     )
     2.49238694E-04    2         -15        16   # BR(H+ -> tau+    nu_tau )
     8.81148819E-07    2         -13        14   # BR(H+ -> mu+     nu_mu  )
     1.49729867E-08    2           2        -5   # BR(H+ -> u       bb     )
     5.45696476E-08    2           2        -3   # BR(H+ -> u       sb     )
     1.08732092E-05    2           4        -3   # BR(H+ -> c       sb     )
     9.99402286E-01    2           6        -5   # BR(H+ -> t       bb     )
     3.34296687E-04    2          24        25   # BR(H+ -> W+      h      )
     2.81274680E-13    2          24        36   # BR(H+ -> W+      A      )
