#
#                              ======================
#                              | THE SUSYHIT OUTPUT |
#                              ======================
#
#
#              ------------------------------------------------------
#              |     This is the output of the SUSY-HIT package     |
#              |  created by A.Djouadi, M.Muehlleitner and M.Spira. |
#              |  In case of problems with SUSY-HIT email to        |
#              |           margarete.muehlleitner@cern.ch           |
#              |           michael.spira@psi.ch                     |
#              |           abdelhak.djouadi@cern.ch                 |
#              ------------------------------------------------------
#
#              ------------------------------------------------------
#              |  SUSY Les Houches Accord - MSSM Spectrum + Decays  |
#              |              based on the decay programs           |
#              |                                                    |
#              |                     SDECAY 1.3b                    |
#              |                                                    |
#              |  Authors: M.Muhlleitner, A.Djouadi and Y.Mambrini  |
#              |  Ref.:    Comput.Phys.Commun.168(2005)46           |
#              |           [hep-ph/0311167]                         |
#              |                                                    |
#              |                     HDECAY 3.4                     |
#              |                                                    |
#              |  By: A.Djouadi,J.Kalinowski,M.Muhlleitner,M.Spira  |
#              |  Ref.:    Comput.Phys.Commun.108(1998)56           |
#              |           [hep-ph/9704448]                         |
#              |                                                    |
#              |                                                    |
#              |  If not stated otherwise all DRbar couplings and   |
#              |  soft SUSY breaking masses are given at the scale  |
#              |  Q=  0.50007273E+04
#              |                                                    |
#              ------------------------------------------------------
#
#
BLOCK DCINFO  # Decay Program information
     1   SDECAY/HDECAY # decay calculator
     2   1.3b  /3.4    # version number
#
BLOCK SPINFO  # Spectrum calculator information
     1    SOFTSUSY    # spectrum calculator                
     2    3.4.0       # version number                     
#
BLOCK MODSEL  # Model selection
     1     0   #  nonUniversal                                     
#
BLOCK SMINPUTS  # Standard Model inputs
         1     1.25778332E+02   # alpha_em^-1(M_Z)^MSbar
         2     1.16570000E-05   # G_F [GeV^-2]
         3     1.17200002E-01   # alpha_S(M_Z)^MSbar
         4     9.11876000E+01   # M_Z pole mass
         5     4.25000000E+00   # mb(mb)^MSbar
         6     1.72500000E+02   # mt pole mass
         7     1.77682000E+00   # mtau pole mass
#
BLOCK MINPAR  # Input parameters - minimal models
         3     1.00000000E+01   # tanb                
#
BLOCK EXTPAR  # Input parameters - non-minimal models
         0    -1.00000000E+00   # Set                 
         1     6.00000000E+01   # M_1(MX)             
         2     3.00000000E+03   # M_2(MX)             
         3     7.73143000E+02   # M_3(MX)             
        11     5.00000000E+03   # At(MX)              
        12     5.00000000E+03   # Ab(MX)              
        13     0.00000000E+00   # Atau(MX)            
        23    -9.59455000E+02   # mu(MX)              
        26     3.00000000E+03   # mA(pole)            
        31     5.00000000E+03   # meL(MX)             
        32     5.00000000E+03   # mmuL(MX)            
        33     5.00000000E+03   # mtauL(MX)           
        34     5.00000000E+03   # meR(MX)             
        35     5.00000000E+03   # mmuR(MX)            
        36     5.00000000E+03   # mtauR(MX)           
        41     5.00000000E+03   # mqL1(MX)            
        42     5.00000000E+03   # mqL2(MX)            
        43     5.00000000E+03   # mqL3(MX)            
        44     5.00000000E+03   # muR(MX)             
        45     5.00000000E+03   # mcR(MX)             
        46     5.00000000E+03   # mtR(MX)             
        47     5.00000000E+03   # mdR(MX)             
        48     5.00000000E+03   # msR(MX)             
        49     5.00000000E+03   # mbR(MX)             
#
BLOCK MASS  # Mass Spectrum
# PDG code           mass       particle
        24     8.00923583E+01   # W+
        25     1.24311304E+02   # h
        35     3.00008112E+03   # H
        36     2.99999848E+03   # A
        37     3.00111056E+03   # H+
         5     4.87878001E+00   # b-quark pole mass calculated from mb(mb)_Msbar
   1000001     5.06379162E+03   # ~d_L
   2000001     5.04595768E+03   # ~d_R
   1000002     5.06331453E+03   # ~u_L
   2000002     5.04567118E+03   # ~u_R
   1000003     5.06379162E+03   # ~s_L
   2000003     5.04595768E+03   # ~s_R
   1000004     5.06331453E+03   # ~c_L
   2000004     5.04567118E+03   # ~c_R
   1000005     5.01017940E+03   # ~b_1
   2000005     5.04454010E+03   # ~b_2
   1000006     4.90066957E+03   # ~t_1
   2000006     5.05613312E+03   # ~t_2
   1000011     5.01907364E+03   # ~e_L
   2000011     5.00592443E+03   # ~e_R
   1000012     5.01812434E+03   # ~nu_eL
   1000013     5.01907364E+03   # ~mu_L
   2000013     5.00592443E+03   # ~mu_R
   1000014     5.01812434E+03   # ~nu_muL
   1000015     5.00461202E+03   # ~tau_1
   2000015     5.01876834E+03   # ~tau_2
   1000016     5.01757808E+03   # ~nu_tauL
   1000021     1.00000094E+03   # ~g
   1000022     6.02983282E+01   # ~chi_10
   1000023     9.99651361E+02   # ~chi_20
   1000025    -1.00190808E+03   # ~chi_30
   1000035     3.07425932E+03   # ~chi_40
   1000024     1.00000053E+03   # ~chi_1+
   1000037     3.07442686E+03   # ~chi_2+
#
BLOCK NMIX  # Neutralino Mixing Matrix
  1  1     9.99006638E-01   # N_11
  1  2     1.84545016E-04   # N_12
  1  3    -4.45181770E-02   # N_13
  1  4     1.95813699E-03   # N_14
  2  1     3.01032343E-02   # N_21
  2  2     2.34998255E-02   # N_22
  2  3     7.06701298E-01   # N_23
  2  4     7.06480593E-01   # N_24
  3  1    -3.28537697E-02   # N_31
  3  2     1.49150213E-02   # N_32
  3  3    -7.06083960E-01   # N_33
  3  4     7.07208324E-01   # N_34
  4  1    -4.01923497E-04   # N_41
  4  2     9.99612558E-01   # N_42
  4  3    -6.07023614E-03   # N_43
  4  4    -2.71610825E-02   # N_44
#
BLOCK UMIX  # Chargino Mixing Matrix U
  1  1     8.59830017E-03   # U_11
  1  2     9.99963034E-01   # U_12
  2  1    -9.99963034E-01   # U_21
  2  2     8.59830017E-03   # U_22
#
BLOCK VMIX  # Chargino Mixing Matrix V
  1  1     3.84413715E-02   # V_11
  1  2    -9.99260857E-01   # V_12
  2  1    -9.99260857E-01   # V_21
  2  2    -3.84413715E-02   # V_22
#
BLOCK STOPMIX  # Stop Mixing Matrix
  1  1    -5.10304598E-01   # cos(theta_t)
  1  2     8.59993731E-01   # sin(theta_t)
  2  1    -8.59993731E-01   # -sin(theta_t)
  2  2    -5.10304598E-01   # cos(theta_t)
#
BLOCK SBOTMIX  # Sbottom Mixing Matrix
  1  1     9.97009780E-01   # cos(theta_b)
  1  2    -7.72754721E-02   # sin(theta_b)
  2  1     7.72754721E-02   # -sin(theta_b)
  2  2     9.97009780E-01   # cos(theta_b)
#
BLOCK STAUMIX  # Stau Mixing Matrix
  1  1    -1.13933416E-01   # cos(theta_tau)
  1  2     9.93488388E-01   # sin(theta_tau)
  2  1    -9.93488388E-01   # -sin(theta_tau)
  2  2    -1.13933416E-01   # cos(theta_tau)
#
BLOCK ALPHA  # Higgs mixing
          -1.05423624E-01   # Mixing angle in the neutral Higgs boson sector
#
BLOCK HMIX Q=  5.00072734E+03  # DRbar Higgs Parameters
         1    -9.76517984E+02   # mu(Q)MSSM           
         2     9.47427538E+00   # tan                 
         3     2.41926117E+02   # higgs               
         4     8.51008154E+06   # mA^2(Q)MSSM         
#
BLOCK GAUGE Q=  5.00072734E+03  # The gauge couplings
     1     3.70816615E-01   # gprime(Q) DRbar
     2     6.32599707E-01   # g(Q) DRbar
     3     1.00864286E+00   # g3(Q) DRbar
#
BLOCK AU Q=  5.00072734E+03  # The trilinear couplings
  1  1     5.00000001E+03   # A_u(Q) DRbar
  2  2     5.00000001E+03   # A_c(Q) DRbar
  3  3     5.00000001E+03   # A_t(Q) DRbar
#
BLOCK AD Q=  5.00072734E+03  # The trilinear couplings
  1  1     5.00000000E+03   # A_d(Q) DRbar
  2  2     5.00000000E+03   # A_s(Q) DRbar
  3  3     5.00000001E+03   # A_b(Q) DRbar
#
BLOCK AE Q=  5.00072734E+03  # The trilinear couplings
  1  1     0.00000000E+00   # A_e(Q) DRbar
  2  2     1.66384199E-08   # A_mu(Q) DRbar
  3  3     1.56617723E-08   # A_tau(Q) DRbar
#
BLOCK Yu Q=  5.00072734E+03  # The Yukawa couplings
  1  1     0.00000000E+00   # y_u(Q) DRbar
  2  2     0.00000000E+00   # y_c(Q) DRbar
  3  3     8.14158432E-01   # y_t(Q) DRbar
#
BLOCK Yd Q=  5.00072734E+03  # The Yukawa couplings
  1  1     0.00000000E+00   # y_d(Q) DRbar
  2  2     0.00000000E+00   # y_s(Q) DRbar
  3  3     1.29363340E-01   # y_b(Q) DRbar
#
BLOCK Ye Q=  5.00072734E+03  # The Yukawa couplings
  1  1     0.00000000E+00   # y_e(Q) DRbar
  2  2     0.00000000E+00   # y_mu(Q) DRbar
  3  3     9.68709829E-02   # y_tau(Q) DRbar
#
BLOCK MSOFT Q=  5.00072734E+03  # The soft SUSY breaking masses at the scale Q
         1     6.00000000E+01   # M_1(Q)              
         2     3.00000000E+03   # M_2(Q)              
         3     7.73143000E+02   # M_3(Q)              
        21     7.74239503E+06   # mH1^2(Q)            
        22    -3.94421401E+05   # mH2^2(Q)            
        31     5.00000000E+03   # meL(Q)              
        32     5.00000000E+03   # mmuL(Q)             
        33     5.00000000E+03   # mtauL(Q)            
        34     5.00000000E+03   # meR(Q)              
        35     5.00000000E+03   # mmuR(Q)             
        36     5.00000000E+03   # mtauR(Q)            
        41     5.00000000E+03   # mqL1(Q)             
        42     5.00000000E+03   # mqL2(Q)             
        43     5.00000000E+03   # mqL3(Q)             
        44     5.00000000E+03   # muR(Q)              
        45     5.00000000E+03   # mcR(Q)              
        46     5.00000000E+03   # mtR(Q)              
        47     5.00000000E+03   # mdR(Q)              
        48     5.00000000E+03   # msR(Q)              
        49     5.00000000E+03   # mbR(Q)              
#
#
#
#                             =================
#                             |The decay table|
#                             =================
#
# - The QCD corrections to the decays gluino -> squark  + quark
#                                     squark -> gaugino + quark_prime
#                                     squark -> squark_prime + Higgs
#                                     squark -> gluino  + quark
#   are included.
#
# - The multi-body decays for the inos, stops and sbottoms are included.
#
# - The loop induced decays for the gluino, neutralinos and stops
#   are included.
#
# - The SUSY decays of the top quark are included.
#
#
#         PDG            Width
DECAY         6     1.40249036E+00   # top decays
#          BR         NDA      ID1       ID2
     1.00000000E+00    2           5        24   # BR(t ->  b    W+)
#
#         PDG            Width
DECAY   1000021     8.40644912E-06   # gluino decays
#          BR         NDA      ID1       ID2
     2.03081316E-05    2     1000022        21   # BR(~g -> ~chi_10 g)
     7.82497630E-11    2     1000023        21   # BR(~g -> ~chi_20 g)
#           BR         NDA      ID1       ID2       ID3
     8.30761153E-02    3     1000022         1        -1   # BR(~g -> ~chi_10 d  db)
     1.89088600E-20    3     1000023         1        -1   # BR(~g -> ~chi_20 d  db)
     2.83232640E-01    3     1000022         2        -2   # BR(~g -> ~chi_10 u  ub)
     5.97896783E-20    3     1000023         2        -2   # BR(~g -> ~chi_20 u  ub)
     8.30761153E-02    3     1000022         3        -3   # BR(~g -> ~chi_10 s  sb)
     1.89088600E-20    3     1000023         3        -3   # BR(~g -> ~chi_20 s  sb)
     2.83232640E-01    3     1000022         4        -4   # BR(~g -> ~chi_10 c  cb)
     5.97896783E-20    3     1000023         4        -4   # BR(~g -> ~chi_20 c  cb)
     8.42703656E-02    3     1000022         5        -5   # BR(~g -> ~chi_10 b  bb)
     1.83091814E-01    3     1000022         6        -6   # BR(~g -> ~chi_10 t  tb)
     1.16865518E-34    3     1000024         1        -2   # BR(~g -> ~chi_1+ d  ub)
     1.16865518E-34    3    -1000024         2        -1   # BR(~g -> ~chi_1- u  db)
     1.16865518E-34    3     1000024         3        -4   # BR(~g -> ~chi_1+ s  cb)
     1.16865518E-34    3    -1000024         4        -3   # BR(~g -> ~chi_1- c  sb)
#
#         PDG            Width
DECAY   1000006     4.15730003E+02   # stop1 decays
#          BR         NDA      ID1       ID2
     2.11364520E-02    2     1000022         6   # BR(~t_1 -> ~chi_10 t )
     7.25443468E-02    2     1000023         6   # BR(~t_1 -> ~chi_20 t )
     6.96579863E-02    2     1000025         6   # BR(~t_1 -> ~chi_30 t )
     5.09690978E-03    2     1000035         6   # BR(~t_1 -> ~chi_40 t )
     1.04438923E-01    2     1000024         5   # BR(~t_1 -> ~chi_1+ b )
     1.01546348E-02    2     1000037         5   # BR(~t_1 -> ~chi_2+ b )
     7.16970747E-01    2     1000021         6   # BR(~t_1 -> ~g      t )
#
#         PDG            Width
DECAY   2000006     4.16869419E+02   # stop2 decays
#          BR         NDA      ID1       ID2
     8.58402828E-03    2     1000022         6   # BR(~t_2 -> ~chi_10 t )
     7.39700133E-02    2     1000023         6   # BR(~t_2 -> ~chi_20 t )
     7.71215302E-02    2     1000025         6   # BR(~t_2 -> ~chi_30 t )
     1.30998088E-02    2     1000035         6   # BR(~t_2 -> ~chi_40 t )
     4.50704676E-02    2     1000024         5   # BR(~t_2 -> ~chi_1+ b )
     2.60634825E-02    2     1000037         5   # BR(~t_2 -> ~chi_2+ b )
     7.52976971E-01    2     1000021         6   # BR(~t_2 -> ~g      t )
     6.94046439E-04    2     1000006        25   # BR(~t_2 -> ~t_1    h )
     2.41965187E-03    2     1000006        23   # BR(~t_2 -> ~t_1    Z )
#
#         PDG            Width
DECAY   1000005     3.95102797E+02   # sbottom1 decays
#          BR         NDA      ID1       ID2
     1.96334053E-03    2     1000022         5   # BR(~b_1 -> ~chi_10 b )
     1.98836248E-03    2     1000023         5   # BR(~b_1 -> ~chi_20 b )
     1.93322643E-03    2     1000025         5   # BR(~b_1 -> ~chi_30 b )
     1.89597998E-02    2     1000035         5   # BR(~b_1 -> ~chi_40 b )
     1.54585661E-01    2    -1000024         6   # BR(~b_1 -> ~chi_1- t )
     3.80938036E-02    2    -1000037         6   # BR(~b_1 -> ~chi_2- t )
     7.81035379E-01    2     1000021         5   # BR(~b_1 -> ~g      b )
     1.44042773E-03    2     1000006       -24   # BR(~b_1 -> ~t_1    W-)
#
#         PDG            Width
DECAY   2000005     3.17405465E+02   # sbottom2 decays
#          BR         NDA      ID1       ID2
     9.26535649E-03    2     1000022         5   # BR(~b_2 -> ~chi_10 b )
     2.46404398E-03    2     1000023         5   # BR(~b_2 -> ~chi_20 b )
     2.53256369E-03    2     1000025         5   # BR(~b_2 -> ~chi_30 b )
     1.47779995E-04    2     1000035         5   # BR(~b_2 -> ~chi_40 b )
     6.06225596E-03    2    -1000024         6   # BR(~b_2 -> ~chi_1- t )
     2.96870230E-04    2    -1000037         6   # BR(~b_2 -> ~chi_2- t )
     9.79187425E-01    2     1000021         5   # BR(~b_2 -> ~g      b )
     4.37045147E-05    2     1000006       -24   # BR(~b_2 -> ~t_1    W-)
#
#         PDG            Width
DECAY   1000002     3.36279334E+02   # sup_L decays
#          BR         NDA      ID1       ID2
     2.22287533E-03    2     1000022         2   # BR(~u_L -> ~chi_10 u)
     4.64446349E-05    2     1000023         2   # BR(~u_L -> ~chi_20 u)
     3.88159425E-06    2     1000025         2   # BR(~u_L -> ~chi_30 u)
     2.32144075E-02    2     1000035         2   # BR(~u_L -> ~chi_40 u)
     1.58994544E-04    2     1000024         1   # BR(~u_L -> ~chi_1+ d)
     4.63975645E-02    2     1000037         1   # BR(~u_L -> ~chi_2+ d)
     9.27955832E-01    2     1000021         2   # BR(~u_L -> ~g      u)
#
#         PDG            Width
DECAY   2000002     3.22705846E+02   # sup_R decays
#          BR         NDA      ID1       ID2
     3.68627036E-02    2     1000022         2   # BR(~u_R -> ~chi_10 u)
     3.09080291E-05    2     1000023         2   # BR(~u_R -> ~chi_20 u)
     3.68005655E-05    2     1000025         2   # BR(~u_R -> ~chi_30 u)
     2.36170025E-09    2     1000035         2   # BR(~u_R -> ~chi_40 u)
     9.63069585E-01    2     1000021         2   # BR(~u_R -> ~g      u)
#
#         PDG            Width
DECAY   1000001     3.36288618E+02   # sdown_L decays
#          BR         NDA      ID1       ID2
     2.21463313E-03    2     1000022         1   # BR(~d_L -> ~chi_10 d)
     1.67001882E-05    2     1000023         1   # BR(~d_L -> ~chi_20 d)
     2.44802949E-05    2     1000025         1   # BR(~d_L -> ~chi_30 d)
     2.32283317E-02    2     1000035         1   # BR(~d_L -> ~chi_40 d)
     7.95509410E-06    2    -1000024         2   # BR(~d_L -> ~chi_1- u)
     4.64760571E-02    2    -1000037         2   # BR(~d_L -> ~chi_2- u)
     9.28031843E-01    2     1000021         1   # BR(~d_L -> ~g      d)
#
#         PDG            Width
DECAY   2000001     3.13788303E+02   # sdown_R decays
#          BR         NDA      ID1       ID2
     9.47811573E-03    2     1000022         1   # BR(~d_R -> ~chi_10 d)
     7.94712664E-06    2     1000023         1   # BR(~d_R -> ~chi_20 d)
     9.46222636E-06    2     1000025         1   # BR(~d_R -> ~chi_30 d)
     6.07319765E-10    2     1000035         1   # BR(~d_R -> ~chi_40 d)
     9.90504474E-01    2     1000021         1   # BR(~d_R -> ~g      d)
#
#         PDG            Width
DECAY   1000004     3.36279334E+02   # scharm_L decays
#          BR         NDA      ID1       ID2
     2.22287533E-03    2     1000022         4   # BR(~c_L -> ~chi_10 c)
     4.64446349E-05    2     1000023         4   # BR(~c_L -> ~chi_20 c)
     3.88159425E-06    2     1000025         4   # BR(~c_L -> ~chi_30 c)
     2.32144075E-02    2     1000035         4   # BR(~c_L -> ~chi_40 c)
     1.58994544E-04    2     1000024         3   # BR(~c_L -> ~chi_1+ s)
     4.63975645E-02    2     1000037         3   # BR(~c_L -> ~chi_2+ s)
     9.27955832E-01    2     1000021         4   # BR(~c_L -> ~g      c)
#
#         PDG            Width
DECAY   2000004     3.22705846E+02   # scharm_R decays
#          BR         NDA      ID1       ID2
     3.68627036E-02    2     1000022         4   # BR(~c_R -> ~chi_10 c)
     3.09080291E-05    2     1000023         4   # BR(~c_R -> ~chi_20 c)
     3.68005655E-05    2     1000025         4   # BR(~c_R -> ~chi_30 c)
     2.36170025E-09    2     1000035         4   # BR(~c_R -> ~chi_40 c)
     9.63069585E-01    2     1000021         4   # BR(~c_R -> ~g      c)
#
#         PDG            Width
DECAY   1000003     3.36288618E+02   # sstrange_L decays
#          BR         NDA      ID1       ID2
     2.21463313E-03    2     1000022         3   # BR(~s_L -> ~chi_10 s)
     1.67001882E-05    2     1000023         3   # BR(~s_L -> ~chi_20 s)
     2.44802949E-05    2     1000025         3   # BR(~s_L -> ~chi_30 s)
     2.32283317E-02    2     1000035         3   # BR(~s_L -> ~chi_40 s)
     7.95509410E-06    2    -1000024         4   # BR(~s_L -> ~chi_1- c)
     4.64760571E-02    2    -1000037         4   # BR(~s_L -> ~chi_2- c)
     9.28031843E-01    2     1000021         3   # BR(~s_L -> ~g      s)
#
#         PDG            Width
DECAY   2000003     3.13788303E+02   # sstrange_R decays
#          BR         NDA      ID1       ID2
     9.47811573E-03    2     1000022         3   # BR(~s_R -> ~chi_10 s)
     7.94712664E-06    2     1000023         3   # BR(~s_R -> ~chi_20 s)
     9.46222636E-06    2     1000025         3   # BR(~s_R -> ~chi_30 s)
     6.07319765E-10    2     1000035         3   # BR(~s_R -> ~chi_40 s)
     9.90504474E-01    2     1000021         3   # BR(~s_R -> ~g      s)
#
#         PDG            Width
DECAY   1000011     3.02752978E+01   # selectron_L decays
#          BR         NDA      ID1       ID2
     2.26380347E-01    2     1000022        11   # BR(~e_L -> ~chi_10 e-)
     1.03034893E-03    2     1000023        11   # BR(~e_L -> ~chi_20 e-)
     1.14758785E-05    2     1000025        11   # BR(~e_L -> ~chi_30 e-)
     2.57317168E-01    2     1000035        11   # BR(~e_L -> ~chi_40 e-)
     8.99840215E-05    2    -1000024        12   # BR(~e_L -> ~chi_1- nu_e)
     5.15170677E-01    2    -1000037        12   # BR(~e_L -> ~chi_2- nu_e)
#
#         PDG            Width
DECAY   2000011     2.73759615E+01   # selectron_R decays
#          BR         NDA      ID1       ID2
     9.98169123E-01    2     1000022        11   # BR(~e_R -> ~chi_10 e-)
     8.35743443E-04    2     1000023        11   # BR(~e_R -> ~chi_20 e-)
     9.95070831E-04    2     1000025        11   # BR(~e_R -> ~chi_30 e-)
     6.26973520E-08    2     1000035        11   # BR(~e_R -> ~chi_40 e-)
#
#         PDG            Width
DECAY   1000013     3.02752978E+01   # smuon_L decays
#          BR         NDA      ID1       ID2
     2.26380347E-01    2     1000022        13   # BR(~mu_L -> ~chi_10 mu-)
     1.03034893E-03    2     1000023        13   # BR(~mu_L -> ~chi_20 mu-)
     1.14758785E-05    2     1000025        13   # BR(~mu_L -> ~chi_30 mu-)
     2.57317168E-01    2     1000035        13   # BR(~mu_L -> ~chi_40 mu-)
     8.99840215E-05    2    -1000024        14   # BR(~mu_L -> ~chi_1- nu_mu)
     5.15170677E-01    2    -1000037        14   # BR(~mu_L -> ~chi_2- nu_mu)
#
#         PDG            Width
DECAY   2000013     2.73759615E+01   # smuon_R decays
#          BR         NDA      ID1       ID2
     9.98169123E-01    2     1000022        13   # BR(~mu_R -> ~chi_10 mu-)
     8.35743443E-04    2     1000023        13   # BR(~mu_R -> ~chi_20 mu-)
     9.95070831E-04    2     1000025        13   # BR(~mu_R -> ~chi_30 mu-)
     6.26973520E-08    2     1000035        13   # BR(~mu_R -> ~chi_40 mu-)
#
#         PDG            Width
DECAY   1000015     2.91259185E+01   # stau_1 decays
#          BR         NDA      ID1       ID2
     9.29757150E-01    2     1000022        15   # BR(~tau_1 -> ~chi_10  tau-)
     1.56840634E-02    2     1000023        15   # BR(~tau_1 -> ~chi_20  tau-)
     1.49144656E-02    2     1000025        15   # BR(~tau_1 -> ~chi_30  tau-)
     3.35959859E-03    2     1000035        15   # BR(~tau_1 -> ~chi_40  tau-)
     2.95587640E-02    2    -1000024        16   # BR(~tau_1 -> ~chi_1-  nu_tau)
     6.72595824E-03    2    -1000037        16   # BR(~tau_1 -> ~chi_2-  nu_tau)
#
#         PDG            Width
DECAY   2000015     3.10971921E+01   # stau_2 decays
#          BR         NDA      ID1       ID2
     2.28198639E-01    2     1000022        15   # BR(~tau_2 -> ~chi_10  tau-)
     1.47573067E-02    2     1000023        15   # BR(~tau_2 -> ~chi_20  tau-)
     1.45712210E-02    2     1000025        15   # BR(~tau_2 -> ~chi_30  tau-)
     2.47287664E-01    2     1000035        15   # BR(~tau_2 -> ~chi_40  tau-)
     9.39359709E-05    2    -1000024        16   # BR(~tau_2 -> ~chi_1-  nu_tau)
     4.95091233E-01    2    -1000037        16   # BR(~tau_2 -> ~chi_2-  nu_tau)
#
#         PDG            Width
DECAY   1000012     3.02780920E+01   # snu_eL decays
#          BR         NDA      ID1       ID2
     2.26031511E-01    2     1000022        12   # BR(~nu_eL -> ~chi_10 nu_e)
     2.08495455E-05    2     1000023        12   # BR(~nu_eL -> ~chi_20 nu_e)
     7.10245874E-04    2     1000025        12   # BR(~nu_eL -> ~chi_30 nu_e)
     2.57370403E-01    2     1000035        12   # BR(~nu_eL -> ~chi_40 nu_e)
     1.79805149E-03    2     1000024        11   # BR(~nu_eL -> ~chi_1+ e-)
     5.14068940E-01    2     1000037        11   # BR(~nu_eL -> ~chi_2+ e-)
#
#         PDG            Width
DECAY   1000014     3.02780920E+01   # snu_muL decays
#          BR         NDA      ID1       ID2
     2.26031511E-01    2     1000022        14   # BR(~nu_muL -> ~chi_10 nu_mu)
     2.08495455E-05    2     1000023        14   # BR(~nu_muL -> ~chi_20 nu_mu)
     7.10245874E-04    2     1000025        14   # BR(~nu_muL -> ~chi_30 nu_mu)
     2.57370403E-01    2     1000035        14   # BR(~nu_muL -> ~chi_40 nu_mu)
     1.79805149E-03    2     1000024        13   # BR(~nu_muL -> ~chi_1+ mu-)
     5.14068940E-01    2     1000037        13   # BR(~nu_muL -> ~chi_2+ mu-)
#
#         PDG            Width
DECAY   1000016     3.11324592E+01   # snu_tauL decays
#          BR         NDA      ID1       ID2
     2.19804591E-01    2     1000022        16   # BR(~nu_tauL -> ~chi_10 nu_tau)
     2.02747998E-05    2     1000023        16   # BR(~nu_tauL -> ~chi_20 nu_tau)
     6.90666935E-04    2     1000025        16   # BR(~nu_tauL -> ~chi_30 nu_tau)
     2.50214664E-01    2     1000035        16   # BR(~nu_tauL -> ~chi_40 nu_tau)
     2.94940531E-02    2     1000024        15   # BR(~nu_tauL -> ~chi_1+ tau-)
     4.99775750E-01    2     1000037        15   # BR(~nu_tauL -> ~chi_2+ tau-)
#
#         PDG            Width
DECAY   1000024     6.09370541E-01   # chargino1+ decays
#          BR         NDA      ID1       ID2
     1.00000000E+00    2     1000022        24   # BR(~chi_1+ -> ~chi_10  W+)
#
#         PDG            Width
DECAY   1000037     2.04265397E+01   # chargino2+ decays
#          BR         NDA      ID1       ID2
     2.53216639E-01    2     1000024        23   # BR(~chi_2+ -> ~chi_1+  Z )
     1.97886229E-04    2     1000022        24   # BR(~chi_2+ -> ~chi_10  W+)
     2.44193795E-01    2     1000023        24   # BR(~chi_2+ -> ~chi_20  W+)
     2.44144840E-01    2     1000025        24   # BR(~chi_2+ -> ~chi_30  W+)
     2.58245667E-01    2     1000024        25   # BR(~chi_2+ -> ~chi_1+  h )
     1.17213911E-06    2     1000022        37   # BR(~chi_2+ -> ~chi_10  H+)
#
#         PDG            Width
DECAY   1000022     0.00000000E+00   # neutralino1 decays
#
#         PDG            Width
DECAY   1000023     6.36332957E-01   # neutralino2 decays
#          BR         NDA      ID1       ID2
     5.40229033E-01    2     1000022        23   # BR(~chi_20 -> ~chi_10   Z )
     4.59770967E-01    2     1000022        25   # BR(~chi_20 -> ~chi_10   h )
#
#         PDG            Width
DECAY   1000025     6.39369231E-01   # neutralino3 decays
#          BR         NDA      ID1       ID2
     4.50397262E-01    2     1000022        23   # BR(~chi_30 -> ~chi_10   Z )
     5.49602738E-01    2     1000022        25   # BR(~chi_30 -> ~chi_10   h )
#
#         PDG            Width
DECAY   1000035     2.04415385E+01   # neutralino4 decays
#          BR         NDA      ID1       ID2
     4.77656055E-05    2     1000022        23   # BR(~chi_40 -> ~chi_10   Z )
     7.27235057E-02    2     1000023        23   # BR(~chi_40 -> ~chi_20   Z )
     1.79779552E-01    2     1000025        23   # BR(~chi_40 -> ~chi_30   Z )
     2.44824113E-01    2     1000024       -24   # BR(~chi_40 -> ~chi_1+   W-)
     2.44824113E-01    2    -1000024        24   # BR(~chi_40 -> ~chi_1-   W+)
     1.51018973E-04    2     1000022        25   # BR(~chi_40 -> ~chi_10   h )
     1.09504483E-06    2     1000022        35   # BR(~chi_40 -> ~chi_10   H )
     1.34483953E-07    2     1000022        36   # BR(~chi_40 -> ~chi_10   A )
     1.84763732E-01    2     1000023        25   # BR(~chi_40 -> ~chi_20   h )
     7.28849703E-02    2     1000025        25   # BR(~chi_40 -> ~chi_30   h )
#
#         PDG            Width
DECAY        25     4.01636154E-03   # h decays
#          BR         NDA      ID1       ID2
     6.17118895E-01    2           5        -5   # BR(h -> b       bb     )
     6.43374661E-02    2         -15        15   # BR(h -> tau+    tau-   )
     2.27780081E-04    2         -13        13   # BR(h -> mu+     mu-    )
     4.83229779E-04    2           3        -3   # BR(h -> s       sb     )
     2.09398053E-02    2           4        -4   # BR(h -> c       cb     )
     6.72004540E-02    2          21        21   # BR(h -> g       g      )
     2.29986179E-03    2          22        22   # BR(h -> gam     gam    )
     1.44416197E-03    2          22        23   # BR(h -> Z       gam    )
     2.02022501E-01    2          24       -24   # BR(h -> W+      W-     )
     2.38774986E-02    2          23        23   # BR(h -> Z       Z      )
     4.83473346E-05    2     1000022   1000022   # BR(h -> ~chi_10 ~chi_10)
#
#         PDG            Width
DECAY        35     8.10097970E+00   # H decays
#          BR         NDA      ID1       ID2
     3.98349989E-01    2           5        -5   # BR(H -> b       bb     )
     6.88352850E-02    2         -15        15   # BR(H -> tau+    tau-   )
     2.43407035E-04    2         -13        13   # BR(H -> mu+     mu-    )
     2.98379810E-04    2           3        -3   # BR(H -> s       sb     )
     1.66587818E-06    2           4        -4   # BR(H -> c       cb     )
     1.66434423E-01    2           6        -6   # BR(H -> t       tb     )
     5.52745471E-05    2          21        21   # BR(H -> g       g      )
     2.68633021E-07    2          22        22   # BR(H -> gam     gam    )
     9.81568402E-08    2          23        22   # BR(H -> Z       gam    )
     7.58738406E-05    2          24       -24   # BR(H -> W+      W-     )
     3.78888902E-05    2          23        23   # BR(H -> Z       Z      )
     2.84417442E-04    2          25        25   # BR(H -> h       h      )
    -2.54804888E-23    2          36        36   # BR(H -> A       A      )
     7.82967274E-19    2          23        36   # BR(H -> Z       A      )
     1.97616218E-03    2     1000024  -1000024   # BR(H -> ~chi_1+ ~chi_1-)
     1.78363483E-03    2     1000022   1000022   # BR(H -> ~chi_10 ~chi_10)
     3.94883402E-05    2     1000023   1000023   # BR(H -> ~chi_20 ~chi_20)
     5.44541474E-04    2     1000025   1000025   # BR(H -> ~chi_30 ~chi_30)
     2.16520374E-01    2     1000022   1000023   # BR(H -> ~chi_10 ~chi_20)
     1.44005918E-01    2     1000022   1000025   # BR(H -> ~chi_10 ~chi_30)
     5.12909933E-04    2     1000023   1000025   # BR(H -> ~chi_20 ~chi_30)
#
#         PDG            Width
DECAY        36     8.11733529E+00   # A decays
#          BR         NDA      ID1       ID2
     3.97682277E-01    2           5        -5   # BR(A -> b       bb     )
     6.86986267E-02    2         -15        15   # BR(A -> tau+    tau-   )
     2.42923461E-04    2         -13        13   # BR(A -> mu+     mu-    )
     2.98004450E-04    2           3        -3   # BR(A -> s       sb     )
     1.66937326E-06    2           4        -4   # BR(A -> c       cb     )
     1.66691588E-01    2           6        -6   # BR(A -> t       tb     )
     1.65021087E-04    2          21        21   # BR(A -> g       g      )
     5.74485732E-07    2          22        22   # BR(A -> gam     gam    )
     1.99698004E-07    2          23        22   # BR(A -> Z       gam    )
     7.54375985E-05    2          23        25   # BR(A -> Z       h      )
     3.22969779E-03    2     1000024  -1000024   # BR(A -> ~chi_1+ ~chi_1-)
     1.81643509E-03    2     1000022   1000022   # BR(A -> ~chi_10 ~chi_10)
     4.63887492E-05    2     1000023   1000023   # BR(A -> ~chi_20 ~chi_20)
     1.50085335E-03    2     1000025   1000025   # BR(A -> ~chi_30 ~chi_30)
     1.45776851E-01    2     1000022   1000023   # BR(A -> ~chi_10 ~chi_20)
     2.13627032E-01    2     1000022   1000025   # BR(A -> ~chi_10 ~chi_30)
     1.46420808E-04    2     1000023   1000025   # BR(A -> ~chi_20 ~chi_30)
#
#         PDG            Width
DECAY        37     8.05611462E+00   # H+ decays
#          BR         NDA      ID1       ID2
     6.37517695E-04    2           4        -5   # BR(H+ -> c       bb     )
     6.92463464E-02    2         -15        16   # BR(H+ -> tau+    nu_tau )
     2.44860239E-04    2         -13        14   # BR(H+ -> mu+     nu_mu  )
     4.08009202E-06    2           2        -5   # BR(H+ -> u       bb     )
     1.43677415E-05    2           2        -3   # BR(H+ -> u       sb     )
     2.97122756E-04    2           4        -3   # BR(H+ -> c       sb     )
     5.62912847E-01    2           6        -5   # BR(H+ -> t       bb     )
     7.61443530E-05    2          24        25   # BR(H+ -> W+      h      )
     2.77465216E-13    2          24        36   # BR(H+ -> W+      A      )
     3.65655739E-01    2     1000024   1000022   # BR(H+ -> ~chi_1+ ~chi_10)
     8.78088105E-04    2     1000024   1000023   # BR(H+ -> ~chi_1+ ~chi_20)
     3.28861229E-05    2     1000024   1000025   # BR(H+ -> ~chi_1+ ~chi_30)
