#
#                              ======================
#                              | THE SUSYHIT OUTPUT |
#                              ======================
#
#
#              ------------------------------------------------------
#              |     This is the output of the SUSY-HIT package     |
#              |  created by A.Djouadi, M.Muehlleitner and M.Spira. |
#              |  In case of problems with SUSY-HIT email to        |
#              |           margarete.muehlleitner@cern.ch           |
#              |           michael.spira@psi.ch                     |
#              |           abdelhak.djouadi@cern.ch                 |
#              ------------------------------------------------------
#
#              ------------------------------------------------------
#              |  SUSY Les Houches Accord - MSSM Spectrum + Decays  |
#              |              based on the decay programs           |
#              |                                                    |
#              |                     SDECAY 1.3b                    |
#              |                                                    |
#              |  Authors: M.Muhlleitner, A.Djouadi and Y.Mambrini  |
#              |  Ref.:    Comput.Phys.Commun.168(2005)46           |
#              |           [hep-ph/0311167]                         |
#              |                                                    |
#              |                     HDECAY 3.4                     |
#              |                                                    |
#              |  By: A.Djouadi,J.Kalinowski,M.Muhlleitner,M.Spira  |
#              |  Ref.:    Comput.Phys.Commun.108(1998)56           |
#              |           [hep-ph/9704448]                         |
#              |                                                    |
#              |                                                    |
#              |  If not stated otherwise all DRbar couplings and   |
#              |  soft SUSY breaking masses are given at the scale  |
#              |  Q=  0.50007325E+04
#              |                                                    |
#              ------------------------------------------------------
#
#
BLOCK DCINFO  # Decay Program information
     1   SDECAY/HDECAY # decay calculator
     2   1.3b  /3.4    # version number
#
BLOCK SPINFO  # Spectrum calculator information
     1    SOFTSUSY    # spectrum calculator                
     2    3.4.0       # version number                     
#
BLOCK MODSEL  # Model selection
     1     0   #  nonUniversal                                     
#
BLOCK SMINPUTS  # Standard Model inputs
         1     1.25778332E+02   # alpha_em^-1(M_Z)^MSbar
         2     1.16570000E-05   # G_F [GeV^-2]
         3     1.17200002E-01   # alpha_S(M_Z)^MSbar
         4     9.11876000E+01   # M_Z pole mass
         5     4.25000000E+00   # mb(mb)^MSbar
         6     1.72500000E+02   # mt pole mass
         7     1.77682000E+00   # mtau pole mass
#
BLOCK MINPAR  # Input parameters - minimal models
         3     1.00000000E+01   # tanb                
#
BLOCK EXTPAR  # Input parameters - non-minimal models
         0    -1.00000000E+00   # Set                 
         1     6.00000000E+01   # M_1(MX)             
         2     3.00000000E+03   # M_2(MX)             
         3     1.03377400E+03   # M_3(MX)             
        11     5.00000000E+03   # At(MX)              
        12     5.00000000E+03   # Ab(MX)              
        13     0.00000000E+00   # Atau(MX)            
        23    -9.59261000E+02   # mu(MX)              
        26     3.00000000E+03   # mA(pole)            
        31     5.00000000E+03   # meL(MX)             
        32     5.00000000E+03   # mmuL(MX)            
        33     5.00000000E+03   # mtauL(MX)           
        34     5.00000000E+03   # meR(MX)             
        35     5.00000000E+03   # mmuR(MX)            
        36     5.00000000E+03   # mtauR(MX)           
        41     5.00000000E+03   # mqL1(MX)            
        42     5.00000000E+03   # mqL2(MX)            
        43     5.00000000E+03   # mqL3(MX)            
        44     5.00000000E+03   # muR(MX)             
        45     5.00000000E+03   # mcR(MX)             
        46     5.00000000E+03   # mtR(MX)             
        47     5.00000000E+03   # mdR(MX)             
        48     5.00000000E+03   # msR(MX)             
        49     5.00000000E+03   # mbR(MX)             
#
BLOCK MASS  # Mass Spectrum
# PDG code           mass       particle
        24     8.00935634E+01   # W+
        25     1.24519366E+02   # h
        35     3.00008125E+03   # H
        36     2.99999853E+03   # A
        37     3.00111737E+03   # H+
         5     4.87878001E+00   # b-quark pole mass calculated from mb(mb)_Msbar
   1000001     5.06526848E+03   # ~d_L
   2000001     5.04744062E+03   # ~d_R
   1000002     5.06479219E+03   # ~u_L
   2000002     5.04715426E+03   # ~u_R
   1000003     5.06526848E+03   # ~s_L
   2000003     5.04744062E+03   # ~s_R
   1000004     5.06479219E+03   # ~c_L
   2000004     5.04715426E+03   # ~c_R
   1000005     5.01136492E+03   # ~b_1
   2000005     5.04599944E+03   # ~b_2
   1000006     4.90184174E+03   # ~t_1
   2000006     5.05708759E+03   # ~t_2
   1000011     5.01907287E+03   # ~e_L
   2000011     5.00592439E+03   # ~e_R
   1000012     5.01812386E+03   # ~nu_eL
   1000013     5.01907287E+03   # ~mu_L
   2000013     5.00592439E+03   # ~mu_R
   1000014     5.01812386E+03   # ~nu_muL
   1000015     5.00461214E+03   # ~tau_1
   2000015     5.01876756E+03   # ~tau_2
   1000016     5.01757765E+03   # ~nu_tauL
   1000021     1.30000070E+03   # ~g
   1000022     6.02984374E+01   # ~chi_10
   1000023     9.99652252E+02   # ~chi_20
   1000025    -1.00190739E+03   # ~chi_30
   1000035     3.07425812E+03   # ~chi_40
   1000024     1.00000081E+03   # ~chi_1+
   1000037     3.07442563E+03   # ~chi_2+
#
BLOCK NMIX  # Neutralino Mixing Matrix
  1  1     9.99006848E-01   # N_11
  1  2     1.84561210E-04   # N_12
  1  3    -4.45134435E-02   # N_13
  1  4     1.95880181E-03   # N_14
  2  1     3.00994047E-02   # N_21
  2  2     2.34965130E-02   # N_22
  2  3     7.06701205E-01   # N_23
  2  4     7.06480960E-01   # N_24
  3  1    -3.28509053E-02   # N_31
  3  2     1.49135061E-02   # N_32
  3  3    -7.06084363E-01   # N_33
  3  4     7.07208086E-01   # N_34
  4  1    -4.01842440E-04   # N_41
  4  2     9.99612659E-01   # N_42
  4  3    -6.06895586E-03   # N_43
  4  4    -2.71576720E-02   # N_44
#
BLOCK UMIX  # Chargino Mixing Matrix U
  1  1     8.59648606E-03   # U_11
  1  2     9.99963050E-01   # U_12
  2  1    -9.99963050E-01   # U_21
  2  2     8.59648606E-03   # U_22
#
BLOCK VMIX  # Chargino Mixing Matrix V
  1  1     3.84365569E-02   # V_11
  1  2    -9.99261043E-01   # V_12
  2  1    -9.99261043E-01   # V_21
  2  2    -3.84365569E-02   # V_22
#
BLOCK STOPMIX  # Stop Mixing Matrix
  1  1    -5.09323201E-01   # cos(theta_t)
  1  2     8.60575317E-01   # sin(theta_t)
  2  1    -8.60575317E-01   # -sin(theta_t)
  2  2    -5.09323201E-01   # cos(theta_t)
#
BLOCK SBOTMIX  # Sbottom Mixing Matrix
  1  1     9.97040553E-01   # cos(theta_b)
  1  2    -7.68774068E-02   # sin(theta_b)
  2  1     7.68774068E-02   # -sin(theta_b)
  2  2     9.97040553E-01   # cos(theta_b)
#
BLOCK STAUMIX  # Stau Mixing Matrix
  1  1    -1.13919427E-01   # cos(theta_tau)
  1  2     9.93489992E-01   # sin(theta_tau)
  2  1    -9.93489992E-01   # -sin(theta_tau)
  2  2    -1.13919427E-01   # cos(theta_tau)
#
BLOCK ALPHA  # Higgs mixing
          -1.05445596E-01   # Mixing angle in the neutral Higgs boson sector
#
BLOCK HMIX Q=  5.00073253E+03  # DRbar Higgs Parameters
         1    -9.76537324E+02   # mu(Q)MSSM           
         2     9.47234119E+00   # tan                 
         3     2.41891899E+02   # higgs               
         4     8.51228384E+06   # mA^2(Q)MSSM         
#
BLOCK GAUGE Q=  5.00073253E+03  # The gauge couplings
     1     3.70810618E-01   # gprime(Q) DRbar
     2     6.32587471E-01   # g(Q) DRbar
     3     1.00479836E+00   # g3(Q) DRbar
#
BLOCK AU Q=  5.00073253E+03  # The trilinear couplings
  1  1     5.00000001E+03   # A_u(Q) DRbar
  2  2     5.00000001E+03   # A_c(Q) DRbar
  3  3     5.00000001E+03   # A_t(Q) DRbar
#
BLOCK AD Q=  5.00073253E+03  # The trilinear couplings
  1  1     5.00000000E+03   # A_d(Q) DRbar
  2  2     5.00000000E+03   # A_s(Q) DRbar
  3  3     5.00000001E+03   # A_b(Q) DRbar
#
BLOCK AE Q=  5.00073253E+03  # The trilinear couplings
  1  1     0.00000000E+00   # A_e(Q) DRbar
  2  2     6.54432870E-08   # A_mu(Q) DRbar
  3  3     6.46565636E-08   # A_tau(Q) DRbar
#
BLOCK Yu Q=  5.00073253E+03  # The Yukawa couplings
  1  1     0.00000000E+00   # y_u(Q) DRbar
  2  2     0.00000000E+00   # y_c(Q) DRbar
  3  3     8.16545734E-01   # y_t(Q) DRbar
#
BLOCK Yd Q=  5.00073253E+03  # The Yukawa couplings
  1  1     0.00000000E+00   # y_d(Q) DRbar
  2  2     0.00000000E+00   # y_s(Q) DRbar
  3  3     1.29847720E-01   # y_b(Q) DRbar
#
BLOCK Ye Q=  5.00073253E+03  # The Yukawa couplings
  1  1     0.00000000E+00   # y_e(Q) DRbar
  2  2     0.00000000E+00   # y_mu(Q) DRbar
  3  3     9.68652353E-02   # y_tau(Q) DRbar
#
BLOCK MSOFT Q=  5.00073253E+03  # The soft SUSY breaking masses at the scale Q
         1     6.00000000E+01   # M_1(Q)              
         2     3.00000000E+03   # M_2(Q)              
         3     1.03377400E+03   # M_3(Q)              
        21     7.74258304E+06   # mH1^2(Q)            
        22    -3.92409383E+05   # mH2^2(Q)            
        31     5.00000000E+03   # meL(Q)              
        32     5.00000000E+03   # mmuL(Q)             
        33     5.00000000E+03   # mtauL(Q)            
        34     5.00000000E+03   # meR(Q)              
        35     5.00000000E+03   # mmuR(Q)             
        36     5.00000000E+03   # mtauR(Q)            
        41     5.00000000E+03   # mqL1(Q)             
        42     5.00000000E+03   # mqL2(Q)             
        43     5.00000000E+03   # mqL3(Q)             
        44     5.00000000E+03   # muR(Q)              
        45     5.00000000E+03   # mcR(Q)              
        46     5.00000000E+03   # mtR(Q)              
        47     5.00000000E+03   # mdR(Q)              
        48     5.00000000E+03   # msR(Q)              
        49     5.00000000E+03   # mbR(Q)              
#
#
#
#                             =================
#                             |The decay table|
#                             =================
#
# - The QCD corrections to the decays gluino -> squark  + quark
#                                     squark -> gaugino + quark_prime
#                                     squark -> squark_prime + Higgs
#                                     squark -> gluino  + quark
#   are included.
#
# - The multi-body decays for the inos, stops and sbottoms are included.
#
# - The loop induced decays for the gluino, neutralinos and stops
#   are included.
#
# - The SUSY decays of the top quark are included.
#
#
#         PDG            Width
DECAY         6     1.40238342E+00   # top decays
#          BR         NDA      ID1       ID2
     1.00000000E+00    2           5        24   # BR(t ->  b    W+)
#
#         PDG            Width
DECAY   1000021     3.34922087E-05   # gluino decays
#          BR         NDA      ID1       ID2
     1.34276446E-05    2     1000022        21   # BR(~g -> ~chi_10 g)
     8.61237342E-03    2     1000023        21   # BR(~g -> ~chi_20 g)
     8.35294139E-03    2     1000025        21   # BR(~g -> ~chi_30 g)
#           BR         NDA      ID1       ID2       ID3
     7.76362263E-02    3     1000022         1        -1   # BR(~g -> ~chi_10 d  db)
     1.54674920E-06    3     1000023         1        -1   # BR(~g -> ~chi_20 d  db)
     7.02173740E-07    3     1000025         1        -1   # BR(~g -> ~chi_30 d  db)
     2.64692605E-01    3     1000022         2        -2   # BR(~g -> ~chi_10 u  ub)
     4.89097758E-06    3     1000023         2        -2   # BR(~g -> ~chi_20 u  ub)
     8.36567816E-07    3     1000025         2        -2   # BR(~g -> ~chi_30 u  ub)
     7.76362263E-02    3     1000022         3        -3   # BR(~g -> ~chi_10 s  sb)
     1.54674920E-06    3     1000023         3        -3   # BR(~g -> ~chi_20 s  sb)
     7.02173740E-07    3     1000025         3        -3   # BR(~g -> ~chi_30 s  sb)
     2.64692605E-01    3     1000022         4        -4   # BR(~g -> ~chi_10 c  cb)
     4.89097758E-06    3     1000023         4        -4   # BR(~g -> ~chi_20 c  cb)
     8.36567816E-07    3     1000025         4        -4   # BR(~g -> ~chi_30 c  cb)
     7.87428026E-02    3     1000022         5        -5   # BR(~g -> ~chi_10 b  bb)
     3.01078290E-04    3     1000023         5        -5   # BR(~g -> ~chi_20 b  bb)
     2.87209538E-04    3     1000025         5        -5   # BR(~g -> ~chi_30 b  bb)
     2.14444921E-01    3     1000022         6        -6   # BR(~g -> ~chi_10 t  tb)
     4.29436351E-06    3     1000024         1        -2   # BR(~g -> ~chi_1+ d  ub)
     4.29436351E-06    3    -1000024         2        -1   # BR(~g -> ~chi_1- u  db)
     4.29436351E-06    3     1000024         3        -4   # BR(~g -> ~chi_1+ s  cb)
     4.29436351E-06    3    -1000024         4        -3   # BR(~g -> ~chi_1- c  sb)
     2.27722613E-03    3     1000024         5        -6   # BR(~g -> ~chi_1+ b  tb)
     2.27722613E-03    3    -1000024         6        -5   # BR(~g -> ~chi_1- t  bb)
#
#         PDG            Width
DECAY   1000006     3.96738791E+02   # stop1 decays
#          BR         NDA      ID1       ID2
     2.21963470E-02    2     1000022         6   # BR(~t_1 -> ~chi_10 t )
     7.63770493E-02    2     1000023         6   # BR(~t_1 -> ~chi_20 t )
     7.33502848E-02    2     1000025         6   # BR(~t_1 -> ~chi_30 t )
     5.30753663E-03    2     1000035         6   # BR(~t_1 -> ~chi_40 t )
     1.10311793E-01    2     1000024         5   # BR(~t_1 -> ~chi_1+ b )
     1.05741101E-02    2     1000037         5   # BR(~t_1 -> ~chi_2+ b )
     7.01882879E-01    2     1000021         6   # BR(~t_1 -> ~g      t )
#
#         PDG            Width
DECAY   2000006     3.99761478E+02   # stop2 decays
#          BR         NDA      ID1       ID2
     8.88590119E-03    2     1000022         6   # BR(~t_2 -> ~chi_10 t )
     7.75316488E-02    2     1000023         6   # BR(~t_2 -> ~chi_20 t )
     8.08229783E-02    2     1000025         6   # BR(~t_2 -> ~chi_30 t )
     1.37227115E-02    2     1000035         6   # BR(~t_2 -> ~chi_40 t )
     4.68933065E-02    2     1000024         5   # BR(~t_2 -> ~chi_1+ b )
     2.73023304E-02    2     1000037         5   # BR(~t_2 -> ~chi_2+ b )
     7.41607953E-01    2     1000021         6   # BR(~t_2 -> ~g      t )
     7.25656103E-04    2     1000006        25   # BR(~t_2 -> ~t_1    h )
     2.50751466E-03    2     1000006        23   # BR(~t_2 -> ~t_1    Z )
#
#         PDG            Width
DECAY   1000005     3.77042622E+02   # sbottom1 decays
#          BR         NDA      ID1       ID2
     2.05543705E-03    2     1000022         5   # BR(~b_1 -> ~chi_10 b )
     2.09717010E-03    2     1000023         5   # BR(~b_1 -> ~chi_20 b )
     2.03976350E-03    2     1000025         5   # BR(~b_1 -> ~chi_30 b )
     1.98980014E-02    2     1000035         5   # BR(~b_1 -> ~chi_40 b )
     1.62818756E-01    2    -1000024         6   # BR(~b_1 -> ~chi_1- t )
     3.99796352E-02    2    -1000037         6   # BR(~b_1 -> ~chi_2- t )
     7.69600114E-01    2     1000021         5   # BR(~b_1 -> ~g      b )
     1.51112279E-03    2     1000006       -24   # BR(~b_1 -> ~t_1    W-)
#
#         PDG            Width
DECAY   2000005     2.99111888E+02   # sbottom2 decays
#          BR         NDA      ID1       ID2
     9.82951866E-03    2     1000022         5   # BR(~b_2 -> ~chi_10 b )
     2.63237296E-03    2     1000023         5   # BR(~b_2 -> ~chi_20 b )
     2.70452858E-03    2     1000025         5   # BR(~b_2 -> ~chi_30 b )
     1.54087875E-04    2     1000035         5   # BR(~b_2 -> ~chi_40 b )
     6.45138396E-03    2    -1000024         6   # BR(~b_2 -> ~chi_1- t )
     3.09550355E-04    2    -1000037         6   # BR(~b_2 -> ~chi_2- t )
     9.77872253E-01    2     1000021         5   # BR(~b_2 -> ~g      b )
     4.63041236E-05    2     1000006       -24   # BR(~b_2 -> ~t_1    W-)
#
#         PDG            Width
DECAY   1000002     3.18054966E+02   # sup_L decays
#          BR         NDA      ID1       ID2
     2.34933168E-03    2     1000022         2   # BR(~u_L -> ~chi_10 u)
     4.90945771E-05    2     1000023         2   # BR(~u_L -> ~chi_20 u)
     4.10325450E-06    2     1000025         2   # BR(~u_L -> ~chi_30 u)
     2.45826187E-02    2     1000035         2   # BR(~u_L -> ~chi_40 u)
     1.68070318E-04    2     1000024         1   # BR(~u_L -> ~chi_1+ d)
     4.91321619E-02    2     1000037         1   # BR(~u_L -> ~chi_2+ d)
     9.23714620E-01    2     1000021         2   # BR(~u_L -> ~g      u)
#
#         PDG            Width
DECAY   2000002     3.04392814E+02   # sup_R decays
#          BR         NDA      ID1       ID2
     3.90650816E-02    2     1000022         2   # BR(~u_R -> ~chi_10 u)
     3.27608508E-05    2     1000023         2   # BR(~u_R -> ~chi_20 u)
     3.90098028E-05    2     1000025         2   # BR(~u_R -> ~chi_30 u)
     2.50671620E-09    2     1000035         2   # BR(~u_R -> ~chi_40 u)
     9.60863145E-01    2     1000021         2   # BR(~u_R -> ~g      u)
#
#         PDG            Width
DECAY   1000001     3.18065530E+02   # sdown_L decays
#          BR         NDA      ID1       ID2
     2.34060672E-03    2     1000022         1   # BR(~d_L -> ~chi_10 d)
     1.76526129E-05    2     1000023         1   # BR(~d_L -> ~chi_20 d)
     2.58790661E-05    2     1000025         1   # BR(~d_L -> ~chi_30 d)
     2.45972016E-02    2     1000035         1   # BR(~d_L -> ~chi_40 d)
     8.40769883E-06    2    -1000024         2   # BR(~d_L -> ~chi_1- u)
     4.92149431E-02    2    -1000037         2   # BR(~d_L -> ~chi_2- u)
     9.23795309E-01    2     1000021         1   # BR(~d_L -> ~g      d)
#
#         PDG            Width
DECAY   2000001     2.95479562E+02   # sdown_R decays
#          BR         NDA      ID1       ID2
     1.00614473E-02    2     1000022         1   # BR(~d_R -> ~chi_10 d)
     8.43783173E-06    2     1000023         1   # BR(~d_R -> ~chi_20 d)
     1.00473021E-05    2     1000025         1   # BR(~d_R -> ~chi_30 d)
     6.45705565E-10    2     1000035         1   # BR(~d_R -> ~chi_40 d)
     9.89920067E-01    2     1000021         1   # BR(~d_R -> ~g      d)
#
#         PDG            Width
DECAY   1000004     3.18054966E+02   # scharm_L decays
#          BR         NDA      ID1       ID2
     2.34933168E-03    2     1000022         4   # BR(~c_L -> ~chi_10 c)
     4.90945771E-05    2     1000023         4   # BR(~c_L -> ~chi_20 c)
     4.10325450E-06    2     1000025         4   # BR(~c_L -> ~chi_30 c)
     2.45826187E-02    2     1000035         4   # BR(~c_L -> ~chi_40 c)
     1.68070318E-04    2     1000024         3   # BR(~c_L -> ~chi_1+ s)
     4.91321619E-02    2     1000037         3   # BR(~c_L -> ~chi_2+ s)
     9.23714620E-01    2     1000021         4   # BR(~c_L -> ~g      c)
#
#         PDG            Width
DECAY   2000004     3.04392814E+02   # scharm_R decays
#          BR         NDA      ID1       ID2
     3.90650816E-02    2     1000022         4   # BR(~c_R -> ~chi_10 c)
     3.27608508E-05    2     1000023         4   # BR(~c_R -> ~chi_20 c)
     3.90098028E-05    2     1000025         4   # BR(~c_R -> ~chi_30 c)
     2.50671620E-09    2     1000035         4   # BR(~c_R -> ~chi_40 c)
     9.60863145E-01    2     1000021         4   # BR(~c_R -> ~g      c)
#
#         PDG            Width
DECAY   1000003     3.18065530E+02   # sstrange_L decays
#          BR         NDA      ID1       ID2
     2.34060672E-03    2     1000022         3   # BR(~s_L -> ~chi_10 s)
     1.76526129E-05    2     1000023         3   # BR(~s_L -> ~chi_20 s)
     2.58790661E-05    2     1000025         3   # BR(~s_L -> ~chi_30 s)
     2.45972016E-02    2     1000035         3   # BR(~s_L -> ~chi_40 s)
     8.40769883E-06    2    -1000024         4   # BR(~s_L -> ~chi_1- c)
     4.92149431E-02    2    -1000037         4   # BR(~s_L -> ~chi_2- c)
     9.23795309E-01    2     1000021         3   # BR(~s_L -> ~g      s)
#
#         PDG            Width
DECAY   2000003     2.95479562E+02   # sstrange_R decays
#          BR         NDA      ID1       ID2
     1.00614473E-02    2     1000022         3   # BR(~s_R -> ~chi_10 s)
     8.43783173E-06    2     1000023         3   # BR(~s_R -> ~chi_20 s)
     1.00473021E-05    2     1000025         3   # BR(~s_R -> ~chi_30 s)
     6.45705565E-10    2     1000035         3   # BR(~s_R -> ~chi_40 s)
     9.89920067E-01    2     1000021         3   # BR(~s_R -> ~g      s)
#
#         PDG            Width
DECAY   1000011     3.02741756E+01   # selectron_L decays
#          BR         NDA      ID1       ID2
     2.26381488E-01    2     1000022        11   # BR(~e_L -> ~chi_10 e-)
     1.03007142E-03    2     1000023        11   # BR(~e_L -> ~chi_20 e-)
     1.14753159E-05    2     1000025        11   # BR(~e_L -> ~chi_30 e-)
     2.57316934E-01    2     1000035        11   # BR(~e_L -> ~chi_40 e-)
     8.99458891E-05    2    -1000024        12   # BR(~e_L -> ~chi_1- nu_e)
     5.15170085E-01    2    -1000037        12   # BR(~e_L -> ~chi_2- nu_e)
#
#         PDG            Width
DECAY   2000011     2.73750768E+01   # selectron_R decays
#          BR         NDA      ID1       ID2
     9.98169509E-01    2     1000022        11   # BR(~e_R -> ~chi_10 e-)
     8.35530666E-04    2     1000023        11   # BR(~e_R -> ~chi_20 e-)
     9.94897406E-04    2     1000025        11   # BR(~e_R -> ~chi_30 e-)
     6.26721219E-08    2     1000035        11   # BR(~e_R -> ~chi_40 e-)
#
#         PDG            Width
DECAY   1000013     3.02741756E+01   # smuon_L decays
#          BR         NDA      ID1       ID2
     2.26381488E-01    2     1000022        13   # BR(~mu_L -> ~chi_10 mu-)
     1.03007142E-03    2     1000023        13   # BR(~mu_L -> ~chi_20 mu-)
     1.14753159E-05    2     1000025        13   # BR(~mu_L -> ~chi_30 mu-)
     2.57316934E-01    2     1000035        13   # BR(~mu_L -> ~chi_40 mu-)
     8.99458891E-05    2    -1000024        14   # BR(~mu_L -> ~chi_1- nu_mu)
     5.15170085E-01    2    -1000037        14   # BR(~mu_L -> ~chi_2- nu_mu)
#
#         PDG            Width
DECAY   2000013     2.73750768E+01   # smuon_R decays
#          BR         NDA      ID1       ID2
     9.98169509E-01    2     1000022        13   # BR(~mu_R -> ~chi_10 mu-)
     8.35530666E-04    2     1000023        13   # BR(~mu_R -> ~chi_20 mu-)
     9.94897406E-04    2     1000025        13   # BR(~mu_R -> ~chi_30 mu-)
     6.26721219E-08    2     1000035        13   # BR(~mu_R -> ~chi_40 mu-)
#
#         PDG            Width
DECAY   1000015     2.91248188E+01   # stau_1 decays
#          BR         NDA      ID1       ID2
     9.29764583E-01    2     1000022        15   # BR(~tau_1 -> ~chi_10  tau-)
     1.56826200E-02    2     1000023        15   # BR(~tau_1 -> ~chi_20  tau-)
     1.49133280E-02    2     1000025        15   # BR(~tau_1 -> ~chi_30  tau-)
     3.35878486E-03    2     1000035        15   # BR(~tau_1 -> ~chi_40  tau-)
     2.95563567E-02    2    -1000024        16   # BR(~tau_1 -> ~chi_1-  nu_tau)
     6.72432753E-03    2    -1000037        16   # BR(~tau_1 -> ~chi_2-  nu_tau)
#
#         PDG            Width
DECAY   2000015     3.10959796E+01   # stau_2 decays
#          BR         NDA      ID1       ID2
     2.28198326E-01    2     1000022        15   # BR(~tau_2 -> ~chi_10  tau-)
     1.47559689E-02    2     1000023        15   # BR(~tau_2 -> ~chi_20  tau-)
     1.45699507E-02    2     1000025        15   # BR(~tau_2 -> ~chi_30  tau-)
     2.47288684E-01    2     1000035        15   # BR(~tau_2 -> ~chi_40  tau-)
     9.39138055E-05    2    -1000024        16   # BR(~tau_2 -> ~chi_1-  nu_tau)
     4.95093157E-01    2    -1000037        16   # BR(~tau_2 -> ~chi_2-  nu_tau)
#
#         PDG            Width
DECAY   1000012     3.02769695E+01   # snu_eL decays
#          BR         NDA      ID1       ID2
     2.26032641E-01    2     1000022        12   # BR(~nu_eL -> ~chi_10 nu_e)
     2.08415037E-05    2     1000023        12   # BR(~nu_eL -> ~chi_20 nu_e)
     7.10114500E-04    2     1000025        12   # BR(~nu_eL -> ~chi_30 nu_e)
     2.57370174E-01    2     1000035        12   # BR(~nu_eL -> ~chi_40 nu_e)
     1.79759795E-03    2     1000024        11   # BR(~nu_eL -> ~chi_1+ e-)
     5.14068631E-01    2     1000037        11   # BR(~nu_eL -> ~chi_2+ e-)
#
#         PDG            Width
DECAY   1000014     3.02769695E+01   # snu_muL decays
#          BR         NDA      ID1       ID2
     2.26032641E-01    2     1000022        14   # BR(~nu_muL -> ~chi_10 nu_mu)
     2.08415037E-05    2     1000023        14   # BR(~nu_muL -> ~chi_20 nu_mu)
     7.10114500E-04    2     1000025        14   # BR(~nu_muL -> ~chi_30 nu_mu)
     2.57370174E-01    2     1000035        14   # BR(~nu_muL -> ~chi_40 nu_mu)
     1.79759795E-03    2     1000024        13   # BR(~nu_muL -> ~chi_1+ mu-)
     5.14068631E-01    2     1000037        13   # BR(~nu_muL -> ~chi_2+ mu-)
#
#         PDG            Width
DECAY   1000016     3.11312353E+01   # snu_tauL decays
#          BR         NDA      ID1       ID2
     2.19806185E-01    2     1000022        16   # BR(~nu_tauL -> ~chi_10 nu_tau)
     2.02670253E-05    2     1000023        16   # BR(~nu_tauL -> ~chi_20 nu_tau)
     6.90540737E-04    2     1000025        16   # BR(~nu_tauL -> ~chi_30 nu_tau)
     2.50215010E-01    2     1000035        16   # BR(~nu_tauL -> ~chi_40 nu_tau)
     2.94914110E-02    2     1000024        15   # BR(~nu_tauL -> ~chi_1+ tau-)
     4.99776586E-01    2     1000037        15   # BR(~nu_tauL -> ~chi_2+ tau-)
#
#         PDG            Width
DECAY   1000024     6.09200683E-01   # chargino1+ decays
#          BR         NDA      ID1       ID2
     1.00000000E+00    2     1000022        24   # BR(~chi_1+ -> ~chi_10  W+)
#
#         PDG            Width
DECAY   1000037     2.04212888E+01   # chargino2+ decays
#          BR         NDA      ID1       ID2
     2.53206533E-01    2     1000024        23   # BR(~chi_2+ -> ~chi_1+  Z )
     1.97868426E-04    2     1000022        24   # BR(~chi_2+ -> ~chi_10  W+)
     2.44176081E-01    2     1000023        24   # BR(~chi_2+ -> ~chi_20  W+)
     2.44127149E-01    2     1000025        24   # BR(~chi_2+ -> ~chi_30  W+)
     2.58291197E-01    2     1000024        25   # BR(~chi_2+ -> ~chi_1+  h )
     1.17160420E-06    2     1000022        37   # BR(~chi_2+ -> ~chi_10  H+)
#
#         PDG            Width
DECAY   1000022     0.00000000E+00   # neutralino1 decays
#
#         PDG            Width
DECAY   1000023     6.36207025E-01   # neutralino2 decays
#          BR         NDA      ID1       ID2
     5.40222656E-01    2     1000022        23   # BR(~chi_20 -> ~chi_10   Z )
     4.59777344E-01    2     1000022        25   # BR(~chi_20 -> ~chi_10   h )
#
#         PDG            Width
DECAY   1000025     6.39246388E-01   # neutralino3 decays
#          BR         NDA      ID1       ID2
     4.50352411E-01    2     1000022        23   # BR(~chi_30 -> ~chi_10   Z )
     5.49647589E-01    2     1000022        25   # BR(~chi_30 -> ~chi_10   h )
#
#         PDG            Width
DECAY   1000035     2.04362957E+01   # neutralino4 decays
#          BR         NDA      ID1       ID2
     4.77540698E-05    2     1000022        23   # BR(~chi_40 -> ~chi_10   Z )
     7.27247265E-02    2     1000023        23   # BR(~chi_40 -> ~chi_20   Z )
     1.79768020E-01    2     1000025        23   # BR(~chi_40 -> ~chi_30   Z )
     2.44806507E-01    2     1000024       -24   # BR(~chi_40 -> ~chi_1+   W-)
     2.44806507E-01    2    -1000024        24   # BR(~chi_40 -> ~chi_1-   W+)
     1.51038728E-04    2     1000022        25   # BR(~chi_40 -> ~chi_10   h )
     1.09496899E-06    2     1000022        35   # BR(~chi_40 -> ~chi_10   H )
     1.34469039E-07    2     1000022        36   # BR(~chi_40 -> ~chi_10   A )
     1.84792209E-01    2     1000023        25   # BR(~chi_40 -> ~chi_20   h )
     7.29020071E-02    2     1000025        25   # BR(~chi_40 -> ~chi_30   h )
#
#         PDG            Width
DECAY        25     4.03706299E-03   # h decays
#          BR         NDA      ID1       ID2
     6.13326037E-01    2           5        -5   # BR(h -> b       bb     )
     6.41156772E-02    2         -15        15   # BR(h -> tau+    tau-   )
     2.26993934E-04    2         -13        13   # BR(h -> mu+     mu-    )
     4.81404957E-04    2           3        -3   # BR(h -> s       sb     )
     2.08604758E-02    2           4        -4   # BR(h -> c       cb     )
     6.71853209E-02    2          21        21   # BR(h -> g       g      )
     2.30409725E-03    2          22        22   # BR(h -> gam     gam    )
     1.46428023E-03    2          22        23   # BR(h -> Z       gam    )
     2.05594720E-01    2          24       -24   # BR(h -> W+      W-     )
     2.43888965E-02    2          23        23   # BR(h -> Z       Z      )
     5.20968808E-05    2     1000022   1000022   # BR(h -> ~chi_10 ~chi_10)
#
#         PDG            Width
DECAY        35     8.10131474E+00   # H decays
#          BR         NDA      ID1       ID2
     3.98370241E-01    2           5        -5   # BR(H -> b       bb     )
     6.88043293E-02    2         -15        15   # BR(H -> tau+    tau-   )
     2.43297573E-04    2         -13        13   # BR(H -> mu+     mu-    )
     2.98245589E-04    2           3        -3   # BR(H -> s       sb     )
     1.66650871E-06    2           4        -4   # BR(H -> c       cb     )
     1.66497418E-01    2           6        -6   # BR(H -> t       tb     )
     5.53075569E-05    2          21        21   # BR(H -> g       g      )
     2.68765295E-07    2          22        22   # BR(H -> gam     gam    )
     9.82415469E-08    2          23        22   # BR(H -> Z       gam    )
     7.62488393E-05    2          24       -24   # BR(H -> W+      W-     )
     3.80761571E-05    2          23        23   # BR(H -> Z       Z      )
     2.84528151E-04    2          25        25   # BR(H -> h       h      )
     1.04048568E-23    2          36        36   # BR(H -> A       A      )
     3.79645850E-19    2          23        36   # BR(H -> Z       A      )
     1.97564614E-03    2     1000024  -1000024   # BR(H -> ~chi_1+ ~chi_1-)
     1.78298207E-03    2     1000022   1000022   # BR(H -> ~chi_10 ~chi_10)
     3.94875545E-05    2     1000023   1000023   # BR(H -> ~chi_20 ~chi_20)
     5.44366267E-04    2     1000025   1000025   # BR(H -> ~chi_30 ~chi_30)
     2.16497035E-01    2     1000022   1000023   # BR(H -> ~chi_10 ~chi_20)
     1.43977982E-01    2     1000022   1000025   # BR(H -> ~chi_10 ~chi_30)
     5.12775300E-04    2     1000023   1000025   # BR(H -> ~chi_20 ~chi_30)
#
#         PDG            Width
DECAY        36     8.11765080E+00   # A decays
#          BR         NDA      ID1       ID2
     3.97703377E-01    2           5        -5   # BR(A -> b       bb     )
     6.86679117E-02    2         -15        15   # BR(A -> tau+    tau-   )
     2.42814851E-04    2         -13        13   # BR(A -> mu+     mu-    )
     2.97871267E-04    2           3        -3   # BR(A -> s       sb     )
     1.66999019E-06    2           4        -4   # BR(A -> c       cb     )
     1.66753190E-01    2           6        -6   # BR(A -> t       tb     )
     1.65054028E-04    2          21        21   # BR(A -> g       g      )
     5.74600792E-07    2          22        22   # BR(A -> gam     gam    )
     1.99805052E-07    2          23        22   # BR(A -> Z       gam    )
     7.58093193E-05    2          23        25   # BR(A -> Z       h      )
     3.22882694E-03    2     1000024  -1000024   # BR(A -> ~chi_1+ ~chi_1-)
     1.81579713E-03    2     1000022   1000022   # BR(A -> ~chi_10 ~chi_10)
     4.63838983E-05    2     1000023   1000023   # BR(A -> ~chi_20 ~chi_20)
     1.50050526E-03    2     1000025   1000025   # BR(A -> ~chi_30 ~chi_30)
     1.45748621E-01    2     1000022   1000023   # BR(A -> ~chi_10 ~chi_20)
     2.13605036E-01    2     1000022   1000025   # BR(A -> ~chi_10 ~chi_30)
     1.46357380E-04    2     1000023   1000025   # BR(A -> ~chi_20 ~chi_30)
#
#         PDG            Width
DECAY        37     8.06413105E+00   # H+ decays
#          BR         NDA      ID1       ID2
     6.38468826E-04    2           4        -5   # BR(H+ -> c       bb     )
     6.91494241E-02    2         -15        16   # BR(H+ -> tau+    nu_tau )
     2.44517514E-04    2         -13        14   # BR(H+ -> mu+     nu_mu  )
     4.08617926E-06    2           2        -5   # BR(H+ -> u       bb     )
     1.43476272E-05    2           2        -3   # BR(H+ -> u       sb     )
     2.96708110E-04    2           4        -3   # BR(H+ -> c       sb     )
     5.63410044E-01    2           6        -5   # BR(H+ -> t       bb     )
     7.64469766E-05    2          24        25   # BR(H+ -> W+      h      )
     2.85716511E-13    2          24        36   # BR(H+ -> W+      A      )
     3.65256123E-01    2     1000024   1000022   # BR(H+ -> ~chi_1+ ~chi_10)
     8.76982319E-04    2     1000024   1000023   # BR(H+ -> ~chi_1+ ~chi_20)
     3.28512085E-05    2     1000024   1000025   # BR(H+ -> ~chi_1+ ~chi_30)
