#
#                              ======================
#                              | THE SUSYHIT OUTPUT |
#                              ======================
#
#
#              ------------------------------------------------------
#              |     This is the output of the SUSY-HIT package     |
#              |  created by A.Djouadi, M.Muehlleitner and M.Spira. |
#              |  In case of problems with SUSY-HIT email to        |
#              |           margarete.muehlleitner@cern.ch           |
#              |           michael.spira@psi.ch                     |
#              |           abdelhak.djouadi@cern.ch                 |
#              ------------------------------------------------------
#
#              ------------------------------------------------------
#              |  SUSY Les Houches Accord - MSSM Spectrum + Decays  |
#              |              based on the decay programs           |
#              |                                                    |
#              |                     SDECAY 1.3b                    |
#              |                                                    |
#              |  Authors: M.Muhlleitner, A.Djouadi and Y.Mambrini  |
#              |  Ref.:    Comput.Phys.Commun.168(2005)46           |
#              |           [hep-ph/0311167]                         |
#              |                                                    |
#              |                     HDECAY 3.4                     |
#              |                                                    |
#              |  By: A.Djouadi,J.Kalinowski,M.Muhlleitner,M.Spira  |
#              |  Ref.:    Comput.Phys.Commun.108(1998)56           |
#              |           [hep-ph/9704448]                         |
#              |                                                    |
#              |                                                    |
#              |  If not stated otherwise all DRbar couplings and   |
#              |  soft SUSY breaking masses are given at the scale  |
#              |  Q=  0.50006895E+04
#              |                                                    |
#              ------------------------------------------------------
#
#
BLOCK DCINFO  # Decay Program information
     1   SDECAY/HDECAY # decay calculator
     2   1.3b  /3.4    # version number
#
BLOCK SPINFO  # Spectrum calculator information
     1    SOFTSUSY    # spectrum calculator                
     2    3.4.0       # version number                     
#
BLOCK MODSEL  # Model selection
     1     0   #  nonUniversal                                     
#
BLOCK SMINPUTS  # Standard Model inputs
         1     1.25778332E+02   # alpha_em^-1(M_Z)^MSbar
         2     1.16570000E-05   # G_F [GeV^-2]
         3     1.17200002E-01   # alpha_S(M_Z)^MSbar
         4     9.11876000E+01   # M_Z pole mass
         5     4.25000000E+00   # mb(mb)^MSbar
         6     1.72500000E+02   # mt pole mass
         7     1.77682000E+00   # mtau pole mass
#
BLOCK MINPAR  # Input parameters - minimal models
         3     1.00000000E+01   # tanb                
#
BLOCK EXTPAR  # Input parameters - non-minimal models
         0    -1.00000000E+00   # Set                 
         1     6.00000000E+01   # M_1(MX)             
         2     3.00000000E+03   # M_2(MX)             
         3     9.46046000E+02   # M_3(MX)             
        11     5.00000000E+03   # At(MX)              
        12     5.00000000E+03   # Ab(MX)              
        13     0.00000000E+00   # Atau(MX)            
        23    -1.93773600E+03   # mu(MX)              
        26     3.00000000E+03   # mA(pole)            
        31     5.00000000E+03   # meL(MX)             
        32     5.00000000E+03   # mmuL(MX)            
        33     5.00000000E+03   # mtauL(MX)           
        34     5.00000000E+03   # meR(MX)             
        35     5.00000000E+03   # mmuR(MX)            
        36     5.00000000E+03   # mtauR(MX)           
        41     5.00000000E+03   # mqL1(MX)            
        42     5.00000000E+03   # mqL2(MX)            
        43     5.00000000E+03   # mqL3(MX)            
        44     5.00000000E+03   # muR(MX)             
        45     5.00000000E+03   # mcR(MX)             
        46     5.00000000E+03   # mtR(MX)             
        47     5.00000000E+03   # mdR(MX)             
        48     5.00000000E+03   # msR(MX)             
        49     5.00000000E+03   # mbR(MX)             
#
BLOCK MASS  # Mass Spectrum
# PDG code           mass       particle
        24     8.00954152E+01   # W+
        25     1.24460577E+02   # h
        35     3.00007578E+03   # H
        36     2.99999995E+03   # A
        37     3.00087420E+03   # H+
         5     4.87878001E+00   # b-quark pole mass calculated from mb(mb)_Msbar
   1000001     5.06464350E+03   # ~d_L
   2000001     5.04685494E+03   # ~d_R
   1000002     5.06416687E+03   # ~u_L
   2000002     5.04658619E+03   # ~u_R
   1000003     5.06464350E+03   # ~s_L
   2000003     5.04685494E+03   # ~s_R
   1000004     5.06416687E+03   # ~c_L
   2000004     5.04658619E+03   # ~c_R
   1000005     5.01184300E+03   # ~b_1
   2000005     5.04619001E+03   # ~b_2
   1000006     4.90351108E+03   # ~t_1
   2000006     5.06001353E+03   # ~t_2
   1000011     5.01903573E+03   # ~e_L
   2000011     5.00590163E+03   # ~e_R
   1000012     5.01808747E+03   # ~nu_eL
   1000013     5.01903573E+03   # ~mu_L
   2000013     5.00590163E+03   # ~mu_R
   1000014     5.01808747E+03   # ~nu_muL
   1000015     5.00405703E+03   # ~tau_1
   2000015     5.01933513E+03   # ~tau_2
   1000016     5.01755918E+03   # ~nu_tauL
   1000021     1.20000038E+03   # ~g
   1000022     6.02988549E+01   # ~chi_10
   1000023     1.99938062E+03   # ~chi_20
   1000025    -2.00239879E+03   # ~chi_30
   1000035     3.07450308E+03   # ~chi_40
   1000024     2.00000003E+03   # ~chi_1+
   1000037     3.07467105E+03   # ~chi_2+
#
BLOCK NMIX  # Neutralino Mixing Matrix
  1  1     9.99749366E-01   # N_11
  1  2     1.11602949E-04   # N_12
  1  3    -2.23247162E-02   # N_13
  1  4     1.67305193E-03   # N_14
  2  1     1.45942100E-02   # N_21
  2  2     4.52931524E-02   # N_22
  2  3     7.06689843E-01   # N_23
  2  4     7.05921388E-01   # N_24
  3  1    -1.69672624E-02   # N_31
  3  2     1.19433536E-02   # N_32
  3  3    -7.06777596E-01   # N_33
  3  4     7.07131458E-01   # N_34
  4  1    -5.70573039E-04   # N_41
  4  2     9.98902335E-01   # N_42
  4  3    -2.35903188E-02   # N_43
  4  4    -4.04635281E-02   # N_44
#
BLOCK UMIX  # Chargino Mixing Matrix U
  1  1     3.32921498E-02   # U_11
  1  2     9.99445663E-01   # U_12
  2  1    -9.99445663E-01   # U_21
  2  2     3.32921498E-02   # U_22
#
BLOCK VMIX  # Chargino Mixing Matrix V
  1  1     5.71554046E-02   # V_11
  1  2    -9.98365294E-01   # V_12
  2  1    -9.98365294E-01   # V_21
  2  2    -5.71554046E-02   # V_22
#
BLOCK STOPMIX  # Stop Mixing Matrix
  1  1    -5.19137752E-01   # cos(theta_t)
  1  2     8.54690584E-01   # sin(theta_t)
  2  1    -8.54690584E-01   # -sin(theta_t)
  2  2    -5.19137752E-01   # cos(theta_t)
#
BLOCK SBOTMIX  # Sbottom Mixing Matrix
  1  1     9.90599273E-01   # cos(theta_b)
  1  2    -1.36795761E-01   # sin(theta_b)
  2  1     1.36795761E-01   # -sin(theta_b)
  2  2     9.90599273E-01   # cos(theta_b)
#
BLOCK STAUMIX  # Stau Mixing Matrix
  1  1    -2.18674486E-01   # cos(theta_tau)
  1  2     9.75797863E-01   # sin(theta_tau)
  2  1    -9.75797863E-01   # -sin(theta_tau)
  2  2    -2.18674486E-01   # cos(theta_tau)
#
BLOCK ALPHA  # Higgs mixing
          -1.05420564E-01   # Mixing angle in the neutral Higgs boson sector
#
BLOCK HMIX Q=  5.00068946E+03  # DRbar Higgs Parameters
         1    -1.97253266E+03   # mu(Q)MSSM           
         2     9.47385770E+00   # tan                 
         3     2.42106001E+02   # higgs               
         4     8.31875399E+06   # mA^2(Q)MSSM         
#
BLOCK GAUGE Q=  5.00068946E+03  # The gauge couplings
     1     3.70649452E-01   # gprime(Q) DRbar
     2     6.31802090E-01   # g(Q) DRbar
     3     1.00595792E+00   # g3(Q) DRbar
#
BLOCK AU Q=  5.00068946E+03  # The trilinear couplings
  1  1     5.00000001E+03   # A_u(Q) DRbar
  2  2     5.00000001E+03   # A_c(Q) DRbar
  3  3     5.00000001E+03   # A_t(Q) DRbar
#
BLOCK AD Q=  5.00068946E+03  # The trilinear couplings
  1  1     5.00000000E+03   # A_d(Q) DRbar
  2  2     5.00000000E+03   # A_s(Q) DRbar
  3  3     5.00000001E+03   # A_b(Q) DRbar
#
BLOCK AE Q=  5.00068946E+03  # The trilinear couplings
  1  1     0.00000000E+00   # A_e(Q) DRbar
  2  2     5.07128984E-08   # A_mu(Q) DRbar
  3  3     4.98686285E-08   # A_tau(Q) DRbar
#
BLOCK Yu Q=  5.00068946E+03  # The Yukawa couplings
  1  1     0.00000000E+00   # y_u(Q) DRbar
  2  2     0.00000000E+00   # y_c(Q) DRbar
  3  3     8.15210469E-01   # y_t(Q) DRbar
#
BLOCK Yd Q=  5.00068946E+03  # The Yukawa couplings
  1  1     0.00000000E+00   # y_d(Q) DRbar
  2  2     0.00000000E+00   # y_s(Q) DRbar
  3  3     1.30563553E-01   # y_b(Q) DRbar
#
BLOCK Ye Q=  5.00068946E+03  # The Yukawa couplings
  1  1     0.00000000E+00   # y_e(Q) DRbar
  2  2     0.00000000E+00   # y_mu(Q) DRbar
  3  3     9.64676275E-02   # y_tau(Q) DRbar
#
BLOCK MSOFT Q=  5.00068946E+03  # The soft SUSY breaking masses at the scale Q
         1     6.00000000E+01   # M_1(Q)              
         2     3.00000000E+03   # M_2(Q)              
         3     9.46046000E+02   # M_3(Q)              
        21     4.75137423E+06   # mH1^2(Q)            
        22    -3.36388122E+06   # mH2^2(Q)            
        31     5.00000000E+03   # meL(Q)              
        32     5.00000000E+03   # mmuL(Q)             
        33     5.00000000E+03   # mtauL(Q)            
        34     5.00000000E+03   # meR(Q)              
        35     5.00000000E+03   # mmuR(Q)             
        36     5.00000000E+03   # mtauR(Q)            
        41     5.00000000E+03   # mqL1(Q)             
        42     5.00000000E+03   # mqL2(Q)             
        43     5.00000000E+03   # mqL3(Q)             
        44     5.00000000E+03   # muR(Q)              
        45     5.00000000E+03   # mcR(Q)              
        46     5.00000000E+03   # mtR(Q)              
        47     5.00000000E+03   # mdR(Q)              
        48     5.00000000E+03   # msR(Q)              
        49     5.00000000E+03   # mbR(Q)              
#
#
#
#                             =================
#                             |The decay table|
#                             =================
#
# - The QCD corrections to the decays gluino -> squark  + quark
#                                     squark -> gaugino + quark_prime
#                                     squark -> squark_prime + Higgs
#                                     squark -> gluino  + quark
#   are included.
#
# - The multi-body decays for the inos, stops and sbottoms are included.
#
# - The loop induced decays for the gluino, neutralinos and stops
#   are included.
#
# - The SUSY decays of the top quark are included.
#
#
#         PDG            Width
DECAY         6     1.39882261E+00   # top decays
#          BR         NDA      ID1       ID2
     1.00000000E+00    2           5        24   # BR(t ->  b    W+)
#
#         PDG            Width
DECAY   1000021     2.16383028E-05   # gluino decays
#          BR         NDA      ID1       ID2
     1.50072033E-05    2     1000022        21   # BR(~g -> ~chi_10 g)
#           BR         NDA      ID1       ID2       ID3
     8.04400660E-02    3     1000022         1        -1   # BR(~g -> ~chi_10 d  db)
     2.74192114E-01    3     1000022         2        -2   # BR(~g -> ~chi_10 u  ub)
     8.04400660E-02    3     1000022         3        -3   # BR(~g -> ~chi_10 s  sb)
     2.74192114E-01    3     1000022         4        -4   # BR(~g -> ~chi_10 c  cb)
     8.13313927E-02    3     1000022         5        -5   # BR(~g -> ~chi_10 b  bb)
     2.09389240E-01    3     1000022         6        -6   # BR(~g -> ~chi_10 t  tb)
#
#         PDG            Width
DECAY   1000006     3.77489392E+02   # stop1 decays
#          BR         NDA      ID1       ID2
     2.30381849E-02    2     1000022         6   # BR(~t_1 -> ~chi_10 t )
     6.01145507E-02    2     1000023         6   # BR(~t_1 -> ~chi_20 t )
     5.76400580E-02    2     1000025         6   # BR(~t_1 -> ~chi_30 t )
     6.24908154E-03    2     1000035         6   # BR(~t_1 -> ~chi_40 t )
     8.45784185E-02    2     1000024         5   # BR(~t_1 -> ~chi_1+ b )
     1.23800632E-02    2     1000037         5   # BR(~t_1 -> ~chi_2+ b )
     7.55999643E-01    2     1000021         6   # BR(~t_1 -> ~g      t )
#
#         PDG            Width
DECAY   2000006     3.87951868E+02   # stop2 decays
#          BR         NDA      ID1       ID2
     9.48831049E-03    2     1000022         6   # BR(~t_2 -> ~chi_10 t )
     6.17067957E-02    2     1000023         6   # BR(~t_2 -> ~chi_20 t )
     6.43671423E-02    2     1000025         6   # BR(~t_2 -> ~chi_30 t )
     1.35446420E-02    2     1000035         6   # BR(~t_2 -> ~chi_40 t )
     4.01210339E-02    2     1000024         5   # BR(~t_2 -> ~chi_1+ b )
     2.67674781E-02    2     1000037         5   # BR(~t_2 -> ~chi_2+ b )
     7.80537036E-01    2     1000021         6   # BR(~t_2 -> ~g      t )
     7.30175710E-04    2     1000006        25   # BR(~t_2 -> ~t_1    h )
     2.73738556E-03    2     1000006        23   # BR(~t_2 -> ~t_1    Z )
#
#         PDG            Width
DECAY   1000005     3.67703156E+02   # sbottom1 decays
#          BR         NDA      ID1       ID2
     2.17466879E-03    2     1000022         5   # BR(~b_1 -> ~chi_10 b )
     1.79292893E-03    2     1000023         5   # BR(~b_1 -> ~chi_20 b )
     1.61016784E-03    2     1000025         5   # BR(~b_1 -> ~chi_30 b )
     2.00325752E-02    2     1000035         5   # BR(~b_1 -> ~chi_40 b )
     1.25665339E-01    2    -1000024         6   # BR(~b_1 -> ~chi_1- t )
     4.05067336E-02    2    -1000037         6   # BR(~b_1 -> ~chi_2- t )
     8.06743914E-01    2     1000021         5   # BR(~b_1 -> ~g      b )
     1.47367265E-03    2     1000006       -24   # BR(~b_1 -> ~t_1    W-)
#
#         PDG            Width
DECAY   2000005     3.05659178E+02   # sbottom2 decays
#          BR         NDA      ID1       ID2
     9.53432679E-03    2     1000022         5   # BR(~b_2 -> ~chi_10 b )
     1.91656972E-03    2     1000023         5   # BR(~b_2 -> ~chi_20 b )
     2.06476135E-03    2     1000025         5   # BR(~b_2 -> ~chi_30 b )
     5.11069142E-04    2     1000035         5   # BR(~b_2 -> ~chi_40 b )
     6.81584620E-03    2    -1000024         6   # BR(~b_2 -> ~chi_1- t )
     1.03206235E-03    2    -1000037         6   # BR(~b_2 -> ~chi_2- t )
     9.77983385E-01    2     1000021         5   # BR(~b_2 -> ~g      b )
     1.41979277E-04    2     1000006       -24   # BR(~b_2 -> ~t_1    W-)
#
#         PDG            Width
DECAY   1000002     3.24349037E+02   # sup_L decays
#          BR         NDA      ID1       ID2
     2.30373938E-03    2     1000022         2   # BR(~u_L -> ~chi_10 u)
     9.94781536E-05    2     1000023         2   # BR(~u_L -> ~chi_20 u)
     3.18903803E-06    2     1000025         2   # BR(~u_L -> ~chi_30 u)
     2.39913367E-02    2     1000035         2   # BR(~u_L -> ~chi_40 u)
     2.80306488E-04    2     1000024         1   # BR(~u_L -> ~chi_1+ d)
     4.79357202E-02    2     1000037         1   # BR(~u_L -> ~chi_2+ d)
     9.25386230E-01    2     1000021         2   # BR(~u_L -> ~g      u)
#
#         PDG            Width
DECAY   2000002     3.10762232E+02   # sup_R decays
#          BR         NDA      ID1       ID2
     3.82935272E-02    2     1000022         2   # BR(~u_R -> ~chi_10 u)
     5.80155542E-06    2     1000023         2   # BR(~u_R -> ~chi_20 u)
     7.83281744E-06    2     1000025         2   # BR(~u_R -> ~chi_30 u)
     4.94219328E-09    2     1000035         2   # BR(~u_R -> ~chi_40 u)
     9.61692833E-01    2     1000021         2   # BR(~u_R -> ~g      u)
#
#         PDG            Width
DECAY   1000001     3.24361771E+02   # sdown_L decays
#          BR         NDA      ID1       ID2
     2.29861200E-03    2     1000022         1   # BR(~d_L -> ~chi_10 d)
     7.72995658E-05    2     1000023         1   # BR(~d_L -> ~chi_20 d)
     9.98485694E-06    2     1000025         1   # BR(~d_L -> ~chi_30 d)
     2.40086175E-02    2     1000035         1   # BR(~d_L -> ~chi_40 d)
     9.51165906E-05    2    -1000024         2   # BR(~d_L -> ~chi_1- u)
     4.80526523E-02    2    -1000037         2   # BR(~d_L -> ~chi_2- u)
     9.25457717E-01    2     1000021         1   # BR(~d_L -> ~g      d)
#
#         PDG            Width
DECAY   2000001     3.01853806E+02   # sdown_R decays
#          BR         NDA      ID1       ID2
     9.85644220E-03    2     1000022         1   # BR(~d_R -> ~chi_10 d)
     1.49333206E-06    2     1000023         1   # BR(~d_R -> ~chi_20 d)
     2.01618329E-06    2     1000025         1   # BR(~d_R -> ~chi_30 d)
     1.27223898E-09    2     1000035         1   # BR(~d_R -> ~chi_40 d)
     9.90140047E-01    2     1000021         1   # BR(~d_R -> ~g      d)
#
#         PDG            Width
DECAY   1000004     3.24349037E+02   # scharm_L decays
#          BR         NDA      ID1       ID2
     2.30373938E-03    2     1000022         4   # BR(~c_L -> ~chi_10 c)
     9.94781536E-05    2     1000023         4   # BR(~c_L -> ~chi_20 c)
     3.18903803E-06    2     1000025         4   # BR(~c_L -> ~chi_30 c)
     2.39913367E-02    2     1000035         4   # BR(~c_L -> ~chi_40 c)
     2.80306488E-04    2     1000024         3   # BR(~c_L -> ~chi_1+ s)
     4.79357202E-02    2     1000037         3   # BR(~c_L -> ~chi_2+ s)
     9.25386230E-01    2     1000021         4   # BR(~c_L -> ~g      c)
#
#         PDG            Width
DECAY   2000004     3.10762232E+02   # scharm_R decays
#          BR         NDA      ID1       ID2
     3.82935272E-02    2     1000022         4   # BR(~c_R -> ~chi_10 c)
     5.80155542E-06    2     1000023         4   # BR(~c_R -> ~chi_20 c)
     7.83281744E-06    2     1000025         4   # BR(~c_R -> ~chi_30 c)
     4.94219328E-09    2     1000035         4   # BR(~c_R -> ~chi_40 c)
     9.61692833E-01    2     1000021         4   # BR(~c_R -> ~g      c)
#
#         PDG            Width
DECAY   1000003     3.24361771E+02   # sstrange_L decays
#          BR         NDA      ID1       ID2
     2.29861200E-03    2     1000022         3   # BR(~s_L -> ~chi_10 s)
     7.72995658E-05    2     1000023         3   # BR(~s_L -> ~chi_20 s)
     9.98485694E-06    2     1000025         3   # BR(~s_L -> ~chi_30 s)
     2.40086175E-02    2     1000035         3   # BR(~s_L -> ~chi_40 s)
     9.51165906E-05    2    -1000024         4   # BR(~s_L -> ~chi_1- c)
     4.80526523E-02    2    -1000037         4   # BR(~s_L -> ~chi_2- c)
     9.25457717E-01    2     1000021         3   # BR(~s_L -> ~g      s)
#
#         PDG            Width
DECAY   2000003     3.01853806E+02   # sstrange_R decays
#          BR         NDA      ID1       ID2
     9.85644220E-03    2     1000022         3   # BR(~s_R -> ~chi_10 s)
     1.49333206E-06    2     1000023         3   # BR(~s_R -> ~chi_20 s)
     2.01618329E-06    2     1000025         3   # BR(~s_R -> ~chi_30 s)
     1.27223898E-09    2     1000035         3   # BR(~s_R -> ~chi_40 s)
     9.90140047E-01    2     1000021         3   # BR(~s_R -> ~g      s)
#
#         PDG            Width
DECAY   1000011     3.02228484E+01   # selectron_L decays
#          BR         NDA      ID1       ID2
     2.26847463E-01    2     1000022        11   # BR(~e_L -> ~chi_10 e-)
     1.35365986E-03    2     1000023        11   # BR(~e_L -> ~chi_20 e-)
     1.84511463E-06    2     1000025        11   # BR(~e_L -> ~chi_30 e-)
     2.56642362E-01    2     1000035        11   # BR(~e_L -> ~chi_40 e-)
     1.03435851E-03    2    -1000024        12   # BR(~e_L -> ~chi_1- nu_e)
     5.14120311E-01    2    -1000037        12   # BR(~e_L -> ~chi_2- nu_e)
#
#         PDG            Width
DECAY   2000011     2.73513725E+01   # selectron_R decays
#          BR         NDA      ID1       ID2
     9.99646131E-01    2     1000022        11   # BR(~e_R -> ~chi_10 e-)
     1.50522614E-04    2     1000023        11   # BR(~e_R -> ~chi_20 e-)
     2.03219732E-04    2     1000025        11   # BR(~e_R -> ~chi_30 e-)
     1.26326170E-07    2     1000035        11   # BR(~e_R -> ~chi_40 e-)
#
#         PDG            Width
DECAY   1000013     3.02228484E+01   # smuon_L decays
#          BR         NDA      ID1       ID2
     2.26847463E-01    2     1000022        13   # BR(~mu_L -> ~chi_10 mu-)
     1.35365986E-03    2     1000023        13   # BR(~mu_L -> ~chi_20 mu-)
     1.84511463E-06    2     1000025        13   # BR(~mu_L -> ~chi_30 mu-)
     2.56642362E-01    2     1000035        13   # BR(~mu_L -> ~chi_40 mu-)
     1.03435851E-03    2    -1000024        14   # BR(~mu_L -> ~chi_1- nu_mu)
     5.14120311E-01    2    -1000037        14   # BR(~mu_L -> ~chi_2- nu_mu)
#
#         PDG            Width
DECAY   2000013     2.73513725E+01   # smuon_R decays
#          BR         NDA      ID1       ID2
     9.99646131E-01    2     1000022        13   # BR(~mu_R -> ~chi_10 mu-)
     1.50522614E-04    2     1000023        13   # BR(~mu_R -> ~chi_20 mu-)
     2.03219732E-04    2     1000025        13   # BR(~mu_R -> ~chi_30 mu-)
     1.26326170E-07    2     1000035        13   # BR(~mu_R -> ~chi_40 mu-)
#
#         PDG            Width
DECAY   1000015     2.87913362E+01   # stau_1 decays
#          BR         NDA      ID1       ID2
     9.16105058E-01    2     1000022        15   # BR(~tau_1 -> ~chi_10  tau-)
     1.27188813E-02    2     1000023        15   # BR(~tau_1 -> ~chi_20  tau-)
     1.08271823E-02    2     1000025        15   # BR(~tau_1 -> ~chi_30  tau-)
     1.21777395E-02    2     1000035        15   # BR(~tau_1 -> ~chi_40  tau-)
     2.37726983E-02    2    -1000024        16   # BR(~tau_1 -> ~chi_1-  nu_tau)
     2.43984405E-02    2    -1000037        16   # BR(~tau_1 -> ~chi_2-  nu_tau)
#
#         PDG            Width
DECAY   2000015     3.07346006E+01   # stau_2 decays
#          BR         NDA      ID1       ID2
     2.54304511E-01    2     1000022        15   # BR(~tau_2 -> ~chi_10  tau-)
     1.08650972E-02    2     1000023        15   # BR(~tau_2 -> ~chi_20  tau-)
     1.13445392E-02    2     1000025        15   # BR(~tau_2 -> ~chi_30  tau-)
     2.40904499E-01    2     1000035        15   # BR(~tau_2 -> ~chi_40  tau-)
     7.16749039E-07    2    -1000024        16   # BR(~tau_2 -> ~chi_1-  nu_tau)
     4.82580638E-01    2    -1000037        16   # BR(~tau_2 -> ~chi_2-  nu_tau)
#
#         PDG            Width
DECAY   1000012     3.02238627E+01   # snu_eL decays
#          BR         NDA      ID1       ID2
     2.26624410E-01    2     1000022        12   # BR(~nu_eL -> ~chi_10 nu_e)
     6.29470301E-04    2     1000023        12   # BR(~nu_eL -> ~chi_20 nu_e)
     2.23452411E-04    2     1000025        12   # BR(~nu_eL -> ~chi_30 nu_e)
     2.56812776E-01    2     1000035        12   # BR(~nu_eL -> ~chi_40 nu_e)
     3.04749787E-03    2     1000024        11   # BR(~nu_eL -> ~chi_1+ e-)
     5.12662393E-01    2     1000037        11   # BR(~nu_eL -> ~chi_2+ e-)
#
#         PDG            Width
DECAY   1000014     3.02238627E+01   # snu_muL decays
#          BR         NDA      ID1       ID2
     2.26624410E-01    2     1000022        14   # BR(~nu_muL -> ~chi_10 nu_mu)
     6.29470301E-04    2     1000023        14   # BR(~nu_muL -> ~chi_20 nu_mu)
     2.23452411E-04    2     1000025        14   # BR(~nu_muL -> ~chi_30 nu_mu)
     2.56812776E-01    2     1000035        14   # BR(~nu_muL -> ~chi_40 nu_mu)
     3.04749787E-03    2     1000024        13   # BR(~nu_muL -> ~chi_1+ mu-)
     5.12662393E-01    2     1000037        13   # BR(~nu_muL -> ~chi_2+ mu-)
#
#         PDG            Width
DECAY   1000016     3.08717061E+01   # snu_tauL decays
#          BR         NDA      ID1       ID2
     2.21845321E-01    2     1000022        16   # BR(~nu_tauL -> ~chi_10 nu_tau)
     6.16147001E-04    2     1000023        16   # BR(~nu_tauL -> ~chi_20 nu_tau)
     2.18722779E-04    2     1000025        16   # BR(~nu_tauL -> ~chi_30 nu_tau)
     2.51333456E-01    2     1000035        16   # BR(~nu_tauL -> ~chi_40 nu_tau)
     2.42529377E-02    2     1000024        15   # BR(~nu_tauL -> ~chi_1+ tau-)
     5.01733415E-01    2     1000037        15   # BR(~nu_tauL -> ~chi_2+ tau-)
#
#         PDG            Width
DECAY   1000024     1.23559952E+00   # chargino1+ decays
#          BR         NDA      ID1       ID2
     1.00000000E+00    2     1000022        24   # BR(~chi_1+ -> ~chi_10  W+)
#
#         PDG            Width
DECAY   1000037     1.53712986E+01   # chargino2+ decays
#          BR         NDA      ID1       ID2
     2.51895188E-01    2     1000024        23   # BR(~chi_2+ -> ~chi_1+  Z )
     4.76732866E-04    2     1000022        24   # BR(~chi_2+ -> ~chi_10  W+)
     2.45412340E-01    2     1000023        24   # BR(~chi_2+ -> ~chi_20  W+)
     2.42800905E-01    2     1000025        24   # BR(~chi_2+ -> ~chi_30  W+)
     2.59414791E-01    2     1000024        25   # BR(~chi_2+ -> ~chi_1+  h )
     4.32285452E-08    2     1000022        37   # BR(~chi_2+ -> ~chi_10  H+)
#
#         PDG            Width
DECAY   1000022     0.00000000E+00   # neutralino1 decays
#
#         PDG            Width
DECAY   1000023     1.30122617E+00   # neutralino2 decays
#          BR         NDA      ID1       ID2
     5.65525392E-01    2     1000022        23   # BR(~chi_20 -> ~chi_10   Z )
     4.34474608E-01    2     1000022        25   # BR(~chi_20 -> ~chi_10   h )
#
#         PDG            Width
DECAY   1000025     1.31750824E+00   # neutralino3 decays
#          BR         NDA      ID1       ID2
     4.15337570E-01    2     1000022        23   # BR(~chi_30 -> ~chi_10   Z )
     5.84662430E-01    2     1000022        25   # BR(~chi_30 -> ~chi_10   h )
#
#         PDG            Width
DECAY   1000035     1.53246737E+01   # neutralino4 decays
#          BR         NDA      ID1       ID2
     2.14766165E-04    2     1000022        23   # BR(~chi_40 -> ~chi_10   Z )
     1.67148645E-02    2     1000023        23   # BR(~chi_40 -> ~chi_20   Z )
     2.35838644E-01    2     1000025        23   # BR(~chi_40 -> ~chi_30   Z )
     2.43605109E-01    2     1000024       -24   # BR(~chi_40 -> ~chi_1+   W-)
     2.43605109E-01    2    -1000024        24   # BR(~chi_40 -> ~chi_1-   W+)
     2.82142672E-04    2     1000022        25   # BR(~chi_40 -> ~chi_10   h )
     3.23362066E-08    2     1000022        35   # BR(~chi_40 -> ~chi_10   H )
     1.24572037E-08    2     1000022        36   # BR(~chi_40 -> ~chi_10   A )
     2.43282144E-01    2     1000023        25   # BR(~chi_40 -> ~chi_20   h )
     1.64571748E-02    2     1000025        25   # BR(~chi_40 -> ~chi_30   h )
#
#         PDG            Width
DECAY        25     4.01321087E-03   # h decays
#          BR         NDA      ID1       ID2
     6.12782455E-01    2           5        -5   # BR(h -> b       bb     )
     6.44561331E-02    2         -15        15   # BR(h -> tau+    tau-   )
     2.28199541E-04    2         -13        13   # BR(h -> mu+     mu-    )
     4.84007330E-04    2           3        -3   # BR(h -> s       sb     )
     2.09765231E-02    2           4        -4   # BR(h -> c       cb     )
     6.74899115E-02    2          21        21   # BR(h -> g       g      )
     2.31355997E-03    2          22        22   # BR(h -> gam     gam    )
     1.46523673E-03    2          22        23   # BR(h -> Z       gam    )
     2.05432944E-01    2          24       -24   # BR(h -> W+      W-     )
     2.43522423E-02    2          23        23   # BR(h -> Z       Z      )
     1.87869089E-05    2     1000022   1000022   # BR(h -> ~chi_10 ~chi_10)
#
#         PDG            Width
DECAY        35     6.34027838E+00   # H decays
#          BR         NDA      ID1       ID2
     5.18239292E-01    2           5        -5   # BR(H -> b       bb     )
     8.79431403E-02    2         -15        15   # BR(H -> tau+    tau-   )
     3.10973930E-04    2         -13        13   # BR(H -> mu+     mu-    )
     3.81206579E-04    2           3        -3   # BR(H -> s       sb     )
     2.12836981E-06    2           4        -4   # BR(H -> c       cb     )
     2.12640991E-01    2           6        -6   # BR(H -> t       tb     )
     7.04960710E-05    2          21        21   # BR(H -> g       g      )
     3.98750320E-07    2          22        22   # BR(H -> gam     gam    )
     1.25506534E-07    2          23        22   # BR(H -> Z       gam    )
     9.13982616E-05    2          24       -24   # BR(H -> W+      W-     )
     4.56412881E-05    2          23        23   # BR(H -> Z       Z      )
     3.54403800E-04    2          25        25   # BR(H -> h       h      )
    -5.05251590E-23    2          36        36   # BR(H -> A       A      )
     3.27261292E-19    2          23        36   # BR(H -> Z       A      )
     5.70189226E-04    2     1000022   1000022   # BR(H -> ~chi_10 ~chi_10)
     1.04741769E-01    2     1000022   1000023   # BR(H -> ~chi_10 ~chi_20)
     7.46078455E-02    2     1000022   1000025   # BR(H -> ~chi_10 ~chi_30)
#
#         PDG            Width
DECAY        36     6.34367819E+00   # A decays
#          BR         NDA      ID1       ID2
     5.18135090E-01    2           5        -5   # BR(A -> b       bb     )
     8.78986726E-02    2         -15        15   # BR(A -> tau+    tau-   )
     3.10816254E-04    2         -13        13   # BR(A -> mu+     mu-    )
     3.81291391E-04    2           3        -3   # BR(A -> s       sb     )
     2.13630999E-06    2           4        -4   # BR(A -> c       cb     )
     2.13316527E-01    2           6        -6   # BR(A -> t       tb     )
     2.11170915E-04    2          21        21   # BR(A -> g       g      )
     4.12634977E-07    2          22        22   # BR(A -> gam     gam    )
     2.55732740E-07    2          23        22   # BR(A -> Z       gam    )
     9.10069491E-05    2          23        25   # BR(A -> Z       h      )
     5.89196392E-04    2     1000022   1000022   # BR(A -> ~chi_10 ~chi_10)
     7.55388259E-02    2     1000022   1000023   # BR(A -> ~chi_10 ~chi_20)
     1.03524598E-01    2     1000022   1000025   # BR(A -> ~chi_10 ~chi_30)
#
#         PDG            Width
DECAY        37     6.33236197E+00   # H+ decays
#          BR         NDA      ID1       ID2
     8.32726060E-04    2           4        -5   # BR(H+ -> c       bb     )
     8.80814124E-02    2         -15        16   # BR(H+ -> tau+    nu_tau )
     3.11462435E-04    2         -13        14   # BR(H+ -> mu+     nu_mu  )
     5.32941962E-06    2           2        -5   # BR(H+ -> u       bb     )
     1.82759661E-05    2           2        -3   # BR(H+ -> u       sb     )
     3.77944621E-04    2           4        -3   # BR(H+ -> c       sb     )
     7.29671301E-01    2           6        -5   # BR(H+ -> t       bb     )
     9.13078552E-05    2          24        25   # BR(H+ -> W+      h      )
     1.05996554E-13    2          24        36   # BR(H+ -> W+      A      )
     1.80610240E-01    2     1000024   1000022   # BR(H+ -> ~chi_1+ ~chi_10)
