#
#                              ======================
#                              | THE SUSYHIT OUTPUT |
#                              ======================
#
#
#              ------------------------------------------------------
#              |     This is the output of the SUSY-HIT package     |
#              |  created by A.Djouadi, M.Muehlleitner and M.Spira. |
#              |  In case of problems with SUSY-HIT email to        |
#              |           margarete.muehlleitner@cern.ch           |
#              |           michael.spira@psi.ch                     |
#              |           abdelhak.djouadi@cern.ch                 |
#              ------------------------------------------------------
#
#              ------------------------------------------------------
#              |  SUSY Les Houches Accord - MSSM Spectrum + Decays  |
#              |              based on the decay programs           |
#              |                                                    |
#              |                     SDECAY 1.3b                    |
#              |                                                    |
#              |  Authors: M.Muhlleitner, A.Djouadi and Y.Mambrini  |
#              |  Ref.:    Comput.Phys.Commun.168(2005)46           |
#              |           [hep-ph/0311167]                         |
#              |                                                    |
#              |                     HDECAY 3.4                     |
#              |                                                    |
#              |  By: A.Djouadi,J.Kalinowski,M.Muhlleitner,M.Spira  |
#              |  Ref.:    Comput.Phys.Commun.108(1998)56           |
#              |           [hep-ph/9704448]                         |
#              |                                                    |
#              |                                                    |
#              |  If not stated otherwise all DRbar couplings and   |
#              |  soft SUSY breaking masses are given at the scale  |
#              |  Q=  0.50007752E+04
#              |                                                    |
#              ------------------------------------------------------
#
#
BLOCK DCINFO  # Decay Program information
     1   SDECAY/HDECAY # decay calculator
     2   1.3b  /3.4    # version number
#
BLOCK SPINFO  # Spectrum calculator information
     1    SOFTSUSY    # spectrum calculator                
     2    3.4.0       # version number                     
#
BLOCK MODSEL  # Model selection
     1     0   #  nonUniversal                                     
#
BLOCK SMINPUTS  # Standard Model inputs
         1     1.25778332E+02   # alpha_em^-1(M_Z)^MSbar
         2     1.16570000E-05   # G_F [GeV^-2]
         3     1.17200002E-01   # alpha_S(M_Z)^MSbar
         4     9.11876000E+01   # M_Z pole mass
         5     4.25000000E+00   # mb(mb)^MSbar
         6     1.72500000E+02   # mt pole mass
         7     1.77682000E+00   # mtau pole mass
#
BLOCK MINPAR  # Input parameters - minimal models
         3     1.00000000E+01   # tanb                
#
BLOCK EXTPAR  # Input parameters - non-minimal models
         0    -1.00000000E+00   # Set                 
         1     6.00000000E+01   # M_1(MX)             
         2     3.00000000E+03   # M_2(MX)             
         3     2.33131800E+03   # M_3(MX)             
        11     5.00000000E+03   # At(MX)              
        12     5.00000000E+03   # Ab(MX)              
        13     0.00000000E+00   # Atau(MX)            
        23    -1.87265000E+02   # mu(MX)              
        26     3.00000000E+03   # mA(pole)            
        31     5.00000000E+03   # meL(MX)             
        32     5.00000000E+03   # mmuL(MX)            
        33     5.00000000E+03   # mtauL(MX)           
        34     5.00000000E+03   # meR(MX)             
        35     5.00000000E+03   # mmuR(MX)            
        36     5.00000000E+03   # mtauR(MX)           
        41     5.00000000E+03   # mqL1(MX)            
        42     5.00000000E+03   # mqL2(MX)            
        43     5.00000000E+03   # mqL3(MX)            
        44     5.00000000E+03   # muR(MX)             
        45     5.00000000E+03   # mcR(MX)             
        46     5.00000000E+03   # mtR(MX)             
        47     5.00000000E+03   # mdR(MX)             
        48     5.00000000E+03   # msR(MX)             
        49     5.00000000E+03   # mbR(MX)             
#
BLOCK MASS  # Mass Spectrum
# PDG code           mass       particle
        24     8.00911147E+01   # W+
        25     1.24801886E+02   # h
        35     3.00009115E+03   # H
        36     2.99999978E+03   # A
        37     3.00148182E+03   # H+
         5     4.87878001E+00   # b-quark pole mass calculated from mb(mb)_Msbar
   1000001     5.08413717E+03   # ~d_L
   2000001     5.06628412E+03   # ~d_R
   1000002     5.08366527E+03   # ~u_L
   2000002     5.06597535E+03   # ~u_R
   1000003     5.08413717E+03   # ~s_L
   2000003     5.06628412E+03   # ~s_R
   1000004     5.08366527E+03   # ~c_L
   2000004     5.06597535E+03   # ~c_R
   1000005     5.03014669E+03   # ~b_1
   2000005     5.06435173E+03   # ~b_2
   1000006     4.92250376E+03   # ~t_1
   2000006     5.07241228E+03   # ~t_2
   1000011     5.01916153E+03   # ~e_L
   2000011     5.00595994E+03   # ~e_R
   1000012     5.01820894E+03   # ~nu_eL
   1000013     5.01916153E+03   # ~mu_L
   2000013     5.00595994E+03   # ~mu_R
   1000014     5.01820894E+03   # ~nu_muL
   1000015     5.00483270E+03   # ~tau_1
   2000015     5.01862698E+03   # ~tau_2
   1000016     5.01765408E+03   # ~nu_tauL
   1000021     2.70000001E+03   # ~g
   1000022     5.87059940E+01   # ~chi_10
   1000023     2.04232895E+02   # ~chi_20
   1000025    -2.05083400E+02   # ~chi_30
   1000035     3.07430119E+03   # ~chi_40
   1000024     2.00000331E+02   # ~chi_1+
   1000037     3.07446931E+03   # ~chi_2+
#
BLOCK NMIX  # Neutralino Mixing Matrix
  1  1     9.72112525E-01   # N_11
  1  2    -5.01138088E-04   # N_12
  1  3    -2.30090203E-01   # N_13
  1  4    -4.53374622E-02   # N_14
  2  1     1.94543263E-01   # N_21
  2  2     1.71129182E-02   # N_22
  2  3     6.83258346E-01   # N_23
  2  4     7.03575227E-01   # N_24
  3  1    -1.30957970E-01   # N_31
  3  2     1.85829968E-02   # N_32
  3  3    -6.92975747E-01   # N_33
  3  4     7.08723709E-01   # N_34
  4  1    -4.08579228E-04   # N_41
  4  2     9.99680734E-01   # N_42
  4  3     1.07005661E-03   # N_43
  4  4    -2.52412148E-02   # N_44
#
BLOCK UMIX  # Chargino Mixing Matrix U
  1  1    -1.50934627E-03   # U_11
  1  2     9.99998861E-01   # U_12
  2  1    -9.99998861E-01   # U_21
  2  2    -1.50934627E-03   # U_22
#
BLOCK VMIX  # Chargino Mixing Matrix V
  1  1     3.57061992E-02   # V_11
  1  2    -9.99362330E-01   # V_12
  2  1    -9.99362330E-01   # V_21
  2  2    -3.57061992E-02   # V_22
#
BLOCK STOPMIX  # Stop Mixing Matrix
  1  1    -4.99502110E-01   # cos(theta_t)
  1  2     8.66312670E-01   # sin(theta_t)
  2  1    -8.66312670E-01   # -sin(theta_t)
  2  2    -4.99502110E-01   # cos(theta_t)
#
BLOCK SBOTMIX  # Sbottom Mixing Matrix
  1  1     9.99415257E-01   # cos(theta_b)
  1  2    -3.41927489E-02   # sin(theta_b)
  2  1     3.41927489E-02   # -sin(theta_b)
  2  2     9.99415257E-01   # cos(theta_b)
#
BLOCK STAUMIX  # Stau Mixing Matrix
  1  1    -2.21898573E-02   # cos(theta_tau)
  1  2     9.99753775E-01   # sin(theta_tau)
  2  1    -9.99753775E-01   # -sin(theta_tau)
  2  2    -2.21898573E-02   # cos(theta_tau)
#
BLOCK ALPHA  # Higgs mixing
          -1.05502246E-01   # Mixing angle in the neutral Higgs boson sector
#
BLOCK HMIX Q=  5.00077524E+03  # DRbar Higgs Parameters
         1    -1.90691068E+02   # mu(Q)MSSM           
         2     9.46807789E+00   # tan                 
         3     2.41665858E+02   # higgs               
         4     8.79024702E+06   # mA^2(Q)MSSM         
#
BLOCK GAUGE Q=  5.00077524E+03  # The gauge couplings
     1     3.71145068E-01   # gprime(Q) DRbar
     2     6.34313031E-01   # g(Q) DRbar
     3     9.94070308E-01   # g3(Q) DRbar
#
BLOCK AU Q=  5.00077524E+03  # The trilinear couplings
  1  1     5.00000002E+03   # A_u(Q) DRbar
  2  2     5.00000002E+03   # A_c(Q) DRbar
  3  3     5.00000002E+03   # A_t(Q) DRbar
#
BLOCK AD Q=  5.00077524E+03  # The trilinear couplings
  1  1     5.00000001E+03   # A_d(Q) DRbar
  2  2     5.00000001E+03   # A_s(Q) DRbar
  3  3     5.00000001E+03   # A_b(Q) DRbar
#
BLOCK AE Q=  5.00077524E+03  # The trilinear couplings
  1  1     0.00000000E+00   # A_e(Q) DRbar
  2  2     2.74201958E-07   # A_mu(Q) DRbar
  3  3     2.74235573E-07   # A_tau(Q) DRbar
#
BLOCK Yu Q=  5.00077524E+03  # The Yukawa couplings
  1  1     0.00000000E+00   # y_u(Q) DRbar
  2  2     0.00000000E+00   # y_c(Q) DRbar
  3  3     8.21921795E-01   # y_t(Q) DRbar
#
BLOCK Yd Q=  5.00077524E+03  # The Yukawa couplings
  1  1     0.00000000E+00   # y_d(Q) DRbar
  2  2     0.00000000E+00   # y_s(Q) DRbar
  3  3     1.30024585E-01   # y_b(Q) DRbar
#
BLOCK Ye Q=  5.00077524E+03  # The Yukawa couplings
  1  1     0.00000000E+00   # y_e(Q) DRbar
  2  2     0.00000000E+00   # y_mu(Q) DRbar
  3  3     9.73441384E-02   # y_tau(Q) DRbar
#
BLOCK MSOFT Q=  5.00077524E+03  # The soft SUSY breaking masses at the scale Q
         1     6.00000000E+01   # M_1(Q)              
         2     3.00000000E+03   # M_2(Q)              
         3     2.33131800E+03   # M_3(Q)              
        21     8.69796710E+06   # mH1^2(Q)            
        22     5.45693707E+05   # mH2^2(Q)            
        31     5.00000000E+03   # meL(Q)              
        32     5.00000000E+03   # mmuL(Q)             
        33     5.00000000E+03   # mtauL(Q)            
        34     5.00000000E+03   # meR(Q)              
        35     5.00000000E+03   # mmuR(Q)             
        36     5.00000000E+03   # mtauR(Q)            
        41     4.99999999E+03   # mqL1(Q)             
        42     4.99999999E+03   # mqL2(Q)             
        43     4.99999999E+03   # mqL3(Q)             
        44     4.99999999E+03   # muR(Q)              
        45     4.99999999E+03   # mcR(Q)              
        46     4.99999999E+03   # mtR(Q)              
        47     4.99999999E+03   # mdR(Q)              
        48     4.99999999E+03   # msR(Q)              
        49     4.99999999E+03   # mbR(Q)              
#
#
#
#                             =================
#                             |The decay table|
#                             =================
#
# - The QCD corrections to the decays gluino -> squark  + quark
#                                     squark -> gaugino + quark_prime
#                                     squark -> squark_prime + Higgs
#                                     squark -> gluino  + quark
#   are included.
#
# - The multi-body decays for the inos, stops and sbottoms are included.
#
# - The loop induced decays for the gluino, neutralinos and stops
#   are included.
#
# - The SUSY decays of the top quark are included.
#
#
#         PDG            Width
DECAY         6     1.41015229E+00   # top decays
#          BR         NDA      ID1       ID2
     1.00000000E+00    2           5        24   # BR(t ->  b    W+)
#
#         PDG            Width
DECAY   1000021     1.34202565E-02   # gluino decays
#          BR         NDA      ID1       ID2
     9.67476096E-06    2     1000022        21   # BR(~g -> ~chi_10 g)
     3.22146432E-03    2     1000023        21   # BR(~g -> ~chi_20 g)
     3.13445596E-03    2     1000025        21   # BR(~g -> ~chi_30 g)
#           BR         NDA      ID1       ID2       ID3
     8.10988805E-03    3     1000022         1        -1   # BR(~g -> ~chi_10 d  db)
     2.92008722E-04    3     1000023         1        -1   # BR(~g -> ~chi_20 d  db)
     1.65608585E-04    3     1000025         1        -1   # BR(~g -> ~chi_30 d  db)
     2.76063858E-02    3     1000022         2        -2   # BR(~g -> ~chi_10 u  ub)
     1.22858374E-03    3     1000023         2        -2   # BR(~g -> ~chi_20 u  ub)
     3.83853976E-04    3     1000025         2        -2   # BR(~g -> ~chi_30 u  ub)
     8.10988805E-03    3     1000022         3        -3   # BR(~g -> ~chi_10 s  sb)
     2.92008722E-04    3     1000023         3        -3   # BR(~g -> ~chi_20 s  sb)
     1.65608585E-04    3     1000025         3        -3   # BR(~g -> ~chi_30 s  sb)
     2.76063858E-02    3     1000022         4        -4   # BR(~g -> ~chi_10 c  cb)
     1.22858374E-03    3     1000023         4        -4   # BR(~g -> ~chi_20 c  cb)
     3.83853976E-04    3     1000025         4        -4   # BR(~g -> ~chi_30 c  cb)
     8.83388279E-03    3     1000022         5        -5   # BR(~g -> ~chi_10 b  bb)
     5.27914727E-03    3     1000023         5        -5   # BR(~g -> ~chi_20 b  bb)
     5.29926727E-03    3     1000025         5        -5   # BR(~g -> ~chi_30 b  bb)
     2.74664967E-02    3     1000022         6        -6   # BR(~g -> ~chi_10 t  tb)
     2.17836864E-01    3     1000023         6        -6   # BR(~g -> ~chi_20 t  tb)
     2.08251981E-01    3     1000025         6        -6   # BR(~g -> ~chi_30 t  tb)
     5.22415777E-05    3     1000024         1        -2   # BR(~g -> ~chi_1+ d  ub)
     5.22415777E-05    3    -1000024         2        -1   # BR(~g -> ~chi_1- u  db)
     5.22415777E-05    3     1000024         3        -4   # BR(~g -> ~chi_1+ s  cb)
     5.22415777E-05    3    -1000024         4        -3   # BR(~g -> ~chi_1- c  sb)
     2.22442571E-01    3     1000024         5        -6   # BR(~g -> ~chi_1+ b  tb)
     2.22442571E-01    3    -1000024         6        -5   # BR(~g -> ~chi_1- t  bb)
#
#         PDG            Width
DECAY   1000006     2.84014108E+02   # stop1 decays
#          BR         NDA      ID1       ID2
     2.75299069E-02    2     1000022         6   # BR(~t_1 -> ~chi_10 t )
     1.23065794E-01    2     1000023         6   # BR(~t_1 -> ~chi_20 t )
     1.09235227E-01    2     1000025         6   # BR(~t_1 -> ~chi_30 t )
     7.00893736E-03    2     1000035         6   # BR(~t_1 -> ~chi_40 t )
     1.72381311E-01    2     1000024         5   # BR(~t_1 -> ~chi_1+ b )
     1.39728057E-02    2     1000037         5   # BR(~t_1 -> ~chi_2+ b )
     5.46806017E-01    2     1000021         6   # BR(~t_1 -> ~g      t )
#
#         PDG            Width
DECAY   2000006     2.90246571E+02   # stop2 decays
#          BR         NDA      ID1       ID2
     1.42908036E-02    2     1000022         6   # BR(~t_2 -> ~chi_10 t )
     1.08814256E-01    2     1000023         6   # BR(~t_2 -> ~chi_20 t )
     1.25107636E-01    2     1000025         6   # BR(~t_2 -> ~chi_30 t )
     1.97631217E-02    2     1000035         6   # BR(~t_2 -> ~chi_40 t )
     6.56951242E-02    2     1000024         5   # BR(~t_2 -> ~chi_1+ b )
     3.93577447E-02    2     1000037         5   # BR(~t_2 -> ~chi_2+ b )
     6.23035133E-01    2     1000021         6   # BR(~t_2 -> ~g      t )
     9.18500536E-04    2     1000006        25   # BR(~t_2 -> ~t_1    h )
     3.01767992E-03    2     1000006        23   # BR(~t_2 -> ~t_1    Z )
#
#         PDG            Width
DECAY   1000005     2.64476257E+02   # sbottom1 decays
#          BR         NDA      ID1       ID2
     3.17079033E-03    2     1000022         5   # BR(~b_1 -> ~chi_10 b )
     2.91632646E-03    2     1000023         5   # BR(~b_1 -> ~chi_20 b )
     3.11183712E-03    2     1000025         5   # BR(~b_1 -> ~chi_30 b )
     2.90280643E-02    2     1000035         5   # BR(~b_1 -> ~chi_40 b )
     2.53671218E-01    2    -1000024         6   # BR(~b_1 -> ~chi_1- t )
     5.82742333E-02    2    -1000037         6   # BR(~b_1 -> ~chi_2- t )
     6.47834346E-01    2     1000021         5   # BR(~b_1 -> ~g      b )
     1.99318386E-03    2     1000006       -24   # BR(~b_1 -> ~t_1    W-)
#
#         PDG            Width
DECAY   2000005     1.80619034E+02   # sbottom2 decays
#          BR         NDA      ID1       ID2
     1.57798740E-02    2     1000022         5   # BR(~b_2 -> ~chi_10 b )
     5.13382874E-03    2     1000023         5   # BR(~b_2 -> ~chi_20 b )
     4.91960104E-03    2     1000025         5   # BR(~b_2 -> ~chi_30 b )
     4.00340952E-05    2     1000035         5   # BR(~b_2 -> ~chi_40 b )
     9.73321070E-03    2    -1000024         6   # BR(~b_2 -> ~chi_1- t )
     8.04048292E-05    2    -1000037         6   # BR(~b_2 -> ~chi_2- t )
     9.64298493E-01    2     1000021         5   # BR(~b_2 -> ~g      b )
     1.45540541E-05    2     1000006       -24   # BR(~b_2 -> ~t_1    W-)
#
#         PDG            Width
DECAY   1000002     2.00478280E+02   # sup_L decays
#          BR         NDA      ID1       ID2
     3.49749173E-03    2     1000022         2   # BR(~u_L -> ~chi_10 u)
     2.95751569E-04    2     1000023         2   # BR(~u_L -> ~chi_20 u)
     4.72462633E-06    2     1000025         2   # BR(~u_L -> ~chi_30 u)
     3.96927600E-02    2     1000035         2   # BR(~u_L -> ~chi_40 u)
     2.48818820E-04    2     1000024         1   # BR(~u_L -> ~chi_1+ d)
     7.93376909E-02    2     1000037         1   # BR(~u_L -> ~chi_2+ d)
     8.76922762E-01    2     1000021         2   # BR(~u_L -> ~g      u)
#
#         PDG            Width
DECAY   2000002     1.86120967E+02   # sup_R decays
#          BR         NDA      ID1       ID2
     6.03809889E-02    2     1000022         2   # BR(~u_R -> ~chi_10 u)
     2.41224684E-03    2     1000023         2   # BR(~u_R -> ~chi_20 u)
     1.09305659E-03    2     1000025         2   # BR(~u_R -> ~chi_30 u)
     4.29770042E-09    2     1000035         2   # BR(~u_R -> ~chi_40 u)
     9.36113703E-01    2     1000021         2   # BR(~u_R -> ~g      u)
#
#         PDG            Width
DECAY   1000001     2.00494418E+02   # sdown_L decays
#          BR         NDA      ID1       ID2
     3.53471640E-03    2     1000022         1   # BR(~d_L -> ~chi_10 d)
     4.23365030E-05    2     1000023         1   # BR(~d_L -> ~chi_20 d)
     1.89965587E-04    2     1000025         1   # BR(~d_L -> ~chi_30 d)
     3.97143580E-02    2     1000035         1   # BR(~d_L -> ~chi_40 d)
     4.44610976E-07    2    -1000024         2   # BR(~d_L -> ~chi_1- u)
     7.94566779E-02    2    -1000037         2   # BR(~d_L -> ~chi_2- u)
     8.77061501E-01    2     1000021         1   # BR(~d_L -> ~g      d)
#
#         PDG            Width
DECAY   2000001     1.77230690E+02   # sdown_R decays
#          BR         NDA      ID1       ID2
     1.58534453E-02    2     1000022         1   # BR(~d_R -> ~chi_10 d)
     6.33352242E-04    2     1000023         1   # BR(~d_R -> ~chi_20 d)
     2.86989635E-04    2     1000025         1   # BR(~d_R -> ~chi_30 d)
     1.12854879E-09    2     1000035         1   # BR(~d_R -> ~chi_40 d)
     9.83226212E-01    2     1000021         1   # BR(~d_R -> ~g      d)
#
#         PDG            Width
DECAY   1000004     2.00478280E+02   # scharm_L decays
#          BR         NDA      ID1       ID2
     3.49749173E-03    2     1000022         4   # BR(~c_L -> ~chi_10 c)
     2.95751569E-04    2     1000023         4   # BR(~c_L -> ~chi_20 c)
     4.72462633E-06    2     1000025         4   # BR(~c_L -> ~chi_30 c)
     3.96927600E-02    2     1000035         4   # BR(~c_L -> ~chi_40 c)
     2.48818820E-04    2     1000024         3   # BR(~c_L -> ~chi_1+ s)
     7.93376909E-02    2     1000037         3   # BR(~c_L -> ~chi_2+ s)
     8.76922762E-01    2     1000021         4   # BR(~c_L -> ~g      c)
#
#         PDG            Width
DECAY   2000004     1.86120967E+02   # scharm_R decays
#          BR         NDA      ID1       ID2
     6.03809889E-02    2     1000022         4   # BR(~c_R -> ~chi_10 c)
     2.41224684E-03    2     1000023         4   # BR(~c_R -> ~chi_20 c)
     1.09305659E-03    2     1000025         4   # BR(~c_R -> ~chi_30 c)
     4.29770042E-09    2     1000035         4   # BR(~c_R -> ~chi_40 c)
     9.36113703E-01    2     1000021         4   # BR(~c_R -> ~g      c)
#
#         PDG            Width
DECAY   1000003     2.00494418E+02   # sstrange_L decays
#          BR         NDA      ID1       ID2
     3.53471640E-03    2     1000022         3   # BR(~s_L -> ~chi_10 s)
     4.23365030E-05    2     1000023         3   # BR(~s_L -> ~chi_20 s)
     1.89965587E-04    2     1000025         3   # BR(~s_L -> ~chi_30 s)
     3.97143580E-02    2     1000035         3   # BR(~s_L -> ~chi_40 s)
     4.44610976E-07    2    -1000024         4   # BR(~s_L -> ~chi_1- c)
     7.94566779E-02    2    -1000037         4   # BR(~s_L -> ~chi_2- c)
     8.77061501E-01    2     1000021         3   # BR(~s_L -> ~g      s)
#
#         PDG            Width
DECAY   2000003     1.77230690E+02   # sstrange_R decays
#          BR         NDA      ID1       ID2
     1.58534453E-02    2     1000022         3   # BR(~s_R -> ~chi_10 s)
     6.33352242E-04    2     1000023         3   # BR(~s_R -> ~chi_20 s)
     2.86989635E-04    2     1000025         3   # BR(~s_R -> ~chi_30 s)
     1.12854879E-09    2     1000035         3   # BR(~s_R -> ~chi_40 s)
     9.83226212E-01    2     1000021         3   # BR(~s_R -> ~g      s)
#
#         PDG            Width
DECAY   1000011     3.04136053E+01   # selectron_L decays
#          BR         NDA      ID1       ID2
     2.13255106E-01    2     1000022        11   # BR(~e_L -> ~chi_10 e-)
     1.12874162E-02    2     1000023        11   # BR(~e_L -> ~chi_20 e-)
     2.21772701E-03    2     1000025        11   # BR(~e_L -> ~chi_30 e-)
     2.57576643E-01    2     1000035        11   # BR(~e_L -> ~chi_40 e-)
     2.99984074E-06    2    -1000024        12   # BR(~e_L -> ~chi_1- nu_e)
     5.15660109E-01    2    -1000037        12   # BR(~e_L -> ~chi_2- nu_e)
#
#         PDG            Width
DECAY   2000011     2.74247250E+01   # selectron_R decays
#          BR         NDA      ID1       ID2
     9.45161954E-01    2     1000022        11   # BR(~e_R -> ~chi_10 e-)
     3.77379289E-02    2     1000023        11   # BR(~e_R -> ~chi_20 e-)
     1.71000528E-02    2     1000025        11   # BR(~e_R -> ~chi_30 e-)
     6.47898998E-08    2     1000035        11   # BR(~e_R -> ~chi_40 e-)
#
#         PDG            Width
DECAY   1000013     3.04136053E+01   # smuon_L decays
#          BR         NDA      ID1       ID2
     2.13255106E-01    2     1000022        13   # BR(~mu_L -> ~chi_10 mu-)
     1.12874162E-02    2     1000023        13   # BR(~mu_L -> ~chi_20 mu-)
     2.21772701E-03    2     1000025        13   # BR(~mu_L -> ~chi_30 mu-)
     2.57576643E-01    2     1000035        13   # BR(~mu_L -> ~chi_40 mu-)
     2.99984074E-06    2    -1000024        14   # BR(~mu_L -> ~chi_1- nu_mu)
     5.15660109E-01    2    -1000037        14   # BR(~mu_L -> ~chi_2- nu_mu)
#
#         PDG            Width
DECAY   2000013     2.74247250E+01   # smuon_R decays
#          BR         NDA      ID1       ID2
     9.45161954E-01    2     1000022        13   # BR(~mu_R -> ~chi_10 mu-)
     3.77379289E-02    2     1000023        13   # BR(~mu_R -> ~chi_20 mu-)
     1.71000528E-02    2     1000025        13   # BR(~mu_R -> ~chi_30 mu-)
     6.47898998E-08    2     1000035        13   # BR(~mu_R -> ~chi_40 mu-)
#
#         PDG            Width
DECAY   1000015     2.93001049E+01   # stau_1 decays
#          BR         NDA      ID1       ID2
     8.86706500E-01    2     1000022        15   # BR(~tau_1 -> ~chi_10  tau-)
     4.98506856E-02    2     1000023        15   # BR(~tau_1 -> ~chi_20  tau-)
     3.09747511E-02    2     1000025        15   # BR(~tau_1 -> ~chi_30  tau-)
     1.33179569E-04    2     1000035        15   # BR(~tau_1 -> ~chi_40  tau-)
     3.20684123E-02    2    -1000024        16   # BR(~tau_1 -> ~chi_1-  nu_tau)
     2.66471658E-04    2    -1000037        16   # BR(~tau_1 -> ~chi_2-  nu_tau)
#
#         PDG            Width
DECAY   2000015     3.13467858E+01   # stau_2 decays
#          BR         NDA      ID1       ID2
     2.07980075E-01    2     1000022        15   # BR(~tau_2 -> ~chi_10  tau-)
     2.54116229E-02    2     1000023        15   # BR(~tau_2 -> ~chi_20  tau-)
     1.70085006E-02    2     1000025        15   # BR(~tau_2 -> ~chi_30  tau-)
     2.49692501E-01    2     1000035        15   # BR(~tau_2 -> ~chi_40  tau-)
     3.08513573E-05    2    -1000024        16   # BR(~tau_2 -> ~chi_1-  nu_tau)
     4.99876449E-01    2    -1000037        16   # BR(~tau_2 -> ~chi_2-  nu_tau)
#
#         PDG            Width
DECAY   1000012     3.04165458E+01   # snu_eL decays
#          BR         NDA      ID1       ID2
     2.13946662E-01    2     1000022        12   # BR(~nu_eL -> ~chi_10 nu_e)
     6.15618436E-03    2     1000023        12   # BR(~nu_eL -> ~chi_20 nu_e)
     5.96545579E-03    2     1000025        12   # BR(~nu_eL -> ~chi_30 nu_e)
     2.57631787E-01    2     1000035        12   # BR(~nu_eL -> ~chi_40 nu_e)
     1.67835076E-03    2     1000024        11   # BR(~nu_eL -> ~chi_1+ e-)
     5.14621560E-01    2     1000037        11   # BR(~nu_eL -> ~chi_2+ e-)
#
#         PDG            Width
DECAY   1000014     3.04165458E+01   # snu_muL decays
#          BR         NDA      ID1       ID2
     2.13946662E-01    2     1000022        14   # BR(~nu_muL -> ~chi_10 nu_mu)
     6.15618436E-03    2     1000023        14   # BR(~nu_muL -> ~chi_20 nu_mu)
     5.96545579E-03    2     1000025        14   # BR(~nu_muL -> ~chi_30 nu_mu)
     2.57631787E-01    2     1000035        14   # BR(~nu_muL -> ~chi_40 nu_mu)
     1.67835076E-03    2     1000024        13   # BR(~nu_muL -> ~chi_1+ mu-)
     5.14621560E-01    2     1000037        13   # BR(~nu_muL -> ~chi_2+ mu-)
#
#         PDG            Width
DECAY   1000016     3.13498536E+01   # snu_tauL decays
#          BR         NDA      ID1       ID2
     2.07554351E-01    2     1000022        16   # BR(~nu_tauL -> ~chi_10 nu_tau)
     5.97224549E-03    2     1000023        16   # BR(~nu_tauL -> ~chi_20 nu_tau)
     5.78721560E-03    2     1000025        16   # BR(~nu_tauL -> ~chi_30 nu_tau)
     2.49867844E-01    2     1000035        16   # BR(~nu_tauL -> ~chi_40 nu_tau)
     3.17054786E-02    2     1000024        15   # BR(~nu_tauL -> ~chi_1+ tau-)
     4.99112865E-01    2     1000037        15   # BR(~nu_tauL -> ~chi_2+ tau-)
#
#         PDG            Width
DECAY   1000024     8.35887048E-02   # chargino1+ decays
#          BR         NDA      ID1       ID2
     1.00000000E+00    2     1000022        24   # BR(~chi_1+ -> ~chi_10  W+)
#
#         PDG            Width
DECAY   1000037     2.32970588E+01   # chargino2+ decays
#          BR         NDA      ID1       ID2
     2.53775386E-01    2     1000024        23   # BR(~chi_2+ -> ~chi_1+  Z )
     7.55842679E-04    2     1000022        24   # BR(~chi_2+ -> ~chi_10  W+)
     2.44841174E-01    2     1000023        24   # BR(~chi_2+ -> ~chi_20  W+)
     2.44864534E-01    2     1000025        24   # BR(~chi_2+ -> ~chi_30  W+)
     2.55725579E-01    2     1000024        25   # BR(~chi_2+ -> ~chi_1+  h )
     3.74856523E-05    2     1000022        37   # BR(~chi_2+ -> ~chi_10  H+)
#
#         PDG            Width
DECAY   1000022     0.00000000E+00   # neutralino1 decays
#
#         PDG            Width
DECAY   1000023     6.58233290E-02   # neutralino2 decays
#          BR         NDA      ID1       ID2
     5.81906768E-01    2     1000022        23   # BR(~chi_20 -> ~chi_10   Z )
     4.18093232E-01    2     1000022        25   # BR(~chi_20 -> ~chi_10   h )
#
#         PDG            Width
DECAY   1000025     4.88129140E-02   # neutralino3 decays
#          BR         NDA      ID1       ID2
     9.02216449E-01    2     1000022        23   # BR(~chi_30 -> ~chi_10   Z )
     9.77835508E-02    2     1000022        25   # BR(~chi_30 -> ~chi_10   h )
#
#         PDG            Width
DECAY   1000035     2.32992916E+01   # neutralino4 decays
#          BR         NDA      ID1       ID2
     7.78272213E-04    2     1000022        23   # BR(~chi_40 -> ~chi_10   Z )
     1.35970442E-01    2     1000023        23   # BR(~chi_40 -> ~chi_20   Z )
     1.16844259E-01    2     1000025        23   # BR(~chi_40 -> ~chi_30   Z )
     2.45443498E-01    2     1000024       -24   # BR(~chi_40 -> ~chi_1+   W-)
     2.45443498E-01    2    -1000024        24   # BR(~chi_40 -> ~chi_1-   W+)
     1.15432738E-05    2     1000022        25   # BR(~chi_40 -> ~chi_10   h )
     3.59655180E-05    2     1000022        35   # BR(~chi_40 -> ~chi_10   H )
     3.92361957E-06    2     1000022        36   # BR(~chi_40 -> ~chi_10   A )
     1.18328635E-01    2     1000023        25   # BR(~chi_40 -> ~chi_20   h )
     1.37139963E-01    2     1000025        25   # BR(~chi_40 -> ~chi_30   h )
#
#         PDG            Width
DECAY        25     4.08484881E-03   # h decays
#          BR         NDA      ID1       ID2
     6.08675895E-01    2           5        -5   # BR(h -> b       bb     )
     6.35211716E-02    2         -15        15   # BR(h -> tau+    tau-   )
     2.24887919E-04    2         -13        13   # BR(h -> mu+     mu-    )
     4.76726852E-04    2           3        -3   # BR(h -> s       sb     )
     2.06540323E-02    2           4        -4   # BR(h -> c       cb     )
     6.68444122E-02    2          21        21   # BR(h -> g       g      )
     2.29572981E-03    2          22        22   # BR(h -> gam     gam    )
     1.48446910E-03    2          22        23   # BR(h -> Z       gam    )
     2.09623734E-01    2          24       -24   # BR(h -> W+      W-     )
     2.49768341E-02    2          23        23   # BR(h -> Z       Z      )
     1.22210637E-03    2     1000022   1000022   # BR(h -> ~chi_10 ~chi_10)
#
#         PDG            Width
DECAY        35     8.81279279E+00   # H decays
#          BR         NDA      ID1       ID2
     3.58977300E-01    2           5        -5   # BR(H -> b       bb     )
     6.31927457E-02    2         -15        15   # BR(H -> tau+    tau-   )
     2.23454568E-04    2         -13        13   # BR(H -> mu+     mu-    )
     2.73920904E-04    2           3        -3   # BR(H -> s       sb     )
     1.53362746E-06    2           4        -4   # BR(H -> c       cb     )
     1.53221540E-01    2           6        -6   # BR(H -> t       tb     )
     5.09929253E-05    2          21        21   # BR(H -> g       g      )
     1.46845682E-07    2          22        22   # BR(H -> gam     gam    )
     9.03827127E-08    2          23        22   # BR(H -> Z       gam    )
     7.52915289E-05    2          24       -24   # BR(H -> W+      W-     )
     3.75980983E-05    2          23        23   # BR(H -> Z       Z      )
     2.67303801E-04    2          25        25   # BR(H -> h       h      )
    -6.36595959E-24    2          36        36   # BR(H -> A       A      )
     1.18064538E-18    2          23        36   # BR(H -> Z       A      )
     3.48454216E-03    2     1000024  -1000024   # BR(H -> ~chi_1+ ~chi_1-)
     4.37470761E-02    2     1000022   1000022   # BR(H -> ~chi_10 ~chi_10)
     1.24672183E-02    2     1000023   1000023   # BR(H -> ~chi_20 ~chi_20)
     8.49217077E-03    2     1000025   1000025   # BR(H -> ~chi_30 ~chi_30)
     2.02474258E-01    2     1000022   1000023   # BR(H -> ~chi_10 ~chi_20)
     1.31797614E-01    2     1000022   1000025   # BR(H -> ~chi_10 ~chi_30)
     2.12152019E-02    2     1000023   1000025   # BR(H -> ~chi_20 ~chi_30)
#
#         PDG            Width
DECAY        36     8.81777627E+00   # A decays
#          BR         NDA      ID1       ID2
     3.58897393E-01    2           5        -5   # BR(A -> b       bb     )
     6.31588610E-02    2         -15        15   # BR(A -> tau+    tau-   )
     2.23334437E-04    2         -13        13   # BR(A -> mu+     mu-    )
     2.73973911E-04    2           3        -3   # BR(A -> s       sb     )
     1.53877949E-06    2           4        -4   # BR(A -> c       cb     )
     1.53651435E-01    2           6        -6   # BR(A -> t       tb     )
     1.52028784E-04    2          21        21   # BR(A -> g       g      )
     5.33956632E-07    2          22        22   # BR(A -> gam     gam    )
     1.83952353E-07    2          23        22   # BR(A -> Z       gam    )
     7.49636454E-05    2          23        25   # BR(A -> Z       h      )
     3.60963168E-03    2     1000024  -1000024   # BR(A -> ~chi_1+ ~chi_1-)
     4.02880887E-02    2     1000022   1000022   # BR(A -> ~chi_10 ~chi_10)
     8.19888504E-03    2     1000023   1000023   # BR(A -> ~chi_20 ~chi_20)
     1.33548087E-02    2     1000025   1000025   # BR(A -> ~chi_30 ~chi_30)
     1.28614530E-01    2     1000022   1000023   # BR(A -> ~chi_10 ~chi_20)
     2.08712651E-01    2     1000022   1000025   # BR(A -> ~chi_10 ~chi_30)
     2.07871590E-02    2     1000023   1000025   # BR(A -> ~chi_20 ~chi_30)
#
#         PDG            Width
DECAY        37     8.75833733E+00   # H+ decays
#          BR         NDA      ID1       ID2
     5.75218643E-04    2           4        -5   # BR(H+ -> c       bb     )
     6.36189052E-02    2         -15        16   # BR(H+ -> tau+    nu_tau )
     2.24961187E-04    2         -13        14   # BR(H+ -> mu+     nu_mu  )
     3.68137985E-06    2           2        -5   # BR(H+ -> u       bb     )
     1.31999071E-05    2           2        -3   # BR(H+ -> u       sb     )
     2.72975998E-04    2           4        -3   # BR(H+ -> c       sb     )
     5.11015429E-01    2           6        -5   # BR(H+ -> t       bb     )
     7.56330380E-05    2          24        25   # BR(H+ -> W+      h      )
     1.07272261E-12    2          24        36   # BR(H+ -> W+      A      )
     3.98172937E-01    2     1000024   1000022   # BR(H+ -> ~chi_1+ ~chi_10)
     2.17818430E-02    2     1000024   1000023   # BR(H+ -> ~chi_1+ ~chi_20)
     4.24521580E-03    2     1000024   1000025   # BR(H+ -> ~chi_1+ ~chi_30)
