#
#                              ======================
#                              | THE SUSYHIT OUTPUT |
#                              ======================
#
#
#              ------------------------------------------------------
#              |     This is the output of the SUSY-HIT package     |
#              |  created by A.Djouadi, M.Muehlleitner and M.Spira. |
#              |  In case of problems with SUSY-HIT email to        |
#              |           margarete.muehlleitner@cern.ch           |
#              |           michael.spira@psi.ch                     |
#              |           abdelhak.djouadi@cern.ch                 |
#              ------------------------------------------------------
#
#              ------------------------------------------------------
#              |  SUSY Les Houches Accord - MSSM Spectrum + Decays  |
#              |              based on the decay programs           |
#              |                                                    |
#              |                     SDECAY 1.3b                    |
#              |                                                    |
#              |  Authors: M.Muhlleitner, A.Djouadi and Y.Mambrini  |
#              |  Ref.:    Comput.Phys.Commun.168(2005)46           |
#              |           [hep-ph/0311167]                         |
#              |                                                    |
#              |                     HDECAY 3.4                     |
#              |                                                    |
#              |  By: A.Djouadi,J.Kalinowski,M.Muhlleitner,M.Spira  |
#              |  Ref.:    Comput.Phys.Commun.108(1998)56           |
#              |           [hep-ph/9704448]                         |
#              |                                                    |
#              |                                                    |
#              |  If not stated otherwise all DRbar couplings and   |
#              |  soft SUSY breaking masses are given at the scale  |
#              |  Q=  0.50007146E+04
#              |                                                    |
#              ------------------------------------------------------
#
#
BLOCK DCINFO  # Decay Program information
     1   SDECAY/HDECAY # decay calculator
     2   1.3b  /3.4    # version number
#
BLOCK SPINFO  # Spectrum calculator information
     1    SOFTSUSY    # spectrum calculator                
     2    3.4.0       # version number                     
#
BLOCK MODSEL  # Model selection
     1     0   #  nonUniversal                                     
#
BLOCK SMINPUTS  # Standard Model inputs
         1     1.25778332E+02   # alpha_em^-1(M_Z)^MSbar
         2     1.16570000E-05   # G_F [GeV^-2]
         3     1.17200002E-01   # alpha_S(M_Z)^MSbar
         4     9.11876000E+01   # M_Z pole mass
         5     4.25000000E+00   # mb(mb)^MSbar
         6     1.72500000E+02   # mt pole mass
         7     1.77682000E+00   # mtau pole mass
#
BLOCK MINPAR  # Input parameters - minimal models
         3     1.00000000E+01   # tanb                
#
BLOCK EXTPAR  # Input parameters - non-minimal models
         0    -1.00000000E+00   # Set                 
         1     6.00000000E+01   # M_1(MX)             
         2     3.00000000E+03   # M_2(MX)             
         3     9.46042000E+02   # M_3(MX)             
        11     5.00000000E+03   # At(MX)              
        12     5.00000000E+03   # Ab(MX)              
        13     0.00000000E+00   # Atau(MX)            
        23    -1.34932000E+03   # mu(MX)              
        26     3.00000000E+03   # mA(pole)            
        31     5.00000000E+03   # meL(MX)             
        32     5.00000000E+03   # mmuL(MX)            
        33     5.00000000E+03   # mtauL(MX)           
        34     5.00000000E+03   # meR(MX)             
        35     5.00000000E+03   # mmuR(MX)            
        36     5.00000000E+03   # mtauR(MX)           
        41     5.00000000E+03   # mqL1(MX)            
        42     5.00000000E+03   # mqL2(MX)            
        43     5.00000000E+03   # mqL3(MX)            
        44     5.00000000E+03   # muR(MX)             
        45     5.00000000E+03   # mcR(MX)             
        46     5.00000000E+03   # mtR(MX)             
        47     5.00000000E+03   # mdR(MX)             
        48     5.00000000E+03   # msR(MX)             
        49     5.00000000E+03   # mbR(MX)             
#
BLOCK MASS  # Mass Spectrum
# PDG code           mass       particle
        24     8.00942876E+01   # W+
        25     1.24462833E+02   # h
        35     3.00008380E+03   # H
        36     2.99999991E+03   # A
        37     3.00087413E+03   # H+
         5     4.87878001E+00   # b-quark pole mass calculated from mb(mb)_Msbar
   1000001     5.06466908E+03   # ~d_L
   2000001     5.04685895E+03   # ~d_R
   1000002     5.06419261E+03   # ~u_L
   2000002     5.04658143E+03   # ~u_R
   1000003     5.06466908E+03   # ~s_L
   2000003     5.04685895E+03   # ~s_R
   1000004     5.06419261E+03   # ~c_L
   2000004     5.04658143E+03   # ~c_R
   1000005     5.01102359E+03   # ~b_1
   2000005     5.04569774E+03   # ~b_2
   1000006     4.90173364E+03   # ~t_1
   2000006     5.05773071E+03   # ~t_2
   1000011     5.01905524E+03   # ~e_L
   2000011     5.00591303E+03   # ~e_R
   1000012     5.01810669E+03   # ~nu_eL
   1000013     5.01905524E+03   # ~mu_L
   2000013     5.00591303E+03   # ~mu_R
   1000014     5.01810669E+03   # ~nu_muL
   1000015     5.00442466E+03   # ~tau_1
   2000015     5.01895076E+03   # ~tau_2
   1000016     5.01756602E+03   # ~nu_tauL
   1000021     1.20000033E+03   # ~g
   1000022     6.03028930E+01   # ~chi_10
   1000023     1.39947175E+03   # ~chi_20
   1000025    -1.40186256E+03   # ~chi_30
   1000035     3.07432225E+03   # ~chi_40
   1000024     1.40000060E+03   # ~chi_1+
   1000037     3.07448977E+03   # ~chi_2+
#
BLOCK NMIX  # Neutralino Mixing Matrix
  1  1     9.99490949E-01   # N_11
  1  2     1.47229344E-04   # N_12
  1  3    -3.18430189E-02   # N_13
  1  4     1.96033507E-03   # N_14
  2  1     2.11313038E-02   # N_21
  2  2     2.90644011E-02   # N_22
  2  3     7.06893400E-01   # N_23
  2  4     7.06406717E-01   # N_24
  3  1    -2.38981003E-02   # N_31
  3  2     1.35672076E-02   # N_32
  3  3    -7.06517941E-01   # N_33
  3  4     7.07161375E-01   # N_34
  4  1    -4.37317620E-04   # N_41
  4  2     9.99485453E-01   # N_42
  4  3    -1.09609094E-02   # N_43
  4  4    -3.01412911E-02   # N_44
#
BLOCK UMIX  # Chargino Mixing Matrix U
  1  1     1.55137551E-02   # U_11
  1  2     9.99879654E-01   # U_12
  2  1    -9.99879654E-01   # U_21
  2  2     1.55137551E-02   # U_22
#
BLOCK VMIX  # Chargino Mixing Matrix V
  1  1     4.26499634E-02   # V_11
  1  2    -9.99090076E-01   # V_12
  2  1    -9.99090076E-01   # V_21
  2  2    -4.26499634E-02   # V_22
#
BLOCK STOPMIX  # Stop Mixing Matrix
  1  1    -5.12766964E-01   # cos(theta_t)
  1  2     8.58527833E-01   # sin(theta_t)
  2  1    -8.58527833E-01   # -sin(theta_t)
  2  2    -5.12766964E-01   # cos(theta_t)
#
BLOCK SBOTMIX  # Sbottom Mixing Matrix
  1  1     9.95042320E-01   # cos(theta_b)
  1  2    -9.94524078E-02   # sin(theta_b)
  2  1     9.94524078E-02   # -sin(theta_b)
  2  2     9.95042320E-01   # cos(theta_b)
#
BLOCK STAUMIX  # Stau Mixing Matrix
  1  1    -1.57632117E-01   # cos(theta_tau)
  1  2     9.87497907E-01   # sin(theta_tau)
  2  1    -9.87497907E-01   # -sin(theta_tau)
  2  2    -1.57632117E-01   # cos(theta_tau)
#
BLOCK ALPHA  # Higgs mixing
          -1.05431523E-01   # Mixing angle in the neutral Higgs boson sector
#
BLOCK HMIX Q=  5.00071456E+03  # DRbar Higgs Parameters
         1    -1.37354625E+03   # mu(Q)MSSM           
         2     9.47328842E+00   # tan                 
         3     2.41983331E+02   # higgs               
         4     8.41415963E+06   # mA^2(Q)MSSM         
#
BLOCK GAUGE Q=  5.00071456E+03  # The gauge couplings
     1     3.70734052E-01   # gprime(Q) DRbar
     2     6.32210193E-01   # g(Q) DRbar
     3     1.00596515E+00   # g3(Q) DRbar
#
BLOCK AU Q=  5.00071456E+03  # The trilinear couplings
  1  1     5.00000001E+03   # A_u(Q) DRbar
  2  2     5.00000001E+03   # A_c(Q) DRbar
  3  3     5.00000001E+03   # A_t(Q) DRbar
#
BLOCK AD Q=  5.00071456E+03  # The trilinear couplings
  1  1     5.00000000E+03   # A_d(Q) DRbar
  2  2     5.00000000E+03   # A_s(Q) DRbar
  3  3     5.00000001E+03   # A_b(Q) DRbar
#
BLOCK AE Q=  5.00071456E+03  # The trilinear couplings
  1  1     0.00000000E+00   # A_e(Q) DRbar
  2  2     4.99068539E-08   # A_mu(Q) DRbar
  3  3     4.90605189E-08   # A_tau(Q) DRbar
#
BLOCK Yu Q=  5.00071456E+03  # The Yukawa couplings
  1  1     0.00000000E+00   # y_u(Q) DRbar
  2  2     0.00000000E+00   # y_c(Q) DRbar
  3  3     8.15585241E-01   # y_t(Q) DRbar
#
BLOCK Yd Q=  5.00071456E+03  # The Yukawa couplings
  1  1     0.00000000E+00   # y_d(Q) DRbar
  2  2     0.00000000E+00   # y_s(Q) DRbar
  3  3     1.30030029E-01   # y_b(Q) DRbar
#
BLOCK Ye Q=  5.00071456E+03  # The Yukawa couplings
  1  1     0.00000000E+00   # y_e(Q) DRbar
  2  2     0.00000000E+00   # y_mu(Q) DRbar
  3  3     9.66831365E-02   # y_tau(Q) DRbar
#
BLOCK MSOFT Q=  5.00071456E+03  # The soft SUSY breaking masses at the scale Q
         1     6.00000000E+01   # M_1(Q)              
         2     3.00000000E+03   # M_2(Q)              
         3     9.46042000E+02   # M_3(Q)              
        21     6.78802809E+06   # mH1^2(Q)            
        22    -1.33846474E+06   # mH2^2(Q)            
        31     5.00000000E+03   # meL(Q)              
        32     5.00000000E+03   # mmuL(Q)             
        33     5.00000000E+03   # mtauL(Q)            
        34     5.00000000E+03   # meR(Q)              
        35     5.00000000E+03   # mmuR(Q)             
        36     5.00000000E+03   # mtauR(Q)            
        41     5.00000000E+03   # mqL1(Q)             
        42     5.00000000E+03   # mqL2(Q)             
        43     5.00000000E+03   # mqL3(Q)             
        44     5.00000000E+03   # muR(Q)              
        45     5.00000000E+03   # mcR(Q)              
        46     5.00000000E+03   # mtR(Q)              
        47     5.00000000E+03   # mdR(Q)              
        48     5.00000000E+03   # msR(Q)              
        49     5.00000000E+03   # mbR(Q)              
#
#
#
#                             =================
#                             |The decay table|
#                             =================
#
# - The QCD corrections to the decays gluino -> squark  + quark
#                                     squark -> gaugino + quark_prime
#                                     squark -> squark_prime + Higgs
#                                     squark -> gluino  + quark
#   are included.
#
# - The multi-body decays for the inos, stops and sbottoms are included.
#
# - The loop induced decays for the gluino, neutralinos and stops
#   are included.
#
# - The SUSY decays of the top quark are included.
#
#
#         PDG            Width
DECAY         6     1.40067952E+00   # top decays
#          BR         NDA      ID1       ID2
     1.00000000E+00    2           5        24   # BR(t ->  b    W+)
#
#         PDG            Width
DECAY   1000021     2.16526161E-05   # gluino decays
#          BR         NDA      ID1       ID2
     1.59376948E-05    2     1000022        21   # BR(~g -> ~chi_10 g)
#           BR         NDA      ID1       ID2       ID3
     8.03770355E-02    3     1000022         1        -1   # BR(~g -> ~chi_10 d  db)
     2.74005368E-01    3     1000022         2        -2   # BR(~g -> ~chi_10 u  ub)
     8.03770355E-02    3     1000022         3        -3   # BR(~g -> ~chi_10 s  sb)
     2.74005368E-01    3     1000022         4        -4   # BR(~g -> ~chi_10 c  cb)
     8.13752475E-02    3     1000022         5        -5   # BR(~g -> ~chi_10 b  bb)
     2.09844008E-01    3     1000022         6        -6   # BR(~g -> ~chi_10 t  tb)
#
#         PDG            Width
DECAY   1000006     3.94610822E+02   # stop1 decays
#          BR         NDA      ID1       ID2
     2.22251972E-02    2     1000022         6   # BR(~t_1 -> ~chi_10 t )
     7.02130608E-02    2     1000023         6   # BR(~t_1 -> ~chi_20 t )
     6.74696667E-02    2     1000025         6   # BR(~t_1 -> ~chi_30 t )
     5.50180004E-03    2     1000035         6   # BR(~t_1 -> ~chi_40 t )
     1.00660726E-01    2     1000024         5   # BR(~t_1 -> ~chi_1+ b )
     1.09483747E-02    2     1000037         5   # BR(~t_1 -> ~chi_2+ b )
     7.22981175E-01    2     1000021         6   # BR(~t_1 -> ~g      t )
#
#         PDG            Width
DECAY   2000006     3.99813368E+02   # stop2 decays
#          BR         NDA      ID1       ID2
     9.00348956E-03    2     1000022         6   # BR(~t_2 -> ~chi_10 t )
     7.15639608E-02    2     1000023         6   # BR(~t_2 -> ~chi_20 t )
     7.44972192E-02    2     1000025         6   # BR(~t_2 -> ~chi_30 t )
     1.35469546E-02    2     1000035         6   # BR(~t_2 -> ~chi_40 t )
     4.42148514E-02    2     1000024         5   # BR(~t_2 -> ~chi_1+ b )
     2.69148649E-02    2     1000037         5   # BR(~t_2 -> ~chi_2+ b )
     7.56953268E-01    2     1000021         6   # BR(~t_2 -> ~g      t )
     7.25767655E-04    2     1000006        25   # BR(~t_2 -> ~t_1    h )
     2.57962384E-03    2     1000006        23   # BR(~t_2 -> ~t_1    Z )
#
#         PDG            Width
DECAY   1000005     3.78070615E+02   # sbottom1 decays
#          BR         NDA      ID1       ID2
     2.06675188E-03    2     1000022         5   # BR(~b_1 -> ~chi_10 b )
     1.97032044E-03    2     1000023         5   # BR(~b_1 -> ~chi_20 b )
     1.87549946E-03    2     1000025         5   # BR(~b_1 -> ~chi_30 b )
     1.97204471E-02    2     1000035         5   # BR(~b_1 -> ~chi_40 b )
     1.48688187E-01    2    -1000024         6   # BR(~b_1 -> ~chi_1- t )
     3.96755128E-02    2    -1000037         6   # BR(~b_1 -> ~chi_2- t )
     7.84507031E-01    2     1000021         5   # BR(~b_1 -> ~g      b )
     1.49625092E-03    2     1000006       -24   # BR(~b_1 -> ~t_1    W-)
#
#         PDG            Width
DECAY   2000005     3.05567317E+02   # sbottom2 decays
#          BR         NDA      ID1       ID2
     9.60008183E-03    2     1000022         5   # BR(~b_2 -> ~chi_10 b )
     2.35624976E-03    2     1000023         5   # BR(~b_2 -> ~chi_20 b )
     2.45213320E-03    2     1000025         5   # BR(~b_2 -> ~chi_30 b )
     2.59439249E-04    2     1000035         5   # BR(~b_2 -> ~chi_40 b )
     6.56946937E-03    2    -1000024         6   # BR(~b_2 -> ~chi_1- t )
     5.21771571E-04    2    -1000037         6   # BR(~b_2 -> ~chi_2- t )
     9.78164628E-01    2     1000021         5   # BR(~b_2 -> ~g      b )
     7.62268247E-05    2     1000006       -24   # BR(~b_2 -> ~t_1    W-)
#
#         PDG            Width
DECAY   1000002     3.24377195E+02   # sup_L decays
#          BR         NDA      ID1       ID2
     2.30425199E-03    2     1000022         2   # BR(~u_L -> ~chi_10 u)
     5.66923569E-05    2     1000023         2   # BR(~u_L -> ~chi_20 u)
     4.06920671E-06    2     1000025         2   # BR(~u_L -> ~chi_30 u)
     2.40532475E-02    2     1000035         2   # BR(~u_L -> ~chi_40 u)
     1.87151728E-04    2     1000024         1   # BR(~u_L -> ~chi_1+ d)
     4.80705835E-02    2     1000037         1   # BR(~u_L -> ~chi_2+ d)
     9.25324004E-01    2     1000021         2   # BR(~u_L -> ~g      u)
#
#         PDG            Width
DECAY   2000002     3.10771205E+02   # sup_R decays
#          BR         NDA      ID1       ID2
     3.82900479E-02    2     1000022         2   # BR(~u_R -> ~chi_10 u)
     1.45916464E-05    2     1000023         2   # BR(~u_R -> ~chi_20 u)
     1.86522207E-05    2     1000025         2   # BR(~u_R -> ~chi_30 u)
     2.90492753E-09    2     1000035         2   # BR(~u_R -> ~chi_40 u)
     9.61676705E-01    2     1000021         2   # BR(~u_R -> ~g      u)
#
#         PDG            Width
DECAY   1000001     3.24388161E+02   # sdown_L decays
#          BR         NDA      ID1       ID2
     2.29745597E-03    2     1000022         1   # BR(~d_L -> ~chi_10 d)
     3.19889525E-05    2     1000023         1   # BR(~d_L -> ~chi_20 d)
     1.71062967E-05    2     1000025         1   # BR(~d_L -> ~chi_30 d)
     2.40681807E-02    2     1000035         1   # BR(~d_L -> ~chi_40 d)
     2.47645340E-05    2    -1000024         2   # BR(~d_L -> ~chi_1- u)
     4.81600080E-02    2    -1000037         2   # BR(~d_L -> ~chi_2- u)
     9.25400496E-01    2     1000021         1   # BR(~d_L -> ~g      d)
#
#         PDG            Width
DECAY   2000001     3.01859412E+02   # sdown_R decays
#          BR         NDA      ID1       ID2
     9.85566540E-03    2     1000022         1   # BR(~d_R -> ~chi_10 d)
     3.75588462E-06    2     1000023         1   # BR(~d_R -> ~chi_20 d)
     4.80107535E-06    2     1000025         1   # BR(~d_R -> ~chi_30 d)
     7.47809991E-10    2     1000035         1   # BR(~d_R -> ~chi_40 d)
     9.90135777E-01    2     1000021         1   # BR(~d_R -> ~g      d)
#
#         PDG            Width
DECAY   1000004     3.24377195E+02   # scharm_L decays
#          BR         NDA      ID1       ID2
     2.30425199E-03    2     1000022         4   # BR(~c_L -> ~chi_10 c)
     5.66923569E-05    2     1000023         4   # BR(~c_L -> ~chi_20 c)
     4.06920671E-06    2     1000025         4   # BR(~c_L -> ~chi_30 c)
     2.40532475E-02    2     1000035         4   # BR(~c_L -> ~chi_40 c)
     1.87151728E-04    2     1000024         3   # BR(~c_L -> ~chi_1+ s)
     4.80705835E-02    2     1000037         3   # BR(~c_L -> ~chi_2+ s)
     9.25324004E-01    2     1000021         4   # BR(~c_L -> ~g      c)
#
#         PDG            Width
DECAY   2000004     3.10771205E+02   # scharm_R decays
#          BR         NDA      ID1       ID2
     3.82900479E-02    2     1000022         4   # BR(~c_R -> ~chi_10 c)
     1.45916464E-05    2     1000023         4   # BR(~c_R -> ~chi_20 c)
     1.86522207E-05    2     1000025         4   # BR(~c_R -> ~chi_30 c)
     2.90492753E-09    2     1000035         4   # BR(~c_R -> ~chi_40 c)
     9.61676705E-01    2     1000021         4   # BR(~c_R -> ~g      c)
#
#         PDG            Width
DECAY   1000003     3.24388161E+02   # sstrange_L decays
#          BR         NDA      ID1       ID2
     2.29745597E-03    2     1000022         3   # BR(~s_L -> ~chi_10 s)
     3.19889525E-05    2     1000023         3   # BR(~s_L -> ~chi_20 s)
     1.71062967E-05    2     1000025         3   # BR(~s_L -> ~chi_30 s)
     2.40681807E-02    2     1000035         3   # BR(~s_L -> ~chi_40 s)
     2.47645340E-05    2    -1000024         4   # BR(~s_L -> ~chi_1- c)
     4.81600080E-02    2    -1000037         4   # BR(~s_L -> ~chi_2- c)
     9.25400496E-01    2     1000021         3   # BR(~s_L -> ~g      s)
#
#         PDG            Width
DECAY   2000003     3.01859412E+02   # sstrange_R decays
#          BR         NDA      ID1       ID2
     9.85566540E-03    2     1000022         3   # BR(~s_R -> ~chi_10 s)
     3.75588462E-06    2     1000023         3   # BR(~s_R -> ~chi_20 s)
     4.80107535E-06    2     1000025         3   # BR(~s_R -> ~chi_30 s)
     7.47809991E-10    2     1000035         3   # BR(~s_R -> ~chi_40 s)
     9.90135777E-01    2     1000021         3   # BR(~s_R -> ~g      s)
#
#         PDG            Width
DECAY   1000011     3.02459305E+01   # selectron_L decays
#          BR         NDA      ID1       ID2
     2.26689094E-01    2     1000022        11   # BR(~e_L -> ~chi_10 e-)
     9.64390557E-04    2     1000023        11   # BR(~e_L -> ~chi_20 e-)
     1.11990323E-07    2     1000025        11   # BR(~e_L -> ~chi_30 e-)
     2.57157906E-01    2     1000035        11   # BR(~e_L -> ~chi_40 e-)
     2.70076443E-04    2    -1000024        12   # BR(~e_L -> ~chi_1- nu_e)
     5.14918421E-01    2    -1000037        12   # BR(~e_L -> ~chi_2- nu_e)
#
#         PDG            Width
DECAY   2000011     2.73637673E+01   # selectron_R decays
#          BR         NDA      ID1       ID2
     9.99135027E-01    2     1000022        11   # BR(~e_R -> ~chi_10 e-)
     3.79629604E-04    2     1000023        11   # BR(~e_R -> ~chi_20 e-)
     4.85268813E-04    2     1000025        11   # BR(~e_R -> ~chi_30 e-)
     7.42218063E-08    2     1000035        11   # BR(~e_R -> ~chi_40 e-)
#
#         PDG            Width
DECAY   1000013     3.02459305E+01   # smuon_L decays
#          BR         NDA      ID1       ID2
     2.26689094E-01    2     1000022        13   # BR(~mu_L -> ~chi_10 mu-)
     9.64390557E-04    2     1000023        13   # BR(~mu_L -> ~chi_20 mu-)
     1.11990323E-07    2     1000025        13   # BR(~mu_L -> ~chi_30 mu-)
     2.57157906E-01    2     1000035        13   # BR(~mu_L -> ~chi_40 mu-)
     2.70076443E-04    2    -1000024        14   # BR(~mu_L -> ~chi_1- nu_mu)
     5.14918421E-01    2    -1000037        14   # BR(~mu_L -> ~chi_2- nu_mu)
#
#         PDG            Width
DECAY   2000013     2.73637673E+01   # smuon_R decays
#          BR         NDA      ID1       ID2
     9.99135027E-01    2     1000022        13   # BR(~mu_R -> ~chi_10 mu-)
     3.79629604E-04    2     1000023        13   # BR(~mu_R -> ~chi_20 mu-)
     4.85268813E-04    2     1000025        13   # BR(~mu_R -> ~chi_30 mu-)
     7.42218063E-08    2     1000035        13   # BR(~mu_R -> ~chi_40 mu-)
#
#         PDG            Width
DECAY   1000015     2.90068506E+01   # stau_1 decays
#          BR         NDA      ID1       ID2
     9.25594660E-01    2     1000022        15   # BR(~tau_1 -> ~chi_10  tau-)
     1.44592045E-02    2     1000023        15   # BR(~tau_1 -> ~chi_20  tau-)
     1.32824600E-02    2     1000025        15   # BR(~tau_1 -> ~chi_30  tau-)
     6.40210781E-03    2     1000035        15   # BR(~tau_1 -> ~chi_40  tau-)
     2.74424463E-02    2    -1000024        16   # BR(~tau_1 -> ~chi_1-  nu_tau)
     1.28191210E-02    2    -1000037        16   # BR(~tau_1 -> ~chi_2-  nu_tau)
#
#         PDG            Width
DECAY   2000015     3.09637307E+01   # stau_2 decays
#          BR         NDA      ID1       ID2
     2.37146724E-01    2     1000022        15   # BR(~tau_2 -> ~chi_10  tau-)
     1.33039919E-02    2     1000023        15   # BR(~tau_2 -> ~chi_20  tau-)
     1.35208179E-02    2     1000025        15   # BR(~tau_2 -> ~chi_30  tau-)
     2.45123466E-01    2     1000035        15   # BR(~tau_2 -> ~chi_40  tau-)
     8.45703135E-05    2    -1000024        16   # BR(~tau_2 -> ~chi_1-  nu_tau)
     4.90820430E-01    2    -1000037        16   # BR(~tau_2 -> ~chi_2-  nu_tau)
#
#         PDG            Width
DECAY   1000012     3.02481442E+01   # snu_eL decays
#          BR         NDA      ID1       ID2
     2.26402040E-01    2     1000022        12   # BR(~nu_eL -> ~chi_10 nu_e)
     1.55938712E-04    2     1000023        12   # BR(~nu_eL -> ~chi_20 nu_e)
     4.26495988E-04    2     1000025        12   # BR(~nu_eL -> ~chi_30 nu_e)
     2.57237636E-01    2     1000035        12   # BR(~nu_eL -> ~chi_40 nu_e)
     2.04055634E-03    2     1000024        11   # BR(~nu_eL -> ~chi_1+ e-)
     5.13737333E-01    2     1000037        11   # BR(~nu_eL -> ~chi_2+ e-)
#
#         PDG            Width
DECAY   1000014     3.02481442E+01   # snu_muL decays
#          BR         NDA      ID1       ID2
     2.26402040E-01    2     1000022        14   # BR(~nu_muL -> ~chi_10 nu_mu)
     1.55938712E-04    2     1000023        14   # BR(~nu_muL -> ~chi_20 nu_mu)
     4.26495988E-04    2     1000025        14   # BR(~nu_muL -> ~chi_30 nu_mu)
     2.57237636E-01    2     1000035        14   # BR(~nu_muL -> ~chi_40 nu_mu)
     2.04055634E-03    2     1000024        13   # BR(~nu_muL -> ~chi_1+ mu-)
     5.13737333E-01    2     1000037        13   # BR(~nu_muL -> ~chi_2+ mu-)
#
#         PDG            Width
DECAY   1000016     3.10322337E+01   # snu_tauL decays
#          BR         NDA      ID1       ID2
     2.20657763E-01    2     1000022        16   # BR(~nu_tauL -> ~chi_10 nu_tau)
     1.51976717E-04    2     1000023        16   # BR(~nu_tauL -> ~chi_20 nu_tau)
     4.15659782E-04    2     1000025        16   # BR(~nu_tauL -> ~chi_30 nu_tau)
     2.50646084E-01    2     1000035        16   # BR(~nu_tauL -> ~chi_40 nu_tau)
     2.75545518E-02    2     1000024        15   # BR(~nu_tauL -> ~chi_1+ tau-)
     5.00573965E-01    2     1000037        15   # BR(~nu_tauL -> ~chi_2+ tau-)
#
#         PDG            Width
DECAY   1000024     8.60355013E-01   # chargino1+ decays
#          BR         NDA      ID1       ID2
     1.00000000E+00    2     1000022        24   # BR(~chi_1+ -> ~chi_10  W+)
#
#         PDG            Width
DECAY   1000037     1.88628175E+01   # chargino2+ decays
#          BR         NDA      ID1       ID2
     2.52828068E-01    2     1000024        23   # BR(~chi_2+ -> ~chi_1+  Z )
     2.42508385E-04    2     1000022        24   # BR(~chi_2+ -> ~chi_10  W+)
     2.43995395E-01    2     1000023        24   # BR(~chi_2+ -> ~chi_20  W+)
     2.43809665E-01    2     1000025        24   # BR(~chi_2+ -> ~chi_30  W+)
     2.59123897E-01    2     1000024        25   # BR(~chi_2+ -> ~chi_1+  h )
     4.67232915E-07    2     1000022        37   # BR(~chi_2+ -> ~chi_10  H+)
#
#         PDG            Width
DECAY   1000022     0.00000000E+00   # neutralino1 decays
#
#         PDG            Width
DECAY   1000023     9.03337108E-01   # neutralino2 decays
#          BR         NDA      ID1       ID2
     5.54047978E-01    2     1000022        23   # BR(~chi_20 -> ~chi_10   Z )
     4.45952022E-01    2     1000022        25   # BR(~chi_20 -> ~chi_10   h )
#
#         PDG            Width
DECAY   1000025     9.11669542E-01   # neutralino3 decays
#          BR         NDA      ID1       ID2
     4.29815962E-01    2     1000022        23   # BR(~chi_30 -> ~chi_10   Z )
     5.70184038E-01    2     1000022        25   # BR(~chi_30 -> ~chi_10   h )
#
#         PDG            Width
DECAY   1000035     1.88678825E+01   # neutralino4 decays
#          BR         NDA      ID1       ID2
     8.23217305E-05    2     1000022        23   # BR(~chi_40 -> ~chi_10   Z )
     4.53941035E-02    2     1000023        23   # BR(~chi_40 -> ~chi_20   Z )
     2.06817658E-01    2     1000025        23   # BR(~chi_40 -> ~chi_30   Z )
     2.44450977E-01    2     1000024       -24   # BR(~chi_40 -> ~chi_1+   W-)
     2.44450977E-01    2    -1000024        24   # BR(~chi_40 -> ~chi_1-   W+)
     1.65164892E-04    2     1000022        25   # BR(~chi_40 -> ~chi_10   h )
     4.23885256E-07    2     1000022        35   # BR(~chi_40 -> ~chi_10   H )
     6.02628269E-08    2     1000022        36   # BR(~chi_40 -> ~chi_10   A )
     2.13244668E-01    2     1000023        25   # BR(~chi_40 -> ~chi_20   h )
     4.53936458E-02    2     1000025        25   # BR(~chi_40 -> ~chi_30   h )
#
#         PDG            Width
DECAY        25     4.02425637E-03   # h decays
#          BR         NDA      ID1       ID2
     6.13728358E-01    2           5        -5   # BR(h -> b       bb     )
     6.42860606E-02    2         -15        15   # BR(h -> tau+    tau-   )
     2.27597408E-04    2         -13        13   # BR(h -> mu+     mu-    )
     4.82727952E-04    2           3        -3   # BR(h -> s       sb     )
     2.09192324E-02    2           4        -4   # BR(h -> c       cb     )
     6.73088495E-02    2          21        21   # BR(h -> g       g      )
     2.30724578E-03    2          22        22   # BR(h -> gam     gam    )
     1.46145557E-03    2          22        23   # BR(h -> Z       gam    )
     2.04953546E-01    2          24       -24   # BR(h -> W+      W-     )
     2.42923308E-02    2          23        23   # BR(h -> Z       Z      )
     3.25963104E-05    2     1000022   1000022   # BR(h -> ~chi_10 ~chi_10)
#
#         PDG            Width
DECAY        35     7.44173712E+00   # H decays
#          BR         NDA      ID1       ID2
     4.36948943E-01    2           5        -5   # BR(H -> b       bb     )
     7.49177121E-02    2         -15        15   # BR(H -> tau+    tau-   )
     2.64914981E-04    2         -13        13   # BR(H -> mu+     mu-    )
     3.24745207E-04    2           3        -3   # BR(H -> s       sb     )
     1.81372997E-06    2           4        -4   # BR(H -> c       cb     )
     1.81205991E-01    2           6        -6   # BR(H -> t       tb     )
     6.01437536E-05    2          21        21   # BR(H -> g       g      )
     3.84229454E-07    2          22        22   # BR(H -> gam     gam    )
     1.06929804E-07    2          23        22   # BR(H -> Z       gam    )
     8.07437626E-05    2          24       -24   # BR(H -> W+      W-     )
     4.03207769E-05    2          23        23   # BR(H -> Z       Z      )
     3.06622072E-04    2          25        25   # BR(H -> h       h      )
     2.17253268E-23    2          36        36   # BR(H -> A       A      )
     4.83573775E-19    2          23        36   # BR(H -> Z       A      )
     3.04647399E-04    2     1000024  -1000024   # BR(H -> ~chi_1+ ~chi_1-)
     9.90620735E-04    2     1000022   1000022   # BR(H -> ~chi_10 ~chi_10)
     2.95033077E-05    2     1000023   1000023   # BR(H -> ~chi_20 ~chi_20)
     4.25944868E-05    2     1000025   1000025   # BR(H -> ~chi_30 ~chi_30)
     1.81333533E-01    2     1000022   1000023   # BR(H -> ~chi_10 ~chi_20)
     1.23090442E-01    2     1000022   1000025   # BR(H -> ~chi_10 ~chi_30)
     5.62177025E-05    2     1000023   1000025   # BR(H -> ~chi_20 ~chi_30)
#
#         PDG            Width
DECAY        36     7.46093468E+00   # A decays
#          BR         NDA      ID1       ID2
     4.35971198E-01    2           5        -5   # BR(A -> b       bb     )
     7.47270816E-02    2         -15        15   # BR(A -> tau+    tau-   )
     2.64240527E-04    2         -13        13   # BR(A -> mu+     mu-    )
     3.24155002E-04    2           3        -3   # BR(A -> s       sb     )
     1.81662115E-06    2           4        -4   # BR(A -> c       cb     )
     1.81394702E-01    2           6        -6   # BR(A -> t       tb     )
     1.79561196E-04    2          21        21   # BR(A -> g       g      )
     4.26474396E-07    2          22        22   # BR(A -> gam     gam    )
     2.17398199E-07    2          23        22   # BR(A -> Z       gam    )
     8.02335230E-05    2          23        25   # BR(A -> Z       h      )
     2.02054558E-03    2     1000024  -1000024   # BR(A -> ~chi_1+ ~chi_1-)
     1.01579532E-03    2     1000022   1000022   # BR(A -> ~chi_10 ~chi_10)
     1.48577436E-04    2     1000023   1000023   # BR(A -> ~chi_20 ~chi_20)
     5.13042959E-04    2     1000025   1000025   # BR(A -> ~chi_30 ~chi_30)
     1.24261316E-01    2     1000022   1000023   # BR(A -> ~chi_10 ~chi_20)
     1.79096361E-01    2     1000022   1000025   # BR(A -> ~chi_10 ~chi_30)
     7.28641545E-07    2     1000023   1000025   # BR(A -> ~chi_20 ~chi_30)
#
#         PDG            Width
DECAY        37     7.42240648E+00   # H+ decays
#          BR         NDA      ID1       ID2
     7.00244650E-04    2           4        -5   # BR(H+ -> c       bb     )
     7.51368637E-02    2         -15        16   # BR(H+ -> tau+    nu_tau )
     2.65689546E-04    2         -13        14   # BR(H+ -> mu+     nu_mu  )
     4.48154266E-06    2           2        -5   # BR(H+ -> u       bb     )
     1.55901085E-05    2           2        -3   # BR(H+ -> u       sb     )
     3.22401853E-04    2           4        -3   # BR(H+ -> c       sb     )
     6.16175948E-01    2           6        -5   # BR(H+ -> t       bb     )
     8.07723194E-05    2          24        25   # BR(H+ -> W+      h      )
     9.04169831E-14    2          24        36   # BR(H+ -> W+      A      )
     3.07023373E-01    2     1000024   1000022   # BR(H+ -> ~chi_1+ ~chi_10)
     2.17725826E-04    2     1000024   1000023   # BR(H+ -> ~chi_1+ ~chi_20)
     5.69096324E-05    2     1000024   1000025   # BR(H+ -> ~chi_1+ ~chi_30)
