#
#                              ======================
#                              | THE SUSYHIT OUTPUT |
#                              ======================
#
#
#              ------------------------------------------------------
#              |     This is the output of the SUSY-HIT package     |
#              |  created by A.Djouadi, M.Muehlleitner and M.Spira. |
#              |  In case of problems with SUSY-HIT email to        |
#              |           margarete.muehlleitner@cern.ch           |
#              |           michael.spira@psi.ch                     |
#              |           abdelhak.djouadi@cern.ch                 |
#              ------------------------------------------------------
#
#              ------------------------------------------------------
#              |  SUSY Les Houches Accord - MSSM Spectrum + Decays  |
#              |              based on the decay programs           |
#              |                                                    |
#              |                     SDECAY 1.3b                    |
#              |                                                    |
#              |  Authors: M.Muhlleitner, A.Djouadi and Y.Mambrini  |
#              |  Ref.:    Comput.Phys.Commun.168(2005)46           |
#              |           [hep-ph/0311167]                         |
#              |                                                    |
#              |                     HDECAY 3.4                     |
#              |                                                    |
#              |  By: A.Djouadi,J.Kalinowski,M.Muhlleitner,M.Spira  |
#              |  Ref.:    Comput.Phys.Commun.108(1998)56           |
#              |           [hep-ph/9704448]                         |
#              |                                                    |
#              |                                                    |
#              |  If not stated otherwise all DRbar couplings and   |
#              |  soft SUSY breaking masses are given at the scale  |
#              |  Q=  0.50007098E+04
#              |                                                    |
#              ------------------------------------------------------
#
#
BLOCK DCINFO  # Decay Program information
     1   SDECAY/HDECAY # decay calculator
     2   1.3b  /3.4    # version number
#
BLOCK SPINFO  # Spectrum calculator information
     1    SOFTSUSY    # spectrum calculator                
     2    3.4.0       # version number                     
#
BLOCK MODSEL  # Model selection
     1     0   #  nonUniversal                                     
#
BLOCK SMINPUTS  # Standard Model inputs
         1     1.25778332E+02   # alpha_em^-1(M_Z)^MSbar
         2     1.16570000E-05   # G_F [GeV^-2]
         3     1.17200002E-01   # alpha_S(M_Z)^MSbar
         4     9.11876000E+01   # M_Z pole mass
         5     4.25000000E+00   # mb(mb)^MSbar
         6     1.72500000E+02   # mt pole mass
         7     1.77682000E+00   # mtau pole mass
#
BLOCK MINPAR  # Input parameters - minimal models
         3     1.00000000E+01   # tanb                
#
BLOCK EXTPAR  # Input parameters - non-minimal models
         0    -1.00000000E+00   # Set                 
         1     6.00000000E+01   # M_1(MX)             
         2     3.00000000E+03   # M_2(MX)             
         3     2.33133200E+03   # M_3(MX)             
        11     5.00000000E+03   # At(MX)              
        12     5.00000000E+03   # Ab(MX)              
        13     0.00000000E+00   # Atau(MX)            
        23    -1.74040100E+03   # mu(MX)              
        26     3.00000000E+03   # mA(pole)            
        31     5.00000000E+03   # meL(MX)             
        32     5.00000000E+03   # mmuL(MX)            
        33     5.00000000E+03   # mtauL(MX)           
        34     5.00000000E+03   # meR(MX)             
        35     5.00000000E+03   # mmuR(MX)            
        36     5.00000000E+03   # mtauR(MX)           
        41     5.00000000E+03   # mqL1(MX)            
        42     5.00000000E+03   # mqL2(MX)            
        43     5.00000000E+03   # mqL3(MX)            
        44     5.00000000E+03   # muR(MX)             
        45     5.00000000E+03   # mcR(MX)             
        46     5.00000000E+03   # mtR(MX)             
        47     5.00000000E+03   # mdR(MX)             
        48     5.00000000E+03   # msR(MX)             
        49     5.00000000E+03   # mbR(MX)             
#
BLOCK MASS  # Mass Spectrum
# PDG code           mass       particle
        24     8.00974588E+01   # W+
        25     1.24831153E+02   # h
        35     3.00007873E+03   # H
        36     2.99999995E+03   # A
        37     3.00087224E+03   # H+
         5     4.87878001E+00   # b-quark pole mass calculated from mb(mb)_Msbar
   1000001     5.08398702E+03   # ~d_L
   2000001     5.06626658E+03   # ~d_R
   1000002     5.08351707E+03   # ~u_L
   2000002     5.06599712E+03   # ~u_R
   1000003     5.08398702E+03   # ~s_L
   2000003     5.06626658E+03   # ~s_R
   1000004     5.08351707E+03   # ~c_L
   2000004     5.06599712E+03   # ~c_R
   1000005     5.03034458E+03   # ~b_1
   2000005     5.06530415E+03   # ~b_2
   1000006     4.92337091E+03   # ~t_1
   2000006     5.07593037E+03   # ~t_2
   1000011     5.01903635E+03   # ~e_L
   2000011     5.00590484E+03   # ~e_R
   1000012     5.01808866E+03   # ~nu_eL
   1000013     5.01903635E+03   # ~mu_L
   2000013     5.00590484E+03   # ~mu_R
   1000014     5.01808866E+03   # ~nu_muL
   1000015     5.00419085E+03   # ~tau_1
   2000015     5.01918779E+03   # ~tau_2
   1000016     5.01755568E+03   # ~nu_tauL
   1000021     2.70000095E+03   # ~g
   1000022     6.03012988E+01   # ~chi_10
   1000023     1.79940089E+03   # ~chi_20
   1000025    -1.80211927E+03   # ~chi_30
   1000035     3.07437894E+03   # ~chi_40
   1000024     1.80000041E+03   # ~chi_1+
   1000037     3.07454656E+03   # ~chi_2+
#
BLOCK NMIX  # Neutralino Mixing Matrix
  1  1     9.99691070E-01   # N_11
  1  2     1.21515173E-04   # N_12
  1  3    -2.47912998E-02   # N_13
  1  4     1.77218287E-03   # N_14
  2  1     1.62721270E-02   # N_21
  2  2     3.81604098E-02   # N_22
  2  3     7.06828413E-01   # N_23
  2  4     7.06167541E-01   # N_24
  3  1    -1.87809080E-02   # N_31
  3  2     1.24382053E-02   # N_32
  3  3    -7.06716319E-01   # N_33
  3  4     7.07138326E-01   # N_34
  4  1    -5.09238218E-04   # N_41
  4  2     9.99194205E-01   # N_42
  4  3    -1.81942275E-02   # N_43
  4  4    -3.57722148E-02   # N_44
#
BLOCK UMIX  # Chargino Mixing Matrix U
  1  1     2.57121529E-02   # U_11
  1  2     9.99669388E-01   # U_12
  2  1    -9.99669388E-01   # U_21
  2  2     2.57121529E-02   # U_22
#
BLOCK VMIX  # Chargino Mixing Matrix V
  1  1     5.05759076E-02   # V_11
  1  2    -9.98720220E-01   # V_12
  2  1    -9.98720220E-01   # V_21
  2  2    -5.05759076E-02   # V_22
#
BLOCK STOPMIX  # Stop Mixing Matrix
  1  1    -5.11475968E-01   # cos(theta_t)
  1  2     8.59297582E-01   # sin(theta_t)
  2  1    -8.59297582E-01   # -sin(theta_t)
  2  2    -5.11475968E-01   # cos(theta_t)
#
BLOCK SBOTMIX  # Sbottom Mixing Matrix
  1  1     9.92429728E-01   # cos(theta_b)
  1  2    -1.22813822E-01   # sin(theta_b)
  2  1     1.22813822E-01   # -sin(theta_b)
  2  2     9.92429728E-01   # cos(theta_b)
#
BLOCK STAUMIX  # Stau Mixing Matrix
  1  1    -1.99004752E-01   # cos(theta_tau)
  1  2     9.79998525E-01   # sin(theta_tau)
  2  1    -9.79998525E-01   # -sin(theta_tau)
  2  2    -1.99004752E-01   # cos(theta_tau)
#
BLOCK ALPHA  # Higgs mixing
          -1.05467377E-01   # Mixing angle in the neutral Higgs boson sector
#
BLOCK HMIX Q=  5.00070979E+03  # DRbar Higgs Parameters
         1    -1.77250537E+03   # mu(Q)MSSM           
         2     9.46990359E+00   # tan                 
         3     2.42019340E+02   # higgs               
         4     8.35602183E+06   # mA^2(Q)MSSM         
#
BLOCK GAUGE Q=  5.00070979E+03  # The gauge couplings
     1     3.70645608E-01   # gprime(Q) DRbar
     2     6.31840739E-01   # g(Q) DRbar
     3     9.94056711E-01   # g3(Q) DRbar
#
BLOCK AU Q=  5.00070979E+03  # The trilinear couplings
  1  1     5.00000002E+03   # A_u(Q) DRbar
  2  2     5.00000002E+03   # A_c(Q) DRbar
  3  3     5.00000002E+03   # A_t(Q) DRbar
#
BLOCK AD Q=  5.00070979E+03  # The trilinear couplings
  1  1     5.00000001E+03   # A_d(Q) DRbar
  2  2     5.00000001E+03   # A_s(Q) DRbar
  3  3     5.00000001E+03   # A_b(Q) DRbar
#
BLOCK AE Q=  5.00070979E+03  # The trilinear couplings
  1  1     0.00000000E+00   # A_e(Q) DRbar
  2  2     2.85490448E-07   # A_mu(Q) DRbar
  3  3     2.85549048E-07   # A_tau(Q) DRbar
#
BLOCK Yu Q=  5.00070979E+03  # The Yukawa couplings
  1  1     0.00000000E+00   # y_u(Q) DRbar
  2  2     0.00000000E+00   # y_c(Q) DRbar
  3  3     8.20884954E-01   # y_t(Q) DRbar
#
BLOCK Yd Q=  5.00070979E+03  # The Yukawa couplings
  1  1     0.00000000E+00   # y_d(Q) DRbar
  2  2     0.00000000E+00   # y_s(Q) DRbar
  3  3     1.32326238E-01   # y_b(Q) DRbar
#
BLOCK Ye Q=  5.00070979E+03  # The Yukawa couplings
  1  1     0.00000000E+00   # y_e(Q) DRbar
  2  2     0.00000000E+00   # y_mu(Q) DRbar
  3  3     9.65133566E-02   # y_tau(Q) DRbar
#
BLOCK MSOFT Q=  5.00070979E+03  # The soft SUSY breaking masses at the scale Q
         1     6.00000000E+01   # M_1(Q)              
         2     3.00000000E+03   # M_2(Q)              
         3     2.33133200E+03   # M_3(Q)              
        21     5.51247830E+06   # mH1^2(Q)            
        22    -2.60124840E+06   # mH2^2(Q)            
        31     5.00000000E+03   # meL(Q)              
        32     5.00000000E+03   # mmuL(Q)             
        33     5.00000000E+03   # mtauL(Q)            
        34     5.00000000E+03   # meR(Q)              
        35     5.00000000E+03   # mmuR(Q)             
        36     5.00000000E+03   # mtauR(Q)            
        41     4.99999999E+03   # mqL1(Q)             
        42     4.99999999E+03   # mqL2(Q)             
        43     4.99999999E+03   # mqL3(Q)             
        44     4.99999999E+03   # muR(Q)              
        45     4.99999999E+03   # mcR(Q)              
        46     4.99999999E+03   # mtR(Q)              
        47     4.99999999E+03   # mdR(Q)              
        48     4.99999999E+03   # msR(Q)              
        49     4.99999999E+03   # mbR(Q)              
#
#
#
#                             =================
#                             |The decay table|
#                             =================
#
# - The QCD corrections to the decays gluino -> squark  + quark
#                                     squark -> gaugino + quark_prime
#                                     squark -> squark_prime + Higgs
#                                     squark -> gluino  + quark
#   are included.
#
# - The multi-body decays for the inos, stops and sbottoms are included.
#
# - The loop induced decays for the gluino, neutralinos and stops
#   are included.
#
# - The SUSY decays of the top quark are included.
#
#
#         PDG            Width
DECAY         6     1.39890463E+00   # top decays
#          BR         NDA      ID1       ID2
     1.00000000E+00    2           5        24   # BR(t ->  b    W+)
#
#         PDG            Width
DECAY   1000021     1.90684629E-03   # gluino decays
#          BR         NDA      ID1       ID2
     5.09795745E-06    2     1000022        21   # BR(~g -> ~chi_10 g)
     4.30868657E-03    2     1000023        21   # BR(~g -> ~chi_20 g)
     4.33060204E-03    2     1000025        21   # BR(~g -> ~chi_30 g)
#           BR         NDA      ID1       ID2       ID3
     6.01704987E-02    3     1000022         1        -1   # BR(~g -> ~chi_10 d  db)
     2.04891568E-05    3     1000023         1        -1   # BR(~g -> ~chi_20 d  db)
     1.78537213E-06    3     1000025         1        -1   # BR(~g -> ~chi_30 d  db)
     2.05154469E-01    3     1000022         2        -2   # BR(~g -> ~chi_10 u  ub)
     3.03738343E-05    3     1000023         2        -2   # BR(~g -> ~chi_20 u  ub)
     1.68376902E-06    3     1000025         2        -2   # BR(~g -> ~chi_30 u  ub)
     6.01704987E-02    3     1000022         3        -3   # BR(~g -> ~chi_10 s  sb)
     2.04891568E-05    3     1000023         3        -3   # BR(~g -> ~chi_20 s  sb)
     1.78537213E-06    3     1000025         3        -3   # BR(~g -> ~chi_30 s  sb)
     2.05154469E-01    3     1000022         4        -4   # BR(~g -> ~chi_10 c  cb)
     3.03738343E-05    3     1000023         4        -4   # BR(~g -> ~chi_20 c  cb)
     1.68376902E-06    3     1000025         4        -4   # BR(~g -> ~chi_30 c  cb)
     6.09099636E-02    3     1000022         5        -5   # BR(~g -> ~chi_10 b  bb)
     1.52128206E-03    3     1000023         5        -5   # BR(~g -> ~chi_20 b  bb)
     1.47466128E-03    3     1000025         5        -5   # BR(~g -> ~chi_30 b  bb)
     2.11380747E-01    3     1000022         6        -6   # BR(~g -> ~chi_10 t  tb)
     4.64791796E-02    3     1000023         6        -6   # BR(~g -> ~chi_20 t  tb)
     3.67756890E-02    3     1000025         6        -6   # BR(~g -> ~chi_30 t  tb)
     4.88016303E-05    3     1000024         1        -2   # BR(~g -> ~chi_1+ d  ub)
     4.88016303E-05    3    -1000024         2        -1   # BR(~g -> ~chi_1- u  db)
     4.88016303E-05    3     1000024         3        -4   # BR(~g -> ~chi_1+ s  cb)
     4.88016303E-05    3    -1000024         4        -3   # BR(~g -> ~chi_1- c  sb)
     5.09301424E-02    3     1000024         5        -6   # BR(~g -> ~chi_1+ b  tb)
     5.09301424E-02    3    -1000024         6        -5   # BR(~g -> ~chi_1- t  bb)
#
#         PDG            Width
DECAY   1000006     2.54670907E+02   # stop1 decays
#          BR         NDA      ID1       ID2
     3.46379312E-02    2     1000022         6   # BR(~t_1 -> ~chi_10 t )
     9.68749106E-02    2     1000023         6   # BR(~t_1 -> ~chi_20 t )
     9.30332476E-02    2     1000025         6   # BR(~t_1 -> ~chi_30 t )
     8.68225490E-03    2     1000035         6   # BR(~t_1 -> ~chi_40 t )
     1.39909103E-01    2     1000024         5   # BR(~t_1 -> ~chi_1+ b )
     1.72369077E-02    2     1000037         5   # BR(~t_1 -> ~chi_2+ b )
     6.09625645E-01    2     1000021         6   # BR(~t_1 -> ~g      t )
#
#         PDG            Width
DECAY   2000006     2.70882177E+02   # stop2 decays
#          BR         NDA      ID1       ID2
     1.29089738E-02    2     1000022         6   # BR(~t_2 -> ~chi_10 t )
     9.53648424E-02    2     1000023         6   # BR(~t_2 -> ~chi_20 t )
     9.93287538E-02    2     1000025         6   # BR(~t_2 -> ~chi_30 t )
     2.02634310E-02    2     1000035         6   # BR(~t_2 -> ~chi_40 t )
     5.83613082E-02    2     1000024         5   # BR(~t_2 -> ~chi_1+ b )
     4.01462824E-02    2     1000037         5   # BR(~t_2 -> ~chi_2+ b )
     6.69026109E-01    2     1000021         6   # BR(~t_2 -> ~g      t )
     1.00399219E-03    2     1000006        25   # BR(~t_2 -> ~t_1    h )
     3.59630721E-03    2     1000006        23   # BR(~t_2 -> ~t_1    Z )
#
#         PDG            Width
DECAY   1000005     2.46838597E+02   # sbottom1 decays
#          BR         NDA      ID1       ID2
     3.18924745E-03    2     1000022         5   # BR(~b_1 -> ~chi_10 b )
     2.85140153E-03    2     1000023         5   # BR(~b_1 -> ~chi_20 b )
     2.63421285E-03    2     1000025         5   # BR(~b_1 -> ~chi_30 b )
     3.03812165E-02    2     1000035         5   # BR(~b_1 -> ~chi_40 b )
     2.03514329E-01    2    -1000024         6   # BR(~b_1 -> ~chi_1- t )
     6.12880816E-02    2    -1000037         6   # BR(~b_1 -> ~chi_2- t )
     6.94042136E-01    2     1000021         5   # BR(~b_1 -> ~g      b )
     2.09937560E-03    2     1000006       -24   # BR(~b_1 -> ~t_1    W-)
#
#         PDG            Width
DECAY   2000005     1.81001099E+02   # sbottom2 decays
#          BR         NDA      ID1       ID2
     1.60878791E-02    2     1000022         5   # BR(~b_2 -> ~chi_10 b )
     3.59932586E-03    2     1000023         5   # BR(~b_2 -> ~chi_20 b )
     3.81135209E-03    2     1000025         5   # BR(~b_2 -> ~chi_30 b )
     6.73146810E-04    2     1000035         5   # BR(~b_2 -> ~chi_40 b )
     1.14348633E-02    2    -1000024         6   # BR(~b_2 -> ~chi_1- t )
     1.35682340E-03    2    -1000037         6   # BR(~b_2 -> ~chi_2- t )
     9.62840999E-01    2     1000021         5   # BR(~b_2 -> ~g      b )
     1.95610866E-04    2     1000006       -24   # BR(~b_2 -> ~t_1    W-)
#
#         PDG            Width
DECAY   1000002     2.00279033E+02   # sup_L decays
#          BR         NDA      ID1       ID2
     3.71654706E-03    2     1000022         2   # BR(~u_L -> ~chi_10 u)
     1.27616939E-04    2     1000023         2   # BR(~u_L -> ~chi_20 u)
     5.73236184E-06    2     1000025         2   # BR(~u_L -> ~chi_30 u)
     3.93771700E-02    2     1000035         2   # BR(~u_L -> ~chi_40 u)
     3.81905363E-04    2     1000024         1   # BR(~u_L -> ~chi_1+ d)
     7.86855166E-02    2     1000037         1   # BR(~u_L -> ~chi_2+ d)
     8.77705512E-01    2     1000021         2   # BR(~u_L -> ~g      u)
#
#         PDG            Width
DECAY   2000002     1.86086057E+02   # sup_R decays
#          BR         NDA      ID1       ID2
     6.36955335E-02    2     1000022         2   # BR(~u_R -> ~chi_10 u)
     1.29459559E-05    2     1000023         2   # BR(~u_R -> ~chi_20 u)
     1.72306658E-05    2     1000025         2   # BR(~u_R -> ~chi_30 u)
     6.65914524E-09    2     1000035         2   # BR(~u_R -> ~chi_40 u)
     9.36274283E-01    2     1000021         2   # BR(~u_R -> ~g      u)
#
#         PDG            Width
DECAY   1000001     2.00298125E+02   # sdown_L decays
#          BR         NDA      ID1       ID2
     3.70731410E-03    2     1000022         1   # BR(~d_L -> ~chi_10 d)
     9.13582379E-05    2     1000023         1   # BR(~d_L -> ~chi_20 d)
     1.93638400E-05    2     1000025         1   # BR(~d_L -> ~chi_30 d)
     3.94011068E-02    2     1000035         1   # BR(~d_L -> ~chi_40 d)
     9.87114294E-05    2    -1000024         2   # BR(~d_L -> ~chi_1- u)
     7.88516380E-02    2    -1000037         2   # BR(~d_L -> ~chi_2- u)
     8.77830508E-01    2     1000021         1   # BR(~d_L -> ~g      d)
#
#         PDG            Width
DECAY   2000001     1.77216342E+02   # sdown_R decays
#          BR         NDA      ID1       ID2
     1.67217862E-02    2     1000022         1   # BR(~d_R -> ~chi_10 d)
     3.39876290E-06    2     1000023         1   # BR(~d_R -> ~chi_20 d)
     4.52364848E-06    2     1000025         1   # BR(~d_R -> ~chi_30 d)
     1.74841775E-09    2     1000035         1   # BR(~d_R -> ~chi_40 d)
     9.83270290E-01    2     1000021         1   # BR(~d_R -> ~g      d)
#
#         PDG            Width
DECAY   1000004     2.00279033E+02   # scharm_L decays
#          BR         NDA      ID1       ID2
     3.71654706E-03    2     1000022         4   # BR(~c_L -> ~chi_10 c)
     1.27616939E-04    2     1000023         4   # BR(~c_L -> ~chi_20 c)
     5.73236184E-06    2     1000025         4   # BR(~c_L -> ~chi_30 c)
     3.93771700E-02    2     1000035         4   # BR(~c_L -> ~chi_40 c)
     3.81905363E-04    2     1000024         3   # BR(~c_L -> ~chi_1+ s)
     7.86855166E-02    2     1000037         3   # BR(~c_L -> ~chi_2+ s)
     8.77705512E-01    2     1000021         4   # BR(~c_L -> ~g      c)
#
#         PDG            Width
DECAY   2000004     1.86086057E+02   # scharm_R decays
#          BR         NDA      ID1       ID2
     6.36955335E-02    2     1000022         4   # BR(~c_R -> ~chi_10 c)
     1.29459559E-05    2     1000023         4   # BR(~c_R -> ~chi_20 c)
     1.72306658E-05    2     1000025         4   # BR(~c_R -> ~chi_30 c)
     6.65914524E-09    2     1000035         4   # BR(~c_R -> ~chi_40 c)
     9.36274283E-01    2     1000021         4   # BR(~c_R -> ~g      c)
#
#         PDG            Width
DECAY   1000003     2.00298125E+02   # sstrange_L decays
#          BR         NDA      ID1       ID2
     3.70731410E-03    2     1000022         3   # BR(~s_L -> ~chi_10 s)
     9.13582379E-05    2     1000023         3   # BR(~s_L -> ~chi_20 s)
     1.93638400E-05    2     1000025         3   # BR(~s_L -> ~chi_30 s)
     3.94011068E-02    2     1000035         3   # BR(~s_L -> ~chi_40 s)
     9.87114294E-05    2    -1000024         4   # BR(~s_L -> ~chi_1- c)
     7.88516380E-02    2    -1000037         4   # BR(~s_L -> ~chi_2- c)
     8.77830508E-01    2     1000021         3   # BR(~s_L -> ~g      s)
#
#         PDG            Width
DECAY   2000003     1.77216342E+02   # sstrange_R decays
#          BR         NDA      ID1       ID2
     1.67217862E-02    2     1000022         3   # BR(~s_R -> ~chi_10 s)
     3.39876290E-06    2     1000023         3   # BR(~s_R -> ~chi_20 s)
     4.52364848E-06    2     1000025         3   # BR(~s_R -> ~chi_30 s)
     1.74841775E-09    2     1000035         3   # BR(~s_R -> ~chi_40 s)
     9.83270290E-01    2     1000021         3   # BR(~s_R -> ~g      s)
#
#         PDG            Width
DECAY   1000011     3.02215799E+01   # selectron_L decays
#          BR         NDA      ID1       ID2
     2.26833525E-01    2     1000022        11   # BR(~e_L -> ~chi_10 e-)
     1.13989126E-03    2     1000023        11   # BR(~e_L -> ~chi_20 e-)
     1.01059512E-06    2     1000025        11   # BR(~e_L -> ~chi_30 e-)
     2.56878149E-01    2     1000035        11   # BR(~e_L -> ~chi_40 e-)
     6.62127773E-04    2    -1000024        12   # BR(~e_L -> ~chi_1- nu_e)
     5.14485296E-01    2    -1000037        12   # BR(~e_L -> ~chi_2- nu_e)
#
#         PDG            Width
DECAY   2000011     2.73507636E+01   # selectron_R decays
#          BR         NDA      ID1       ID2
     9.99531693E-01    2     1000022        11   # BR(~e_R -> ~chi_10 e-)
     2.00866783E-04    2     1000023        11   # BR(~e_R -> ~chi_20 e-)
     2.67339330E-04    2     1000025        11   # BR(~e_R -> ~chi_30 e-)
     1.00636821E-07    2     1000035        11   # BR(~e_R -> ~chi_40 e-)
#
#         PDG            Width
DECAY   1000013     3.02215799E+01   # smuon_L decays
#          BR         NDA      ID1       ID2
     2.26833525E-01    2     1000022        13   # BR(~mu_L -> ~chi_10 mu-)
     1.13989126E-03    2     1000023        13   # BR(~mu_L -> ~chi_20 mu-)
     1.01059512E-06    2     1000025        13   # BR(~mu_L -> ~chi_30 mu-)
     2.56878149E-01    2     1000035        13   # BR(~mu_L -> ~chi_40 mu-)
     6.62127773E-04    2    -1000024        14   # BR(~mu_L -> ~chi_1- nu_mu)
     5.14485296E-01    2    -1000037        14   # BR(~mu_L -> ~chi_2- nu_mu)
#
#         PDG            Width
DECAY   2000013     2.73507636E+01   # smuon_R decays
#          BR         NDA      ID1       ID2
     9.99531693E-01    2     1000022        13   # BR(~mu_R -> ~chi_10 mu-)
     2.00866783E-04    2     1000023        13   # BR(~mu_R -> ~chi_20 mu-)
     2.67339330E-04    2     1000025        13   # BR(~mu_R -> ~chi_30 mu-)
     1.00636821E-07    2     1000035        13   # BR(~mu_R -> ~chi_40 mu-)
#
#         PDG            Width
DECAY   1000015     2.88626255E+01   # stau_1 decays
#          BR         NDA      ID1       ID2
     9.19591797E-01    2     1000022        15   # BR(~tau_1 -> ~chi_10  tau-)
     1.32893332E-02    2     1000023        15   # BR(~tau_1 -> ~chi_20  tau-)
     1.16690908E-02    2     1000025        15   # BR(~tau_1 -> ~chi_30  tau-)
     1.01402397E-02    2     1000035        15   # BR(~tau_1 -> ~chi_40  tau-)
     2.49990926E-02    2    -1000024        16   # BR(~tau_1 -> ~chi_1-  nu_tau)
     2.03104464E-02    2    -1000037        16   # BR(~tau_1 -> ~chi_2-  nu_tau)
#
#         PDG            Width
DECAY   2000015     3.08077092E+01   # stau_2 decays
#          BR         NDA      ID1       ID2
     2.48175686E-01    2     1000022        15   # BR(~tau_2 -> ~chi_10  tau-)
     1.16999681E-02    2     1000023        15   # BR(~tau_2 -> ~chi_20  tau-)
     1.21391735E-02    2     1000025        15   # BR(~tau_2 -> ~chi_30  tau-)
     2.42425601E-01    2     1000035        15   # BR(~tau_2 -> ~chi_40  tau-)
     2.64649215E-05    2    -1000024        16   # BR(~tau_2 -> ~chi_1-  nu_tau)
     4.85533106E-01    2    -1000037        16   # BR(~tau_2 -> ~chi_2-  nu_tau)
#
#         PDG            Width
DECAY   1000012     3.02230377E+01   # snu_eL decays
#          BR         NDA      ID1       ID2
     2.26591843E-01    2     1000022        12   # BR(~nu_eL -> ~chi_10 nu_e)
     4.09973516E-04    2     1000023        12   # BR(~nu_eL -> ~chi_20 nu_e)
     2.75209876E-04    2     1000025        12   # BR(~nu_eL -> ~chi_30 nu_e)
     2.57007916E-01    2     1000035        12   # BR(~nu_eL -> ~chi_40 nu_e)
     2.56094883E-03    2     1000024        11   # BR(~nu_eL -> ~chi_1+ e-)
     5.13154109E-01    2     1000037        11   # BR(~nu_eL -> ~chi_2+ e-)
#
#         PDG            Width
DECAY   1000014     3.02230377E+01   # snu_muL decays
#          BR         NDA      ID1       ID2
     2.26591843E-01    2     1000022        14   # BR(~nu_muL -> ~chi_10 nu_mu)
     4.09973516E-04    2     1000023        14   # BR(~nu_muL -> ~chi_20 nu_mu)
     2.75209876E-04    2     1000025        14   # BR(~nu_muL -> ~chi_30 nu_mu)
     2.57007916E-01    2     1000035        14   # BR(~nu_muL -> ~chi_40 nu_mu)
     2.56094883E-03    2     1000024        13   # BR(~nu_muL -> ~chi_1+ mu-)
     5.13154109E-01    2     1000037        13   # BR(~nu_muL -> ~chi_2+ mu-)
#
#         PDG            Width
DECAY   1000016     3.09195838E+01   # snu_tauL decays
#          BR         NDA      ID1       ID2
     2.21463719E-01    2     1000022        16   # BR(~nu_tauL -> ~chi_10 nu_tau)
     4.00670082E-04    2     1000023        16   # BR(~nu_tauL -> ~chi_20 nu_tau)
     2.68964544E-04    2     1000025        16   # BR(~nu_tauL -> ~chi_30 nu_tau)
     2.51127311E-01    2     1000035        16   # BR(~nu_tauL -> ~chi_40 nu_tau)
     2.53220499E-02    2     1000024        15   # BR(~nu_tauL -> ~chi_1+ tau-)
     5.01417285E-01    2     1000037        15   # BR(~nu_tauL -> ~chi_2+ tau-)
#
#         PDG            Width
DECAY   1000024     1.11022410E+00   # chargino1+ decays
#          BR         NDA      ID1       ID2
     1.00000000E+00    2     1000022        24   # BR(~chi_1+ -> ~chi_10  W+)
#
#         PDG            Width
DECAY   1000037     1.67617091E+01   # chargino2+ decays
#          BR         NDA      ID1       ID2
     2.52286132E-01    2     1000024        23   # BR(~chi_2+ -> ~chi_1+  Z )
     3.54604004E-04    2     1000022        24   # BR(~chi_2+ -> ~chi_10  W+)
     2.44524711E-01    2     1000023        24   # BR(~chi_2+ -> ~chi_20  W+)
     2.43230024E-01    2     1000025        24   # BR(~chi_2+ -> ~chi_30  W+)
     2.59604390E-01    2     1000024        25   # BR(~chi_2+ -> ~chi_1+  h )
     1.39735815E-07    2     1000022        37   # BR(~chi_2+ -> ~chi_10  H+)
#
#         PDG            Width
DECAY   1000022     0.00000000E+00   # neutralino1 decays
#
#         PDG            Width
DECAY   1000023     1.16862561E+00   # neutralino2 decays
#          BR         NDA      ID1       ID2
     5.62410860E-01    2     1000022        23   # BR(~chi_20 -> ~chi_10   Z )
     4.37589140E-01    2     1000022        25   # BR(~chi_20 -> ~chi_10   h )
#
#         PDG            Width
DECAY   1000025     1.18200815E+00   # neutralino3 decays
#          BR         NDA      ID1       ID2
     4.18905742E-01    2     1000022        23   # BR(~chi_30 -> ~chi_10   Z )
     5.81094258E-01    2     1000022        25   # BR(~chi_30 -> ~chi_10   h )
#
#         PDG            Width
DECAY   1000035     1.67396029E+01   # neutralino4 decays
#          BR         NDA      ID1       ID2
     1.47303069E-04    2     1000022        23   # BR(~chi_40 -> ~chi_10   Z )
     2.45204966E-02    2     1000023        23   # BR(~chi_40 -> ~chi_20   Z )
     2.27739402E-01    2     1000025        23   # BR(~chi_40 -> ~chi_30   Z )
     2.43932386E-01    2     1000024       -24   # BR(~chi_40 -> ~chi_1+   W-)
     2.43932386E-01    2    -1000024        24   # BR(~chi_40 -> ~chi_1-   W+)
     2.19469637E-04    2     1000022        25   # BR(~chi_40 -> ~chi_10   h )
     1.20383085E-07    2     1000022        35   # BR(~chi_40 -> ~chi_10   H )
     2.46494470E-08    2     1000022        36   # BR(~chi_40 -> ~chi_10   A )
     2.35160837E-01    2     1000023        25   # BR(~chi_40 -> ~chi_20   h )
     2.43475745E-02    2     1000025        25   # BR(~chi_40 -> ~chi_30   h )
#
#         PDG            Width
DECAY        25     4.03276566E-03   # h decays
#          BR         NDA      ID1       ID2
     6.04203738E-01    2           5        -5   # BR(h -> b       bb     )
     6.43388289E-02    2         -15        15   # BR(h -> tau+    tau-   )
     2.27782592E-04    2         -13        13   # BR(h -> mu+     mu-    )
     4.82842803E-04    2           3        -3   # BR(h -> s       sb     )
     2.09247925E-02    2           4        -4   # BR(h -> c       cb     )
     6.77531947E-02    2          21        21   # BR(h -> g       g      )
     2.33110348E-03    2          22        22   # BR(h -> gam     gam    )
     1.50795201E-03    2          22        23   # BR(h -> Z       gam    )
     2.12811874E-01    2          24       -24   # BR(h -> W+      W-     )
     2.53925729E-02    2          23        23   # BR(h -> Z       Z      )
     2.53174257E-05    2     1000022   1000022   # BR(h -> ~chi_10 ~chi_10)
#
#         PDG            Width
DECAY        35     6.72858063E+00   # H decays
#          BR         NDA      ID1       ID2
     4.89944954E-01    2           5        -5   # BR(H -> b       bb     )
     8.27988598E-02    2         -15        15   # BR(H -> tau+    tau-   )
     2.92783345E-04    2         -13        13   # BR(H -> mu+     mu-    )
     3.58907563E-04    2           3        -3   # BR(H -> s       sb     )
     2.00733802E-06    2           4        -4   # BR(H -> c       cb     )
     2.00548962E-01    2           6        -6   # BR(H -> t       tb     )
     6.65479345E-05    2          21        21   # BR(H -> g       g      )
     3.86180756E-07    2          22        22   # BR(H -> gam     gam    )
     1.18475928E-07    2          23        22   # BR(H -> Z       gam    )
     8.83048393E-05    2          24       -24   # BR(H -> W+      W-     )
     4.40965444E-05    2          23        23   # BR(H -> Z       Z      )
     3.35448859E-04    2          25        25   # BR(H -> h       h      )
    -2.70506132E-24    2          36        36   # BR(H -> A       A      )
     1.02027990E-18    2          23        36   # BR(H -> Z       A      )
     6.62830625E-04    2     1000022   1000022   # BR(H -> ~chi_10 ~chi_10)
     1.32440439E-01    2     1000022   1000023   # BR(H -> ~chi_10 ~chi_20)
     9.24153535E-02    2     1000022   1000025   # BR(H -> ~chi_10 ~chi_30)
#
#         PDG            Width
DECAY        36     6.73165994E+00   # A decays
#          BR         NDA      ID1       ID2
     4.89883609E-01    2           5        -5   # BR(A -> b       bb     )
     8.27634702E-02    2         -15        15   # BR(A -> tau+    tau-   )
     2.92657795E-04    2         -13        13   # BR(A -> mu+     mu-    )
     3.59015777E-04    2           3        -3   # BR(A -> s       sb     )
     2.01486450E-06    2           4        -4   # BR(A -> c       cb     )
     2.01189855E-01    2           6        -6   # BR(A -> t       tb     )
     1.99097070E-04    2          21        21   # BR(A -> g       g      )
     3.71834554E-07    2          22        22   # BR(A -> gam     gam    )
     2.41252949E-07    2          23        22   # BR(A -> Z       gam    )
     8.79307161E-05    2          23        25   # BR(A -> Z       h      )
     6.83988062E-04    2     1000022   1000022   # BR(A -> ~chi_10 ~chi_10)
     9.34910202E-02    2     1000022   1000023   # BR(A -> ~chi_10 ~chi_20)
     1.31046728E-01    2     1000022   1000025   # BR(A -> ~chi_10 ~chi_30)
#
#         PDG            Width
DECAY        37     6.75916062E+00   # H+ decays
#          BR         NDA      ID1       ID2
     7.91659526E-04    2           4        -5   # BR(H+ -> c       bb     )
     8.24507011E-02    2         -15        16   # BR(H+ -> tau+    nu_tau )
     2.91551820E-04    2         -13        14   # BR(H+ -> mu+     nu_mu  )
     5.06659541E-06    2           2        -5   # BR(H+ -> u       bb     )
     1.71076542E-05    2           2        -3   # BR(H+ -> u       sb     )
     3.53787292E-04    2           4        -3   # BR(H+ -> c       sb     )
     6.90947566E-01    2           6        -5   # BR(H+ -> t       bb     )
     8.77055952E-05    2          24        25   # BR(H+ -> W+      h      )
     9.81965974E-14    2          24        36   # BR(H+ -> W+      A      )
     2.25054855E-01    2     1000024   1000022   # BR(H+ -> ~chi_1+ ~chi_10)
