#
#                              ======================
#                              | THE SUSYHIT OUTPUT |
#                              ======================
#
#
#              ------------------------------------------------------
#              |     This is the output of the SUSY-HIT package     |
#              |  created by A.Djouadi, M.Muehlleitner and M.Spira. |
#              |  In case of problems with SUSY-HIT email to        |
#              |           margarete.muehlleitner@cern.ch           |
#              |           michael.spira@psi.ch                     |
#              |           abdelhak.djouadi@cern.ch                 |
#              ------------------------------------------------------
#
#              ------------------------------------------------------
#              |  SUSY Les Houches Accord - MSSM Spectrum + Decays  |
#              |              based on the decay programs           |
#              |                                                    |
#              |                     SDECAY 1.3b                    |
#              |                                                    |
#              |  Authors: M.Muhlleitner, A.Djouadi and Y.Mambrini  |
#              |  Ref.:    Comput.Phys.Commun.168(2005)46           |
#              |           [hep-ph/0311167]                         |
#              |                                                    |
#              |                     HDECAY 3.4                     |
#              |                                                    |
#              |  By: A.Djouadi,J.Kalinowski,M.Muhlleitner,M.Spira  |
#              |  Ref.:    Comput.Phys.Commun.108(1998)56           |
#              |           [hep-ph/9704448]                         |
#              |                                                    |
#              |                                                    |
#              |  If not stated otherwise all DRbar couplings and   |
#              |  soft SUSY breaking masses are given at the scale  |
#              |  Q=  0.50007514E+04
#              |                                                    |
#              ------------------------------------------------------
#
#
BLOCK DCINFO  # Decay Program information
     1   SDECAY/HDECAY # decay calculator
     2   1.3b  /3.4    # version number
#
BLOCK SPINFO  # Spectrum calculator information
     1    SOFTSUSY    # spectrum calculator                
     2    3.4.0       # version number                     
#
BLOCK MODSEL  # Model selection
     1     0   #  nonUniversal                                     
#
BLOCK SMINPUTS  # Standard Model inputs
         1     1.25778332E+02   # alpha_em^-1(M_Z)^MSbar
         2     1.16570000E-05   # G_F [GeV^-2]
         3     1.17200002E-01   # alpha_S(M_Z)^MSbar
         4     9.11876000E+01   # M_Z pole mass
         5     4.25000000E+00   # mb(mb)^MSbar
         6     1.72500000E+02   # mt pole mass
         7     1.77682000E+00   # mtau pole mass
#
BLOCK MINPAR  # Input parameters - minimal models
         3     1.00000000E+01   # tanb                
#
BLOCK EXTPAR  # Input parameters - non-minimal models
         0    -1.00000000E+00   # Set                 
         1     6.00000000E+01   # M_1(MX)             
         2     3.00000000E+03   # M_2(MX)             
         3     2.33132300E+03   # M_3(MX)             
        11     5.00000000E+03   # At(MX)              
        12     5.00000000E+03   # Ab(MX)              
        13     0.00000000E+00   # Atau(MX)            
        23    -7.64794000E+02   # mu(MX)              
        26     3.00000000E+03   # mA(pole)            
        31     5.00000000E+03   # meL(MX)             
        32     5.00000000E+03   # mmuL(MX)            
        33     5.00000000E+03   # mtauL(MX)           
        34     5.00000000E+03   # meR(MX)             
        35     5.00000000E+03   # mmuR(MX)            
        36     5.00000000E+03   # mtauR(MX)           
        41     5.00000000E+03   # mqL1(MX)            
        42     5.00000000E+03   # mqL2(MX)            
        43     5.00000000E+03   # mqL3(MX)            
        44     5.00000000E+03   # muR(MX)             
        45     5.00000000E+03   # mcR(MX)             
        46     5.00000000E+03   # mtR(MX)             
        47     5.00000000E+03   # mdR(MX)             
        48     5.00000000E+03   # msR(MX)             
        49     5.00000000E+03   # mbR(MX)             
#
BLOCK MASS  # Mass Spectrum
# PDG code           mass       particle
        24     8.00948141E+01   # W+
        25     1.24816443E+02   # h
        35     3.00008299E+03   # H
        36     2.99999764E+03   # A
        37     3.00136074E+03   # H+
         5     4.87878001E+00   # b-quark pole mass calculated from mb(mb)_Msbar
   1000001     5.08404432E+03   # ~d_L
   2000001     5.06627559E+03   # ~d_R
   1000002     5.08357419E+03   # ~u_L
   2000002     5.06598589E+03   # ~u_R
   1000003     5.08404432E+03   # ~s_L
   2000003     5.06627559E+03   # ~s_R
   1000004     5.08357419E+03   # ~c_L
   2000004     5.06598589E+03   # ~c_R
   1000005     5.02975199E+03   # ~b_1
   2000005     5.06464368E+03   # ~b_2
   1000006     4.92192777E+03   # ~t_1
   2000006     5.07312792E+03   # ~t_2
   1000011     5.01907999E+03   # ~e_L
   2000011     5.00593110E+03   # ~e_R
   1000012     5.01813105E+03   # ~nu_eL
   1000013     5.01907999E+03   # ~mu_L
   2000013     5.00593110E+03   # ~mu_R
   1000014     5.01813105E+03   # ~nu_muL
   1000015     5.00468697E+03   # ~tau_1
   2000015     5.01869573E+03   # ~tau_2
   1000016     5.01758269E+03   # ~nu_tauL
   1000021     2.70000079E+03   # ~g
   1000022     6.02875536E+01   # ~chi_10
   1000023     7.99842758E+02   # ~chi_20
   1000025    -8.02072972E+02   # ~chi_30
   1000035     3.07420440E+03   # ~chi_40
   1000024     8.00000714E+02   # ~chi_1+
   1000037     3.07437189E+03   # ~chi_2+
#
BLOCK NMIX  # Neutralino Mixing Matrix
  1  1     9.98452011E-01   # N_11
  1  2     2.07829562E-04   # N_12
  1  3    -5.55966278E-02   # N_13
  1  4     1.59789376E-03   # N_14
  2  1     3.81984157E-02   # N_21
  2  2     2.14524394E-02   # N_22
  2  3     7.06384732E-01   # N_23
  2  4     7.06471007E-01   # N_24
  3  1    -4.04265774E-02   # N_31
  3  2     1.56878160E-02   # N_32
  3  3    -7.05629527E-01   # N_33
  3  4     7.07252823E-01   # N_34
  4  1    -3.92891122E-04   # N_41
  4  2     9.99646759E-01   # N_42
  4  3    -4.07377390E-03   # N_43
  4  4    -2.62603869E-02   # N_44
#
BLOCK UMIX  # Chargino Mixing Matrix U
  1  1     5.77197197E-03   # U_11
  1  2     9.99983342E-01   # U_12
  2  1    -9.99983342E-01   # U_21
  2  2     5.77197197E-03   # U_22
#
BLOCK VMIX  # Chargino Mixing Matrix V
  1  1     3.71660347E-02   # V_11
  1  2    -9.99309104E-01   # V_12
  2  1    -9.99309104E-01   # V_21
  2  2    -3.71660347E-02   # V_22
#
BLOCK STOPMIX  # Stop Mixing Matrix
  1  1    -5.02758443E-01   # cos(theta_t)
  1  2     8.64426948E-01   # sin(theta_t)
  2  1    -8.64426948E-01   # -sin(theta_t)
  2  2    -5.02758443E-01   # cos(theta_t)
#
BLOCK SBOTMIX  # Sbottom Mixing Matrix
  1  1     9.97880321E-01   # cos(theta_b)
  1  2    -6.50758401E-02   # sin(theta_b)
  2  1     6.50758401E-02   # -sin(theta_b)
  2  2     9.97880321E-01   # cos(theta_b)
#
BLOCK STAUMIX  # Stau Mixing Matrix
  1  1    -9.13654693E-02   # cos(theta_tau)
  1  2     9.95817429E-01   # sin(theta_tau)
  2  1    -9.95817429E-01   # -sin(theta_tau)
  2  2    -9.13654693E-02   # cos(theta_tau)
#
BLOCK ALPHA  # Higgs mixing
          -1.05486847E-01   # Mixing angle in the neutral Higgs boson sector
#
BLOCK HMIX Q=  5.00075138E+03  # DRbar Higgs Parameters
         1    -7.78863777E+02   # mu(Q)MSSM           
         2     9.46886919E+00   # tan                 
         3     2.41814700E+02   # higgs               
         4     8.57860847E+06   # mA^2(Q)MSSM         
#
BLOCK GAUGE Q=  5.00075138E+03  # The gauge couplings
     1     3.70834811E-01   # gprime(Q) DRbar
     2     6.32759186E-01   # g(Q) DRbar
     3     9.94066101E-01   # g3(Q) DRbar
#
BLOCK AU Q=  5.00075138E+03  # The trilinear couplings
  1  1     5.00000002E+03   # A_u(Q) DRbar
  2  2     5.00000002E+03   # A_c(Q) DRbar
  3  3     5.00000002E+03   # A_t(Q) DRbar
#
BLOCK AD Q=  5.00075138E+03  # The trilinear couplings
  1  1     5.00000001E+03   # A_d(Q) DRbar
  2  2     5.00000001E+03   # A_s(Q) DRbar
  3  3     5.00000001E+03   # A_b(Q) DRbar
#
BLOCK AE Q=  5.00075138E+03  # The trilinear couplings
  1  1     0.00000000E+00   # A_e(Q) DRbar
  2  2     2.78264674E-07   # A_mu(Q) DRbar
  3  3     2.78312050E-07   # A_tau(Q) DRbar
#
BLOCK Yu Q=  5.00075138E+03  # The Yukawa couplings
  1  1     0.00000000E+00   # y_u(Q) DRbar
  2  2     0.00000000E+00   # y_c(Q) DRbar
  3  3     8.21447013E-01   # y_t(Q) DRbar
#
BLOCK Yd Q=  5.00075138E+03  # The Yukawa couplings
  1  1     0.00000000E+00   # y_d(Q) DRbar
  2  2     0.00000000E+00   # y_s(Q) DRbar
  3  3     1.30799336E-01   # y_b(Q) DRbar
#
BLOCK Ye Q=  5.00075138E+03  # The Yukawa couplings
  1  1     0.00000000E+00   # y_e(Q) DRbar
  2  2     0.00000000E+00   # y_mu(Q) DRbar
  3  3     9.69530733E-02   # y_tau(Q) DRbar
#
BLOCK MSOFT Q=  5.00075138E+03  # The soft SUSY breaking masses at the scale Q
         1     6.00000000E+01   # M_1(Q)              
         2     3.00000000E+03   # M_2(Q)              
         3     2.33132300E+03   # M_3(Q)              
        21     8.10289777E+06   # mH1^2(Q)            
        22    -3.45209233E+04   # mH2^2(Q)            
        31     5.00000000E+03   # meL(Q)              
        32     5.00000000E+03   # mmuL(Q)             
        33     5.00000000E+03   # mtauL(Q)            
        34     5.00000000E+03   # meR(Q)              
        35     5.00000000E+03   # mmuR(Q)             
        36     5.00000000E+03   # mtauR(Q)            
        41     4.99999999E+03   # mqL1(Q)             
        42     4.99999999E+03   # mqL2(Q)             
        43     4.99999999E+03   # mqL3(Q)             
        44     4.99999999E+03   # muR(Q)              
        45     4.99999999E+03   # mcR(Q)              
        46     4.99999999E+03   # mtR(Q)              
        47     4.99999999E+03   # mdR(Q)              
        48     4.99999999E+03   # msR(Q)              
        49     4.99999999E+03   # mbR(Q)              
#
#
#
#                             =================
#                             |The decay table|
#                             =================
#
# - The QCD corrections to the decays gluino -> squark  + quark
#                                     squark -> gaugino + quark_prime
#                                     squark -> squark_prime + Higgs
#                                     squark -> gluino  + quark
#   are included.
#
# - The multi-body decays for the inos, stops and sbottoms are included.
#
# - The loop induced decays for the gluino, neutralinos and stops
#   are included.
#
# - The SUSY decays of the top quark are included.
#
#
#         PDG            Width
DECAY         6     1.40309017E+00   # top decays
#          BR         NDA      ID1       ID2
     1.00000000E+00    2           5        24   # BR(t ->  b    W+)
#
#         PDG            Width
DECAY   1000021     8.28118978E-03   # gluino decays
#          BR         NDA      ID1       ID2
     1.09088063E-06    2     1000022        21   # BR(~g -> ~chi_10 g)
     4.09496220E-03    2     1000023        21   # BR(~g -> ~chi_20 g)
     4.01267356E-03    2     1000025        21   # BR(~g -> ~chi_30 g)
#           BR         NDA      ID1       ID2       ID3
     1.38322984E-02    3     1000022         1        -1   # BR(~g -> ~chi_10 d  db)
     2.18340876E-05    3     1000023         1        -1   # BR(~g -> ~chi_20 d  db)
     2.02390694E-05    3     1000025         1        -1   # BR(~g -> ~chi_30 d  db)
     4.71737336E-02    3     1000022         2        -2   # BR(~g -> ~chi_10 u  ub)
     9.01164068E-05    3     1000023         2        -2   # BR(~g -> ~chi_20 u  ub)
     2.68789802E-05    3     1000025         2        -2   # BR(~g -> ~chi_30 u  ub)
     1.38322984E-02    3     1000022         3        -3   # BR(~g -> ~chi_10 s  sb)
     2.18340876E-05    3     1000023         3        -3   # BR(~g -> ~chi_20 s  sb)
     2.02390694E-05    3     1000025         3        -3   # BR(~g -> ~chi_30 s  sb)
     4.71737336E-02    3     1000022         4        -4   # BR(~g -> ~chi_10 c  cb)
     9.01164068E-05    3     1000023         4        -4   # BR(~g -> ~chi_20 c  cb)
     2.68789802E-05    3     1000025         4        -4   # BR(~g -> ~chi_30 c  cb)
     1.40615005E-02    3     1000022         5        -5   # BR(~g -> ~chi_10 b  bb)
     5.09510374E-03    3     1000023         5        -5   # BR(~g -> ~chi_20 b  bb)
     5.05848322E-03    3     1000025         5        -5   # BR(~g -> ~chi_30 b  bb)
     4.87124916E-02    3     1000022         6        -6   # BR(~g -> ~chi_10 t  tb)
     1.98461268E-01    3     1000023         6        -6   # BR(~g -> ~chi_20 t  tb)
     1.87702153E-01    3     1000025         6        -6   # BR(~g -> ~chi_30 t  tb)
     6.00579586E-05    3     1000024         1        -2   # BR(~g -> ~chi_1+ d  ub)
     6.00579586E-05    3    -1000024         2        -1   # BR(~g -> ~chi_1- u  db)
     6.00579586E-05    3     1000024         3        -4   # BR(~g -> ~chi_1+ s  cb)
     6.00579586E-05    3    -1000024         4        -3   # BR(~g -> ~chi_1- c  sb)
     2.05114920E-01    3     1000024         5        -6   # BR(~g -> ~chi_1+ b  tb)
     2.05114920E-01    3    -1000024         6        -5   # BR(~g -> ~chi_1- t  bb)
#
#         PDG            Width
DECAY   1000006     2.77918389E+02   # stop1 decays
#          BR         NDA      ID1       ID2
     3.20310650E-02    2     1000022         6   # BR(~t_1 -> ~chi_10 t )
     1.13048063E-01    2     1000023         6   # BR(~t_1 -> ~chi_20 t )
     1.08369734E-01    2     1000025         6   # BR(~t_1 -> ~chi_30 t )
     7.26829459E-03    2     1000035         6   # BR(~t_1 -> ~chi_40 t )
     1.66293652E-01    2     1000024         5   # BR(~t_1 -> ~chi_1+ b )
     1.44851029E-02    2     1000037         5   # BR(~t_1 -> ~chi_2+ b )
     5.58504088E-01    2     1000021         6   # BR(~t_1 -> ~g      t )
#
#         PDG            Width
DECAY   2000006     2.86390046E+02   # stop2 decays
#          BR         NDA      ID1       ID2
     1.18405212E-02    2     1000022         6   # BR(~t_2 -> ~chi_10 t )
     1.11763447E-01    2     1000023         6   # BR(~t_2 -> ~chi_20 t )
     1.16804299E-01    2     1000025         6   # BR(~t_2 -> ~chi_30 t )
     1.98031396E-02    2     1000035         6   # BR(~t_2 -> ~chi_40 t )
     6.44890863E-02    2     1000024         5   # BR(~t_2 -> ~chi_1+ b )
     3.94164581E-02    2     1000037         5   # BR(~t_2 -> ~chi_2+ b )
     6.31730268E-01    2     1000021         6   # BR(~t_2 -> ~g      t )
     9.54306379E-04    2     1000006        25   # BR(~t_2 -> ~t_1    h )
     3.19847442E-03    2     1000006        23   # BR(~t_2 -> ~t_1    Z )
#
#         PDG            Width
DECAY   1000005     2.60766514E+02   # sbottom1 decays
#          BR         NDA      ID1       ID2
     2.95078596E-03    2     1000022         5   # BR(~b_1 -> ~chi_10 b )
     3.11933647E-03    2     1000023         5   # BR(~b_1 -> ~chi_20 b )
     3.06686866E-03    2     1000025         5   # BR(~b_1 -> ~chi_30 b )
     2.92001452E-02    2     1000035         5   # BR(~b_1 -> ~chi_40 b )
     2.44084913E-01    2    -1000024         6   # BR(~b_1 -> ~chi_1- t )
     5.86478046E-02    2    -1000037         6   # BR(~b_1 -> ~chi_2- t )
     6.56876073E-01    2     1000021         5   # BR(~b_1 -> ~g      b )
     2.05407315E-03    2     1000006       -24   # BR(~b_1 -> ~t_1    W-)
#
#         PDG            Width
DECAY   2000005     1.80778501E+02   # sbottom2 decays
#          BR         NDA      ID1       ID2
     1.62173260E-02    2     1000022         5   # BR(~b_2 -> ~chi_10 b )
     4.54301573E-03    2     1000023         5   # BR(~b_2 -> ~chi_20 b )
     4.63693978E-03    2     1000025         5   # BR(~b_2 -> ~chi_30 b )
     1.71321724E-04    2     1000035         5   # BR(~b_2 -> ~chi_40 b )
     1.04009685E-02    2    -1000024         6   # BR(~b_2 -> ~chi_1- t )
     3.44090527E-04    2    -1000037         6   # BR(~b_2 -> ~chi_2- t )
     9.63631775E-01    2     1000021         5   # BR(~b_2 -> ~g      b )
     5.45628917E-05    2     1000006       -24   # BR(~b_2 -> ~t_1    W-)
#
#         PDG            Width
DECAY   1000002     2.00350550E+02   # sup_L decays
#          BR         NDA      ID1       ID2
     3.71313352E-03    2     1000022         2   # BR(~u_L -> ~chi_10 u)
     7.76320278E-05    2     1000023         2   # BR(~u_L -> ~chi_20 u)
     5.63376701E-06    2     1000025         2   # BR(~u_L -> ~chi_30 u)
     3.95217803E-02    2     1000035         2   # BR(~u_L -> ~chi_40 u)
     2.56519074E-04    2     1000024         1   # BR(~u_L -> ~chi_1+ d)
     7.89924656E-02    2     1000037         1   # BR(~u_L -> ~chi_2+ d)
     8.77432836E-01    2     1000021         2   # BR(~u_L -> ~g      u)
#
#         PDG            Width
DECAY   2000002     1.86100150E+02   # sup_R decays
#          BR         NDA      ID1       ID2
     6.35976220E-02    2     1000022         2   # BR(~u_R -> ~chi_10 u)
     8.87193048E-05    2     1000023         2   # BR(~u_R -> ~chi_20 u)
     9.93435529E-05    2     1000025         2   # BR(~u_R -> ~chi_30 u)
     3.96812073E-09    2     1000035         2   # BR(~u_R -> ~chi_40 u)
     9.36214311E-01    2     1000021         2   # BR(~u_R -> ~g      u)
#
#         PDG            Width
DECAY   1000001     2.00367451E+02   # sdown_L decays
#          BR         NDA      ID1       ID2
     3.69737917E-03    2     1000022         1   # BR(~d_L -> ~chi_10 d)
     1.81746110E-05    2     1000023         1   # BR(~d_L -> ~chi_20 d)
     5.16387074E-05    2     1000025         1   # BR(~d_L -> ~chi_30 d)
     3.95426228E-02    2     1000035         1   # BR(~d_L -> ~chi_40 d)
     6.18705402E-06    2    -1000024         2   # BR(~d_L -> ~chi_1- u)
     7.91165101E-02    2    -1000037         2   # BR(~d_L -> ~chi_2- u)
     8.77567488E-01    2     1000021         1   # BR(~d_L -> ~g      d)
#
#         PDG            Width
DECAY   2000001     1.77223204E+02   # sdown_R decays
#          BR         NDA      ID1       ID2
     1.66967679E-02    2     1000022         1   # BR(~d_R -> ~chi_10 d)
     2.32922835E-05    2     1000023         1   # BR(~d_R -> ~chi_20 d)
     2.60815646E-05    2     1000025         1   # BR(~d_R -> ~chi_30 d)
     1.04191770E-09    2     1000035         1   # BR(~d_R -> ~chi_40 d)
     9.83253857E-01    2     1000021         1   # BR(~d_R -> ~g      d)
#
#         PDG            Width
DECAY   1000004     2.00350550E+02   # scharm_L decays
#          BR         NDA      ID1       ID2
     3.71313352E-03    2     1000022         4   # BR(~c_L -> ~chi_10 c)
     7.76320278E-05    2     1000023         4   # BR(~c_L -> ~chi_20 c)
     5.63376701E-06    2     1000025         4   # BR(~c_L -> ~chi_30 c)
     3.95217803E-02    2     1000035         4   # BR(~c_L -> ~chi_40 c)
     2.56519074E-04    2     1000024         3   # BR(~c_L -> ~chi_1+ s)
     7.89924656E-02    2     1000037         3   # BR(~c_L -> ~chi_2+ s)
     8.77432836E-01    2     1000021         4   # BR(~c_L -> ~g      c)
#
#         PDG            Width
DECAY   2000004     1.86100150E+02   # scharm_R decays
#          BR         NDA      ID1       ID2
     6.35976220E-02    2     1000022         4   # BR(~c_R -> ~chi_10 c)
     8.87193048E-05    2     1000023         4   # BR(~c_R -> ~chi_20 c)
     9.93435529E-05    2     1000025         4   # BR(~c_R -> ~chi_30 c)
     3.96812073E-09    2     1000035         4   # BR(~c_R -> ~chi_40 c)
     9.36214311E-01    2     1000021         4   # BR(~c_R -> ~g      c)
#
#         PDG            Width
DECAY   1000003     2.00367451E+02   # sstrange_L decays
#          BR         NDA      ID1       ID2
     3.69737917E-03    2     1000022         3   # BR(~s_L -> ~chi_10 s)
     1.81746110E-05    2     1000023         3   # BR(~s_L -> ~chi_20 s)
     5.16387074E-05    2     1000025         3   # BR(~s_L -> ~chi_30 s)
     3.95426228E-02    2     1000035         3   # BR(~s_L -> ~chi_40 s)
     6.18705402E-06    2    -1000024         4   # BR(~s_L -> ~chi_1- c)
     7.91165101E-02    2    -1000037         4   # BR(~s_L -> ~chi_2- c)
     8.77567488E-01    2     1000021         3   # BR(~s_L -> ~g      s)
#
#         PDG            Width
DECAY   2000003     1.77223204E+02   # sstrange_R decays
#          BR         NDA      ID1       ID2
     1.66967679E-02    2     1000022         3   # BR(~s_R -> ~chi_10 s)
     2.32922835E-05    2     1000023         3   # BR(~s_R -> ~chi_20 s)
     2.60815646E-05    2     1000025         3   # BR(~s_R -> ~chi_30 s)
     1.04191770E-09    2     1000035         3   # BR(~s_R -> ~chi_40 s)
     9.83253857E-01    2     1000021         3   # BR(~s_R -> ~g      s)
#
#         PDG            Width
DECAY   1000011     3.02877745E+01   # selectron_L decays
#          BR         NDA      ID1       ID2
     2.26076489E-01    2     1000022        11   # BR(~e_L -> ~chi_10 e-)
     1.20479100E-03    2     1000023        11   # BR(~e_L -> ~chi_20 e-)
     4.01551534E-05    2     1000025        11   # BR(~e_L -> ~chi_30 e-)
     2.57373386E-01    2     1000035        11   # BR(~e_L -> ~chi_40 e-)
     4.17695606E-05    2    -1000024        12   # BR(~e_L -> ~chi_1- nu_e)
     5.15263409E-01    2    -1000037        12   # BR(~e_L -> ~chi_2- nu_e)
#
#         PDG            Width
DECAY   2000011     2.73786744E+01   # selectron_R decays
#          BR         NDA      ID1       ID2
     9.97061588E-01    2     1000022        11   # BR(~e_R -> ~chi_10 e-)
     1.38618700E-03    2     1000023        11   # BR(~e_R -> ~chi_20 e-)
     1.55216536E-03    2     1000025        11   # BR(~e_R -> ~chi_30 e-)
     5.99138453E-08    2     1000035        11   # BR(~e_R -> ~chi_40 e-)
#
#         PDG            Width
DECAY   1000013     3.02877745E+01   # smuon_L decays
#          BR         NDA      ID1       ID2
     2.26076489E-01    2     1000022        13   # BR(~mu_L -> ~chi_10 mu-)
     1.20479100E-03    2     1000023        13   # BR(~mu_L -> ~chi_20 mu-)
     4.01551534E-05    2     1000025        13   # BR(~mu_L -> ~chi_30 mu-)
     2.57373386E-01    2     1000035        13   # BR(~mu_L -> ~chi_40 mu-)
     4.17695606E-05    2    -1000024        14   # BR(~mu_L -> ~chi_1- nu_mu)
     5.15263409E-01    2    -1000037        14   # BR(~mu_L -> ~chi_2- nu_mu)
#
#         PDG            Width
DECAY   2000013     2.73786744E+01   # smuon_R decays
#          BR         NDA      ID1       ID2
     9.97061588E-01    2     1000022        13   # BR(~mu_R -> ~chi_10 mu-)
     1.38618700E-03    2     1000023        13   # BR(~mu_R -> ~chi_20 mu-)
     1.55216536E-03    2     1000025        13   # BR(~mu_R -> ~chi_30 mu-)
     5.99138453E-08    2     1000035        13   # BR(~mu_R -> ~chi_40 mu-)
#
#         PDG            Width
DECAY   1000015     2.91707613E+01   # stau_1 decays
#          BR         NDA      ID1       ID2
     9.30693319E-01    2     1000022        15   # BR(~tau_1 -> ~chi_10  tau-)
     1.64842825E-02    2     1000023        15   # BR(~tau_1 -> ~chi_20  tau-)
     1.58993999E-02    2     1000025        15   # BR(~tau_1 -> ~chi_30  tau-)
     2.16669902E-03    2     1000035        15   # BR(~tau_1 -> ~chi_40  tau-)
     3.04187660E-02    2    -1000024        16   # BR(~tau_1 -> ~chi_1-  nu_tau)
     4.33753377E-03    2    -1000037        16   # BR(~tau_1 -> ~chi_2-  nu_tau)
#
#         PDG            Width
DECAY   2000015     3.11497515E+01   # stau_2 decays
#          BR         NDA      ID1       ID2
     2.24574039E-01    2     1000022        15   # BR(~tau_2 -> ~chi_10  tau-)
     1.54681886E-02    2     1000023        15   # BR(~tau_2 -> ~chi_20  tau-)
     1.49631179E-02    2     1000025        15   # BR(~tau_2 -> ~chi_30  tau-)
     2.48137649E-01    2     1000035        15   # BR(~tau_2 -> ~chi_40  tau-)
     8.29892511E-05    2    -1000024        16   # BR(~tau_2 -> ~chi_1-  nu_tau)
     4.96774016E-01    2    -1000037        16   # BR(~tau_2 -> ~chi_2-  nu_tau)
#
#         PDG            Width
DECAY   1000012     3.02907826E+01   # snu_eL decays
#          BR         NDA      ID1       ID2
     2.25690411E-01    2     1000022        12   # BR(~nu_eL -> ~chi_10 nu_e)
     5.46844269E-07    2     1000023        12   # BR(~nu_eL -> ~chi_20 nu_e)
     9.71597294E-04    2     1000025        12   # BR(~nu_eL -> ~chi_30 nu_e)
     2.57419385E-01    2     1000035        12   # BR(~nu_eL -> ~chi_40 nu_e)
     1.73129120E-03    2     1000024        11   # BR(~nu_eL -> ~chi_1+ e-)
     5.14186769E-01    2     1000037        11   # BR(~nu_eL -> ~chi_2+ e-)
#
#         PDG            Width
DECAY   1000014     3.02907826E+01   # snu_muL decays
#          BR         NDA      ID1       ID2
     2.25690411E-01    2     1000022        14   # BR(~nu_muL -> ~chi_10 nu_mu)
     5.46844269E-07    2     1000023        14   # BR(~nu_muL -> ~chi_20 nu_mu)
     9.71597294E-04    2     1000025        14   # BR(~nu_muL -> ~chi_30 nu_mu)
     2.57419385E-01    2     1000035        14   # BR(~nu_muL -> ~chi_40 nu_mu)
     1.73129120E-03    2     1000024        13   # BR(~nu_muL -> ~chi_1+ mu-)
     5.14186769E-01    2     1000037        13   # BR(~nu_muL -> ~chi_2+ mu-)
#
#         PDG            Width
DECAY   1000016     3.11725501E+01   # snu_tauL decays
#          BR         NDA      ID1       ID2
     2.19282403E-01    2     1000022        16   # BR(~nu_tauL -> ~chi_10 nu_tau)
     5.31311747E-07    2     1000023        16   # BR(~nu_tauL -> ~chi_20 nu_tau)
     9.44000059E-04    2     1000025        16   # BR(~nu_tauL -> ~chi_30 nu_tau)
     2.50044830E-01    2     1000035        16   # BR(~nu_tauL -> ~chi_40 nu_tau)
     3.02724663E-02    2     1000024        15   # BR(~nu_tauL -> ~chi_1+ tau-)
     4.99455769E-01    2     1000037        15   # BR(~nu_tauL -> ~chi_2+ tau-)
#
#         PDG            Width
DECAY   1000024     4.83269074E-01   # chargino1+ decays
#          BR         NDA      ID1       ID2
     1.00000000E+00    2     1000022        24   # BR(~chi_1+ -> ~chi_10  W+)
#
#         PDG            Width
DECAY   1000037     2.11106948E+01   # chargino2+ decays
#          BR         NDA      ID1       ID2
     2.53358549E-01    2     1000024        23   # BR(~chi_2+ -> ~chi_1+  Z )
     1.84744086E-04    2     1000022        24   # BR(~chi_2+ -> ~chi_10  W+)
     2.44400656E-01    2     1000023        24   # BR(~chi_2+ -> ~chi_20  W+)
     2.44216871E-01    2     1000025        24   # BR(~chi_2+ -> ~chi_30  W+)
     2.57837257E-01    2     1000024        25   # BR(~chi_2+ -> ~chi_1+  h )
     1.92264708E-06    2     1000022        37   # BR(~chi_2+ -> ~chi_10  H+)
#
#         PDG            Width
DECAY   1000022     0.00000000E+00   # neutralino1 decays
#
#         PDG            Width
DECAY   1000023     5.01664042E-01   # neutralino2 decays
#          BR         NDA      ID1       ID2
     5.29410942E-01    2     1000022        23   # BR(~chi_20 -> ~chi_10   Z )
     4.70589058E-01    2     1000022        25   # BR(~chi_20 -> ~chi_10   h )
#
#         PDG            Width
DECAY   1000025     5.01459066E-01   # neutralino3 decays
#          BR         NDA      ID1       ID2
     4.69495971E-01    2     1000022        23   # BR(~chi_30 -> ~chi_10   Z )
     5.30504029E-01    2     1000022        25   # BR(~chi_30 -> ~chi_10   h )
#
#         PDG            Width
DECAY   1000035     2.11264493E+01   # neutralino4 decays
#          BR         NDA      ID1       ID2
     3.18523606E-05    2     1000022        23   # BR(~chi_40 -> ~chi_10   Z )
     8.82316976E-02    2     1000023        23   # BR(~chi_40 -> ~chi_20   Z )
     1.64466746E-01    2     1000025        23   # BR(~chi_40 -> ~chi_30   Z )
     2.44937626E-01    2     1000024       -24   # BR(~chi_40 -> ~chi_1+   W-)
     2.44937626E-01    2    -1000024        24   # BR(~chi_40 -> ~chi_1-   W+)
     1.51502782E-04    2     1000022        25   # BR(~chi_40 -> ~chi_10   h )
     1.83134460E-06    2     1000022        35   # BR(~chi_40 -> ~chi_10   H )
     2.13498757E-07    2     1000022        36   # BR(~chi_40 -> ~chi_10   A )
     1.68741835E-01    2     1000023        25   # BR(~chi_40 -> ~chi_20   h )
     8.84990681E-02    2     1000025        25   # BR(~chi_40 -> ~chi_30   h )
#
#         PDG            Width
DECAY        25     4.06222701E-03   # h decays
#          BR         NDA      ID1       ID2
     6.07355615E-01    2           5        -5   # BR(h -> b       bb     )
     6.38743577E-02    2         -15        15   # BR(h -> tau+    tau-   )
     2.26138261E-04    2         -13        13   # BR(h -> mu+     mu-    )
     4.79367278E-04    2           3        -3   # BR(h -> s       sb     )
     2.07710296E-02    2           4        -4   # BR(h -> c       cb     )
     6.72393998E-02    2          21        21   # BR(h -> g       g      )
     2.31257754E-03    2          22        22   # BR(h -> gam     gam    )
     1.49489256E-03    2          22        23   # BR(h -> Z       gam    )
     2.11011754E-01    2          24       -24   # BR(h -> W+      W-     )
     2.51618915E-02    2          23        23   # BR(h -> Z       Z      )
     7.29763385E-05    2     1000022   1000022   # BR(h -> ~chi_10 ~chi_10)
#
#         PDG            Width
DECAY        35     8.36825806E+00   # H decays
#          BR         NDA      ID1       ID2
     3.84159256E-01    2           5        -5   # BR(H -> b       bb     )
     6.65606791E-02    2         -15        15   # BR(H -> tau+    tau-   )
     2.35363848E-04    2         -13        13   # BR(H -> mu+     mu-    )
     2.88519970E-04    2           3        -3   # BR(H -> s       sb     )
     1.61461963E-06    2           4        -4   # BR(H -> c       cb     )
     1.61313290E-01    2           6        -6   # BR(H -> t       tb     )
     5.36270713E-05    2          21        21   # BR(H -> g       g      )
     2.09656911E-07    2          22        22   # BR(H -> gam     gam    )
     9.52429586E-08    2          23        22   # BR(H -> Z       gam    )
     7.54813327E-05    2          24       -24   # BR(H -> W+      W-     )
     3.76928947E-05    2          23        23   # BR(H -> Z       Z      )
     2.77141700E-04    2          25        25   # BR(H -> h       h      )
     3.22963973E-24    2          36        36   # BR(H -> A       A      )
     9.55077967E-19    2          23        36   # BR(H -> Z       A      )
     2.57733663E-03    2     1000024  -1000024   # BR(H -> ~chi_1+ ~chi_1-)
     2.69786762E-03    2     1000022   1000022   # BR(H -> ~chi_10 ~chi_10)
     4.86349229E-07    2     1000023   1000023   # BR(H -> ~chi_20 ~chi_20)
     1.01746987E-03    2     1000025   1000025   # BR(H -> ~chi_30 ~chi_30)
     2.28922217E-01    2     1000022   1000023   # BR(H -> ~chi_10 ~chi_20)
     1.50719153E-01    2     1000022   1000025   # BR(H -> ~chi_10 ~chi_30)
     1.06249805E-03    2     1000023   1000025   # BR(H -> ~chi_20 ~chi_30)
#
#         PDG            Width
DECAY        36     8.38017717E+00   # A decays
#          BR         NDA      ID1       ID2
     3.83742828E-01    2           5        -5   # BR(A -> b       bb     )
     6.64679745E-02    2         -15        15   # BR(A -> tau+    tau-   )
     2.35035709E-04    2         -13        13   # BR(A -> mu+     mu-    )
     2.88328368E-04    2           3        -3   # BR(A -> s       sb     )
     1.61886042E-06    2           4        -4   # BR(A -> c       cb     )
     1.61647740E-01    2           6        -6   # BR(A -> t       tb     )
     1.59951877E-04    2          21        21   # BR(A -> g       g      )
     5.96165252E-07    2          22        22   # BR(A -> gam     gam    )
     1.93703904E-07    2          23        22   # BR(A -> Z       gam    )
     7.50885613E-05    2          23        25   # BR(A -> Z       h      )
     3.36818867E-03    2     1000024  -1000024   # BR(A -> ~chi_1+ ~chi_1-)
     2.73146996E-03    2     1000022   1000022   # BR(A -> ~chi_10 ~chi_10)
     4.43846386E-07    2     1000023   1000023   # BR(A -> ~chi_20 ~chi_20)
     2.17767748E-03    2     1000025   1000025   # BR(A -> ~chi_30 ~chi_30)
     1.53016024E-01    2     1000022   1000023   # BR(A -> ~chi_10 ~chi_20)
     2.25598306E-01    2     1000022   1000025   # BR(A -> ~chi_10 ~chi_30)
     4.88534986E-04    2     1000023   1000025   # BR(A -> ~chi_20 ~chi_30)
#
#         PDG            Width
DECAY        37     8.34471317E+00   # H+ decays
#          BR         NDA      ID1       ID2
     6.18092441E-04    2           4        -5   # BR(H+ -> c       bb     )
     6.67807844E-02    2         -15        16   # BR(H+ -> tau+    nu_tau )
     2.36141828E-04    2         -13        14   # BR(H+ -> mu+     nu_mu  )
     3.95577109E-06    2           2        -5   # BR(H+ -> u       bb     )
     1.38560190E-05    2           2        -3   # BR(H+ -> u       sb     )
     2.86543966E-04    2           4        -3   # BR(H+ -> c       sb     )
     5.45275554E-01    2           6        -5   # BR(H+ -> t       bb     )
     7.55591464E-05    2          24        25   # BR(H+ -> W+      h      )
     7.41053679E-13    2          24        36   # BR(H+ -> W+      A      )
     3.85246678E-01    2     1000024   1000022   # BR(H+ -> ~chi_1+ ~chi_10)
     1.43869846E-03    2     1000024   1000023   # BR(H+ -> ~chi_1+ ~chi_20)
     2.41364019E-05    2     1000024   1000025   # BR(H+ -> ~chi_1+ ~chi_30)
