#
#                              ======================
#                              | THE SUSYHIT OUTPUT |
#                              ======================
#
#
#              ------------------------------------------------------
#              |     This is the output of the SUSY-HIT package     |
#              |  created by A.Djouadi, M.Muehlleitner and M.Spira. |
#              |  In case of problems with SUSY-HIT email to        |
#              |           margarete.muehlleitner@cern.ch           |
#              |           michael.spira@psi.ch                     |
#              |           abdelhak.djouadi@cern.ch                 |
#              ------------------------------------------------------
#
#              ------------------------------------------------------
#              |  SUSY Les Houches Accord - MSSM Spectrum + Decays  |
#              |              based on the decay programs           |
#              |                                                    |
#              |                     SDECAY 1.3b                    |
#              |                                                    |
#              |  Authors: M.Muhlleitner, A.Djouadi and Y.Mambrini  |
#              |  Ref.:    Comput.Phys.Commun.168(2005)46           |
#              |           [hep-ph/0311167]                         |
#              |                                                    |
#              |                     HDECAY 3.4                     |
#              |                                                    |
#              |  By: A.Djouadi,J.Kalinowski,M.Muhlleitner,M.Spira  |
#              |  Ref.:    Comput.Phys.Commun.108(1998)56           |
#              |           [hep-ph/9704448]                         |
#              |                                                    |
#              |                                                    |
#              |  If not stated otherwise all DRbar couplings and   |
#              |  soft SUSY breaking masses are given at the scale  |
#              |  Q=  0.50007100E+04
#              |                                                    |
#              ------------------------------------------------------
#
#
BLOCK DCINFO  # Decay Program information
     1   SDECAY/HDECAY # decay calculator
     2   1.3b  /3.4    # version number
#
BLOCK SPINFO  # Spectrum calculator information
     1    SOFTSUSY    # spectrum calculator                
     2    3.4.0       # version number                     
#
BLOCK MODSEL  # Model selection
     1     0   #  nonUniversal                                     
#
BLOCK SMINPUTS  # Standard Model inputs
         1     1.25778332E+02   # alpha_em^-1(M_Z)^MSbar
         2     1.16570000E-05   # G_F [GeV^-2]
         3     1.17200002E-01   # alpha_S(M_Z)^MSbar
         4     9.11876000E+01   # M_Z pole mass
         5     4.25000000E+00   # mb(mb)^MSbar
         6     1.72500000E+02   # mt pole mass
         7     1.77682000E+00   # mtau pole mass
#
BLOCK MINPAR  # Input parameters - minimal models
         3     1.00000000E+01   # tanb                
#
BLOCK EXTPAR  # Input parameters - non-minimal models
         0    -1.00000000E+00   # Set                 
         1     6.00000000E+01   # M_1(MX)             
         2     3.00000000E+03   # M_2(MX)             
         3     2.42818800E+03   # M_3(MX)             
        11     5.00000000E+03   # At(MX)              
        12     5.00000000E+03   # Ab(MX)              
        13     0.00000000E+00   # Atau(MX)            
        23    -1.74039700E+03   # mu(MX)              
        26     3.00000000E+03   # mA(pole)            
        31     5.00000000E+03   # meL(MX)             
        32     5.00000000E+03   # mmuL(MX)            
        33     5.00000000E+03   # mtauL(MX)           
        34     5.00000000E+03   # meR(MX)             
        35     5.00000000E+03   # mmuR(MX)            
        36     5.00000000E+03   # mtauR(MX)           
        41     5.00000000E+03   # mqL1(MX)            
        42     5.00000000E+03   # mqL2(MX)            
        43     5.00000000E+03   # mqL3(MX)            
        44     5.00000000E+03   # muR(MX)             
        45     5.00000000E+03   # mcR(MX)             
        46     5.00000000E+03   # mtR(MX)             
        47     5.00000000E+03   # mdR(MX)             
        48     5.00000000E+03   # msR(MX)             
        49     5.00000000E+03   # mbR(MX)             
#
BLOCK MASS  # Mass Spectrum
# PDG code           mass       particle
        24     8.00974573E+01   # W+
        25     1.24829620E+02   # h
        35     3.00007874E+03   # H
        36     2.99999995E+03   # A
        37     3.00087222E+03   # H+
         5     4.87878001E+00   # b-quark pole mass calculated from mb(mb)_Msbar
   1000001     5.08623559E+03   # ~d_L
   2000001     5.06852362E+03   # ~d_R
   1000002     5.08576630E+03   # ~u_L
   2000002     5.06825443E+03   # ~u_R
   1000003     5.08623559E+03   # ~s_L
   2000003     5.06852362E+03   # ~s_R
   1000004     5.08576630E+03   # ~c_L
   2000004     5.06825443E+03   # ~c_R
   1000005     5.03260747E+03   # ~b_1
   2000005     5.06755440E+03   # ~b_2
   1000006     4.92584671E+03   # ~t_1
   2000006     5.07800174E+03   # ~t_2
   1000011     5.01903592E+03   # ~e_L
   2000011     5.00590479E+03   # ~e_R
   1000012     5.01808824E+03   # ~nu_eL
   1000013     5.01903592E+03   # ~mu_L
   2000013     5.00590479E+03   # ~mu_R
   1000014     5.01808824E+03   # ~nu_muL
   1000015     5.00419080E+03   # ~tau_1
   2000015     5.01918738E+03   # ~tau_2
   1000016     5.01755526E+03   # ~nu_tauL
   1000021     2.80000019E+03   # ~g
   1000022     6.03013031E+01   # ~chi_10
   1000023     1.79940131E+03   # ~chi_20
   1000025    -1.80211963E+03   # ~chi_30
   1000035     3.07437737E+03   # ~chi_40
   1000024     1.80000078E+03   # ~chi_1+
   1000037     3.07454499E+03   # ~chi_2+
#
BLOCK NMIX  # Neutralino Mixing Matrix
  1  1     9.99691067E-01   # N_11
  1  2     1.21516352E-04   # N_12
  1  3    -2.47914297E-02   # N_13
  1  4     1.77219688E-03   # N_14
  2  1     1.62722087E-02   # N_21
  2  2     3.81604283E-02   # N_22
  2  3     7.06828405E-01   # N_23
  2  4     7.06167546E-01   # N_24
  3  1    -1.87810099E-02   # N_31
  3  2     1.24381952E-02   # N_32
  3  3    -7.06716322E-01   # N_33
  3  4     7.07138321E-01   # N_34
  4  1    -5.09241744E-04   # N_41
  4  2     9.99194204E-01   # N_42
  4  3    -1.81942474E-02   # N_43
  4  4    -3.57722209E-02   # N_44
#
BLOCK UMIX  # Chargino Mixing Matrix U
  1  1     2.57121796E-02   # U_11
  1  2     9.99669387E-01   # U_12
  2  1    -9.99669387E-01   # U_21
  2  2     2.57121796E-02   # U_22
#
BLOCK VMIX  # Chargino Mixing Matrix V
  1  1     5.05759179E-02   # V_11
  1  2    -9.98720219E-01   # V_12
  2  1    -9.98720219E-01   # V_21
  2  2    -5.05759179E-02   # V_22
#
BLOCK STOPMIX  # Stop Mixing Matrix
  1  1    -5.11080238E-01   # cos(theta_t)
  1  2     8.59533007E-01   # sin(theta_t)
  2  1    -8.59533007E-01   # -sin(theta_t)
  2  2    -5.11080238E-01   # cos(theta_t)
#
BLOCK SBOTMIX  # Sbottom Mixing Matrix
  1  1     9.92432466E-01   # cos(theta_b)
  1  2    -1.22791695E-01   # sin(theta_b)
  2  1     1.22791695E-01   # -sin(theta_b)
  2  2     9.92432466E-01   # cos(theta_b)
#
BLOCK STAUMIX  # Stau Mixing Matrix
  1  1    -1.99010067E-01   # cos(theta_tau)
  1  2     9.79997446E-01   # sin(theta_tau)
  2  1    -9.79997446E-01   # -sin(theta_tau)
  2  2    -1.99010067E-01   # cos(theta_tau)
#
BLOCK ALPHA  # Higgs mixing
          -1.05467504E-01   # Mixing angle in the neutral Higgs boson sector
#
BLOCK HMIX Q=  5.00071004E+03  # DRbar Higgs Parameters
         1    -1.77250822E+03   # mu(Q)MSSM           
         2     9.46989595E+00   # tan                 
         3     2.42021460E+02   # higgs               
         4     8.35617843E+06   # mA^2(Q)MSSM         
#
BLOCK GAUGE Q=  5.00071004E+03  # The gauge couplings
     1     3.70643470E-01   # gprime(Q) DRbar
     2     6.31833408E-01   # g(Q) DRbar
     3     9.93511579E-01   # g3(Q) DRbar
#
BLOCK AU Q=  5.00071004E+03  # The trilinear couplings
  1  1     5.00000002E+03   # A_u(Q) DRbar
  2  2     5.00000002E+03   # A_c(Q) DRbar
  3  3     5.00000003E+03   # A_t(Q) DRbar
#
BLOCK AD Q=  5.00071004E+03  # The trilinear couplings
  1  1     5.00000001E+03   # A_d(Q) DRbar
  2  2     5.00000001E+03   # A_s(Q) DRbar
  3  3     5.00000001E+03   # A_b(Q) DRbar
#
BLOCK AE Q=  5.00071004E+03  # The trilinear couplings
  1  1     0.00000000E+00   # A_e(Q) DRbar
  2  2     3.00628162E-07   # A_mu(Q) DRbar
  3  3     3.00745506E-07   # A_tau(Q) DRbar
#
BLOCK Yu Q=  5.00071004E+03  # The Yukawa couplings
  1  1     0.00000000E+00   # y_u(Q) DRbar
  2  2     0.00000000E+00   # y_c(Q) DRbar
  3  3     8.20991332E-01   # y_t(Q) DRbar
#
BLOCK Yd Q=  5.00071004E+03  # The Yukawa couplings
  1  1     0.00000000E+00   # y_d(Q) DRbar
  2  2     0.00000000E+00   # y_s(Q) DRbar
  3  3     1.32391479E-01   # y_b(Q) DRbar
#
BLOCK Ye Q=  5.00071004E+03  # The Yukawa couplings
  1  1     0.00000000E+00   # y_e(Q) DRbar
  2  2     0.00000000E+00   # y_mu(Q) DRbar
  3  3     9.65124687E-02   # y_tau(Q) DRbar
#
BLOCK MSOFT Q=  5.00071004E+03  # The soft SUSY breaking masses at the scale Q
         1     6.00000000E+01   # M_1(Q)              
         2     3.00000000E+03   # M_2(Q)              
         3     2.42818800E+03   # M_3(Q)              
        21     5.51252028E+06   # mH1^2(Q)            
        22    -2.60088983E+06   # mH2^2(Q)            
        31     5.00000000E+03   # meL(Q)              
        32     5.00000000E+03   # mmuL(Q)             
        33     5.00000000E+03   # mtauL(Q)            
        34     5.00000000E+03   # meR(Q)              
        35     5.00000000E+03   # mmuR(Q)             
        36     5.00000000E+03   # mtauR(Q)            
        41     4.99999999E+03   # mqL1(Q)             
        42     4.99999999E+03   # mqL2(Q)             
        43     4.99999999E+03   # mqL3(Q)             
        44     4.99999999E+03   # muR(Q)              
        45     4.99999999E+03   # mcR(Q)              
        46     4.99999999E+03   # mtR(Q)              
        47     4.99999999E+03   # mdR(Q)              
        48     4.99999999E+03   # msR(Q)              
        49     4.99999999E+03   # mbR(Q)              
#
#
#
#                             =================
#                             |The decay table|
#                             =================
#
# - The QCD corrections to the decays gluino -> squark  + quark
#                                     squark -> gaugino + quark_prime
#                                     squark -> squark_prime + Higgs
#                                     squark -> gluino  + quark
#   are included.
#
# - The multi-body decays for the inos, stops and sbottoms are included.
#
# - The loop induced decays for the gluino, neutralinos and stops
#   are included.
#
# - The SUSY decays of the top quark are included.
#
#
#         PDG            Width
DECAY         6     1.39887224E+00   # top decays
#          BR         NDA      ID1       ID2
     1.00000000E+00    2           5        24   # BR(t ->  b    W+)
#
#         PDG            Width
DECAY   1000021     2.51914166E-03   # gluino decays
#          BR         NDA      ID1       ID2
     4.62146190E-06    2     1000022        21   # BR(~g -> ~chi_10 g)
     4.37023004E-03    2     1000023        21   # BR(~g -> ~chi_20 g)
     4.39498449E-03    2     1000025        21   # BR(~g -> ~chi_30 g)
#           BR         NDA      ID1       ID2       ID3
     5.55754899E-02    3     1000022         1        -1   # BR(~g -> ~chi_10 d  db)
     2.55448930E-05    3     1000023         1        -1   # BR(~g -> ~chi_20 d  db)
     2.25740733E-06    3     1000025         1        -1   # BR(~g -> ~chi_30 d  db)
     1.89492649E-01    3     1000022         2        -2   # BR(~g -> ~chi_10 u  ub)
     3.78694097E-05    3     1000023         2        -2   # BR(~g -> ~chi_20 u  ub)
     2.12926927E-06    3     1000025         2        -2   # BR(~g -> ~chi_30 u  ub)
     5.55754899E-02    3     1000022         3        -3   # BR(~g -> ~chi_10 s  sb)
     2.55448930E-05    3     1000023         3        -3   # BR(~g -> ~chi_20 s  sb)
     2.25740733E-06    3     1000025         3        -3   # BR(~g -> ~chi_30 s  sb)
     1.89492649E-01    3     1000022         4        -4   # BR(~g -> ~chi_10 c  cb)
     3.78694097E-05    3     1000023         4        -4   # BR(~g -> ~chi_20 c  cb)
     2.12926927E-06    3     1000025         4        -4   # BR(~g -> ~chi_30 c  cb)
     5.62650475E-02    3     1000022         5        -5   # BR(~g -> ~chi_10 b  bb)
     1.90457308E-03    3     1000023         5        -5   # BR(~g -> ~chi_20 b  bb)
     1.84980771E-03    3     1000025         5        -5   # BR(~g -> ~chi_30 b  bb)
     1.96365989E-01    3     1000022         6        -6   # BR(~g -> ~chi_10 t  tb)
     6.15139909E-02    3     1000023         6        -6   # BR(~g -> ~chi_20 t  tb)
     5.07604753E-02    3     1000025         6        -6   # BR(~g -> ~chi_30 t  tb)
     6.08914376E-05    3     1000024         1        -2   # BR(~g -> ~chi_1+ d  ub)
     6.08914376E-05    3    -1000024         2        -1   # BR(~g -> ~chi_1- u  db)
     6.08914376E-05    3     1000024         3        -4   # BR(~g -> ~chi_1+ s  cb)
     6.08914376E-05    3    -1000024         4        -3   # BR(~g -> ~chi_1- c  sb)
     6.60274176E-02    3     1000024         5        -6   # BR(~g -> ~chi_1+ b  tb)
     6.60274176E-02    3    -1000024         6        -5   # BR(~g -> ~chi_1- t  bb)
#
#         PDG            Width
DECAY   1000006     2.44688356E+02   # stop1 decays
#          BR         NDA      ID1       ID2
     3.60808201E-02    2     1000022         6   # BR(~t_1 -> ~chi_10 t )
     1.00788452E-01    2     1000023         6   # BR(~t_1 -> ~chi_20 t )
     9.68026484E-02    2     1000025         6   # BR(~t_1 -> ~chi_30 t )
     9.01882642E-03    2     1000035         6   # BR(~t_1 -> ~chi_40 t )
     1.45761536E-01    2     1000024         5   # BR(~t_1 -> ~chi_1+ b )
     1.79052116E-02    2     1000037         5   # BR(~t_1 -> ~chi_2+ b )
     5.93642506E-01    2     1000021         6   # BR(~t_1 -> ~g      t )
#
#         PDG            Width
DECAY   2000006     2.61032758E+02   # stop2 decays
#          BR         NDA      ID1       ID2
     1.33513129E-02    2     1000022         6   # BR(~t_2 -> ~chi_10 t )
     9.89379399E-02    2     1000023         6   # BR(~t_2 -> ~chi_20 t )
     1.03041427E-01    2     1000025         6   # BR(~t_2 -> ~chi_30 t )
     2.10822129E-02    2     1000035         6   # BR(~t_2 -> ~chi_40 t )
     6.03636064E-02    2     1000024         5   # BR(~t_2 -> ~chi_1+ b )
     4.17687828E-02    2     1000037         5   # BR(~t_2 -> ~chi_2+ b )
     6.56711864E-01    2     1000021         6   # BR(~t_2 -> ~g      t )
     1.03403423E-03    2     1000006        25   # BR(~t_2 -> ~t_1    h )
     3.70881975E-03    2     1000006        23   # BR(~t_2 -> ~t_1    Z )
#
#         PDG            Width
DECAY   1000005     2.36959452E+02   # sbottom1 decays
#          BR         NDA      ID1       ID2
     3.32060685E-03    2     1000022         5   # BR(~b_1 -> ~chi_10 b )
     2.97136028E-03    2     1000023         5   # BR(~b_1 -> ~chi_20 b )
     2.74528879E-03    2     1000025         5   # BR(~b_1 -> ~chi_30 b )
     3.16881763E-02    2     1000035         5   # BR(~b_1 -> ~chi_40 b )
     2.11943522E-01    2    -1000024         6   # BR(~b_1 -> ~chi_1- t )
     6.39243087E-02    2    -1000037         6   # BR(~b_1 -> ~chi_2- t )
     6.81233078E-01    2     1000021         5   # BR(~b_1 -> ~g      b )
     2.17365896E-03    2     1000006       -24   # BR(~b_1 -> ~t_1    W-)
#
#         PDG            Width
DECAY   2000005     1.71130837E+02   # sbottom2 decays
#          BR         NDA      ID1       ID2
     1.70106579E-02    2     1000022         5   # BR(~b_2 -> ~chi_10 b )
     3.80872150E-03    2     1000023         5   # BR(~b_2 -> ~chi_20 b )
     4.03271288E-03    2     1000025         5   # BR(~b_2 -> ~chi_30 b )
     7.10960984E-04    2     1000035         5   # BR(~b_2 -> ~chi_40 b )
     1.20845656E-02    2    -1000024         6   # BR(~b_2 -> ~chi_1- t )
     1.43303908E-03    2    -1000037         6   # BR(~b_2 -> ~chi_2- t )
     9.60712442E-01    2     1000021         5   # BR(~b_2 -> ~g      b )
     2.06900254E-04    2     1000006       -24   # BR(~b_2 -> ~t_1    W-)
#
#         PDG            Width
DECAY   1000002     1.90449296E+02   # sup_L decays
#          BR         NDA      ID1       ID2
     3.90706765E-03    2     1000022         2   # BR(~u_L -> ~chi_10 u)
     1.34227910E-04    2     1000023         2   # BR(~u_L -> ~chi_20 u)
     6.02923866E-06    2     1000025         2   # BR(~u_L -> ~chi_30 u)
     4.14584580E-02    2     1000035         2   # BR(~u_L -> ~chi_40 u)
     4.01688556E-04    2     1000024         1   # BR(~u_L -> ~chi_1+ d)
     8.28444725E-02    2     1000037         1   # BR(~u_L -> ~chi_2+ d)
     8.71248056E-01    2     1000021         2   # BR(~u_L -> ~g      u)
#
#         PDG            Width
DECAY   2000002     1.76217486E+02   # sup_R decays
#          BR         NDA      ID1       ID2
     6.72400771E-02    2     1000022         2   # BR(~u_R -> ~chi_10 u)
     1.36737317E-05    2     1000023         2   # BR(~u_R -> ~chi_20 u)
     1.81993524E-05    2     1000025         2   # BR(~u_R -> ~chi_30 u)
     7.04069314E-09    2     1000035         2   # BR(~u_R -> ~chi_40 u)
     9.32728043E-01    2     1000021         2   # BR(~u_R -> ~g      u)
#
#         PDG            Width
DECAY   1000001     1.90468561E+02   # sdown_L decays
#          BR         NDA      ID1       ID2
     3.89733845E-03    2     1000022         1   # BR(~d_L -> ~chi_10 d)
     9.60899737E-05    2     1000023         1   # BR(~d_L -> ~chi_20 d)
     2.03668805E-05    2     1000025         1   # BR(~d_L -> ~chi_30 d)
     4.14833848E-02    2     1000035         1   # BR(~d_L -> ~chi_40 d)
     1.03824354E-04    2    -1000024         2   # BR(~d_L -> ~chi_1- u)
     8.30188231E-02    2    -1000037         2   # BR(~d_L -> ~chi_2- u)
     8.71380173E-01    2     1000021         1   # BR(~d_L -> ~g      d)
#
#         PDG            Width
DECAY   2000001     1.67350845E+02   # sdown_R decays
#          BR         NDA      ID1       ID2
     1.77016160E-02    2     1000022         1   # BR(~d_R -> ~chi_10 d)
     3.59985314E-06    2     1000023         1   # BR(~d_R -> ~chi_20 d)
     4.79130382E-06    2     1000025         1   # BR(~d_R -> ~chi_30 d)
     1.85375778E-09    2     1000035         1   # BR(~d_R -> ~chi_40 d)
     9.82289991E-01    2     1000021         1   # BR(~d_R -> ~g      d)
#
#         PDG            Width
DECAY   1000004     1.90449296E+02   # scharm_L decays
#          BR         NDA      ID1       ID2
     3.90706765E-03    2     1000022         4   # BR(~c_L -> ~chi_10 c)
     1.34227910E-04    2     1000023         4   # BR(~c_L -> ~chi_20 c)
     6.02923866E-06    2     1000025         4   # BR(~c_L -> ~chi_30 c)
     4.14584580E-02    2     1000035         4   # BR(~c_L -> ~chi_40 c)
     4.01688556E-04    2     1000024         3   # BR(~c_L -> ~chi_1+ s)
     8.28444725E-02    2     1000037         3   # BR(~c_L -> ~chi_2+ s)
     8.71248056E-01    2     1000021         4   # BR(~c_L -> ~g      c)
#
#         PDG            Width
DECAY   2000004     1.76217486E+02   # scharm_R decays
#          BR         NDA      ID1       ID2
     6.72400771E-02    2     1000022         4   # BR(~c_R -> ~chi_10 c)
     1.36737317E-05    2     1000023         4   # BR(~c_R -> ~chi_20 c)
     1.81993524E-05    2     1000025         4   # BR(~c_R -> ~chi_30 c)
     7.04069314E-09    2     1000035         4   # BR(~c_R -> ~chi_40 c)
     9.32728043E-01    2     1000021         4   # BR(~c_R -> ~g      c)
#
#         PDG            Width
DECAY   1000003     1.90468561E+02   # sstrange_L decays
#          BR         NDA      ID1       ID2
     3.89733845E-03    2     1000022         3   # BR(~s_L -> ~chi_10 s)
     9.60899737E-05    2     1000023         3   # BR(~s_L -> ~chi_20 s)
     2.03668805E-05    2     1000025         3   # BR(~s_L -> ~chi_30 s)
     4.14833848E-02    2     1000035         3   # BR(~s_L -> ~chi_40 s)
     1.03824354E-04    2    -1000024         4   # BR(~s_L -> ~chi_1- c)
     8.30188231E-02    2    -1000037         4   # BR(~s_L -> ~chi_2- c)
     8.71380173E-01    2     1000021         3   # BR(~s_L -> ~g      s)
#
#         PDG            Width
DECAY   2000003     1.67350845E+02   # sstrange_R decays
#          BR         NDA      ID1       ID2
     1.77016160E-02    2     1000022         3   # BR(~s_R -> ~chi_10 s)
     3.59985314E-06    2     1000023         3   # BR(~s_R -> ~chi_20 s)
     4.79130382E-06    2     1000025         3   # BR(~s_R -> ~chi_30 s)
     1.85375778E-09    2     1000035         3   # BR(~s_R -> ~chi_40 s)
     9.82289991E-01    2     1000021         3   # BR(~s_R -> ~g      s)
#
#         PDG            Width
DECAY   1000011     3.02209798E+01   # selectron_L decays
#          BR         NDA      ID1       ID2
     2.26835392E-01    2     1000022        11   # BR(~e_L -> ~chi_10 e-)
     1.13989297E-03    2     1000023        11   # BR(~e_L -> ~chi_20 e-)
     1.01040068E-06    2     1000025        11   # BR(~e_L -> ~chi_30 e-)
     2.56877526E-01    2     1000035        11   # BR(~e_L -> ~chi_40 e-)
     6.62126759E-04    2    -1000024        12   # BR(~e_L -> ~chi_1- nu_e)
     5.14484052E-01    2    -1000037        12   # BR(~e_L -> ~chi_2- nu_e)
#
#         PDG            Width
DECAY   2000011     2.73504477E+01   # selectron_R decays
#          BR         NDA      ID1       ID2
     9.99531688E-01    2     1000022        11   # BR(~e_R -> ~chi_10 e-)
     2.00868771E-04    2     1000023        11   # BR(~e_R -> ~chi_20 e-)
     2.67342198E-04    2     1000025        11   # BR(~e_R -> ~chi_30 e-)
     1.00638337E-07    2     1000035        11   # BR(~e_R -> ~chi_40 e-)
#
#         PDG            Width
DECAY   1000013     3.02209798E+01   # smuon_L decays
#          BR         NDA      ID1       ID2
     2.26835392E-01    2     1000022        13   # BR(~mu_L -> ~chi_10 mu-)
     1.13989297E-03    2     1000023        13   # BR(~mu_L -> ~chi_20 mu-)
     1.01040068E-06    2     1000025        13   # BR(~mu_L -> ~chi_30 mu-)
     2.56877526E-01    2     1000035        13   # BR(~mu_L -> ~chi_40 mu-)
     6.62126759E-04    2    -1000024        14   # BR(~mu_L -> ~chi_1- nu_mu)
     5.14484052E-01    2    -1000037        14   # BR(~mu_L -> ~chi_2- nu_mu)
#
#         PDG            Width
DECAY   2000013     2.73504477E+01   # smuon_R decays
#          BR         NDA      ID1       ID2
     9.99531688E-01    2     1000022        13   # BR(~mu_R -> ~chi_10 mu-)
     2.00868771E-04    2     1000023        13   # BR(~mu_R -> ~chi_20 mu-)
     2.67342198E-04    2     1000025        13   # BR(~mu_R -> ~chi_30 mu-)
     1.00638337E-07    2     1000035        13   # BR(~mu_R -> ~chi_40 mu-)
#
#         PDG            Width
DECAY   1000015     2.88622778E+01   # stau_1 decays
#          BR         NDA      ID1       ID2
     9.19590774E-01    2     1000022        15   # BR(~tau_1 -> ~chi_10  tau-)
     1.32892697E-02    2     1000023        15   # BR(~tau_1 -> ~chi_20  tau-)
     1.16689985E-02    2     1000025        15   # BR(~tau_1 -> ~chi_30  tau-)
     1.01406901E-02    2     1000035        15   # BR(~tau_1 -> ~chi_40  tau-)
     2.49989189E-02    2    -1000024        16   # BR(~tau_1 -> ~chi_1-  nu_tau)
     2.03113486E-02    2    -1000037        16   # BR(~tau_1 -> ~chi_2-  nu_tau)
#
#         PDG            Width
DECAY   2000015     3.08071022E+01   # stau_2 decays
#          BR         NDA      ID1       ID2
     2.48179081E-01    2     1000022        15   # BR(~tau_2 -> ~chi_10  tau-)
     1.16999614E-02    2     1000023        15   # BR(~tau_2 -> ~chi_20  tau-)
     1.21392061E-02    2     1000025        15   # BR(~tau_2 -> ~chi_30  tau-)
     2.42424458E-01    2     1000035        15   # BR(~tau_2 -> ~chi_40  tau-)
     2.64738605E-05    2    -1000024        16   # BR(~tau_2 -> ~chi_1-  nu_tau)
     4.85530820E-01    2    -1000037        16   # BR(~tau_2 -> ~chi_2-  nu_tau)
#
#         PDG            Width
DECAY   1000012     3.02224376E+01   # snu_eL decays
#          BR         NDA      ID1       ID2
     2.26593708E-01    2     1000022        12   # BR(~nu_eL -> ~chi_10 nu_e)
     4.09969592E-04    2     1000023        12   # BR(~nu_eL -> ~chi_20 nu_e)
     2.75211559E-04    2     1000025        12   # BR(~nu_eL -> ~chi_30 nu_e)
     2.57007298E-01    2     1000035        12   # BR(~nu_eL -> ~chi_40 nu_e)
     2.56094064E-03    2     1000024        11   # BR(~nu_eL -> ~chi_1+ e-)
     5.13152872E-01    2     1000037        11   # BR(~nu_eL -> ~chi_2+ e-)
#
#         PDG            Width
DECAY   1000014     3.02224376E+01   # snu_muL decays
#          BR         NDA      ID1       ID2
     2.26593708E-01    2     1000022        14   # BR(~nu_muL -> ~chi_10 nu_mu)
     4.09969592E-04    2     1000023        14   # BR(~nu_muL -> ~chi_20 nu_mu)
     2.75211559E-04    2     1000025        14   # BR(~nu_muL -> ~chi_30 nu_mu)
     2.57007298E-01    2     1000035        14   # BR(~nu_muL -> ~chi_40 nu_mu)
     2.56094064E-03    2     1000024        13   # BR(~nu_muL -> ~chi_1+ mu-)
     5.13152872E-01    2     1000037        13   # BR(~nu_muL -> ~chi_2+ mu-)
#
#         PDG            Width
DECAY   1000016     3.09189708E+01   # snu_tauL decays
#          BR         NDA      ID1       ID2
     2.21465535E-01    2     1000022        16   # BR(~nu_tauL -> ~chi_10 nu_tau)
     4.00666237E-04    2     1000023        16   # BR(~nu_tauL -> ~chi_20 nu_tau)
     2.68966181E-04    2     1000025        16   # BR(~nu_tauL -> ~chi_30 nu_tau)
     2.51126701E-01    2     1000035        16   # BR(~nu_tauL -> ~chi_40 nu_tau)
     2.53220686E-02    2     1000024        15   # BR(~nu_tauL -> ~chi_1+ tau-)
     5.01416063E-01    2     1000037        15   # BR(~nu_tauL -> ~chi_2+ tau-)
#
#         PDG            Width
DECAY   1000024     1.11021072E+00   # chargino1+ decays
#          BR         NDA      ID1       ID2
     1.00000000E+00    2     1000022        24   # BR(~chi_1+ -> ~chi_10  W+)
#
#         PDG            Width
DECAY   1000037     1.67612901E+01   # chargino2+ decays
#          BR         NDA      ID1       ID2
     2.52286569E-01    2     1000024        23   # BR(~chi_2+ -> ~chi_1+  Z )
     3.54609109E-04    2     1000022        24   # BR(~chi_2+ -> ~chi_10  W+)
     2.44524394E-01    2     1000023        24   # BR(~chi_2+ -> ~chi_20  W+)
     2.43229717E-01    2     1000025        24   # BR(~chi_2+ -> ~chi_30  W+)
     2.59604571E-01    2     1000024        25   # BR(~chi_2+ -> ~chi_1+  h )
     1.39724279E-07    2     1000022        37   # BR(~chi_2+ -> ~chi_10  H+)
#
#         PDG            Width
DECAY   1000022     0.00000000E+00   # neutralino1 decays
#
#         PDG            Width
DECAY   1000023     1.16861407E+00   # neutralino2 decays
#          BR         NDA      ID1       ID2
     5.62411519E-01    2     1000022        23   # BR(~chi_20 -> ~chi_10   Z )
     4.37588481E-01    2     1000022        25   # BR(~chi_20 -> ~chi_10   h )
#
#         PDG            Width
DECAY   1000025     1.18199594E+00   # neutralino3 decays
#          BR         NDA      ID1       ID2
     4.18906072E-01    2     1000022        23   # BR(~chi_30 -> ~chi_10   Z )
     5.81093928E-01    2     1000022        25   # BR(~chi_30 -> ~chi_10   h )
#
#         PDG            Width
DECAY   1000035     1.67391852E+01   # neutralino4 decays
#          BR         NDA      ID1       ID2
     1.47305470E-04    2     1000022        23   # BR(~chi_40 -> ~chi_10   Z )
     2.45204813E-02    2     1000023        23   # BR(~chi_40 -> ~chi_20   Z )
     2.27739835E-01    2     1000025        23   # BR(~chi_40 -> ~chi_30   Z )
     2.43932086E-01    2     1000024       -24   # BR(~chi_40 -> ~chi_1+   W-)
     2.43932086E-01    2    -1000024        24   # BR(~chi_40 -> ~chi_1-   W+)
     2.19472597E-04    2     1000022        25   # BR(~chi_40 -> ~chi_10   h )
     1.20375277E-07    2     1000022        35   # BR(~chi_40 -> ~chi_10   H )
     2.46454537E-08    2     1000022        36   # BR(~chi_40 -> ~chi_10   A )
     2.35161038E-01    2     1000023        25   # BR(~chi_40 -> ~chi_20   h )
     2.43475499E-02    2     1000025        25   # BR(~chi_40 -> ~chi_30   h )
#
#         PDG            Width
DECAY        25     4.03105026E-03   # h decays
#          BR         NDA      ID1       ID2
     6.04079307E-01    2           5        -5   # BR(h -> b       bb     )
     6.43654673E-02    2         -15        15   # BR(h -> tau+    tau-   )
     2.27876908E-04    2         -13        13   # BR(h -> mu+     mu-    )
     4.83043881E-04    2           3        -3   # BR(h -> s       sb     )
     2.09334898E-02    2           4        -4   # BR(h -> c       cb     )
     6.77796539E-02    2          21        21   # BR(h -> g       g      )
     2.33197433E-03    2          22        22   # BR(h -> gam     gam    )
     1.50838541E-03    2          22        23   # BR(h -> Z       gam    )
     2.12866997E-01    2          24       -24   # BR(h -> W+      W-     )
     2.53984895E-02    2          23        23   # BR(h -> Z       Z      )
     2.53150944E-05    2     1000022   1000022   # BR(h -> ~chi_10 ~chi_10)
#
#         PDG            Width
DECAY        35     6.72984823E+00   # H decays
#          BR         NDA      ID1       ID2
     4.90040734E-01    2           5        -5   # BR(H -> b       bb     )
     8.27831302E-02    2         -15        15   # BR(H -> tau+    tau-   )
     2.92727724E-04    2         -13        13   # BR(H -> mu+     mu-    )
     3.58839380E-04    2           3        -3   # BR(H -> s       sb     )
     2.00696479E-06    2           4        -4   # BR(H -> c       cb     )
     2.00511673E-01    2           6        -6   # BR(H -> t       tb     )
     6.65363922E-05    2          21        21   # BR(H -> g       g      )
     3.86121023E-07    2          22        22   # BR(H -> gam     gam    )
     1.18453995E-07    2          23        22   # BR(H -> Z       gam    )
     8.83172882E-05    2          24       -24   # BR(H -> W+      W-     )
     4.41027610E-05    2          23        23   # BR(H -> Z       Z      )
     3.35362453E-04    2          25        25   # BR(H -> h       h      )
    -4.87756080E-24    2          36        36   # BR(H -> A       A      )
     6.78871506E-19    2          23        36   # BR(H -> Z       A      )
     6.62712745E-04    2     1000022   1000022   # BR(H -> ~chi_10 ~chi_10)
     1.32415464E-01    2     1000022   1000023   # BR(H -> ~chi_10 ~chi_20)
     9.23978880E-02    2     1000022   1000025   # BR(H -> ~chi_10 ~chi_30)
#
#         PDG            Width
DECAY        36     6.73292639E+00   # A decays
#          BR         NDA      ID1       ID2
     4.89979421E-01    2           5        -5   # BR(A -> b       bb     )
     8.27477691E-02    2         -15        15   # BR(A -> tau+    tau-   )
     2.92602275E-04    2         -13        13   # BR(A -> mu+     mu-    )
     3.58947668E-04    2           3        -3   # BR(A -> s       sb     )
     2.01448876E-06    2           4        -4   # BR(A -> c       cb     )
     2.01152336E-01    2           6        -6   # BR(A -> t       tb     )
     1.99059808E-04    2          21        21   # BR(A -> g       g      )
     3.71765279E-07    2          22        22   # BR(A -> gam     gam    )
     2.41207762E-07    2          23        22   # BR(A -> Z       gam    )
     8.79431452E-05    2          23        25   # BR(A -> Z       h      )
     6.83866675E-04    2     1000022   1000022   # BR(A -> ~chi_10 ~chi_10)
     9.34733781E-02    2     1000022   1000023   # BR(A -> ~chi_10 ~chi_20)
     1.31022048E-01    2     1000022   1000025   # BR(A -> ~chi_10 ~chi_30)
#
#         PDG            Width
DECAY        37     6.76243675E+00   # H+ decays
#          BR         NDA      ID1       ID2
     7.92050820E-04    2           4        -5   # BR(H+ -> c       bb     )
     8.24106234E-02    2         -15        16   # BR(H+ -> tau+    nu_tau )
     2.91410103E-04    2         -13        14   # BR(H+ -> mu+     nu_mu  )
     5.06909970E-06    2           2        -5   # BR(H+ -> u       bb     )
     1.70993385E-05    2           2        -3   # BR(H+ -> u       sb     )
     3.53615330E-04    2           4        -3   # BR(H+ -> c       sb     )
     6.91096694E-01    2           6        -5   # BR(H+ -> t       bb     )
     8.76919895E-05    2          24        25   # BR(H+ -> W+      h      )
     9.81394049E-14    2          24        36   # BR(H+ -> W+      A      )
     2.24945745E-01    2     1000024   1000022   # BR(H+ -> ~chi_1+ ~chi_10)
