#
#                              ======================
#                              | THE SUSYHIT OUTPUT |
#                              ======================
#
#
#              ------------------------------------------------------
#              |     This is the output of the SUSY-HIT package     |
#              |  created by A.Djouadi, M.Muehlleitner and M.Spira. |
#              |  In case of problems with SUSY-HIT email to        |
#              |           margarete.muehlleitner@kit.edu           |
#              |           michael.spira@psi.ch                     |
#              |           abdelhak.djouadi@cern.ch                 |
#              ------------------------------------------------------
#
#              ------------------------------------------------------
#              |  SUSY Les Houches Accord - MSSM Spectrum + Decays  |
#              |              based on the decay programs           |
#              |                                                    |
#              |                     SDECAY 1.5                     |
#              |                                                    |
#              |  Authors: M.Muhlleitner, A.Djouadi and Y.Mambrini  |
#              |  Ref.:    Comput.Phys.Commun.168(2005)46           |
#              |           [hep-ph/0311167]                         |
#              |                                                    |
#              |                     HDECAY 3.4                     |
#              |                                                    |
#              |  By: A.Djouadi,J.Kalinowski,M.Muhlleitner,M.Spira  |
#              |  Ref.:    Comput.Phys.Commun.108(1998)56           |
#              |           [hep-ph/9704448]                         |
#              |                                                    |
#              |                                                    |
#              |  If not stated otherwise all DRbar couplings and   |
#              |  soft SUSY breaking masses are given at the scale  |
#              |  Q=  0.91187600E+02
#              |                                                    |
#              ------------------------------------------------------
#
#
BLOCK DCINFO  # Decay Program information
     1   SDECAY/HDECAY # decay calculator
     2   1.5  /3.4    # version number
#
BLOCK SPINFO  # Spectrum calculator information
     1   SuSpect     # RGE +Spectrum calculator            
     2   2.43         # version number                     
#
BLOCK MODSEL  # Model selection
     1     2   # GMSB                                              
#
BLOCK SMINPUTS  # Standard Model inputs
         1     1.27932904E+02   # alpha_em^-1(M_Z)^MSbar
         2     1.16639000E-05   # G_F [GeV^-2]
         3     1.17200000E-01   # alpha_S(M_Z)^MSbar
         4     9.11870000E+01   # M_Z pole mass
         5     4.25000000E+00   # mb(mb)^MSbar
         6     1.72900000E+02   # mt pole mass
         7     1.77700000E+00   # mtau pole mass
#
BLOCK MINPAR  # Input parameters - minimal models
#
BLOCK EXTPAR  # Input parameters - non-minimal models
         0     9.11876000E+01   # EWSB                
         1     1.79800000E+03   # M_1                 
         2     3.00000000E+03   # M_2                 
         3     1.90000000E+03   # M_3                 
        11     0.00000000E+00   # A_t                 
        12     0.00000000E+00   # A_b                 
        13     0.00000000E+00   # A_tau               
        14     0.00000000E+00   # A_u                 
        15     0.00000000E+00   # A_d                 
        16     0.00000000E+00   # A_e                 
        23     1.81000000E+03   # mu(EWSB)            
        25     1.50000000E+00   # tanbeta(in)         
        26     2.00000000E+03   # MA_pole             
        31     5.00000000E+03   # M_eL                
        32     5.00000000E+03   # M_muL               
        33     5.00000000E+03   # M_tauL              
        34     5.00000000E+03   # M_eR                
        35     5.00000000E+03   # M_muR               
        36     5.00000000E+03   # M_tauR              
        41     5.00000000E+03   # M_q1L               
        42     5.00000000E+03   # M_q2L               
        43     5.00000000E+03   # M_q3L               
        44     5.00000000E+03   # M_uR                
        45     5.00000000E+03   # M_cR                
        46     5.00000000E+03   # M_tR                
        47     5.00000000E+03   # M_dR                
        48     5.00000000E+03   # M_sR                
        49     5.00000000E+03   # M_bR                
#
BLOCK MASS  # Mass Spectrum
# PDG code           mass       particle
        24     8.05419160E+01   # W+
        25     1.26000000E+02   # h
        35     2.00399910E+03   # H
        36     2.00000000E+03   # A
        37     2.00151681E+03   # H+
         5     4.87877839E+00   # b-quark pole mass calculated from mb(mb)_Msbar
   1000001     4.95285059E+03   # ~d_L
   2000001     4.95274061E+03   # ~d_R
   1000002     4.95260467E+03   # ~u_L
   2000002     4.95266273E+03   # ~u_R
   1000003     4.95285059E+03   # ~s_L
   2000003     4.95274061E+03   # ~s_R
   1000004     4.95260467E+03   # ~c_L
   2000004     4.95266273E+03   # ~c_R
   1000005     4.95204832E+03   # ~b_1
   2000005     4.95354426E+03   # ~b_2
   1000006     5.06495083E+03   # ~t_1
   2000006     5.35518153E+03   # ~t_2
   1000011     5.00008215E+03   # ~e_L
   2000011     5.00007615E+03   # ~e_R
   1000012     4.99984170E+03   # ~nu_eL
   1000013     5.00008215E+03   # ~mu_L
   2000013     5.00007615E+03   # ~mu_R
   1000014     4.99984170E+03   # ~nu_muL
   1000015     4.99959652E+03   # ~tau_1
   2000015     5.00056236E+03   # ~tau_2
   1000016     4.99984170E+03   # ~nu_tauL
   1000021     1.97443232E+03   # ~g
   1000022     1.86772992E+03   # ~chi_10
   1000023    -1.91988483E+03   # ~chi_20
   1000025     1.95507701E+03   # ~chi_30
   1000035     3.12565589E+03   # ~chi_40
   1000024     1.91487952E+03   # ~chi_1+
   1000037     3.12564956E+03   # ~chi_2+
   1000039     1.00000000E-09   # ~gravitino
#
BLOCK NMIX  # Neutralino Mixing Matrix
  1  1     7.34334401E-01   # N_11
  1  2    -4.19022229E-02   # N_12
  1  3     4.80375930E-01   # N_13
  1  4    -4.77740679E-01   # N_14
  2  1     2.28065775E-03   # N_21
  2  2    -3.07771585E-03   # N_22
  2  3    -7.07039321E-01   # N_23
  2  4    -7.07163860E-01   # N_24
  3  1     6.78780070E-01   # N_31
  3  2     4.87588485E-02   # N_32
  3  3    -5.17168275E-01   # N_33
  3  4     5.19054107E-01   # N_34
  4  1     2.32409063E-03   # N_41
  4  2    -9.97926503E-01   # N_42
  4  3    -4.32589801E-02   # N_43
  4  4     4.76020291E-02   # N_44
#
BLOCK UMIX  # Chargino Mixing Matrix U
  1  1    -6.10976832E-02   # U_11
  1  2     9.98131791E-01   # U_12
  2  1     9.98131791E-01   # U_21
  2  2     6.10976832E-02   # U_22
#
BLOCK VMIX  # Chargino Mixing Matrix V
  1  1    -6.72377660E-02   # V_11
  1  2     9.97736981E-01   # V_12
  2  1     9.97736981E-01   # V_21
  2  2     6.72377660E-02   # V_22
#
BLOCK STOPMIX  # Stop Mixing Matrix
  1  1     9.99848638E-01   # cos(theta_t)
  1  2     1.73983071E-02   # sin(theta_t)
  2  1    -1.73983071E-02   # -sin(theta_t)
  2  2     9.99848638E-01   # cos(theta_t)
#
BLOCK SBOTMIX  # Sbottom Mixing Matrix
  1  1     6.80617758E-01   # cos(theta_b)
  1  2     7.32638702E-01   # sin(theta_b)
  2  1    -7.32638702E-01   # -sin(theta_b)
  2  2     6.80617758E-01   # cos(theta_b)
#
BLOCK STAUMIX  # Stau Mixing Matrix
  1  1     7.04905065E-01   # cos(theta_tau)
  1  2     7.09301663E-01   # sin(theta_tau)
  2  1    -7.09301663E-01   # -sin(theta_tau)
  2  2     7.04905065E-01   # cos(theta_tau)
#
BLOCK ALPHA  # Higgs mixing
          -5.90200693E-01   # Mixing angle in the neutral Higgs boson sector
#
BLOCK HMIX Q=  9.11876000E+01  # DRbar Higgs Parameters
         1     1.81000000E+03   # mu(Q)               
         2     1.49999979E+00   # tanbeta(Q)          
         3     2.52296673E+02   # vev(Q)              
         4     3.13985099E+06   # MA^2(Q)             
#
BLOCK GAUGE Q=  9.11876000E+01  # The gauge couplings
     1     3.52721475E-01   # gprime(Q) DRbar
     2     6.26786367E-01   # g(Q) DRbar
     3     1.08126731E+00   # g3(Q) DRbar
#
BLOCK AU Q=  9.11876000E+01  # The trilinear couplings
  1  1     0.00000000E+00   # A_u(Q) DRbar
  2  2     0.00000000E+00   # A_c(Q) DRbar
  3  3     0.00000000E+00   # A_t(Q) DRbar
#
BLOCK AD Q=  9.11876000E+01  # The trilinear couplings
  1  1     0.00000000E+00   # A_d(Q) DRbar
  2  2     0.00000000E+00   # A_s(Q) DRbar
  3  3     0.00000000E+00   # A_b(Q) DRbar
#
BLOCK AE Q=  9.11876000E+01  # The trilinear couplings
  1  1     0.00000000E+00   # A_e(Q) DRbar
  2  2     0.00000000E+00   # A_mu(Q) DRbar
  3  3     0.00000000E+00   # A_tau(Q) DRbar
#
BLOCK Yu Q=  9.11876000E+01  # The Yukawa couplings
  1  1     0.00000000E+00   # y_u(Q) DRbar
  2  2     0.00000000E+00   # y_c(Q) DRbar
  3  3     1.02494027E+00   # y_t(Q) DRbar
#
BLOCK Yd Q=  9.11876000E+01  # The Yukawa couplings
  1  1     0.00000000E+00   # y_d(Q) DRbar
  2  2     0.00000000E+00   # y_s(Q) DRbar
  3  3     2.71468007E-02   # y_b(Q) DRbar
#
BLOCK Ye Q=  9.11876000E+01  # The Yukawa couplings
  1  1     0.00000000E+00   # y_e(Q) DRbar
  2  2     0.00000000E+00   # y_mu(Q) DRbar
  3  3     1.79742480E-02   # y_tau(Q) DRbar
#
BLOCK MSOFT Q=  9.11876000E+01  # The soft SUSY breaking masses at the scale Q
         1     1.79800000E+03   # M_1                 
         2     3.00000000E+03   # M_2                 
         3     1.90000000E+03   # M_3                 
        14     0.00000000E+00   # A_u                 
        15     0.00000000E+00   # A_d                 
        16     0.00000000E+00   # A_e                 
        21    -6.23023927E+05   # M^2_Hd              
        22    -8.45432298E+06   # M^2_Hu              
        31     5.00000000E+03   # M_eL                
        32     5.00000000E+03   # M_muL               
        33     5.00000000E+03   # M_tauL              
        34     5.00000000E+03   # M_eR                
        35     5.00000000E+03   # M_muR               
        36     5.00000000E+03   # M_tauR              
        41     5.00000000E+03   # M_q1L               
        42     5.00000000E+03   # M_q2L               
        43     5.00000000E+03   # M_q3L               
        44     5.00000000E+03   # M_uR                
        45     5.00000000E+03   # M_cR                
        46     5.00000000E+03   # M_tR                
        47     5.00000000E+03   # M_dR                
        48     5.00000000E+03   # M_sR                
        49     5.00000000E+03   # M_bR                
#
#
#
#                             =================
#                             |The decay table|
#                             =================
#
# - The QCD corrections to the decays gluino -> squark  + quark
#                                     squark -> gaugino + quark_prime
#                                     squark -> squark_prime + Higgs
#                                     squark -> gluino  + quark
#   are included.
#
# - The multi-body decays for the inos, stops and sbottoms are included.
#
# - The loop induced decays for the gluino, neutralinos and stops
#   are included.
#
# - The SUSY decays of the top quark are included.
#
# - Possible decays of the NLSP in GMSB models are included.
#
#
#         PDG            Width
DECAY         6     1.36875097E+00   # top decays
#          BR         NDA      ID1       ID2
     1.00000000E+00    2           5        24   # BR(t ->  b    W+)
#
#         PDG            Width
DECAY   1000021     3.45683978E-05   # gluino decays
#          BR         NDA      ID1       ID2
     4.64790396E-04    2     1000022        21   # BR(~g -> ~chi_10 g)
     1.42639131E-04    2     1000023        21   # BR(~g -> ~chi_20 g)
     3.52555183E-06    2     1000025        21   # BR(~g -> ~chi_30 g)
#          BR         NDA      ID1       ID2
0.0E+00    2     1000039    21 # BR(~g -> ~G      g)
#           BR         NDA      ID1       ID2       ID3
     4.24771152E-06    3     1000022         1        -1   # BR(~g -> ~chi_10 d  db)
     6.26013843E-12    3     1000023         1        -1   # BR(~g -> ~chi_20 d  db)
     5.95868211E-10    3     1000025         1        -1   # BR(~g -> ~chi_30 d  db)
     1.22835116E-05    3     1000022         2        -2   # BR(~g -> ~chi_10 u  ub)
     4.78494352E-12    3     1000023         2        -2   # BR(~g -> ~chi_20 u  ub)
     2.43666943E-09    3     1000025         2        -2   # BR(~g -> ~chi_30 u  ub)
     4.24771152E-06    3     1000022         3        -3   # BR(~g -> ~chi_10 s  sb)
     6.26013843E-12    3     1000023         3        -3   # BR(~g -> ~chi_20 s  sb)
     5.95868211E-10    3     1000025         3        -3   # BR(~g -> ~chi_30 s  sb)
     1.22835116E-05    3     1000022         4        -4   # BR(~g -> ~chi_10 c  cb)
     4.78494352E-12    3     1000023         4        -4   # BR(~g -> ~chi_20 c  cb)
     2.43666943E-09    3     1000025         4        -4   # BR(~g -> ~chi_30 c  cb)
     4.06499902E-06    3     1000022         5        -5   # BR(~g -> ~chi_10 b  bb)
     4.92776160E-09    3     1000023         5        -5   # BR(~g -> ~chi_20 b  bb)
     3.85914147E-10    3     1000025         5        -5   # BR(~g -> ~chi_30 b  bb)
     1.83456139E-08    3     1000024         1        -2   # BR(~g -> ~chi_1+ d  ub)
     1.83456139E-08    3    -1000024         2        -1   # BR(~g -> ~chi_1- u  db)
     1.83456139E-08    3     1000024         3        -4   # BR(~g -> ~chi_1+ s  cb)
     1.83456139E-08    3    -1000024         4        -3   # BR(~g -> ~chi_1- c  sb)
#
#         PDG            Width
DECAY   1000006     2.69195114E+02   # stop1 decays
#          BR         NDA      ID1       ID2
     4.60156626E-02    2     1000022         6   # BR(~t_1 -> ~chi_10 t )
     9.87811503E-02    2     1000023         6   # BR(~t_1 -> ~chi_20 t )
     5.43926652E-02    2     1000025         6   # BR(~t_1 -> ~chi_30 t )
     2.77069439E-02    2     1000035         6   # BR(~t_1 -> ~chi_40 t )
     9.09198346E-05    2     1000024         5   # BR(~t_1 -> ~chi_1+ b )
     5.45995539E-02    2     1000037         5   # BR(~t_1 -> ~chi_2+ b )
     7.09268184E-01    2     1000021         6   # BR(~t_1 -> ~g      t )
     4.42347962E-03    2     1000005        24   # BR(~t_1 -> ~b_1    W+)
     4.72144053E-03    2     2000005        24   # BR(~t_1 -> ~b_2    W+)
#
#         PDG            Width
DECAY   2000006     3.32768329E+02   # stop2 decays
#          BR         NDA      ID1       ID2
     5.45947692E-02    2     1000022         6   # BR(~t_2 -> ~chi_10 t )
     8.81017768E-02    2     1000023         6   # BR(~t_2 -> ~chi_20 t )
     5.91615025E-02    2     1000025         6   # BR(~t_2 -> ~chi_30 t )
     1.26098228E-04    2     1000035         6   # BR(~t_2 -> ~chi_40 t )
     1.76389919E-01    2     1000024         5   # BR(~t_2 -> ~chi_1+ b )
     2.54063419E-04    2     1000037         5   # BR(~t_2 -> ~chi_2+ b )
     6.21045847E-01    2     1000021         6   # BR(~t_2 -> ~g      t )
    -1.01196472E-05    2     1000006        25   # BR(~t_2 -> ~t_1    h )
     4.91737991E-05    2     1000006        23   # BR(~t_2 -> ~t_1    Z )
     1.33780600E-04    2     1000005        24   # BR(~t_2 -> ~b_1    W+)
     1.53188981E-04    2     2000005        24   # BR(~t_2 -> ~b_2    W+)
#
#         PDG            Width
DECAY   1000005     2.18399368E+02   # sbottom1 decays
#          BR         NDA      ID1       ID2
     4.30831090E-03    2     1000022         5   # BR(~b_1 -> ~chi_10 b )
     7.35068557E-05    2     1000023         5   # BR(~b_1 -> ~chi_20 b )
     1.85108290E-03    2     1000025         5   # BR(~b_1 -> ~chi_30 b )
     1.37761124E-02    2     1000035         5   # BR(~b_1 -> ~chi_40 b )
     1.03124464E-01    2    -1000024         6   # BR(~b_1 -> ~chi_1- t )
     2.79698534E-02    2    -1000037         6   # BR(~b_1 -> ~chi_2- t )
     8.48896670E-01    2     1000021         5   # BR(~b_1 -> ~g      b )
#
#         PDG            Width
DECAY   2000005     2.26518122E+02   # sbottom2 decays
#          BR         NDA      ID1       ID2
     2.48740752E-03    2     1000022         5   # BR(~b_2 -> ~chi_10 b )
     8.99748175E-05    2     1000023         5   # BR(~b_2 -> ~chi_20 b )
     2.47694972E-03    2     1000025         5   # BR(~b_2 -> ~chi_30 b )
     1.66329429E-02    2     1000035         5   # BR(~b_2 -> ~chi_40 b )
     1.26439294E-01    2    -1000024         6   # BR(~b_2 -> ~chi_1- t )
     3.37771267E-02    2    -1000037         6   # BR(~b_2 -> ~chi_2- t )
     8.18096304E-01    2     1000021         5   # BR(~b_2 -> ~g      b )
#
#         PDG            Width
DECAY   1000002     2.06301636E+02   # sup_L decays
#          BR         NDA      ID1       ID2
     6.12311801E-04    2     1000022         2   # BR(~u_L -> ~chi_10 u)
     4.59332811E-07    2     1000023         2   # BR(~u_L -> ~chi_20 u)
     2.00187336E-03    2     1000025         2   # BR(~u_L -> ~chi_30 u)
     3.27823683E-02    2     1000035         2   # BR(~u_L -> ~chi_40 u)
     5.92542536E-04    2     1000024         1   # BR(~u_L -> ~chi_1+ d)
     6.55974854E-02    2     1000037         1   # BR(~u_L -> ~chi_2+ d)
     8.98412959E-01    2     1000021         2   # BR(~u_L -> ~g      u)
#
#         PDG            Width
DECAY   2000002     1.92977767E+02   # sup_R decays
#          BR         NDA      ID1       ID2
     2.16332324E-02    2     1000022         2   # BR(~u_R -> ~chi_10 u)
     2.04782674E-07    2     1000023         2   # BR(~u_R -> ~chi_20 u)
     1.79041114E-02    2     1000025         2   # BR(~u_R -> ~chi_30 u)
     1.07113672E-07    2     1000035         2   # BR(~u_R -> ~chi_40 u)
     9.60462344E-01    2     1000021         2   # BR(~u_R -> ~g      u)
#
#         PDG            Width
DECAY   1000001     2.06309518E+02   # sdown_L decays
#          BR         NDA      ID1       ID2
     2.15130494E-03    2     1000022         1   # BR(~d_L -> ~chi_10 d)
     8.03884017E-07    2     1000023         1   # BR(~d_L -> ~chi_20 d)
     3.98566828E-04    2     1000025         1   # BR(~d_L -> ~chi_30 d)
     3.28443591E-02    2     1000035         1   # BR(~d_L -> ~chi_40 d)
     4.89285869E-04    2    -1000024         2   # BR(~d_L -> ~chi_1- u)
     6.56587160E-02    2    -1000037         2   # BR(~d_L -> ~chi_2- u)
     8.98456963E-01    2     1000021         1   # BR(~d_L -> ~g      d)
#
#         PDG            Width
DECAY   2000001     1.87260519E+02   # sdown_R decays
#          BR         NDA      ID1       ID2
     5.57357516E-03    2     1000022         1   # BR(~d_R -> ~chi_10 d)
     5.27601418E-08    2     1000023         1   # BR(~d_R -> ~chi_20 d)
     4.61281170E-03    2     1000025         1   # BR(~d_R -> ~chi_30 d)
     2.75975622E-08    2     1000035         1   # BR(~d_R -> ~chi_40 d)
     9.89813533E-01    2     1000021         1   # BR(~d_R -> ~g      d)
#
#         PDG            Width
DECAY   1000004     2.06301636E+02   # scharm_L decays
#          BR         NDA      ID1       ID2
     6.12311801E-04    2     1000022         4   # BR(~c_L -> ~chi_10 c)
     4.59332811E-07    2     1000023         4   # BR(~c_L -> ~chi_20 c)
     2.00187336E-03    2     1000025         4   # BR(~c_L -> ~chi_30 c)
     3.27823683E-02    2     1000035         4   # BR(~c_L -> ~chi_40 c)
     5.92542536E-04    2     1000024         3   # BR(~c_L -> ~chi_1+ s)
     6.55974854E-02    2     1000037         3   # BR(~c_L -> ~chi_2+ s)
     8.98412959E-01    2     1000021         4   # BR(~c_L -> ~g      c)
#
#         PDG            Width
DECAY   2000004     1.92977767E+02   # scharm_R decays
#          BR         NDA      ID1       ID2
     2.16332324E-02    2     1000022         4   # BR(~c_R -> ~chi_10 c)
     2.04782674E-07    2     1000023         4   # BR(~c_R -> ~chi_20 c)
     1.79041114E-02    2     1000025         4   # BR(~c_R -> ~chi_30 c)
     1.07113672E-07    2     1000035         4   # BR(~c_R -> ~chi_40 c)
     9.60462344E-01    2     1000021         4   # BR(~c_R -> ~g      c)
#
#         PDG            Width
DECAY   1000003     2.06309518E+02   # sstrange_L decays
#          BR         NDA      ID1       ID2
     2.15130494E-03    2     1000022         3   # BR(~s_L -> ~chi_10 s)
     8.03884017E-07    2     1000023         3   # BR(~s_L -> ~chi_20 s)
     3.98566828E-04    2     1000025         3   # BR(~s_L -> ~chi_30 s)
     3.28443591E-02    2     1000035         3   # BR(~s_L -> ~chi_40 s)
     4.89285869E-04    2    -1000024         4   # BR(~s_L -> ~chi_1- c)
     6.56587160E-02    2    -1000037         4   # BR(~s_L -> ~chi_2- c)
     8.98456963E-01    2     1000021         3   # BR(~s_L -> ~g      s)
#
#         PDG            Width
DECAY   2000003     1.87260519E+02   # sstrange_R decays
#          BR         NDA      ID1       ID2
     5.57357516E-03    2     1000022         3   # BR(~s_R -> ~chi_10 s)
     5.27601418E-08    2     1000023         3   # BR(~s_R -> ~chi_20 s)
     4.61281170E-03    2     1000025         3   # BR(~s_R -> ~chi_30 s)
     2.75975622E-08    2     1000035         3   # BR(~s_R -> ~chi_40 s)
     9.89813533E-01    2     1000021         3   # BR(~s_R -> ~g      s)
#
#         PDG            Width
DECAY   1000011     2.63563371E+01   # selectron_L decays
#          BR         NDA      ID1       ID2
     7.56915944E-02    2     1000022        11   # BR(~e_L -> ~chi_10 e-)
     1.73488515E-06    2     1000023        11   # BR(~e_L -> ~chi_20 e-)
     9.87057609E-02    2     1000025        11   # BR(~e_L -> ~chi_30 e-)
     2.73302193E-01    2     1000035        11   # BR(~e_L -> ~chi_40 e-)
     4.03040955E-03    2    -1000024        12   # BR(~e_L -> ~chi_1- nu_e)
     5.48268307E-01    2    -1000037        12   # BR(~e_L -> ~chi_2- nu_e)
#
#         PDG            Width
DECAY   2000011     1.80659460E+01   # selectron_R decays
#          BR         NDA      ID1       ID2
     5.47011800E-01    2     1000022        11   # BR(~e_R -> ~chi_10 e-)
     5.17983936E-06    2     1000023        11   # BR(~e_R -> ~chi_20 e-)
     4.52980273E-01    2     1000025        11   # BR(~e_R -> ~chi_30 e-)
     2.74661908E-06    2     1000035        11   # BR(~e_R -> ~chi_40 e-)
#
#         PDG            Width
DECAY   1000013     2.63563371E+01   # smuon_L decays
#          BR         NDA      ID1       ID2
     7.56915944E-02    2     1000022        13   # BR(~mu_L -> ~chi_10 mu-)
     1.73488515E-06    2     1000023        13   # BR(~mu_L -> ~chi_20 mu-)
     9.87057609E-02    2     1000025        13   # BR(~mu_L -> ~chi_30 mu-)
     2.73302193E-01    2     1000035        13   # BR(~mu_L -> ~chi_40 mu-)
     4.03040955E-03    2    -1000024        14   # BR(~mu_L -> ~chi_1- nu_mu)
     5.48268307E-01    2    -1000037        14   # BR(~mu_L -> ~chi_2- nu_mu)
#
#         PDG            Width
DECAY   2000013     1.80659460E+01   # smuon_R decays
#          BR         NDA      ID1       ID2
     5.47011800E-01    2     1000022        13   # BR(~mu_R -> ~chi_10 mu-)
     5.17983936E-06    2     1000023        13   # BR(~mu_R -> ~chi_20 mu-)
     4.52980273E-01    2     1000025        13   # BR(~mu_R -> ~chi_30 mu-)
     2.74661908E-06    2     1000035        13   # BR(~mu_R -> ~chi_40 mu-)
#
#         PDG            Width
DECAY   1000015     2.22615545E+01   # stau_1 decays
#          BR         NDA      ID1       ID2
     2.73892349E-01    2     1000022        15   # BR(~tau_1 -> ~chi_10  tau-)
     4.47986183E-04    2     1000023        15   # BR(~tau_1 -> ~chi_20  tau-)
     2.38919030E-01    2     1000025        15   # BR(~tau_1 -> ~chi_30  tau-)
     1.60155957E-01    2     1000035        15   # BR(~tau_1 -> ~chi_40  tau-)
     5.13255479E-03    2    -1000024        16   # BR(~tau_1 -> ~chi_1-  nu_tau)
     3.21290573E-01    2    -1000037        16   # BR(~tau_1 -> ~chi_2-  nu_tau)
     1.61549532E-04    2     1000039        15   # BR(~tau_1 -> ~G       tau-)
#
#         PDG            Width
DECAY   2000015     2.22344008E+01   # stau_2 decays
#          BR         NDA      ID1       ID2
     2.60444541E-01    2     1000022        15   # BR(~tau_2 -> ~chi_10  tau-)
     6.08111155E-04    2     1000023        15   # BR(~tau_2 -> ~chi_20  tau-)
     2.46409207E-01    2     1000025        15   # BR(~tau_2 -> ~chi_30  tau-)
     1.63622235E-01    2     1000035        15   # BR(~tau_2 -> ~chi_40  tau-)
     6.86605247E-04    2    -1000024        16   # BR(~tau_2 -> ~chi_1-  nu_tau)
     3.28229300E-01    2    -1000037        16   # BR(~tau_2 -> ~chi_2-  nu_tau)
#
#         PDG            Width
DECAY   1000012     2.63587649E+01   # snu_eL decays
#          BR         NDA      ID1       ID2
     1.13691400E-01    2     1000022        12   # BR(~nu_eL -> ~chi_10 nu_e)
     1.02474059E-05    2     1000023        12   # BR(~nu_eL -> ~chi_20 nu_e)
     5.90614352E-02    2     1000025        12   # BR(~nu_eL -> ~chi_30 nu_e)
     2.74666294E-01    2     1000035        12   # BR(~nu_eL -> ~chi_40 nu_e)
     4.88035034E-03    2     1000024        11   # BR(~nu_eL -> ~chi_1+ e-)
     5.47690273E-01    2     1000037        11   # BR(~nu_eL -> ~chi_2+ e-)
#
#         PDG            Width
DECAY   1000014     2.63587649E+01   # snu_muL decays
#          BR         NDA      ID1       ID2
     1.13691400E-01    2     1000022        14   # BR(~nu_muL -> ~chi_10 nu_mu)
     1.02474059E-05    2     1000023        14   # BR(~nu_muL -> ~chi_20 nu_mu)
     5.90614352E-02    2     1000025        14   # BR(~nu_muL -> ~chi_30 nu_mu)
     2.74666294E-01    2     1000035        14   # BR(~nu_muL -> ~chi_40 nu_mu)
     4.88035034E-03    2     1000024        13   # BR(~nu_muL -> ~chi_1+ mu-)
     5.47690273E-01    2     1000037        13   # BR(~nu_muL -> ~chi_2+ mu-)
#
#         PDG            Width
DECAY   1000016     2.63821140E+01   # snu_tauL decays
#          BR         NDA      ID1       ID2
     1.13590779E-01    2     1000022        16   # BR(~nu_tauL -> ~chi_10 nu_tau)
     1.02383366E-05    2     1000023        16   # BR(~nu_tauL -> ~chi_20 nu_tau)
     5.90091637E-02    2     1000025        16   # BR(~nu_tauL -> ~chi_30 nu_tau)
     2.74423205E-01    2     1000035        16   # BR(~nu_tauL -> ~chi_40 nu_tau)
     5.75835009E-03    2     1000024        15   # BR(~nu_tauL -> ~chi_1+ tau-)
     5.47208264E-01    2     1000037        15   # BR(~nu_tauL -> ~chi_2+ tau-)
#
#         PDG            Width
DECAY   1000024     1.59881166E-04   # chargino1+ decays
#          BR         NDA      ID1       ID2
     9.24325769E-02    2     1000039        24   # BR(~chi_1+ -> ~G       W+)
#           BR         NDA      ID1       ID2       ID3
     3.02757403E-01    3     1000022         2        -1   # BR(~chi_1+ -> ~chi_10 u    db)
     3.02757403E-01    3     1000022         4        -3   # BR(~chi_1+ -> ~chi_10 c    sb)
     1.00919242E-01    3     1000022       -11        12   # BR(~chi_1+ -> ~chi_10 e+   nu_e)
     1.00919242E-01    3     1000022       -13        14   # BR(~chi_1+ -> ~chi_10 mu+  nu_mu)
     1.00214133E-01    3     1000022       -15        16   # BR(~chi_1+ -> ~chi_10 tau+ nu_tau)
#
#         PDG            Width
DECAY   1000037     3.70070216E+01   # chargino2+ decays
#          BR         NDA      ID1       ID2
     2.53726732E-01    2     1000024        23   # BR(~chi_2+ -> ~chi_1+  Z )
     1.06201187E-01    2     1000022        24   # BR(~chi_2+ -> ~chi_10  W+)
     2.46132469E-01    2     1000023        24   # BR(~chi_2+ -> ~chi_20  W+)
     1.41194429E-01    2     1000025        24   # BR(~chi_2+ -> ~chi_30  W+)
     2.52735942E-01    2     1000024        25   # BR(~chi_2+ -> ~chi_1+  h )
     9.23897046E-06    2     1000039        24   # BR(~chi_2+ -> ~G       W+)
     2.23463554E-09    2     1000039        37   # BR(~chi_2+ -> ~G       H+)
#
#         PDG            Width
DECAY   1000022    1.0E-05    # neutralino1 decays
#          BR         NDA      ID1       ID2
     5.00818901E-01    2     1000039        22   # BR(~chi_10 -> ~G        gam)
     4.88420574E-01    2     1000039        23   # BR(~chi_10 -> ~G        Z)
     1.07605250E-02    2     1000039        25   # BR(~chi_10 -> ~G        h)
#
#         PDG            Width
DECAY   1000023     2.10818408E-04   # neutralino2 decays
#          BR         NDA      ID1       ID2
     3.07772377E-04    2     1000022        22   # BR(~chi_20 -> ~chi_10 gam)
#          BR         NDA      ID1       ID2
     3.25701540E-08    2     1000039        22   # BR(~chi_20 -> ~G        gam)
     2.71912177E-03    2     1000039        23   # BR(~chi_20 -> ~G        Z)
     6.73721461E-02    2     1000039        25   # BR(~chi_20 -> ~G        h)
#           BR         NDA      ID1       ID2       ID3
     1.10117497E-01    3     1000022        -2         2   # BR(~chi_20 -> ~chi_10 ub      u)
     1.42593570E-01    3     1000022        -1         1   # BR(~chi_20 -> ~chi_10 db      d)
     1.10117497E-01    3     1000022        -4         4   # BR(~chi_20 -> ~chi_10 cb      c)
     1.42593570E-01    3     1000022        -3         3   # BR(~chi_20 -> ~chi_10 sb      s)
     1.31592494E-01    3     1000022        -5         5   # BR(~chi_20 -> ~chi_10 bb      b)
     3.25697629E-02    3     1000022       -11        11   # BR(~chi_20 -> ~chi_10 e+      e-)
     3.25697629E-02    3     1000022       -13        13   # BR(~chi_20 -> ~chi_10 mu+     mu-)
     3.22773301E-02    3     1000022       -15        15   # BR(~chi_20 -> ~chi_10 tau+    tau-)
     6.50460793E-02    3     1000022       -12        12   # BR(~chi_20 -> ~chi_10 nu_eb   nu_e)
     6.50460793E-02    3     1000022       -14        14   # BR(~chi_20 -> ~chi_10 nu_mub  nu_mu)
     6.50460793E-02    3     1000022       -16        16   # BR(~chi_20 -> ~chi_10 nu_taub nu_tau)
     5.47661164E-06    3     1000024        -2         1   # BR(~chi_20 -> ~chi_1+ ub      d)
     5.47661164E-06    3    -1000024        -1         2   # BR(~chi_20 -> ~chi_1- db      u)
     5.47661164E-06    3     1000024        -4         3   # BR(~chi_20 -> ~chi_1+ cb      s)
     5.47661164E-06    3    -1000024        -3         4   # BR(~chi_20 -> ~chi_1- sb      c)
     1.82553734E-06    3     1000024       -12        11   # BR(~chi_20 -> ~chi_1+ nu_eb   e-)
     1.82553734E-06    3    -1000024        12       -11   # BR(~chi_20 -> ~chi_1- nu_e    e+)
     1.82553734E-06    3     1000024       -14        13   # BR(~chi_20 -> ~chi_1+ nu_mub  mu-)
     1.82553734E-06    3    -1000024        14       -13   # BR(~chi_20 -> ~chi_1- nu_mu   mu+)
     9.98843456E-07    3     1000024       -16        15   # BR(~chi_20 -> ~chi_1+ nu_taub tau-)
     9.98843456E-07    3    -1000024        16       -15   # BR(~chi_20 -> ~chi_1- nu_tau  tau+)
#
#         PDG            Width
DECAY   1000025     1.96009485E-04   # neutralino3 decays
#          BR         NDA      ID1       ID2
     4.28575780E-04    2     1000022        22   # BR(~chi_30 -> ~chi_10 gam)
     6.55712438E-06    2     1000023        22   # BR(~chi_30 -> ~chi_20 gam)
#          BR         NDA      ID1       ID2
     6.35515475E-02    2     1000039        22   # BR(~chi_30 -> ~G        gam)
     5.69869002E-02    2     1000039        23   # BR(~chi_30 -> ~G        Z)
     1.69718147E-03    2     1000039        25   # BR(~chi_30 -> ~G        h)
#           BR         NDA      ID1       ID2       ID3
     1.48811914E-05    3     1000022        -2         2   # BR(~chi_30 -> ~chi_10 ub      u)
     1.77060313E-05    3     1000022        -1         1   # BR(~chi_30 -> ~chi_10 db      d)
     1.48811914E-05    3     1000022        -4         4   # BR(~chi_30 -> ~chi_10 cb      c)
     1.77060313E-05    3     1000022        -3         3   # BR(~chi_30 -> ~chi_10 sb      s)
     5.57764790E-05    3     1000022        -5         5   # BR(~chi_30 -> ~chi_10 bb      b)
     3.09395793E-06    3     1000022       -11        11   # BR(~chi_30 -> ~chi_10 e+      e-)
     3.09395793E-06    3     1000022       -13        13   # BR(~chi_30 -> ~chi_10 mu+     mu-)
     8.88459551E-06    3     1000022       -15        15   # BR(~chi_30 -> ~chi_10 tau+    tau-)
     8.64158830E-06    3     1000022       -12        12   # BR(~chi_30 -> ~chi_10 nu_eb   nu_e)
     8.64158830E-06    3     1000022       -14        14   # BR(~chi_30 -> ~chi_10 nu_mub  nu_mu)
     8.64158830E-06    3     1000022       -16        16   # BR(~chi_30 -> ~chi_10 nu_taub nu_tau)
     1.73343919E-02    3     1000023        -2         2   # BR(~chi_30 -> ~chi_20 ub      u)
     2.24467088E-02    3     1000023        -1         1   # BR(~chi_30 -> ~chi_20 db      d)
     1.73343919E-02    3     1000023        -4         4   # BR(~chi_30 -> ~chi_20 cb      c)
     2.24467088E-02    3     1000023        -3         3   # BR(~chi_30 -> ~chi_20 sb      s)
     1.89310342E-02    3     1000023        -5         5   # BR(~chi_30 -> ~chi_20 bb      b)
     5.12705238E-03    3     1000023       -11        11   # BR(~chi_30 -> ~chi_20 e+      e-)
     5.12705238E-03    3     1000023       -13        13   # BR(~chi_30 -> ~chi_20 mu+     mu-)
     5.04407752E-03    3     1000023       -15        15   # BR(~chi_30 -> ~chi_20 tau+    tau-)
     1.02393479E-02    3     1000023       -12        12   # BR(~chi_30 -> ~chi_20 nu_eb   nu_e)
     1.02393479E-02    3     1000023       -14        14   # BR(~chi_30 -> ~chi_20 nu_mub  nu_mu)
     1.02393479E-02    3     1000023       -16        16   # BR(~chi_30 -> ~chi_20 nu_taub nu_tau)
     1.22240816E-01    3     1000024        -2         1   # BR(~chi_30 -> ~chi_1+ ub      d)
     1.22240816E-01    3    -1000024        -1         2   # BR(~chi_30 -> ~chi_1- db      u)
     1.22240816E-01    3     1000024        -4         3   # BR(~chi_30 -> ~chi_1+ cb      s)
     1.22240816E-01    3    -1000024        -3         4   # BR(~chi_30 -> ~chi_1- sb      c)
     4.07468810E-02    3     1000024       -12        11   # BR(~chi_30 -> ~chi_1+ nu_eb   e-)
     4.07468810E-02    3    -1000024        12       -11   # BR(~chi_30 -> ~chi_1- nu_e    e+)
     4.07468810E-02    3     1000024       -14        13   # BR(~chi_30 -> ~chi_1+ nu_mub  mu-)
     4.07468810E-02    3    -1000024        14       -13   # BR(~chi_30 -> ~chi_1- nu_mu   mu+)
     4.03535198E-02    3     1000024       -16        15   # BR(~chi_30 -> ~chi_1+ nu_taub tau-)
     4.03535198E-02    3    -1000024        16       -15   # BR(~chi_30 -> ~chi_1- nu_tau  tau+)
#
#         PDG            Width
DECAY   1000035     3.70064198E+01   # neutralino4 decays
#          BR         NDA      ID1       ID2
     2.62808714E-04    2     1000022        23   # BR(~chi_40 -> ~chi_10   Z )
     2.52427335E-01    2     1000023        23   # BR(~chi_40 -> ~chi_20   Z )
     3.16957495E-04    2     1000025        23   # BR(~chi_40 -> ~chi_30   Z )
     2.46839124E-01    2     1000024       -24   # BR(~chi_40 -> ~chi_1+   W-)
     2.46839124E-01    2    -1000024        24   # BR(~chi_40 -> ~chi_1-   W+)
     1.08470021E-01    2     1000022        25   # BR(~chi_40 -> ~chi_10   h )
     5.63787678E-04    2     1000023        25   # BR(~chi_40 -> ~chi_20   h )
     1.44271599E-01    2     1000025        25   # BR(~chi_40 -> ~chi_30   h )
     2.20470074E-06    2     1000039        22   # BR(~chi_40 -> ~G        gam)
     7.03302812E-06    2     1000039        23   # BR(~chi_40 -> ~G        Z)
     1.10402571E-09    2     1000039        25   # BR(~chi_40 -> ~G        h)
     2.17604659E-09    2     1000039        35   # BR(~chi_40 -> ~G        H)
     5.19038603E-11    2     1000039        36   # BR(~chi_40 -> ~G        A)
#
#         PDG            Width
DECAY        25     4.22149930E-03   # h decays
#          BR         NDA      ID1       ID2
     6.02200575E-01    2           5        -5   # BR(h -> b       bb     )
     6.21922226E-02    2         -15        15   # BR(h -> tau+    tau-   )
     2.20133354E-04    2         -13        13   # BR(h -> mu+     mu-    )
     4.65759657E-04    2           3        -3   # BR(h -> s       sb     )
     2.00939169E-02    2           4        -4   # BR(h -> c       cb     )
     6.63600410E-02    2          21        21   # BR(h -> g       g      )
     2.30473069E-03    2          22        22   # BR(h -> gam     gam    )
     1.62547373E-03    2          22        23   # BR(h -> Z       gam    )
     2.16477086E-01    2          24       -24   # BR(h -> W+      W-     )
     2.80600607E-02    2          23        23   # BR(h -> Z       Z      )
#
#         PDG            Width
DECAY        35     3.78095746E+01   # H decays
#          BR         NDA      ID1       ID2
     1.46701173E-03    2           5        -5   # BR(H -> b       bb     )
     2.46430263E-04    2         -15        15   # BR(H -> tau+    tau-   )
     8.71222725E-07    2         -13        13   # BR(H -> mu+     mu-    )
     1.11548429E-06    2           3        -3   # BR(H -> s       sb     )
     1.00668741E-05    2           4        -4   # BR(H -> c       cb     )
     9.96070324E-01    2           6        -6   # BR(H -> t       tb     )
     7.97754027E-04    2          21        21   # BR(H -> g       g      )
     2.71730453E-06    2          22        22   # BR(H -> gam     gam    )
     1.16028646E-06    2          23        22   # BR(H -> Z       gam    )
     3.34222108E-04    2          24       -24   # BR(H -> W+      W-     )
     1.66655280E-04    2          23        23   # BR(H -> Z       Z      )
     9.01671023E-04    2          25        25   # BR(H -> h       h      )
     7.31020606E-24    2          36        36   # BR(H -> A       A      )
     2.91915696E-11    2          23        36   # BR(H -> Z       A      )
     6.55354888E-12    2          24       -37   # BR(H -> W+      H-     )
     6.55354888E-12    2         -24        37   # BR(H -> W-      H+     )
#
#         PDG            Width
DECAY        36     3.82380604E+01   # A decays
#          BR         NDA      ID1       ID2
     1.46993291E-03    2           5        -5   # BR(A -> b       bb     )
     2.43898783E-04    2         -15        15   # BR(A -> tau+    tau-   )
     8.62270305E-07    2         -13        13   # BR(A -> mu+     mu-    )
     1.13677891E-06    2           3        -3   # BR(A -> s       sb     )
     9.96180824E-06    2           4        -4   # BR(A -> c       cb     )
     9.97000336E-01    2           6        -6   # BR(A -> t       tb     )
     9.43679759E-04    2          21        21   # BR(A -> g       g      )
     3.13521754E-06    2          22        22   # BR(A -> gam     gam    )
     1.35288302E-06    2          23        22   # BR(A -> Z       gam    )
     3.25703431E-04    2          23        25   # BR(A -> Z       h      )
#
#         PDG            Width
DECAY        37     3.74471762E+01   # H+ decays
#          BR         NDA      ID1       ID2
     2.35527005E-06    2           4        -5   # BR(H+ -> c       bb     )
     2.49238805E-04    2         -15        16   # BR(H+ -> tau+    nu_tau )
     8.81149211E-07    2         -13        14   # BR(H+ -> mu+     nu_mu  )
     1.49738417E-08    2           2        -5   # BR(H+ -> u       bb     )
     5.45696692E-08    2           2        -3   # BR(H+ -> u       sb     )
     1.08732135E-05    2           4        -3   # BR(H+ -> c       sb     )
     9.99402770E-01    2           6        -5   # BR(H+ -> t       bb     )
     3.33811833E-04    2          24        25   # BR(H+ -> W+      h      )
     2.81961683E-13    2          24        36   # BR(H+ -> W+      A      )
