#
#                              ======================
#                              | THE SUSYHIT OUTPUT |
#                              ======================
#
#
#              ------------------------------------------------------
#              |     This is the output of the SUSY-HIT package     |
#              |  created by A.Djouadi, M.Muehlleitner and M.Spira. |
#              |  In case of problems with SUSY-HIT email to        |
#              |           margarete.muehlleitner@cern.ch           |
#              |           michael.spira@psi.ch                     |
#              |           abdelhak.djouadi@cern.ch                 |
#              ------------------------------------------------------
#
#              ------------------------------------------------------
#              |  SUSY Les Houches Accord - MSSM Spectrum + Decays  |
#              |              based on the decay programs           |
#              |                                                    |
#              |                     SDECAY 1.3b                    |
#              |                                                    |
#              |  Authors: M.Muhlleitner, A.Djouadi and Y.Mambrini  |
#              |  Ref.:    Comput.Phys.Commun.168(2005)46           |
#              |           [hep-ph/0311167]                         |
#              |                                                    |
#              |                     HDECAY 3.4                     |
#              |                                                    |
#              |  By: A.Djouadi,J.Kalinowski,M.Muhlleitner,M.Spira  |
#              |  Ref.:    Comput.Phys.Commun.108(1998)56           |
#              |           [hep-ph/9704448]                         |
#              |                                                    |
#              |                                                    |
#              |  If not stated otherwise all DRbar couplings and   |
#              |  soft SUSY breaking masses are given at the scale  |
#              |  Q=  0.50007557E+04
#              |                                                    |
#              ------------------------------------------------------
#
#
BLOCK DCINFO  # Decay Program information
     1   SDECAY/HDECAY # decay calculator
     2   1.3b  /3.4    # version number
#
BLOCK SPINFO  # Spectrum calculator information
     1    SOFTSUSY    # spectrum calculator                
     2    3.4.0       # version number                     
#
BLOCK MODSEL  # Model selection
     1     0   #  nonUniversal                                     
#
BLOCK SMINPUTS  # Standard Model inputs
         1     1.25778332E+02   # alpha_em^-1(M_Z)^MSbar
         2     1.16570000E-05   # G_F [GeV^-2]
         3     1.17200002E-01   # alpha_S(M_Z)^MSbar
         4     9.11876000E+01   # M_Z pole mass
         5     4.25000000E+00   # mb(mb)^MSbar
         6     1.72500000E+02   # mt pole mass
         7     1.77682000E+00   # mtau pole mass
#
BLOCK MINPAR  # Input parameters - minimal models
         3     1.00000000E+01   # tanb                
#
BLOCK EXTPAR  # Input parameters - non-minimal models
         0    -1.00000000E+00   # Set                 
         1     6.00000000E+01   # M_1(MX)             
         2     3.00000000E+03   # M_2(MX)             
         3     2.42817900E+03   # M_3(MX)             
        11     5.00000000E+03   # At(MX)              
        12     5.00000000E+03   # Ab(MX)              
        13     0.00000000E+00   # Atau(MX)            
        23    -6.67962000E+02   # mu(MX)              
        26     3.00000000E+03   # mA(pole)            
        31     5.00000000E+03   # meL(MX)             
        32     5.00000000E+03   # mmuL(MX)            
        33     5.00000000E+03   # mtauL(MX)           
        34     5.00000000E+03   # meR(MX)             
        35     5.00000000E+03   # mmuR(MX)            
        36     5.00000000E+03   # mtauR(MX)           
        41     5.00000000E+03   # mqL1(MX)            
        42     5.00000000E+03   # mqL2(MX)            
        43     5.00000000E+03   # mqL3(MX)            
        44     5.00000000E+03   # muR(MX)             
        45     5.00000000E+03   # mcR(MX)             
        46     5.00000000E+03   # mtR(MX)             
        47     5.00000000E+03   # mdR(MX)             
        48     5.00000000E+03   # msR(MX)             
        49     5.00000000E+03   # mbR(MX)             
#
BLOCK MASS  # Mass Spectrum
# PDG code           mass       particle
        24     8.00943850E+01   # W+
        25     1.24811319E+02   # h
        35     3.00008379E+03   # H
        36     2.99999874E+03   # A
        37     3.00137870E+03   # H+
         5     4.87878001E+00   # b-quark pole mass calculated from mb(mb)_Msbar
   1000001     5.08630210E+03   # ~d_L
   2000001     5.06853392E+03   # ~d_R
   1000002     5.08583250E+03   # ~u_L
   2000002     5.06824161E+03   # ~u_R
   1000003     5.08630210E+03   # ~s_L
   2000003     5.06853392E+03   # ~s_R
   1000004     5.08583250E+03   # ~c_L
   2000004     5.06824161E+03   # ~c_R
   1000005     5.03204681E+03   # ~b_1
   2000005     5.06684459E+03   # ~b_2
   1000006     4.92444051E+03   # ~t_1
   2000006     5.07504239E+03   # ~t_2
   1000011     5.01908687E+03   # ~e_L
   2000011     5.00593490E+03   # ~e_R
   1000012     5.01813764E+03   # ~nu_eL
   1000013     5.01908687E+03   # ~mu_L
   2000013     5.00593490E+03   # ~mu_R
   1000014     5.01813764E+03   # ~nu_muL
   1000015     5.00471937E+03   # ~tau_1
   2000015     5.01866852E+03   # ~tau_2
   1000016     5.01758819E+03   # ~nu_tauL
   1000021     2.80000091E+03   # ~g
   1000022     6.02749240E+01   # ~chi_10
   1000023     6.99990060E+02   # ~chi_20
   1000025    -7.02214945E+02   # ~chi_30
   1000035     3.07418506E+03   # ~chi_40
   1000024     7.00000420E+02   # ~chi_1+
   1000037     3.07435259E+03   # ~chi_2+
#
BLOCK NMIX  # Neutralino Mixing Matrix
  1  1     9.97979466E-01   # N_11
  1  2     2.19054551E-04   # N_12
  1  3    -6.35268045E-02   # N_13
  1  4     1.13242384E-03   # N_14
  2  1     4.41400882E-02   # N_21
  2  2     2.05649897E-02   # N_22
  2  3     7.06086306E-01   # N_23
  2  4     7.06449476E-01   # N_24
  3  1    -4.56999503E-02   # N_31
  3  2     1.61067042E-02   # N_32
  3  3    -7.05263469E-01   # N_33
  3  4     7.07287444E-01   # N_34
  4  1    -3.90410051E-04   # N_41
  4  2     9.99658745E-01   # N_42
  4  3    -3.14834607E-03   # N_43
  4  4    -2.59292923E-02   # N_44
#
BLOCK UMIX  # Chargino Mixing Matrix U
  1  1     4.46143588E-03   # U_11
  1  2     9.99990048E-01   # U_12
  2  1    -9.99990048E-01   # U_21
  2  2     4.46143588E-03   # U_22
#
BLOCK VMIX  # Chargino Mixing Matrix V
  1  1     3.66960302E-02   # V_11
  1  2    -9.99326474E-01   # V_12
  2  1    -9.99326474E-01   # V_21
  2  2    -3.66960302E-02   # V_22
#
BLOCK STOPMIX  # Stop Mixing Matrix
  1  1    -5.01726188E-01   # cos(theta_t)
  1  2     8.65026492E-01   # sin(theta_t)
  2  1    -8.65026492E-01   # -sin(theta_t)
  2  2    -5.01726188E-01   # cos(theta_t)
#
BLOCK SBOTMIX  # Sbottom Mixing Matrix
  1  1     9.98214303E-01   # cos(theta_b)
  1  2    -5.97344564E-02   # sin(theta_b)
  2  1     5.97344564E-02   # -sin(theta_b)
  2  2     9.98214303E-01   # cos(theta_b)
#
BLOCK STAUMIX  # Stau Mixing Matrix
  1  1    -7.99527103E-02   # cos(theta_tau)
  1  2     9.96798658E-01   # sin(theta_tau)
  2  1    -9.96798658E-01   # -sin(theta_tau)
  2  2    -7.99527103E-02   # cos(theta_tau)
#
BLOCK ALPHA  # Higgs mixing
          -1.05489098E-01   # Mixing angle in the neutral Higgs boson sector
#
BLOCK HMIX Q=  5.00075570E+03  # DRbar Higgs Parameters
         1    -6.80245982E+02   # mu(Q)MSSM           
         2     9.46875185E+00   # tan                 
         3     2.41795946E+02   # higgs               
         4     8.61072802E+06   # mA^2(Q)MSSM         
#
BLOCK GAUGE Q=  5.00075570E+03  # The gauge couplings
     1     3.70863215E-01   # gprime(Q) DRbar
     2     6.32901481E-01   # g(Q) DRbar
     3     9.93521616E-01   # g3(Q) DRbar
#
BLOCK AU Q=  5.00075570E+03  # The trilinear couplings
  1  1     5.00000002E+03   # A_u(Q) DRbar
  2  2     5.00000002E+03   # A_c(Q) DRbar
  3  3     5.00000003E+03   # A_t(Q) DRbar
#
BLOCK AD Q=  5.00075570E+03  # The trilinear couplings
  1  1     5.00000001E+03   # A_d(Q) DRbar
  2  2     5.00000001E+03   # A_s(Q) DRbar
  3  3     5.00000001E+03   # A_b(Q) DRbar
#
BLOCK AE Q=  5.00075570E+03  # The trilinear couplings
  1  1     0.00000000E+00   # A_e(Q) DRbar
  2  2     2.92234456E-07   # A_mu(Q) DRbar
  3  3     2.92338257E-07   # A_tau(Q) DRbar
#
BLOCK Yu Q=  5.00075570E+03  # The Yukawa couplings
  1  1     0.00000000E+00   # y_u(Q) DRbar
  2  2     0.00000000E+00   # y_c(Q) DRbar
  3  3     8.21610079E-01   # y_t(Q) DRbar
#
BLOCK Yd Q=  5.00075570E+03  # The Yukawa couplings
  1  1     0.00000000E+00   # y_d(Q) DRbar
  2  2     0.00000000E+00   # y_s(Q) DRbar
  3  3     1.30696666E-01   # y_b(Q) DRbar
#
BLOCK Ye Q=  5.00075570E+03  # The Yukawa couplings
  1  1     0.00000000E+00   # y_e(Q) DRbar
  2  2     0.00000000E+00   # y_mu(Q) DRbar
  3  3     9.70091883E-02   # y_tau(Q) DRbar
#
BLOCK MSOFT Q=  5.00075570E+03  # The soft SUSY breaking masses at the scale Q
         1     6.00000000E+01   # M_1(Q)              
         2     3.00000000E+03   # M_2(Q)              
         3     2.42817900E+03   # M_3(Q)              
        21     8.25219811E+06   # mH1^2(Q)            
        22     1.12064434E+05   # mH2^2(Q)            
        31     5.00000000E+03   # meL(Q)              
        32     5.00000000E+03   # mmuL(Q)             
        33     5.00000000E+03   # mtauL(Q)            
        34     5.00000000E+03   # meR(Q)              
        35     5.00000000E+03   # mmuR(Q)             
        36     5.00000000E+03   # mtauR(Q)            
        41     4.99999999E+03   # mqL1(Q)             
        42     4.99999999E+03   # mqL2(Q)             
        43     4.99999999E+03   # mqL3(Q)             
        44     4.99999999E+03   # muR(Q)              
        45     4.99999999E+03   # mcR(Q)              
        46     4.99999999E+03   # mtR(Q)              
        47     4.99999999E+03   # mdR(Q)              
        48     4.99999999E+03   # msR(Q)              
        49     4.99999999E+03   # mbR(Q)              
#
#
#
#                             =================
#                             |The decay table|
#                             =================
#
# - The QCD corrections to the decays gluino -> squark  + quark
#                                     squark -> gaugino + quark_prime
#                                     squark -> squark_prime + Higgs
#                                     squark -> gluino  + quark
#   are included.
#
# - The multi-body decays for the inos, stops and sbottoms are included.
#
# - The loop induced decays for the gluino, neutralinos and stops
#   are included.
#
# - The SUSY decays of the top quark are included.
#
#
#         PDG            Width
DECAY         6     1.40374007E+00   # top decays
#          BR         NDA      ID1       ID2
     1.00000000E+00    2           5        24   # BR(t ->  b    W+)
#
#         PDG            Width
DECAY   1000021     1.17369005E-02   # gluino decays
#          BR         NDA      ID1       ID2
     8.30822472E-07    2     1000022        21   # BR(~g -> ~chi_10 g)
     3.55448720E-03    2     1000023        21   # BR(~g -> ~chi_20 g)
     3.47391045E-03    2     1000025        21   # BR(~g -> ~chi_30 g)
#           BR         NDA      ID1       ID2       ID3
     1.18992119E-02    3     1000022         1        -1   # BR(~g -> ~chi_10 d  db)
     2.29245596E-05    3     1000023         1        -1   # BR(~g -> ~chi_20 d  db)
     2.55601198E-05    3     1000025         1        -1   # BR(~g -> ~chi_30 d  db)
     4.05835769E-02    3     1000022         2        -2   # BR(~g -> ~chi_10 u  ub)
     1.06228726E-04    3     1000023         2        -2   # BR(~g -> ~chi_20 u  ub)
     3.62490394E-05    3     1000025         2        -2   # BR(~g -> ~chi_30 u  ub)
     1.18992119E-02    3     1000022         3        -3   # BR(~g -> ~chi_10 s  sb)
     2.29245596E-05    3     1000023         3        -3   # BR(~g -> ~chi_20 s  sb)
     2.55601198E-05    3     1000025         3        -3   # BR(~g -> ~chi_30 s  sb)
     4.05835769E-02    3     1000022         4        -4   # BR(~g -> ~chi_10 c  cb)
     1.06228726E-04    3     1000023         4        -4   # BR(~g -> ~chi_20 c  cb)
     3.62490394E-05    3     1000025         4        -4   # BR(~g -> ~chi_30 c  cb)
     1.21146731E-02    3     1000022         5        -5   # BR(~g -> ~chi_10 b  bb)
     5.19048870E-03    3     1000023         5        -5   # BR(~g -> ~chi_20 b  bb)
     5.16085253E-03    3     1000025         5        -5   # BR(~g -> ~chi_30 b  bb)
     4.21243099E-02    3     1000022         6        -6   # BR(~g -> ~chi_10 t  tb)
     2.04762320E-01    3     1000023         6        -6   # BR(~g -> ~chi_20 t  tb)
     1.95571428E-01    3     1000025         6        -6   # BR(~g -> ~chi_30 t  tb)
     5.76841238E-05    3     1000024         1        -2   # BR(~g -> ~chi_1+ d  ub)
     5.76841238E-05    3    -1000024         2        -1   # BR(~g -> ~chi_1- u  db)
     5.76841238E-05    3     1000024         3        -4   # BR(~g -> ~chi_1+ s  cb)
     5.76841238E-05    3    -1000024         4        -3   # BR(~g -> ~chi_1- c  sb)
     2.11234230E-01    3     1000024         5        -6   # BR(~g -> ~chi_1+ b  tb)
     2.11234230E-01    3    -1000024         6        -5   # BR(~g -> ~chi_1- t  bb)
#
#         PDG            Width
DECAY   1000006     2.69373799E+02   # stop1 decays
#          BR         NDA      ID1       ID2
     3.30451761E-02    2     1000022         6   # BR(~t_1 -> ~chi_10 t )
     1.18273408E-01    2     1000023         6   # BR(~t_1 -> ~chi_20 t )
     1.13090931E-01    2     1000025         6   # BR(~t_1 -> ~chi_30 t )
     7.45105920E-03    2     1000035         6   # BR(~t_1 -> ~chi_40 t )
     1.74141999E-01    2     1000024         5   # BR(~t_1 -> ~chi_1+ b )
     1.48511064E-02    2     1000037         5   # BR(~t_1 -> ~chi_2+ b )
     5.39146320E-01    2     1000021         6   # BR(~t_1 -> ~g      t )
#
#         PDG            Width
DECAY   2000006     2.77444837E+02   # stop2 decays
#          BR         NDA      ID1       ID2
     1.21733556E-02    2     1000022         6   # BR(~t_2 -> ~chi_10 t )
     1.16507707E-01    2     1000023         6   # BR(~t_2 -> ~chi_20 t )
     1.22120269E-01    2     1000025         6   # BR(~t_2 -> ~chi_30 t )
     2.05338622E-02    2     1000035         6   # BR(~t_2 -> ~chi_40 t )
     6.68773410E-02    2     1000024         5   # BR(~t_2 -> ~chi_1+ b )
     4.08774411E-02    2     1000037         5   # BR(~t_2 -> ~chi_2+ b )
     6.16679568E-01    2     1000021         6   # BR(~t_2 -> ~g      t )
     9.74152498E-04    2     1000006        25   # BR(~t_2 -> ~t_1    h )
     3.25630417E-03    2     1000006        23   # BR(~t_2 -> ~t_1    Z )
#
#         PDG            Width
DECAY   1000005     2.51742595E+02   # sbottom1 decays
#          BR         NDA      ID1       ID2
     3.05720574E-03    2     1000022         5   # BR(~b_1 -> ~chi_10 b )
     3.24877178E-03    2     1000023         5   # BR(~b_1 -> ~chi_20 b )
     3.21055855E-03    2     1000025         5   # BR(~b_1 -> ~chi_30 b )
     3.03213901E-02    2     1000035         5   # BR(~b_1 -> ~chi_40 b )
     2.56011731E-01    2    -1000024         6   # BR(~b_1 -> ~chi_1- t )
     6.08908272E-02    2    -1000037         6   # BR(~b_1 -> ~chi_2- t )
     6.41147471E-01    2     1000021         5   # BR(~b_1 -> ~g      b )
     2.11204477E-03    2     1000006       -24   # BR(~b_1 -> ~t_1    W-)
#
#         PDG            Width
DECAY   2000005     1.70880627E+02   # sbottom2 decays
#          BR         NDA      ID1       ID2
     1.71496880E-02    2     1000022         5   # BR(~b_2 -> ~chi_10 b )
     4.86771146E-03    2     1000023         5   # BR(~b_2 -> ~chi_20 b )
     4.95486631E-03    2     1000025         5   # BR(~b_2 -> ~chi_30 b )
     1.49683982E-04    2     1000035         5   # BR(~b_2 -> ~chi_40 b )
     1.08658569E-02    2    -1000024         6   # BR(~b_2 -> ~chi_1- t )
     3.00603304E-04    2    -1000037         6   # BR(~b_2 -> ~chi_2- t )
     9.61663164E-01    2     1000021         5   # BR(~b_2 -> ~g      b )
     4.84260759E-05    2     1000006       -24   # BR(~b_2 -> ~t_1    W-)
#
#         PDG            Width
DECAY   1000002     1.90533275E+02   # sup_L decays
#          BR         NDA      ID1       ID2
     3.90056161E-03    2     1000022         2   # BR(~u_L -> ~chi_10 u)
     8.41678378E-05    2     1000023         2   # BR(~u_L -> ~chi_20 u)
     5.09296162E-06    2     1000025         2   # BR(~u_L -> ~chi_30 u)
     4.16287251E-02    2     1000035         2   # BR(~u_L -> ~chi_40 u)
     2.66100769E-04    2     1000024         1   # BR(~u_L -> ~chi_1+ d)
     8.32044610E-02    2     1000037         1   # BR(~u_L -> ~chi_2+ d)
     8.70910891E-01    2     1000021         2   # BR(~u_L -> ~g      u)
#
#         PDG            Width
DECAY   2000002     1.76233339E+02   # sup_R decays
#          BR         NDA      ID1       ID2
     6.70832565E-02    2     1000022         2   # BR(~u_R -> ~chi_10 u)
     1.26564229E-04    2     1000023         2   # BR(~u_R -> ~chi_20 u)
     1.35634781E-04    2     1000025         2   # BR(~u_R -> ~chi_30 u)
     4.14327657E-09    2     1000035         2   # BR(~u_R -> ~chi_40 u)
     9.32654540E-01    2     1000021         2   # BR(~u_R -> ~g      u)
#
#         PDG            Width
DECAY   1000001     1.90550227E+02   # sdown_L decays
#          BR         NDA      ID1       ID2
     3.88308924E-03    2     1000022         1   # BR(~d_L -> ~chi_10 d)
     1.40940717E-05    2     1000023         1   # BR(~d_L -> ~chi_20 d)
     6.19021791E-05    2     1000025         1   # BR(~d_L -> ~chi_30 d)
     4.16503738E-02    2     1000035         1   # BR(~d_L -> ~chi_40 d)
     3.93334984E-06    2    -1000024         2   # BR(~d_L -> ~chi_1- u)
     8.33328957E-02    2    -1000037         2   # BR(~d_L -> ~chi_2- u)
     8.71053712E-01    2     1000021         1   # BR(~d_L -> ~g      d)
#
#         PDG            Width
DECAY   2000001     1.67358265E+02   # sdown_R decays
#          BR         NDA      ID1       ID2
     1.76612196E-02    2     1000022         1   # BR(~d_R -> ~chi_10 d)
     3.33211020E-05    2     1000023         1   # BR(~d_R -> ~chi_20 d)
     3.57091455E-05    2     1000025         1   # BR(~d_R -> ~chi_30 d)
     1.09095758E-09    2     1000035         1   # BR(~d_R -> ~chi_40 d)
     9.82269749E-01    2     1000021         1   # BR(~d_R -> ~g      d)
#
#         PDG            Width
DECAY   1000004     1.90533275E+02   # scharm_L decays
#          BR         NDA      ID1       ID2
     3.90056161E-03    2     1000022         4   # BR(~c_L -> ~chi_10 c)
     8.41678378E-05    2     1000023         4   # BR(~c_L -> ~chi_20 c)
     5.09296162E-06    2     1000025         4   # BR(~c_L -> ~chi_30 c)
     4.16287251E-02    2     1000035         4   # BR(~c_L -> ~chi_40 c)
     2.66100769E-04    2     1000024         3   # BR(~c_L -> ~chi_1+ s)
     8.32044610E-02    2     1000037         3   # BR(~c_L -> ~chi_2+ s)
     8.70910891E-01    2     1000021         4   # BR(~c_L -> ~g      c)
#
#         PDG            Width
DECAY   2000004     1.76233339E+02   # scharm_R decays
#          BR         NDA      ID1       ID2
     6.70832565E-02    2     1000022         4   # BR(~c_R -> ~chi_10 c)
     1.26564229E-04    2     1000023         4   # BR(~c_R -> ~chi_20 c)
     1.35634781E-04    2     1000025         4   # BR(~c_R -> ~chi_30 c)
     4.14327657E-09    2     1000035         4   # BR(~c_R -> ~chi_40 c)
     9.32654540E-01    2     1000021         4   # BR(~c_R -> ~g      c)
#
#         PDG            Width
DECAY   1000003     1.90550227E+02   # sstrange_L decays
#          BR         NDA      ID1       ID2
     3.88308924E-03    2     1000022         3   # BR(~s_L -> ~chi_10 s)
     1.40940717E-05    2     1000023         3   # BR(~s_L -> ~chi_20 s)
     6.19021791E-05    2     1000025         3   # BR(~s_L -> ~chi_30 s)
     4.16503738E-02    2     1000035         3   # BR(~s_L -> ~chi_40 s)
     3.93334984E-06    2    -1000024         4   # BR(~s_L -> ~chi_1- c)
     8.33328957E-02    2    -1000037         4   # BR(~s_L -> ~chi_2- c)
     8.71053712E-01    2     1000021         3   # BR(~s_L -> ~g      s)
#
#         PDG            Width
DECAY   2000003     1.67358265E+02   # sstrange_R decays
#          BR         NDA      ID1       ID2
     1.76612196E-02    2     1000022         3   # BR(~s_R -> ~chi_10 s)
     3.33211020E-05    2     1000023         3   # BR(~s_R -> ~chi_20 s)
     3.57091455E-05    2     1000025         3   # BR(~s_R -> ~chi_30 s)
     1.09095758E-09    2     1000035         3   # BR(~s_R -> ~chi_40 s)
     9.82269749E-01    2     1000021         3   # BR(~s_R -> ~g      s)
#
#         PDG            Width
DECAY   1000011     3.02994606E+01   # selectron_L decays
#          BR         NDA      ID1       ID2
     2.25819124E-01    2     1000022        11   # BR(~e_L -> ~chi_10 e-)
     1.36803258E-03    2     1000023        11   # BR(~e_L -> ~chi_20 e-)
     7.22607010E-05    2     1000025        11   # BR(~e_L -> ~chi_30 e-)
     2.57401875E-01    2     1000035        11   # BR(~e_L -> ~chi_40 e-)
     2.52627072E-05    2    -1000024        12   # BR(~e_L -> ~chi_1- nu_e)
     5.15313445E-01    2    -1000037        12   # BR(~e_L -> ~chi_2- nu_e)
#
#         PDG            Width
DECAY   2000011     2.73828881E+01   # selectron_R decays
#          BR         NDA      ID1       ID2
     9.96118209E-01    2     1000022        11   # BR(~e_R -> ~chi_10 e-)
     1.87373532E-03    2     1000023        11   # BR(~e_R -> ~chi_20 e-)
     2.00799676E-03    2     1000025        11   # BR(~e_R -> ~chi_30 e-)
     5.91605469E-08    2     1000035        11   # BR(~e_R -> ~chi_40 e-)
#
#         PDG            Width
DECAY   1000013     3.02994606E+01   # smuon_L decays
#          BR         NDA      ID1       ID2
     2.25819124E-01    2     1000022        13   # BR(~mu_L -> ~chi_10 mu-)
     1.36803258E-03    2     1000023        13   # BR(~mu_L -> ~chi_20 mu-)
     7.22607010E-05    2     1000025        13   # BR(~mu_L -> ~chi_30 mu-)
     2.57401875E-01    2     1000035        13   # BR(~mu_L -> ~chi_40 mu-)
     2.52627072E-05    2    -1000024        14   # BR(~mu_L -> ~chi_1- nu_mu)
     5.15313445E-01    2    -1000037        14   # BR(~mu_L -> ~chi_2- nu_mu)
#
#         PDG            Width
DECAY   2000013     2.73828881E+01   # smuon_R decays
#          BR         NDA      ID1       ID2
     9.96118209E-01    2     1000022        13   # BR(~mu_R -> ~chi_10 mu-)
     1.87373532E-03    2     1000023        13   # BR(~mu_R -> ~chi_20 mu-)
     2.00799676E-03    2     1000025        13   # BR(~mu_R -> ~chi_30 mu-)
     5.91605469E-08    2     1000035        13   # BR(~mu_R -> ~chi_40 mu-)
#
#         PDG            Width
DECAY   1000015     2.91936808E+01   # stau_1 decays
#          BR         NDA      ID1       ID2
     9.30632807E-01    2     1000022        15   # BR(~tau_1 -> ~chi_10  tau-)
     1.70507733E-02    2     1000023        15   # BR(~tau_1 -> ~chi_20  tau-)
     1.65281359E-02    2     1000025        15   # BR(~tau_1 -> ~chi_30  tau-)
     1.66250596E-03    2     1000035        15   # BR(~tau_1 -> ~chi_40  tau-)
     3.07976685E-02    2    -1000024        16   # BR(~tau_1 -> ~chi_1-  nu_tau)
     3.32810949E-03    2    -1000037        16   # BR(~tau_1 -> ~chi_2-  nu_tau)
#
#         PDG            Width
DECAY   2000015     3.11786013E+01   # stau_2 decays
#          BR         NDA      ID1       ID2
     2.22936707E-01    2     1000022        15   # BR(~tau_2 -> ~chi_10  tau-)
     1.58575055E-02    2     1000023        15   # BR(~tau_2 -> ~chi_20  tau-)
     1.51337884E-02    2     1000025        15   # BR(~tau_2 -> ~chi_30  tau-)
     2.48501375E-01    2     1000035        15   # BR(~tau_2 -> ~chi_40  tau-)
     7.51810167E-05    2    -1000024        16   # BR(~tau_2 -> ~chi_1-  nu_tau)
     4.97495443E-01    2    -1000037        16   # BR(~tau_2 -> ~chi_2-  nu_tau)
#
#         PDG            Width
DECAY   1000012     3.03025532E+01   # snu_eL decays
#          BR         NDA      ID1       ID2
     2.25415345E-01    2     1000022        12   # BR(~nu_eL -> ~chi_10 nu_e)
     1.78199111E-05    2     1000023        12   # BR(~nu_eL -> ~chi_20 nu_e)
     1.16649323E-03    2     1000025        12   # BR(~nu_eL -> ~chi_30 nu_e)
     2.57445588E-01    2     1000035        12   # BR(~nu_eL -> ~chi_40 nu_e)
     1.70858174E-03    2     1000024        11   # BR(~nu_eL -> ~chi_1+ e-)
     5.14246172E-01    2     1000037        11   # BR(~nu_eL -> ~chi_2+ e-)
#
#         PDG            Width
DECAY   1000014     3.03025532E+01   # snu_muL decays
#          BR         NDA      ID1       ID2
     2.25415345E-01    2     1000022        14   # BR(~nu_muL -> ~chi_10 nu_mu)
     1.78199111E-05    2     1000023        14   # BR(~nu_muL -> ~chi_20 nu_mu)
     1.16649323E-03    2     1000025        14   # BR(~nu_muL -> ~chi_30 nu_mu)
     2.57445588E-01    2     1000035        14   # BR(~nu_muL -> ~chi_40 nu_mu)
     1.70858174E-03    2     1000024        13   # BR(~nu_muL -> ~chi_1+ mu-)
     5.14246172E-01    2     1000037        13   # BR(~nu_muL -> ~chi_2+ mu-)
#
#         PDG            Width
DECAY   1000016     3.11962782E+01   # snu_tauL decays
#          BR         NDA      ID1       ID2
     2.18933557E-01    2     1000022        16   # BR(~nu_tauL -> ~chi_10 nu_tau)
     1.73073526E-05    2     1000023        16   # BR(~nu_tauL -> ~chi_20 nu_tau)
     1.13294103E-03    2     1000025        16   # BR(~nu_tauL -> ~chi_30 nu_tau)
     2.49976993E-01    2     1000035        16   # BR(~nu_tauL -> ~chi_40 nu_tau)
     3.06120930E-02    2     1000024        15   # BR(~nu_tauL -> ~chi_1+ tau-)
     4.99327109E-01    2     1000037        15   # BR(~nu_tauL -> ~chi_2+ tau-)
#
#         PDG            Width
DECAY   1000024     4.20379783E-01   # chargino1+ decays
#          BR         NDA      ID1       ID2
     1.00000000E+00    2     1000022        24   # BR(~chi_1+ -> ~chi_10  W+)
#
#         PDG            Width
DECAY   1000037     2.14568582E+01   # chargino2+ decays
#          BR         NDA      ID1       ID2
     2.53433432E-01    2     1000024        23   # BR(~chi_2+ -> ~chi_1+  Z )
     1.77990972E-04    2     1000022        24   # BR(~chi_2+ -> ~chi_10  W+)
     2.44561924E-01    2     1000023        24   # BR(~chi_2+ -> ~chi_20  W+)
     2.44269600E-01    2     1000025        24   # BR(~chi_2+ -> ~chi_30  W+)
     2.57554490E-01    2     1000024        25   # BR(~chi_2+ -> ~chi_1+  h )
     2.56383828E-06    2     1000022        37   # BR(~chi_2+ -> ~chi_10  H+)
#
#         PDG            Width
DECAY   1000022     0.00000000E+00   # neutralino1 decays
#
#         PDG            Width
DECAY   1000023     4.34120910E-01   # neutralino2 decays
#          BR         NDA      ID1       ID2
     5.22419977E-01    2     1000022        23   # BR(~chi_20 -> ~chi_10   Z )
     4.77580023E-01    2     1000022        25   # BR(~chi_20 -> ~chi_10   h )
#
#         PDG            Width
DECAY   1000025     4.31991628E-01   # neutralino3 decays
#          BR         NDA      ID1       ID2
     4.83898324E-01    2     1000022        23   # BR(~chi_30 -> ~chi_10   Z )
     5.16101676E-01    2     1000022        25   # BR(~chi_30 -> ~chi_10   h )
#
#         PDG            Width
DECAY   1000035     2.14719462E+01   # neutralino4 decays
#          BR         NDA      ID1       ID2
     2.28870224E-05    2     1000022        23   # BR(~chi_40 -> ~chi_10   Z )
     9.62862831E-02    2     1000023        23   # BR(~chi_40 -> ~chi_20   Z )
     1.56538736E-01    2     1000025        23   # BR(~chi_40 -> ~chi_30   Z )
     2.45012755E-01    2     1000024       -24   # BR(~chi_40 -> ~chi_1+   W-)
     2.45012755E-01    2    -1000024        24   # BR(~chi_40 -> ~chi_1-   W+)
     1.52160520E-04    2     1000022        25   # BR(~chi_40 -> ~chi_10   h )
     2.45004384E-06    2     1000022        35   # BR(~chi_40 -> ~chi_10   H )
     2.79006880E-07    2     1000022        36   # BR(~chi_40 -> ~chi_10   A )
     1.60398896E-01    2     1000023        25   # BR(~chi_40 -> ~chi_20   h )
     9.65727979E-02    2     1000025        25   # BR(~chi_40 -> ~chi_30   h )
#
#         PDG            Width
DECAY        25     4.06397378E-03   # h decays
#          BR         NDA      ID1       ID2
     6.07648362E-01    2           5        -5   # BR(h -> b       bb     )
     6.38454256E-02    2         -15        15   # BR(h -> tau+    tau-   )
     2.26035854E-04    2         -13        13   # BR(h -> mu+     mu-    )
     4.79153915E-04    2           3        -3   # BR(h -> s       sb     )
     2.07614118E-02    2           4        -4   # BR(h -> c       cb     )
     6.72025279E-02    2          21        21   # BR(h -> g       g      )
     2.31105525E-03    2          22        22   # BR(h -> gam     gam    )
     1.49353757E-03    2          22        23   # BR(h -> Z       gam    )
     2.10816683E-01    2          24       -24   # BR(h -> W+      W-     )
     2.51348955E-02    2          23        23   # BR(h -> Z       Z      )
     8.09116959E-05    2     1000022   1000022   # BR(h -> ~chi_10 ~chi_10)
#
#         PDG            Width
DECAY        35     8.48003277E+00   # H decays
#          BR         NDA      ID1       ID2
     3.78107302E-01    2           5        -5   # BR(H -> b       bb     )
     6.56817238E-02    2         -15        15   # BR(H -> tau+    tau-   )
     2.32255792E-04    2         -13        13   # BR(H -> mu+     mu-    )
     2.84709958E-04    2           3        -3   # BR(H -> s       sb     )
     1.59340599E-06    2           4        -4   # BR(H -> c       cb     )
     1.59193881E-01    2           6        -6   # BR(H -> t       tb     )
     5.29323395E-05    2          21        21   # BR(H -> g       g      )
     1.84895078E-07    2          22        22   # BR(H -> gam     gam    )
     9.39820861E-08    2          23        22   # BR(H -> Z       gam    )
     7.50199447E-05    2          24       -24   # BR(H -> W+      W-     )
     3.74624910E-05    2          23        23   # BR(H -> Z       Z      )
     2.74221222E-04    2          25        25   # BR(H -> h       h      )
    -2.31101964E-23    2          36        36   # BR(H -> A       A      )
     1.20860317E-18    2          23        36   # BR(H -> Z       A      )
     2.81402154E-03    2     1000024  -1000024   # BR(H -> ~chi_1+ ~chi_1-)
     3.48071377E-03    2     1000022   1000022   # BR(H -> ~chi_10 ~chi_10)
     1.48480237E-05    2     1000023   1000023   # BR(H -> ~chi_20 ~chi_20)
     1.35563673E-03    2     1000025   1000025   # BR(H -> ~chi_30 ~chi_30)
     2.33776750E-01    2     1000022   1000023   # BR(H -> ~chi_10 ~chi_20)
     1.53096290E-01    2     1000022   1000025   # BR(H -> ~chi_10 ~chi_30)
     1.52035921E-03    2     1000023   1000025   # BR(H -> ~chi_20 ~chi_30)
#
#         PDG            Width
DECAY        36     8.49003856E+00   # A decays
#          BR         NDA      ID1       ID2
     3.77789984E-01    2           5        -5   # BR(A -> b       bb     )
     6.56062747E-02    2         -15        15   # BR(A -> tau+    tau-   )
     2.31988674E-04    2         -13        13   # BR(A -> mu+     mu-    )
     2.84590429E-04    2           3        -3   # BR(A -> s       sb     )
     1.59795242E-06    2           4        -4   # BR(A -> c       cb     )
     1.59560018E-01    2           6        -6   # BR(A -> t       tb     )
     1.57884369E-04    2          21        21   # BR(A -> g       g      )
     5.99930553E-07    2          22        22   # BR(A -> gam     gam    )
     1.91181407E-07    2          23        22   # BR(A -> Z       gam    )
     7.46478436E-05    2          23        25   # BR(A -> Z       h      )
     3.41324517E-03    2     1000024  -1000024   # BR(A -> ~chi_1+ ~chi_1-)
     3.50868949E-03    2     1000022   1000022   # BR(A -> ~chi_10 ~chi_10)
     1.23983886E-05    2     1000023   1000023   # BR(A -> ~chi_20 ~chi_20)
     2.65471753E-03    2     1000025   1000025   # BR(A -> ~chi_30 ~chi_30)
     1.55720882E-01    2     1000022   1000023   # BR(A -> ~chi_10 ~chi_20)
     2.30152814E-01    2     1000022   1000025   # BR(A -> ~chi_10 ~chi_30)
     8.29476693E-04    2     1000023   1000025   # BR(A -> ~chi_20 ~chi_30)
#
#         PDG            Width
DECAY        37     8.45161664E+00   # H+ decays
#          BR         NDA      ID1       ID2
     6.08148732E-04    2           4        -5   # BR(H+ -> c       bb     )
     6.59348427E-02    2         -15        16   # BR(H+ -> tau+    nu_tau )
     2.33150515E-04    2         -13        14   # BR(H+ -> mu+     nu_mu  )
     3.89213163E-06    2           2        -5   # BR(H+ -> u       bb     )
     1.36804880E-05    2           2        -3   # BR(H+ -> u       sb     )
     2.82914044E-04    2           4        -3   # BR(H+ -> c       sb     )
     5.37056671E-01    2           6        -5   # BR(H+ -> t       bb     )
     7.51390977E-05    2          24        25   # BR(H+ -> W+      h      )
     7.78055569E-13    2          24        36   # BR(H+ -> W+      A      )
     3.93869510E-01    2     1000024   1000022   # BR(H+ -> ~chi_1+ ~chi_10)
     1.86763581E-03    2     1000024   1000023   # BR(H+ -> ~chi_1+ ~chi_20)
     5.44153054E-05    2     1000024   1000025   # BR(H+ -> ~chi_1+ ~chi_30)
