#
#                              ======================
#                              | THE SUSYHIT OUTPUT |
#                              ======================
#
#
#              ------------------------------------------------------
#              |     This is the output of the SUSY-HIT package     |
#              |  created by A.Djouadi, M.Muehlleitner and M.Spira. |
#              |  In case of problems with SUSY-HIT email to        |
#              |           margarete.muehlleitner@cern.ch           |
#              |           michael.spira@psi.ch                     |
#              |           abdelhak.djouadi@cern.ch                 |
#              ------------------------------------------------------
#
#              ------------------------------------------------------
#              |  SUSY Les Houches Accord - MSSM Spectrum + Decays  |
#              |              based on the decay programs           |
#              |                                                    |
#              |                     SDECAY 1.3b                    |
#              |                                                    |
#              |  Authors: M.Muhlleitner, A.Djouadi and Y.Mambrini  |
#              |  Ref.:    Comput.Phys.Commun.168(2005)46           |
#              |           [hep-ph/0311167]                         |
#              |                                                    |
#              |                     HDECAY 3.4                     |
#              |                                                    |
#              |  By: A.Djouadi,J.Kalinowski,M.Muhlleitner,M.Spira  |
#              |  Ref.:    Comput.Phys.Commun.108(1998)56           |
#              |           [hep-ph/9704448]                         |
#              |                                                    |
#              |                                                    |
#              |  If not stated otherwise all DRbar couplings and   |
#              |  soft SUSY breaking masses are given at the scale  |
#              |  Q=  0.50007383E+04
#              |                                                    |
#              ------------------------------------------------------
#
#
BLOCK DCINFO  # Decay Program information
     1   SDECAY/HDECAY # decay calculator
     2   1.3b  /3.4    # version number
#
BLOCK SPINFO  # Spectrum calculator information
     1    SOFTSUSY    # spectrum calculator                
     2    3.4.0       # version number                     
#
BLOCK MODSEL  # Model selection
     1     0   #  nonUniversal                                     
#
BLOCK SMINPUTS  # Standard Model inputs
         1     1.25778332E+02   # alpha_em^-1(M_Z)^MSbar
         2     1.16570000E-05   # G_F [GeV^-2]
         3     1.17200002E-01   # alpha_S(M_Z)^MSbar
         4     9.11876000E+01   # M_Z pole mass
         5     4.25000000E+00   # mb(mb)^MSbar
         6     1.72500000E+02   # mt pole mass
         7     1.77682000E+00   # mtau pole mass
#
BLOCK MINPAR  # Input parameters - minimal models
         3     1.00000000E+01   # tanb                
#
BLOCK EXTPAR  # Input parameters - non-minimal models
         0    -1.00000000E+00   # Set                 
         1     6.00000000E+01   # M_1(MX)             
         2     3.00000000E+03   # M_2(MX)             
         3     1.48350300E+03   # M_3(MX)             
        11     5.00000000E+03   # At(MX)              
        12     5.00000000E+03   # Ab(MX)              
        13     0.00000000E+00   # Atau(MX)            
        23    -9.59056000E+02   # mu(MX)              
        26     3.00000000E+03   # mA(pole)            
        31     5.00000000E+03   # meL(MX)             
        32     5.00000000E+03   # mmuL(MX)            
        33     5.00000000E+03   # mtauL(MX)           
        34     5.00000000E+03   # meR(MX)             
        35     5.00000000E+03   # mmuR(MX)            
        36     5.00000000E+03   # mtauR(MX)           
        41     5.00000000E+03   # mqL1(MX)            
        42     5.00000000E+03   # mqL2(MX)            
        43     5.00000000E+03   # mqL3(MX)            
        44     5.00000000E+03   # muR(MX)             
        45     5.00000000E+03   # mcR(MX)             
        46     5.00000000E+03   # mtR(MX)             
        47     5.00000000E+03   # mdR(MX)             
        48     5.00000000E+03   # msR(MX)             
        49     5.00000000E+03   # mbR(MX)             
#
BLOCK MASS  # Mass Spectrum
# PDG code           mass       particle
        24     8.00948128E+01   # W+
        25     1.24720477E+02   # h
        35     3.00008139E+03   # H
        36     2.99999858E+03   # A
        37     3.00112656E+03   # H+
         5     4.87878001E+00   # b-quark pole mass calculated from mb(mb)_Msbar
   1000001     5.06951251E+03   # ~d_L
   2000001     5.05170141E+03   # ~d_R
   1000002     5.06903792E+03   # ~u_L
   2000002     5.05141549E+03   # ~u_R
   1000003     5.06951251E+03   # ~s_L
   2000003     5.05170141E+03   # ~s_R
   1000004     5.06903792E+03   # ~c_L
   2000004     5.05141549E+03   # ~c_R
   1000005     5.01531936E+03   # ~b_1
   2000005     5.05022828E+03   # ~b_2
   1000006     4.90611367E+03   # ~t_1
   2000006     5.06050572E+03   # ~t_2
   1000011     5.01907141E+03   # ~e_L
   2000011     5.00592431E+03   # ~e_R
   1000012     5.01812270E+03   # ~nu_eL
   1000013     5.01907141E+03   # ~mu_L
   2000013     5.00592431E+03   # ~mu_R
   1000014     5.01812270E+03   # ~nu_muL
   1000015     5.00461226E+03   # ~tau_1
   2000015     5.01876611E+03   # ~tau_2
   1000016     5.01757656E+03   # ~nu_tauL
   1000021     1.80000083E+03   # ~g
   1000022     6.02985715E+01   # ~chi_10
   1000023     9.99652567E+02   # ~chi_20
   1000025    -1.00190601E+03   # ~chi_30
   1000035     3.07425498E+03   # ~chi_40
   1000024     1.00000042E+03   # ~chi_1+
   1000037     3.07442245E+03   # ~chi_2+
#
BLOCK NMIX  # Neutralino Mixing Matrix
  1  1     9.99007036E-01   # N_11
  1  2     1.84581924E-04   # N_12
  1  3    -4.45092012E-02   # N_13
  1  4     1.95951815E-03   # N_14
  2  1     3.00958851E-02   # N_21
  2  2     2.34932100E-02   # N_22
  2  3     7.06701076E-01   # N_23
  2  4     7.06481348E-01   # N_24
  3  1    -3.28484255E-02   # N_31
  3  2     1.49120135E-02   # N_32
  3  3    -7.06084771E-01   # N_33
  3  4     7.07207826E-01   # N_34
  4  1    -4.01767005E-04   # N_41
  4  2     9.99612758E-01   # N_42
  4  3    -6.06766519E-03   # N_43
  4  4    -2.71542843E-02   # N_44
#
BLOCK UMIX  # Chargino Mixing Matrix U
  1  1     8.59465683E-03   # U_11
  1  2     9.99963065E-01   # U_12
  2  1    -9.99963065E-01   # U_21
  2  2     8.59465683E-03   # U_22
#
BLOCK VMIX  # Chargino Mixing Matrix V
  1  1     3.84317747E-02   # V_11
  1  2    -9.99261226E-01   # V_12
  2  1    -9.99261226E-01   # V_21
  2  2    -3.84317747E-02   # V_22
#
BLOCK STOPMIX  # Stop Mixing Matrix
  1  1    -5.07592950E-01   # cos(theta_t)
  1  2     8.61597004E-01   # sin(theta_t)
  2  1    -8.61597004E-01   # -sin(theta_t)
  2  2    -5.07592950E-01   # cos(theta_t)
#
BLOCK SBOTMIX  # Sbottom Mixing Matrix
  1  1     9.97077004E-01   # cos(theta_b)
  1  2    -7.64031943E-02   # sin(theta_b)
  2  1     7.64031943E-02   # -sin(theta_b)
  2  2     9.97077004E-01   # cos(theta_b)
#
BLOCK STAUMIX  # Stau Mixing Matrix
  1  1    -1.13910284E-01   # cos(theta_tau)
  1  2     9.93491040E-01   # sin(theta_tau)
  2  1    -9.93491040E-01   # -sin(theta_tau)
  2  2    -1.13910284E-01   # cos(theta_tau)
#
BLOCK ALPHA  # Higgs mixing
          -1.05468475E-01   # Mixing angle in the neutral Higgs boson sector
#
BLOCK HMIX Q=  5.00073829E+03  # DRbar Higgs Parameters
         1    -9.76558765E+02   # mu(Q)MSSM           
         2     9.47032959E+00   # tan                 
         3     2.41861055E+02   # higgs               
         4     8.51531496E+06   # mA^2(Q)MSSM         
#
BLOCK GAUGE Q=  5.00073829E+03  # The gauge couplings
     1     3.70801237E-01   # gprime(Q) DRbar
     2     6.32564077E-01   # g(Q) DRbar
     3     1.00004565E+00   # g3(Q) DRbar
#
BLOCK AU Q=  5.00073829E+03  # The trilinear couplings
  1  1     5.00000001E+03   # A_u(Q) DRbar
  2  2     5.00000001E+03   # A_c(Q) DRbar
  3  3     5.00000002E+03   # A_t(Q) DRbar
#
BLOCK AD Q=  5.00073829E+03  # The trilinear couplings
  1  1     5.00000001E+03   # A_d(Q) DRbar
  2  2     5.00000001E+03   # A_s(Q) DRbar
  3  3     5.00000001E+03   # A_b(Q) DRbar
#
BLOCK AE Q=  5.00073829E+03  # The trilinear couplings
  1  1     0.00000000E+00   # A_e(Q) DRbar
  2  2     1.43835762E-07   # A_mu(Q) DRbar
  3  3     1.43354167E-07   # A_tau(Q) DRbar
#
BLOCK Yu Q=  5.00073829E+03  # The Yukawa couplings
  1  1     0.00000000E+00   # y_u(Q) DRbar
  2  2     0.00000000E+00   # y_c(Q) DRbar
  3  3     8.19167228E-01   # y_t(Q) DRbar
#
BLOCK Yd Q=  5.00073829E+03  # The Yukawa couplings
  1  1     0.00000000E+00   # y_d(Q) DRbar
  2  2     0.00000000E+00   # y_s(Q) DRbar
  3  3     1.30449679E-01   # y_b(Q) DRbar
#
BLOCK Ye Q=  5.00073829E+03  # The Yukawa couplings
  1  1     0.00000000E+00   # y_e(Q) DRbar
  2  2     0.00000000E+00   # y_mu(Q) DRbar
  3  3     9.68573692E-02   # y_tau(Q) DRbar
#
BLOCK MSOFT Q=  5.00073829E+03  # The soft SUSY breaking masses at the scale Q
         1     6.00000000E+01   # M_1(Q)              
         2     3.00000000E+03   # M_2(Q)              
         3     1.48350300E+03   # M_3(Q)              
        21     7.74285354E+06   # mH1^2(Q)            
        22    -3.90101551E+05   # mH2^2(Q)            
        31     5.00000000E+03   # meL(Q)              
        32     5.00000000E+03   # mmuL(Q)             
        33     5.00000000E+03   # mtauL(Q)            
        34     5.00000000E+03   # meR(Q)              
        35     5.00000000E+03   # mmuR(Q)             
        36     5.00000000E+03   # mtauR(Q)            
        41     5.00000000E+03   # mqL1(Q)             
        42     5.00000000E+03   # mqL2(Q)             
        43     5.00000000E+03   # mqL3(Q)             
        44     5.00000000E+03   # muR(Q)              
        45     5.00000000E+03   # mcR(Q)              
        46     4.99999999E+03   # mtR(Q)              
        47     5.00000000E+03   # mdR(Q)              
        48     5.00000000E+03   # msR(Q)              
        49     5.00000000E+03   # mbR(Q)              
#
#
#
#                             =================
#                             |The decay table|
#                             =================
#
# - The QCD corrections to the decays gluino -> squark  + quark
#                                     squark -> gaugino + quark_prime
#                                     squark -> squark_prime + Higgs
#                                     squark -> gluino  + quark
#   are included.
#
# - The multi-body decays for the inos, stops and sbottoms are included.
#
# - The loop induced decays for the gluino, neutralinos and stops
#   are included.
#
# - The SUSY decays of the top quark are included.
#
#
#         PDG            Width
DECAY         6     1.40222509E+00   # top decays
#          BR         NDA      ID1       ID2
     1.00000000E+00    2           5        24   # BR(t ->  b    W+)
#
#         PDG            Width
DECAY   1000021     2.97158047E-04   # gluino decays
#          BR         NDA      ID1       ID2
     5.45025985E-06    2     1000022        21   # BR(~g -> ~chi_10 g)
     1.30332458E-02    2     1000023        21   # BR(~g -> ~chi_20 g)
     1.28064897E-02    2     1000025        21   # BR(~g -> ~chi_30 g)
#           BR         NDA      ID1       ID2       ID3
     4.56449828E-02    3     1000022         1        -1   # BR(~g -> ~chi_10 d  db)
     1.58636605E-05    3     1000023         1        -1   # BR(~g -> ~chi_20 d  db)
     7.99830710E-06    3     1000025         1        -1   # BR(~g -> ~chi_30 d  db)
     1.55630530E-01    3     1000022         2        -2   # BR(~g -> ~chi_10 u  ub)
     5.01661465E-05    3     1000023         2        -2   # BR(~g -> ~chi_20 u  ub)
     9.53235152E-06    3     1000025         2        -2   # BR(~g -> ~chi_30 u  ub)
     4.56449828E-02    3     1000022         3        -3   # BR(~g -> ~chi_10 s  sb)
     1.58636605E-05    3     1000023         3        -3   # BR(~g -> ~chi_20 s  sb)
     7.99830710E-06    3     1000025         3        -3   # BR(~g -> ~chi_30 s  sb)
     1.55630530E-01    3     1000022         4        -4   # BR(~g -> ~chi_10 c  cb)
     5.01661465E-05    3     1000023         4        -4   # BR(~g -> ~chi_20 c  cb)
     9.53235152E-06    3     1000025         4        -4   # BR(~g -> ~chi_30 c  cb)
     4.62956633E-02    3     1000022         5        -5   # BR(~g -> ~chi_10 b  bb)
     3.18807049E-03    3     1000023         5        -5   # BR(~g -> ~chi_20 b  bb)
     3.12903404E-03    3     1000025         5        -5   # BR(~g -> ~chi_30 b  bb)
     1.46515890E-01    3     1000022         6        -6   # BR(~g -> ~chi_10 t  tb)
     9.21374356E-02    3     1000023         6        -6   # BR(~g -> ~chi_20 t  tb)
     6.88418503E-02    3     1000025         6        -6   # BR(~g -> ~chi_30 t  tb)
     4.46510310E-05    3     1000024         1        -2   # BR(~g -> ~chi_1+ d  ub)
     4.46510310E-05    3    -1000024         2        -1   # BR(~g -> ~chi_1- u  db)
     4.46510310E-05    3     1000024         3        -4   # BR(~g -> ~chi_1+ s  cb)
     4.46510310E-05    3    -1000024         4        -3   # BR(~g -> ~chi_1- c  sb)
     1.05575061E-01    3     1000024         5        -6   # BR(~g -> ~chi_1+ b  tb)
     1.05575061E-01    3    -1000024         6        -5   # BR(~g -> ~chi_1- t  bb)
#
#         PDG            Width
DECAY   1000006     3.58729635E+02   # stop1 decays
#          BR         NDA      ID1       ID2
     2.46378976E-02    2     1000022         6   # BR(~t_1 -> ~chi_10 t )
     8.48090394E-02    2     1000023         6   # BR(~t_1 -> ~chi_20 t )
     8.14722295E-02    2     1000025         6   # BR(~t_1 -> ~chi_30 t )
     5.80654537E-03    2     1000035         6   # BR(~t_1 -> ~chi_40 t )
     1.23197530E-01    2     1000024         5   # BR(~t_1 -> ~chi_1+ b )
     1.15681320E-02    2     1000037         5   # BR(~t_1 -> ~chi_2+ b )
     6.68508626E-01    2     1000021         6   # BR(~t_1 -> ~g      t )
#
#         PDG            Width
DECAY   2000006     3.64817310E+02   # stop2 decays
#          BR         NDA      ID1       ID2
     9.60472028E-03    2     1000022         6   # BR(~t_2 -> ~chi_10 t )
     8.53618054E-02    2     1000023         6   # BR(~t_2 -> ~chi_20 t )
     8.89625434E-02    2     1000025         6   # BR(~t_2 -> ~chi_30 t )
     1.51709709E-02    2     1000035         6   # BR(~t_2 -> ~chi_40 t )
     5.09470085E-02    2     1000024         5   # BR(~t_2 -> ~chi_1+ b )
     3.01834309E-02    2     1000037         5   # BR(~t_2 -> ~chi_2+ b )
     7.16288816E-01    2     1000021         6   # BR(~t_2 -> ~g      t )
     7.89154988E-04    2     1000006        25   # BR(~t_2 -> ~t_1    h )
     2.69154943E-03    2     1000006        23   # BR(~t_2 -> ~t_1    Z )
#
#         PDG            Width
DECAY   1000005     3.40709454E+02   # sbottom1 decays
#          BR         NDA      ID1       ID2
     2.27033372E-03    2     1000022         5   # BR(~b_1 -> ~chi_10 b )
     2.33747737E-03    2     1000023         5   # BR(~b_1 -> ~chi_20 b )
     2.27465735E-03    2     1000025         5   # BR(~b_1 -> ~chi_30 b )
     2.20939458E-02    2     1000035         5   # BR(~b_1 -> ~chi_40 b )
     1.81020694E-01    2    -1000024         6   # BR(~b_1 -> ~chi_1- t )
     4.43925480E-02    2    -1000037         6   # BR(~b_1 -> ~chi_2- t )
     7.43959259E-01    2     1000021         5   # BR(~b_1 -> ~g      b )
     1.65108428E-03    2     1000006       -24   # BR(~b_1 -> ~t_1    W-)
#
#         PDG            Width
DECAY   2000005     2.62652356E+02   # sbottom2 decays
#          BR         NDA      ID1       ID2
     1.11845361E-02    2     1000022         5   # BR(~b_2 -> ~chi_10 b )
     3.02025973E-03    2     1000023         5   # BR(~b_2 -> ~chi_20 b )
     3.10137565E-03    2     1000025         5   # BR(~b_2 -> ~chi_30 b )
     1.71075163E-04    2     1000035         5   # BR(~b_2 -> ~chi_40 b )
     7.35941387E-03    2    -1000024         6   # BR(~b_2 -> ~chi_1- t )
     3.43687364E-04    2    -1000037         6   # BR(~b_2 -> ~chi_2- t )
     9.74767344E-01    2     1000021         5   # BR(~b_2 -> ~g      b )
     5.23077386E-05    2     1000006       -24   # BR(~b_2 -> ~t_1    W-)
#
#         PDG            Width
DECAY   1000002     2.81765918E+02   # sup_L decays
#          BR         NDA      ID1       ID2
     2.64914101E-03    2     1000022         2   # BR(~u_L -> ~chi_10 u)
     5.53915251E-05    2     1000023         2   # BR(~u_L -> ~chi_20 u)
     4.62961245E-06    2     1000025         2   # BR(~u_L -> ~chi_30 u)
     2.78396218E-02    2     1000035         2   # BR(~u_L -> ~chi_40 u)
     1.89630821E-04    2     1000024         1   # BR(~u_L -> ~chi_1+ d)
     5.56418215E-02    2     1000037         1   # BR(~u_L -> ~chi_2+ d)
     9.13619764E-01    2     1000021         2   # BR(~u_L -> ~g      u)
#
#         PDG            Width
DECAY   2000002     2.67915259E+02   # sup_R decays
#          BR         NDA      ID1       ID2
     4.43371722E-02    2     1000022         2   # BR(~u_R -> ~chi_10 u)
     3.72058805E-05    2     1000023         2   # BR(~u_R -> ~chi_20 u)
     4.43064906E-05    2     1000025         2   # BR(~u_R -> ~chi_30 u)
     2.85647393E-09    2     1000035         2   # BR(~u_R -> ~chi_40 u)
     9.55581313E-01    2     1000021         2   # BR(~u_R -> ~g      u)
#
#         PDG            Width
DECAY   1000001     2.81779148E+02   # sdown_L decays
#          BR         NDA      ID1       ID2
     2.63926544E-03    2     1000022         1   # BR(~d_L -> ~chi_10 d)
     1.99157352E-05    2     1000023         1   # BR(~d_L -> ~chi_20 d)
     2.92006161E-05    2     1000025         1   # BR(~d_L -> ~chi_30 d)
     2.78556954E-02    2     1000035         1   # BR(~d_L -> ~chi_40 d)
     9.48445136E-06    2    -1000024         2   # BR(~d_L -> ~chi_1- u)
     5.57346716E-02    2    -1000037         2   # BR(~d_L -> ~chi_2- u)
     9.13711767E-01    2     1000021         1   # BR(~d_L -> ~g      d)
#
#         PDG            Width
DECAY   2000001     2.59013017E+02   # sdown_R decays
#          BR         NDA      ID1       ID2
     1.14659140E-02    2     1000022         1   # BR(~d_R -> ~chi_10 d)
     9.62179688E-06    2     1000023         1   # BR(~d_R -> ~chi_20 d)
     1.14580831E-05    2     1000025         1   # BR(~d_R -> ~chi_30 d)
     7.38802164E-10    2     1000035         1   # BR(~d_R -> ~chi_40 d)
     9.88513005E-01    2     1000021         1   # BR(~d_R -> ~g      d)
#
#         PDG            Width
DECAY   1000004     2.81765918E+02   # scharm_L decays
#          BR         NDA      ID1       ID2
     2.64914101E-03    2     1000022         4   # BR(~c_L -> ~chi_10 c)
     5.53915251E-05    2     1000023         4   # BR(~c_L -> ~chi_20 c)
     4.62961245E-06    2     1000025         4   # BR(~c_L -> ~chi_30 c)
     2.78396218E-02    2     1000035         4   # BR(~c_L -> ~chi_40 c)
     1.89630821E-04    2     1000024         3   # BR(~c_L -> ~chi_1+ s)
     5.56418215E-02    2     1000037         3   # BR(~c_L -> ~chi_2+ s)
     9.13619764E-01    2     1000021         4   # BR(~c_L -> ~g      c)
#
#         PDG            Width
DECAY   2000004     2.67915259E+02   # scharm_R decays
#          BR         NDA      ID1       ID2
     4.43371722E-02    2     1000022         4   # BR(~c_R -> ~chi_10 c)
     3.72058805E-05    2     1000023         4   # BR(~c_R -> ~chi_20 c)
     4.43064906E-05    2     1000025         4   # BR(~c_R -> ~chi_30 c)
     2.85647393E-09    2     1000035         4   # BR(~c_R -> ~chi_40 c)
     9.55581313E-01    2     1000021         4   # BR(~c_R -> ~g      c)
#
#         PDG            Width
DECAY   1000003     2.81779148E+02   # sstrange_L decays
#          BR         NDA      ID1       ID2
     2.63926544E-03    2     1000022         3   # BR(~s_L -> ~chi_10 s)
     1.99157352E-05    2     1000023         3   # BR(~s_L -> ~chi_20 s)
     2.92006161E-05    2     1000025         3   # BR(~s_L -> ~chi_30 s)
     2.78556954E-02    2     1000035         3   # BR(~s_L -> ~chi_40 s)
     9.48445136E-06    2    -1000024         4   # BR(~s_L -> ~chi_1- c)
     5.57346716E-02    2    -1000037         4   # BR(~s_L -> ~chi_2- c)
     9.13711767E-01    2     1000021         3   # BR(~s_L -> ~g      s)
#
#         PDG            Width
DECAY   2000003     2.59013017E+02   # sstrange_R decays
#          BR         NDA      ID1       ID2
     1.14659140E-02    2     1000022         3   # BR(~s_R -> ~chi_10 s)
     9.62179688E-06    2     1000023         3   # BR(~s_R -> ~chi_20 s)
     1.14580831E-05    2     1000025         3   # BR(~s_R -> ~chi_30 s)
     7.38802164E-10    2     1000035         3   # BR(~s_R -> ~chi_40 s)
     9.88513005E-01    2     1000021         3   # BR(~s_R -> ~g      s)
#
#         PDG            Width
DECAY   1000011     3.02721261E+01   # selectron_L decays
#          BR         NDA      ID1       ID2
     2.26385393E-01    2     1000022        11   # BR(~e_L -> ~chi_10 e-)
     1.02980619E-03    2     1000023        11   # BR(~e_L -> ~chi_20 e-)
     1.14766376E-05    2     1000025        11   # BR(~e_L -> ~chi_30 e-)
     2.57315772E-01    2     1000035        11   # BR(~e_L -> ~chi_40 e-)
     8.99070267E-05    2    -1000024        12   # BR(~e_L -> ~chi_1- nu_e)
     5.15167645E-01    2    -1000037        12   # BR(~e_L -> ~chi_2- nu_e)
#
#         PDG            Width
DECAY   2000011     2.73736920E+01   # selectron_R decays
#          BR         NDA      ID1       ID2
     9.98169855E-01    2     1000022        11   # BR(~e_R -> ~chi_10 e-)
     8.35335206E-04    2     1000023        11   # BR(~e_R -> ~chi_20 e-)
     9.94747406E-04    2     1000025        11   # BR(~e_R -> ~chi_30 e-)
     6.26487449E-08    2     1000035        11   # BR(~e_R -> ~chi_40 e-)
#
#         PDG            Width
DECAY   1000013     3.02721261E+01   # smuon_L decays
#          BR         NDA      ID1       ID2
     2.26385393E-01    2     1000022        13   # BR(~mu_L -> ~chi_10 mu-)
     1.02980619E-03    2     1000023        13   # BR(~mu_L -> ~chi_20 mu-)
     1.14766376E-05    2     1000025        13   # BR(~mu_L -> ~chi_30 mu-)
     2.57315772E-01    2     1000035        13   # BR(~mu_L -> ~chi_40 mu-)
     8.99070267E-05    2    -1000024        14   # BR(~mu_L -> ~chi_1- nu_mu)
     5.15167645E-01    2    -1000037        14   # BR(~mu_L -> ~chi_2- nu_mu)
#
#         PDG            Width
DECAY   2000013     2.73736920E+01   # smuon_R decays
#          BR         NDA      ID1       ID2
     9.98169855E-01    2     1000022        13   # BR(~mu_R -> ~chi_10 mu-)
     8.35335206E-04    2     1000023        13   # BR(~mu_R -> ~chi_20 mu-)
     9.94747406E-04    2     1000025        13   # BR(~mu_R -> ~chi_30 mu-)
     6.26487449E-08    2     1000035        13   # BR(~mu_R -> ~chi_40 mu-)
#
#         PDG            Width
DECAY   1000015     2.91231415E+01   # stau_1 decays
#          BR         NDA      ID1       ID2
     9.29772700E-01    2     1000022        15   # BR(~tau_1 -> ~chi_10  tau-)
     1.56808368E-02    2     1000023        15   # BR(~tau_1 -> ~chi_20  tau-)
     1.49118365E-02    2     1000025        15   # BR(~tau_1 -> ~chi_30  tau-)
     3.35821397E-03    2     1000035        15   # BR(~tau_1 -> ~chi_40  tau-)
     2.95532300E-02    2    -1000024        16   # BR(~tau_1 -> ~chi_1-  nu_tau)
     6.72318317E-03    2    -1000037        16   # BR(~tau_1 -> ~chi_2-  nu_tau)
#
#         PDG            Width
DECAY   2000015     3.10938053E+01   # stau_2 decays
#          BR         NDA      ID1       ID2
     2.28201565E-01    2     1000022        15   # BR(~tau_2 -> ~chi_10  tau-)
     1.47544658E-02    2     1000023        15   # BR(~tau_2 -> ~chi_20  tau-)
     1.45685377E-02    2     1000025        15   # BR(~tau_2 -> ~chi_30  tau-)
     2.47288615E-01    2     1000035        15   # BR(~tau_2 -> ~chi_40  tau-)
     9.39057467E-05    2    -1000024        16   # BR(~tau_2 -> ~chi_1-  nu_tau)
     4.95092910E-01    2    -1000037        16   # BR(~tau_2 -> ~chi_2-  nu_tau)
#
#         PDG            Width
DECAY   1000012     3.02749193E+01   # snu_eL decays
#          BR         NDA      ID1       ID2
     2.26036529E-01    2     1000022        12   # BR(~nu_eL -> ~chi_10 nu_e)
     2.08310699E-05    2     1000023        12   # BR(~nu_eL -> ~chi_20 nu_e)
     7.09996933E-04    2     1000025        12   # BR(~nu_eL -> ~chi_30 nu_e)
     2.57369024E-01    2     1000035        12   # BR(~nu_eL -> ~chi_40 nu_e)
     1.79713907E-03    2     1000024        11   # BR(~nu_eL -> ~chi_1+ e-)
     5.14066480E-01    2     1000037        11   # BR(~nu_eL -> ~chi_2+ e-)
#
#         PDG            Width
DECAY   1000014     3.02749193E+01   # snu_muL decays
#          BR         NDA      ID1       ID2
     2.26036529E-01    2     1000022        14   # BR(~nu_muL -> ~chi_10 nu_mu)
     2.08310699E-05    2     1000023        14   # BR(~nu_muL -> ~chi_20 nu_mu)
     7.09996933E-04    2     1000025        14   # BR(~nu_muL -> ~chi_30 nu_mu)
     2.57369024E-01    2     1000035        14   # BR(~nu_muL -> ~chi_40 nu_mu)
     1.79713907E-03    2     1000024        13   # BR(~nu_muL -> ~chi_1+ mu-)
     5.14066480E-01    2     1000037        13   # BR(~nu_muL -> ~chi_2+ mu-)
#
#         PDG            Width
DECAY   1000016     3.11290466E+01   # snu_tauL decays
#          BR         NDA      ID1       ID2
     2.19810538E-01    2     1000022        16   # BR(~nu_tauL -> ~chi_10 nu_tau)
     2.02569320E-05    2     1000023        16   # BR(~nu_tauL -> ~chi_20 nu_tau)
     6.90428212E-04    2     1000025        16   # BR(~nu_tauL -> ~chi_30 nu_tau)
     2.50214553E-01    2     1000035        16   # BR(~nu_tauL -> ~chi_40 nu_tau)
     2.94884094E-02    2     1000024        15   # BR(~nu_tauL -> ~chi_1+ tau-)
     4.99775814E-01    2     1000037        15   # BR(~nu_tauL -> ~chi_2+ tau-)
#
#         PDG            Width
DECAY   1000024     6.09020940E-01   # chargino1+ decays
#          BR         NDA      ID1       ID2
     1.00000000E+00    2     1000022        24   # BR(~chi_1+ -> ~chi_10  W+)
#
#         PDG            Width
DECAY   1000037     2.04153160E+01   # chargino2+ decays
#          BR         NDA      ID1       ID2
     2.53197446E-01    2     1000024        23   # BR(~chi_2+ -> ~chi_1+  Z )
     1.97856416E-04    2     1000022        24   # BR(~chi_2+ -> ~chi_10  W+)
     2.44158029E-01    2     1000023        24   # BR(~chi_2+ -> ~chi_20  W+)
     2.44109090E-01    2     1000025        24   # BR(~chi_2+ -> ~chi_30  W+)
     2.58336407E-01    2     1000024        25   # BR(~chi_2+ -> ~chi_1+  h )
     1.17080838E-06    2     1000022        37   # BR(~chi_2+ -> ~chi_10  H+)
#
#         PDG            Width
DECAY   1000022     0.00000000E+00   # neutralino1 decays
#
#         PDG            Width
DECAY   1000023     6.36072677E-01   # neutralino2 decays
#          BR         NDA      ID1       ID2
     5.40218359E-01    2     1000022        23   # BR(~chi_20 -> ~chi_10   Z )
     4.59781641E-01    2     1000022        25   # BR(~chi_20 -> ~chi_10   h )
#
#         PDG            Width
DECAY   1000025     6.39115010E-01   # neutralino3 decays
#          BR         NDA      ID1       ID2
     4.50308023E-01    2     1000022        23   # BR(~chi_30 -> ~chi_10   Z )
     5.49691977E-01    2     1000022        25   # BR(~chi_30 -> ~chi_10   h )
#
#         PDG            Width
DECAY   1000035     2.04303313E+01   # neutralino4 decays
#          BR         NDA      ID1       ID2
     4.77438270E-05    2     1000022        23   # BR(~chi_40 -> ~chi_10   Z )
     7.27263671E-02    2     1000023        23   # BR(~chi_40 -> ~chi_20   Z )
     1.79757077E-01    2     1000025        23   # BR(~chi_40 -> ~chi_30   Z )
     2.44788547E-01    2     1000024       -24   # BR(~chi_40 -> ~chi_1+   W-)
     2.44788547E-01    2    -1000024        24   # BR(~chi_40 -> ~chi_1-   W+)
     1.51062337E-04    2     1000022        25   # BR(~chi_40 -> ~chi_10   h )
     1.09481710E-06    2     1000022        35   # BR(~chi_40 -> ~chi_10   H )
     1.34428100E-07    2     1000022        36   # BR(~chi_40 -> ~chi_10   A )
     1.84820266E-01    2     1000023        25   # BR(~chi_40 -> ~chi_20   h )
     7.29191614E-02    2     1000025        25   # BR(~chi_40 -> ~chi_30   h )
#
#         PDG            Width
DECAY        25     4.05467683E-03   # h decays
#          BR         NDA      ID1       ID2
     6.09378799E-01    2           5        -5   # BR(h -> b       bb     )
     6.39412888E-02    2         -15        15   # BR(h -> tau+    tau-   )
     2.26375644E-04    2         -13        13   # BR(h -> mu+     mu-    )
     4.79942663E-04    2           3        -3   # BR(h -> s       sb     )
     2.07968413E-02    2           4        -4   # BR(h -> c       cb     )
     6.72117403E-02    2          21        21   # BR(h -> g       g      )
     2.30962035E-03    2          22        22   # BR(h -> gam     gam    )
     1.48477023E-03    2          22        23   # BR(h -> Z       gam    )
     2.09208345E-01    2          24       -24   # BR(h -> W+      W-     )
     2.49064672E-02    2          23        23   # BR(h -> Z       Z      )
     5.58091260E-05    2     1000022   1000022   # BR(h -> ~chi_10 ~chi_10)
#
#         PDG            Width
DECAY        35     8.10249703E+00   # H decays
#          BR         NDA      ID1       ID2
     3.98452820E-01    2           5        -5   # BR(H -> b       bb     )
     6.87650657E-02    2         -15        15   # BR(H -> tau+    tau-   )
     2.43158735E-04    2         -13        13   # BR(H -> mu+     mu-    )
     2.98075354E-04    2           3        -3   # BR(H -> s       sb     )
     1.66699388E-06    2           4        -4   # BR(H -> c       cb     )
     1.66545891E-01    2           6        -6   # BR(H -> t       tb     )
     5.53366611E-05    2          21        21   # BR(H -> g       g      )
     2.68882401E-07    2          22        22   # BR(H -> gam     gam    )
     9.83195570E-08    2          23        22   # BR(H -> Z       gam    )
     7.66426115E-05    2          24       -24   # BR(H -> W+      W-     )
     3.82727990E-05    2          23        23   # BR(H -> Z       Z      )
     2.84618871E-04    2          25        25   # BR(H -> h       h      )
     1.97982080E-23    2          36        36   # BR(H -> A       A      )
     6.92744305E-19    2          23        36   # BR(H -> Z       A      )
     1.97493252E-03    2     1000024  -1000024   # BR(H -> ~chi_1+ ~chi_1-)
     1.78217494E-03    2     1000022   1000022   # BR(H -> ~chi_10 ~chi_10)
     3.94814632E-05    2     1000023   1000023   # BR(H -> ~chi_20 ~chi_20)
     5.44140762E-04    2     1000025   1000025   # BR(H -> ~chi_30 ~chi_30)
     2.16450600E-01    2     1000022   1000023   # BR(H -> ~chi_10 ~chi_20)
     1.43934155E-01    2     1000022   1000025   # BR(H -> ~chi_10 ~chi_30)
     5.12599833E-04    2     1000023   1000025   # BR(H -> ~chi_20 ~chi_30)
#
#         PDG            Width
DECAY        36     8.11881196E+00   # A decays
#          BR         NDA      ID1       ID2
     3.97786774E-01    2           5        -5   # BR(A -> b       bb     )
     6.86289338E-02    2         -15        15   # BR(A -> tau+    tau-   )
     2.42677022E-04    2         -13        13   # BR(A -> mu+     mu-    )
     2.97702240E-04    2           3        -3   # BR(A -> s       sb     )
     1.67046079E-06    2           4        -4   # BR(A -> c       cb     )
     1.66800181E-01    2           6        -6   # BR(A -> t       tb     )
     1.65071375E-04    2          21        21   # BR(A -> g       g      )
     5.74663129E-07    2          22        22   # BR(A -> gam     gam    )
     1.99895768E-07    2          23        22   # BR(A -> Z       gam    )
     7.61997667E-05    2          23        25   # BR(A -> Z       h      )
     3.22762928E-03    2     1000024  -1000024   # BR(A -> ~chi_1+ ~chi_1-)
     1.81500350E-03    2     1000022   1000022   # BR(A -> ~chi_10 ~chi_10)
     4.63726234E-05    2     1000023   1000023   # BR(A -> ~chi_20 ~chi_20)
     1.50002282E-03    2     1000025   1000025   # BR(A -> ~chi_30 ~chi_30)
     1.45704375E-01    2     1000022   1000023   # BR(A -> ~chi_10 ~chi_20)
     2.13560330E-01    2     1000022   1000025   # BR(A -> ~chi_10 ~chi_30)
     1.46282697E-04    2     1000023   1000025   # BR(A -> ~chi_20 ~chi_30)
#
#         PDG            Width
DECAY        37     8.07631690E+00   # H+ decays
#          BR         NDA      ID1       ID2
     6.39912264E-04    2           4        -5   # BR(H+ -> c       bb     )
     6.90159776E-02    2         -15        16   # BR(H+ -> tau+    nu_tau )
     2.44045638E-04    2         -13        14   # BR(H+ -> mu+     nu_mu  )
     4.09541727E-06    2           2        -5   # BR(H+ -> u       bb     )
     1.43199330E-05    2           2        -3   # BR(H+ -> u       sb     )
     2.96136765E-04    2           4        -3   # BR(H+ -> c       sb     )
     5.64132412E-01    2           6        -5   # BR(H+ -> t       bb     )
     7.67364441E-05    2          24        25   # BR(H+ -> W+      h      )
     2.97130049E-13    2          24        36   # BR(H+ -> W+      A      )
     3.64668127E-01    2     1000024   1000022   # BR(H+ -> ~chi_1+ ~chi_10)
     8.75438242E-04    2     1000024   1000023   # BR(H+ -> ~chi_1+ ~chi_20)
     3.27986206E-05    2     1000024   1000025   # BR(H+ -> ~chi_1+ ~chi_30)
