#
#                              ======================
#                              | THE SUSYHIT OUTPUT |
#                              ======================
#
#
#              ------------------------------------------------------
#              |     This is the output of the SUSY-HIT package     |
#              |  created by A.Djouadi, M.Muehlleitner and M.Spira. |
#              |  In case of problems with SUSY-HIT email to        |
#              |           margarete.muehlleitner@cern.ch           |
#              |           michael.spira@psi.ch                     |
#              |           abdelhak.djouadi@cern.ch                 |
#              ------------------------------------------------------
#
#              ------------------------------------------------------
#              |  SUSY Les Houches Accord - MSSM Spectrum + Decays  |
#              |              based on the decay programs           |
#              |                                                    |
#              |                     SDECAY 1.3b                    |
#              |                                                    |
#              |  Authors: M.Muhlleitner, A.Djouadi and Y.Mambrini  |
#              |  Ref.:    Comput.Phys.Commun.168(2005)46           |
#              |           [hep-ph/0311167]                         |
#              |                                                    |
#              |                     HDECAY 3.4                     |
#              |                                                    |
#              |  By: A.Djouadi,J.Kalinowski,M.Muhlleitner,M.Spira  |
#              |  Ref.:    Comput.Phys.Commun.108(1998)56           |
#              |           [hep-ph/9704448]                         |
#              |                                                    |
#              |                                                    |
#              |  If not stated otherwise all DRbar couplings and   |
#              |  soft SUSY breaking masses are given at the scale  |
#              |  Q=  0.50007639E+04
#              |                                                    |
#              ------------------------------------------------------
#
#
BLOCK DCINFO  # Decay Program information
     1   SDECAY/HDECAY # decay calculator
     2   1.3b  /3.4    # version number
#
BLOCK SPINFO  # Spectrum calculator information
     1    SOFTSUSY    # spectrum calculator                
     2    3.4.0       # version number                     
#
BLOCK MODSEL  # Model selection
     1     0   #  nonUniversal                                     
#
BLOCK SMINPUTS  # Standard Model inputs
         1     1.25778332E+02   # alpha_em^-1(M_Z)^MSbar
         2     1.16570000E-05   # G_F [GeV^-2]
         3     1.17200002E-01   # alpha_S(M_Z)^MSbar
         4     9.11876000E+01   # M_Z pole mass
         5     4.25000000E+00   # mb(mb)^MSbar
         6     1.72500000E+02   # mt pole mass
         7     1.77682000E+00   # mtau pole mass
#
BLOCK MINPAR  # Input parameters - minimal models
         3     1.00000000E+01   # tanb                
#
BLOCK EXTPAR  # Input parameters - non-minimal models
         0    -1.00000000E+00   # Set                 
         1     6.00000000E+01   # M_1(MX)             
         2     3.00000000E+03   # M_2(MX)             
         3     2.52553400E+03   # M_3(MX)             
        11     5.00000000E+03   # At(MX)              
        12     5.00000000E+03   # Ab(MX)              
        13     0.00000000E+00   # Atau(MX)            
        23    -4.74869000E+02   # mu(MX)              
        26     3.00000000E+03   # mA(pole)            
        31     5.00000000E+03   # meL(MX)             
        32     5.00000000E+03   # mmuL(MX)            
        33     5.00000000E+03   # mtauL(MX)           
        34     5.00000000E+03   # meR(MX)             
        35     5.00000000E+03   # mmuR(MX)            
        36     5.00000000E+03   # mtauR(MX)           
        41     5.00000000E+03   # mqL1(MX)            
        42     5.00000000E+03   # mqL2(MX)            
        43     5.00000000E+03   # mqL3(MX)            
        44     5.00000000E+03   # muR(MX)             
        45     5.00000000E+03   # mcR(MX)             
        46     5.00000000E+03   # mtR(MX)             
        47     5.00000000E+03   # mdR(MX)             
        48     5.00000000E+03   # msR(MX)             
        49     5.00000000E+03   # mbR(MX)             
#
BLOCK MASS  # Mass Spectrum
# PDG code           mass       particle
        24     8.00933270E+01   # W+
        25     1.24800285E+02   # h
        35     3.00008595E+03   # H
        36     2.99999945E+03   # A
        37     3.00143035E+03   # H+
         5     4.87878001E+00   # b-quark pole mass calculated from mb(mb)_Msbar
   1000001     5.08871169E+03   # ~d_L
   2000001     5.07093238E+03   # ~d_R
   1000002     5.08824240E+03   # ~u_L
   2000002     5.07063424E+03   # ~u_R
   1000003     5.08871169E+03   # ~s_L
   2000003     5.07093238E+03   # ~s_R
   1000004     5.08824240E+03   # ~c_L
   2000004     5.07063424E+03   # ~c_R
   1000005     5.03455646E+03   # ~b_1
   2000005     5.06913812E+03   # ~b_2
   1000006     4.92721842E+03   # ~t_1
   2000006     5.07698675E+03   # ~t_2
   1000011     5.01910539E+03   # ~e_L
   2000011     5.00594339E+03   # ~e_R
   1000012     5.01815534E+03   # ~nu_eL
   1000013     5.01910539E+03   # ~mu_L
   2000013     5.00594339E+03   # ~mu_R
   1000014     5.01815534E+03   # ~nu_muL
   1000015     5.00477420E+03   # ~tau_1
   2000015     5.01862975E+03   # ~tau_2
   1000016     5.01760376E+03   # ~nu_tauL
   1000021     2.90000088E+03   # ~g
   1000022     6.02023918E+01   # ~chi_10
   1000023     5.00513376E+02   # ~chi_20
   1000025    -5.02707535E+02   # ~chi_30
   1000035     3.07416810E+03   # ~chi_40
   1000024     5.00000736E+02   # ~chi_1+
   1000037     3.07433577E+03   # ~chi_2+
#
BLOCK NMIX  # Neutralino Mixing Matrix
  1  1     9.96029143E-01   # N_11
  1  2     2.24969764E-04   # N_12
  1  3    -8.90144967E-02   # N_13
  1  4    -1.52167439E-03   # N_14
  2  1     6.40545846E-02   # N_21
  2  2     1.90061328E-02   # N_22
  2  3     7.04713197E-01   # N_23
  2  4     7.06339216E-01   # N_24
  3  1    -6.18288368E-02   # N_31
  3  2     1.70138155E-02   # N_32
  3  3    -7.03884773E-01   # N_33
  3  4     7.07413564E-01   # N_34
  4  1    -3.89688776E-04   # N_41
  4  2     9.99674570E-01   # N_42
  4  3    -1.39853648E-03   # N_43
  4  4    -2.54685267E-02   # N_44
#
BLOCK UMIX  # Chargino Mixing Matrix U
  1  1     1.98307918E-03   # U_11
  1  2     9.99998034E-01   # U_12
  2  1    -9.99998034E-01   # U_21
  2  2     1.98307918E-03   # U_22
#
BLOCK VMIX  # Chargino Mixing Matrix V
  1  1     3.60382011E-02   # V_11
  1  2    -9.99350413E-01   # V_12
  2  1    -9.99350413E-01   # V_21
  2  2    -3.60382011E-02   # V_22
#
BLOCK STOPMIX  # Stop Mixing Matrix
  1  1    -5.00171565E-01   # cos(theta_t)
  1  2     8.65926328E-01   # sin(theta_t)
  2  1    -8.65926328E-01   # -sin(theta_t)
  2  2    -5.00171565E-01   # cos(theta_t)
#
BLOCK SBOTMIX  # Sbottom Mixing Matrix
  1  1     9.98785307E-01   # cos(theta_b)
  1  2    -4.92738320E-02   # sin(theta_b)
  2  1     4.92738320E-02   # -sin(theta_b)
  2  2     9.98785307E-01   # cos(theta_b)
#
BLOCK STAUMIX  # Stau Mixing Matrix
  1  1    -5.69269110E-02   # cos(theta_tau)
  1  2     9.98378349E-01   # sin(theta_tau)
  2  1    -9.98378349E-01   # -sin(theta_tau)
  2  2    -5.69269110E-02   # cos(theta_tau)
#
BLOCK ALPHA  # Higgs mixing
          -1.05493570E-01   # Mixing angle in the neutral Higgs boson sector
#
BLOCK HMIX Q=  5.00076395E+03  # DRbar Higgs Parameters
         1    -4.83590527E+02   # mu(Q)MSSM           
         2     9.46853258E+00   # tan                 
         3     2.41754773E+02   # higgs               
         4     8.67884614E+06   # mA^2(Q)MSSM         
#
BLOCK GAUGE Q=  5.00076395E+03  # The gauge couplings
     1     3.70937413E-01   # gprime(Q) DRbar
     2     6.33269915E-01   # g(Q) DRbar
     3     9.92994763E-01   # g3(Q) DRbar
#
BLOCK AU Q=  5.00076395E+03  # The trilinear couplings
  1  1     5.00000002E+03   # A_u(Q) DRbar
  2  2     5.00000002E+03   # A_c(Q) DRbar
  3  3     5.00000003E+03   # A_t(Q) DRbar
#
BLOCK AD Q=  5.00076395E+03  # The trilinear couplings
  1  1     5.00000001E+03   # A_d(Q) DRbar
  2  2     5.00000001E+03   # A_s(Q) DRbar
  3  3     5.00000001E+03   # A_b(Q) DRbar
#
BLOCK AE Q=  5.00076395E+03  # The trilinear couplings
  1  1     0.00000000E+00   # A_e(Q) DRbar
  2  2     3.05325440E-07   # A_mu(Q) DRbar
  3  3     3.05483334E-07   # A_tau(Q) DRbar
#
BLOCK Yu Q=  5.00076395E+03  # The Yukawa couplings
  1  1     0.00000000E+00   # y_u(Q) DRbar
  2  2     0.00000000E+00   # y_c(Q) DRbar
  3  3     8.21822603E-01   # y_t(Q) DRbar
#
BLOCK Yd Q=  5.00076395E+03  # The Yukawa couplings
  1  1     0.00000000E+00   # y_d(Q) DRbar
  2  2     0.00000000E+00   # y_s(Q) DRbar
  3  3     1.30452126E-01   # y_b(Q) DRbar
#
BLOCK Ye Q=  5.00076395E+03  # The Yukawa couplings
  1  1     0.00000000E+00   # y_e(Q) DRbar
  2  2     0.00000000E+00   # y_mu(Q) DRbar
  3  3     9.71311443E-02   # y_tau(Q) DRbar
#
BLOCK MSOFT Q=  5.00076395E+03  # The soft SUSY breaking masses at the scale Q
         1     6.00000000E+01   # M_1(Q)              
         2     3.00000000E+03   # M_2(Q)              
         3     2.52553400E+03   # M_3(Q)              
        21     8.49032023E+06   # mH1^2(Q)            
        22     3.45231378E+05   # mH2^2(Q)            
        31     5.00000000E+03   # meL(Q)              
        32     5.00000000E+03   # mmuL(Q)             
        33     5.00000000E+03   # mtauL(Q)            
        34     5.00000000E+03   # meR(Q)              
        35     5.00000000E+03   # mmuR(Q)             
        36     5.00000000E+03   # mtauR(Q)            
        41     4.99999999E+03   # mqL1(Q)             
        42     4.99999999E+03   # mqL2(Q)             
        43     4.99999999E+03   # mqL3(Q)             
        44     4.99999999E+03   # muR(Q)              
        45     4.99999999E+03   # mcR(Q)              
        46     4.99999999E+03   # mtR(Q)              
        47     4.99999999E+03   # mdR(Q)              
        48     4.99999999E+03   # msR(Q)              
        49     4.99999999E+03   # mbR(Q)              
#
#
#
#                             =================
#                             |The decay table|
#                             =================
#
# - The QCD corrections to the decays gluino -> squark  + quark
#                                     squark -> gaugino + quark_prime
#                                     squark -> squark_prime + Higgs
#                                     squark -> gluino  + quark
#   are included.
#
# - The multi-body decays for the inos, stops and sbottoms are included.
#
# - The loop induced decays for the gluino, neutralinos and stops
#   are included.
#
# - The SUSY decays of the top quark are included.
#
#
#         PDG            Width
DECAY         6     1.40542123E+00   # top decays
#          BR         NDA      ID1       ID2
     1.00000000E+00    2           5        24   # BR(t ->  b    W+)
#
#         PDG            Width
DECAY   1000021     1.73189731E-02   # gluino decays
#          BR         NDA      ID1       ID2
     3.45375582E-07    2     1000022        21   # BR(~g -> ~chi_10 g)
     3.01372010E-03    2     1000023        21   # BR(~g -> ~chi_20 g)
     2.93023481E-03    2     1000025        21   # BR(~g -> ~chi_30 g)
#           BR         NDA      ID1       ID2       ID3
     9.75409924E-03    3     1000022         1        -1   # BR(~g -> ~chi_10 d  db)
     3.39221390E-05    3     1000023         1        -1   # BR(~g -> ~chi_20 d  db)
     4.37212171E-05    3     1000025         1        -1   # BR(~g -> ~chi_30 d  db)
     3.32692336E-02    3     1000022         2        -2   # BR(~g -> ~chi_10 u  ub)
     1.76960594E-04    3     1000023         2        -2   # BR(~g -> ~chi_20 u  ub)
     7.28191802E-05    3     1000025         2        -2   # BR(~g -> ~chi_30 u  ub)
     9.75409924E-03    3     1000022         3        -3   # BR(~g -> ~chi_10 s  sb)
     3.39221390E-05    3     1000023         3        -3   # BR(~g -> ~chi_20 s  sb)
     4.37212171E-05    3     1000025         3        -3   # BR(~g -> ~chi_30 s  sb)
     3.32692336E-02    3     1000022         4        -4   # BR(~g -> ~chi_10 c  cb)
     1.76960594E-04    3     1000023         4        -4   # BR(~g -> ~chi_20 c  cb)
     7.28191802E-05    3     1000025         4        -4   # BR(~g -> ~chi_30 c  cb)
     9.98744724E-03    3     1000022         5        -5   # BR(~g -> ~chi_10 b  bb)
     5.27921382E-03    3     1000023         5        -5   # BR(~g -> ~chi_20 b  bb)
     5.26298802E-03    3     1000025         5        -5   # BR(~g -> ~chi_30 b  bb)
     3.45948630E-02    3     1000022         6        -6   # BR(~g -> ~chi_10 t  tb)
     2.11806285E-01    3     1000023         6        -6   # BR(~g -> ~chi_20 t  tb)
     2.04175302E-01    3     1000025         6        -6   # BR(~g -> ~chi_30 t  tb)
     5.38634604E-05    3     1000024         1        -2   # BR(~g -> ~chi_1+ d  ub)
     5.38634604E-05    3    -1000024         2        -1   # BR(~g -> ~chi_1- u  db)
     5.38634604E-05    3     1000024         3        -4   # BR(~g -> ~chi_1+ s  cb)
     5.38634604E-05    3    -1000024         4        -3   # BR(~g -> ~chi_1- c  sb)
     2.18016317E-01    3     1000024         5        -6   # BR(~g -> ~chi_1+ b  tb)
     2.18016317E-01    3    -1000024         6        -5   # BR(~g -> ~chi_1- t  bb)
#
#         PDG            Width
DECAY   1000006     2.61746393E+02   # stop1 decays
#          BR         NDA      ID1       ID2
     3.37925007E-02    2     1000022         6   # BR(~t_1 -> ~chi_10 t )
     1.24960108E-01    2     1000023         6   # BR(~t_1 -> ~chi_20 t )
     1.18282688E-01    2     1000025         6   # BR(~t_1 -> ~chi_30 t )
     7.60249257E-03    2     1000035         6   # BR(~t_1 -> ~chi_40 t )
     1.83449874E-01    2     1000024         5   # BR(~t_1 -> ~chi_1+ b )
     1.51552382E-02    2     1000037         5   # BR(~t_1 -> ~chi_2+ b )
     5.16757099E-01    2     1000021         6   # BR(~t_1 -> ~g      t )
#
#         PDG            Width
DECAY   2000006     2.68990797E+02   # stop2 decays
#          BR         NDA      ID1       ID2
     1.25954158E-02    2     1000022         6   # BR(~t_2 -> ~chi_10 t )
     1.21635071E-01    2     1000023         6   # BR(~t_2 -> ~chi_20 t )
     1.28945018E-01    2     1000025         6   # BR(~t_2 -> ~chi_30 t )
     2.13120455E-02    2     1000035         6   # BR(~t_2 -> ~chi_40 t )
     6.96062335E-02    2     1000024         5   # BR(~t_2 -> ~chi_1+ b )
     4.24363857E-02    2     1000037         5   # BR(~t_2 -> ~chi_2+ b )
     5.99194037E-01    2     1000021         6   # BR(~t_2 -> ~g      t )
     9.88371908E-04    2     1000006        25   # BR(~t_2 -> ~t_1    h )
     3.28742086E-03    2     1000006        23   # BR(~t_2 -> ~t_1    Z )
#
#         PDG            Width
DECAY   1000005     2.43229490E+02   # sbottom1 decays
#          BR         NDA      ID1       ID2
     3.18270207E-03    2     1000022         5   # BR(~b_1 -> ~chi_10 b )
     3.37333259E-03    2     1000023         5   # BR(~b_1 -> ~chi_20 b )
     3.37574327E-03    2     1000025         5   # BR(~b_1 -> ~chi_30 b )
     3.15005039E-02    2     1000035         5   # BR(~b_1 -> ~chi_40 b )
     2.70375282E-01    2    -1000024         6   # BR(~b_1 -> ~chi_1- t )
     6.32454995E-02    2    -1000037         6   # BR(~b_1 -> ~chi_2- t )
     6.22783979E-01    2     1000021         5   # BR(~b_1 -> ~g      b )
     2.16295794E-03    2     1000006       -24   # BR(~b_1 -> ~t_1    W-)
#
#         PDG            Width
DECAY   2000005     1.60903068E+02   # sbottom2 decays
#          BR         NDA      ID1       ID2
     1.81788556E-02    2     1000022         5   # BR(~b_2 -> ~chi_10 b )
     5.29051501E-03    2     1000023         5   # BR(~b_2 -> ~chi_20 b )
     5.35091279E-03    2     1000025         5   # BR(~b_2 -> ~chi_30 b )
     1.03055706E-04    2     1000035         5   # BR(~b_2 -> ~chi_40 b )
     1.12660056E-02    2    -1000024         6   # BR(~b_2 -> ~chi_1- t )
     2.06942075E-04    2    -1000037         6   # BR(~b_2 -> ~chi_2- t )
     9.59569078E-01    2     1000021         5   # BR(~b_2 -> ~g      b )
     3.46356421E-05    2     1000006       -24   # BR(~b_2 -> ~t_1    W-)
#
#         PDG            Width
DECAY   1000002     1.80681032E+02   # sup_L decays
#          BR         NDA      ID1       ID2
     4.09782687E-03    2     1000022         2   # BR(~u_L -> ~chi_10 u)
     1.05471001E-04    2     1000023         2   # BR(~u_L -> ~chi_20 u)
     2.59328080E-06    2     1000025         2   # BR(~u_L -> ~chi_30 u)
     4.40076122E-02    2     1000035         2   # BR(~u_L -> ~chi_40 u)
     2.75887898E-04    2     1000024         1   # BR(~u_L -> ~chi_1+ d)
     8.79606167E-02    2     1000037         1   # BR(~u_L -> ~chi_2+ d)
     8.63549992E-01    2     1000021         2   # BR(~u_L -> ~g      u)
#
#         PDG            Width
DECAY   2000002     1.66317542E+02   # sup_R decays
#          BR         NDA      ID1       ID2
     7.08110080E-02    2     1000022         2   # BR(~u_R -> ~chi_10 u)
     2.87699588E-04    2     1000023         2   # BR(~u_R -> ~chi_20 u)
     2.68008644E-04    2     1000025         2   # BR(~u_R -> ~chi_30 u)
     4.38147476E-09    2     1000035         2   # BR(~u_R -> ~chi_40 u)
     9.28633279E-01    2     1000021         2   # BR(~u_R -> ~g      u)
#
#         PDG            Width
DECAY   1000001     1.80697853E+02   # sdown_L decays
#          BR         NDA      ID1       ID2
     4.07891489E-03    2     1000022         1   # BR(~d_L -> ~chi_10 d)
     4.48663094E-06    2     1000023         1   # BR(~d_L -> ~chi_20 d)
     8.98368709E-05    2     1000025         1   # BR(~d_L -> ~chi_30 d)
     4.40302595E-02    2     1000035         1   # BR(~d_L -> ~chi_40 d)
     8.35388676E-07    2    -1000024         2   # BR(~d_L -> ~chi_1- u)
     8.80931626E-02    2    -1000037         2   # BR(~d_L -> ~chi_2- u)
     8.63702504E-01    2     1000021         1   # BR(~d_L -> ~g      d)
#
#         PDG            Width
DECAY   2000001     1.57442306E+02   # sdown_R decays
#          BR         NDA      ID1       ID2
     1.87018072E-02    2     1000022         1   # BR(~d_R -> ~chi_10 d)
     7.59841391E-05    2     1000023         1   # BR(~d_R -> ~chi_20 d)
     7.07835790E-05    2     1000025         1   # BR(~d_R -> ~chi_30 d)
     1.15734145E-09    2     1000035         1   # BR(~d_R -> ~chi_40 d)
     9.81151424E-01    2     1000021         1   # BR(~d_R -> ~g      d)
#
#         PDG            Width
DECAY   1000004     1.80681032E+02   # scharm_L decays
#          BR         NDA      ID1       ID2
     4.09782687E-03    2     1000022         4   # BR(~c_L -> ~chi_10 c)
     1.05471001E-04    2     1000023         4   # BR(~c_L -> ~chi_20 c)
     2.59328080E-06    2     1000025         4   # BR(~c_L -> ~chi_30 c)
     4.40076122E-02    2     1000035         4   # BR(~c_L -> ~chi_40 c)
     2.75887898E-04    2     1000024         3   # BR(~c_L -> ~chi_1+ s)
     8.79606167E-02    2     1000037         3   # BR(~c_L -> ~chi_2+ s)
     8.63549992E-01    2     1000021         4   # BR(~c_L -> ~g      c)
#
#         PDG            Width
DECAY   2000004     1.66317542E+02   # scharm_R decays
#          BR         NDA      ID1       ID2
     7.08110080E-02    2     1000022         4   # BR(~c_R -> ~chi_10 c)
     2.87699588E-04    2     1000023         4   # BR(~c_R -> ~chi_20 c)
     2.68008644E-04    2     1000025         4   # BR(~c_R -> ~chi_30 c)
     4.38147476E-09    2     1000035         4   # BR(~c_R -> ~chi_40 c)
     9.28633279E-01    2     1000021         4   # BR(~c_R -> ~g      c)
#
#         PDG            Width
DECAY   1000003     1.80697853E+02   # sstrange_L decays
#          BR         NDA      ID1       ID2
     4.07891489E-03    2     1000022         3   # BR(~s_L -> ~chi_10 s)
     4.48663094E-06    2     1000023         3   # BR(~s_L -> ~chi_20 s)
     8.98368709E-05    2     1000025         3   # BR(~s_L -> ~chi_30 s)
     4.40302595E-02    2     1000035         3   # BR(~s_L -> ~chi_40 s)
     8.35388676E-07    2    -1000024         4   # BR(~s_L -> ~chi_1- c)
     8.80931626E-02    2    -1000037         4   # BR(~s_L -> ~chi_2- c)
     8.63702504E-01    2     1000021         3   # BR(~s_L -> ~g      s)
#
#         PDG            Width
DECAY   2000003     1.57442306E+02   # sstrange_R decays
#          BR         NDA      ID1       ID2
     1.87018072E-02    2     1000022         3   # BR(~s_R -> ~chi_10 s)
     7.59841391E-05    2     1000023         3   # BR(~s_R -> ~chi_20 s)
     7.07835790E-05    2     1000025         3   # BR(~s_R -> ~chi_30 s)
     1.15734145E-09    2     1000035         3   # BR(~s_R -> ~chi_40 s)
     9.81151424E-01    2     1000021         3   # BR(~s_R -> ~g      s)
#
#         PDG            Width
DECAY   1000011     3.03297178E+01   # selectron_L decays
#          BR         NDA      ID1       ID2
     2.24808824E-01    2     1000022        11   # BR(~e_L -> ~chi_10 e-)
     2.06753287E-03    2     1000023        11   # BR(~e_L -> ~chi_20 e-)
     2.38555016E-04    2     1000025        11   # BR(~e_L -> ~chi_30 e-)
     2.57459620E-01    2     1000035        11   # BR(~e_L -> ~chi_40 e-)
     5.08959166E-06    2    -1000024        12   # BR(~e_L -> ~chi_1- nu_e)
     5.15420378E-01    2    -1000037        12   # BR(~e_L -> ~chi_2- nu_e)
#
#         PDG            Width
DECAY   2000011     2.73939012E+01   # selectron_R decays
#          BR         NDA      ID1       ID2
     9.92229023E-01    2     1000022        11   # BR(~e_R -> ~chi_10 e-)
     4.02315840E-03    2     1000023        11   # BR(~e_R -> ~chi_20 e-)
     3.74776003E-03    2     1000025        11   # BR(~e_R -> ~chi_30 e-)
     5.89431640E-08    2     1000035        11   # BR(~e_R -> ~chi_40 e-)
#
#         PDG            Width
DECAY   1000013     3.03297178E+01   # smuon_L decays
#          BR         NDA      ID1       ID2
     2.24808824E-01    2     1000022        13   # BR(~mu_L -> ~chi_10 mu-)
     2.06753287E-03    2     1000023        13   # BR(~mu_L -> ~chi_20 mu-)
     2.38555016E-04    2     1000025        13   # BR(~mu_L -> ~chi_30 mu-)
     2.57459620E-01    2     1000035        13   # BR(~mu_L -> ~chi_40 mu-)
     5.08959166E-06    2    -1000024        14   # BR(~mu_L -> ~chi_1- nu_mu)
     5.15420378E-01    2    -1000037        14   # BR(~mu_L -> ~chi_2- nu_mu)
#
#         PDG            Width
DECAY   2000013     2.73939012E+01   # smuon_R decays
#          BR         NDA      ID1       ID2
     9.92229023E-01    2     1000022        13   # BR(~mu_R -> ~chi_10 mu-)
     4.02315840E-03    2     1000023        13   # BR(~mu_R -> ~chi_20 mu-)
     3.74776003E-03    2     1000025        13   # BR(~mu_R -> ~chi_30 mu-)
     5.89431640E-08    2     1000035        13   # BR(~mu_R -> ~chi_40 mu-)
#
#         PDG            Width
DECAY   1000015     2.92363893E+01   # stau_1 decays
#          BR         NDA      ID1       ID2
     9.28350484E-01    2     1000022        15   # BR(~tau_1 -> ~chi_10  tau-)
     1.91858664E-02    2     1000023        15   # BR(~tau_1 -> ~chi_20  tau-)
     1.84821257E-02    2     1000025        15   # BR(~tau_1 -> ~chi_30  tau-)
     8.48097219E-04    2     1000035        15   # BR(~tau_1 -> ~chi_40  tau-)
     3.14357410E-02    2    -1000024        16   # BR(~tau_1 -> ~chi_1-  nu_tau)
     1.69768575E-03    2    -1000037        16   # BR(~tau_1 -> ~chi_2-  nu_tau)
#
#         PDG            Width
DECAY   2000015     3.12369045E+01   # stau_2 decays
#          BR         NDA      ID1       ID2
     2.19797936E-01    2     1000022        15   # BR(~tau_2 -> ~chi_10  tau-)
     1.68943503E-02    2     1000023        15   # BR(~tau_2 -> ~chi_20  tau-)
     1.54639055E-02    2     1000025        15   # BR(~tau_2 -> ~chi_30  tau-)
     2.49100385E-01    2     1000035        15   # BR(~tau_2 -> ~chi_40  tau-)
     5.72759375E-05    2    -1000024        16   # BR(~tau_2 -> ~chi_1-  nu_tau)
     4.98686148E-01    2    -1000037        16   # BR(~tau_2 -> ~chi_2-  nu_tau)
#
#         PDG            Width
DECAY   1000012     3.03329131E+01   # snu_eL decays
#          BR         NDA      ID1       ID2
     2.24396191E-01    2     1000022        12   # BR(~nu_eL -> ~chi_10 nu_e)
     2.21724986E-04    2     1000023        12   # BR(~nu_eL -> ~chi_20 nu_e)
     1.83256829E-03    2     1000025        12   # BR(~nu_eL -> ~chi_30 nu_e)
     2.57501829E-01    2     1000035        12   # BR(~nu_eL -> ~chi_40 nu_e)
     1.68034237E-03    2     1000024        11   # BR(~nu_eL -> ~chi_1+ e-)
     5.14367344E-01    2     1000037        11   # BR(~nu_eL -> ~chi_2+ e-)
#
#         PDG            Width
DECAY   1000014     3.03329131E+01   # snu_muL decays
#          BR         NDA      ID1       ID2
     2.24396191E-01    2     1000022        14   # BR(~nu_muL -> ~chi_10 nu_mu)
     2.21724986E-04    2     1000023        14   # BR(~nu_muL -> ~chi_20 nu_mu)
     1.83256829E-03    2     1000025        14   # BR(~nu_muL -> ~chi_30 nu_mu)
     2.57501829E-01    2     1000035        14   # BR(~nu_muL -> ~chi_40 nu_mu)
     1.68034237E-03    2     1000024        13   # BR(~nu_muL -> ~chi_1+ mu-)
     5.14367344E-01    2     1000037        13   # BR(~nu_muL -> ~chi_2+ mu-)
#
#         PDG            Width
DECAY   1000016     3.12465618E+01   # snu_tauL decays
#          BR         NDA      ID1       ID2
     2.17810895E-01    2     1000022        16   # BR(~nu_tauL -> ~chi_10 nu_tau)
     2.15217143E-04    2     1000023        16   # BR(~nu_tauL -> ~chi_20 nu_tau)
     1.77878057E-03    2     1000025        16   # BR(~nu_tauL -> ~chi_30 nu_tau)
     2.49878982E-01    2     1000035        16   # BR(~nu_tauL -> ~chi_40 nu_tau)
     3.11761469E-02    2     1000024        15   # BR(~nu_tauL -> ~chi_1+ tau-)
     4.99139978E-01    2     1000037        15   # BR(~nu_tauL -> ~chi_2+ tau-)
#
#         PDG            Width
DECAY   1000024     2.94042226E-01   # chargino1+ decays
#          BR         NDA      ID1       ID2
     1.00000000E+00    2     1000022        24   # BR(~chi_1+ -> ~chi_10  W+)
#
#         PDG            Width
DECAY   1000037     2.21581844E+01   # chargino2+ decays
#          BR         NDA      ID1       ID2
     2.53560208E-01    2     1000024        23   # BR(~chi_2+ -> ~chi_1+  Z )
     1.56244920E-04    2     1000022        24   # BR(~chi_2+ -> ~chi_10  W+)
     2.44963436E-01    2     1000023        24   # BR(~chi_2+ -> ~chi_20  W+)
     2.44369132E-01    2     1000025        24   # BR(~chi_2+ -> ~chi_30  W+)
     2.56945802E-01    2     1000024        25   # BR(~chi_2+ -> ~chi_1+  h )
     5.17787264E-06    2     1000022        37   # BR(~chi_2+ -> ~chi_10  H+)
#
#         PDG            Width
DECAY   1000022     0.00000000E+00   # neutralino1 decays
#
#         PDG            Width
DECAY   1000023     2.97379830E-01   # neutralino2 decays
#          BR         NDA      ID1       ID2
     5.04347696E-01    2     1000022        23   # BR(~chi_20 -> ~chi_10   Z )
     4.95652304E-01    2     1000022        25   # BR(~chi_20 -> ~chi_10   h )
#
#         PDG            Width
DECAY   1000025     2.90281428E-01   # neutralino3 decays
#          BR         NDA      ID1       ID2
     5.33684806E-01    2     1000022        23   # BR(~chi_30 -> ~chi_10   Z )
     4.66315194E-01    2     1000022        25   # BR(~chi_30 -> ~chi_10   h )
#
#         PDG            Width
DECAY   1000035     2.21691337E+01   # neutralino4 decays
#          BR         NDA      ID1       ID2
     3.10014565E-06    2     1000022        23   # BR(~chi_40 -> ~chi_10   Z )
     1.12720670E-01    2     1000023        23   # BR(~chi_40 -> ~chi_20   Z )
     1.40400869E-01    2     1000025        23   # BR(~chi_40 -> ~chi_30   Z )
     2.45146151E-01    2     1000024       -24   # BR(~chi_40 -> ~chi_1+   W-)
     2.45146151E-01    2    -1000024        24   # BR(~chi_40 -> ~chi_1-   W+)
     1.45597631E-04    2     1000022        25   # BR(~chi_40 -> ~chi_10   h )
     4.98169149E-06    2     1000022        35   # BR(~chi_40 -> ~chi_10   H )
     5.43371705E-07    2     1000022        36   # BR(~chi_40 -> ~chi_10   A )
     1.43429749E-01    2     1000023        25   # BR(~chi_40 -> ~chi_20   h )
     1.13002188E-01    2     1000025        25   # BR(~chi_40 -> ~chi_30   h )
#
#         PDG            Width
DECAY        25     4.06854186E-03   # h decays
#          BR         NDA      ID1       ID2
     6.08364278E-01    2           5        -5   # BR(h -> b       bb     )
     6.37705553E-02    2         -15        15   # BR(h -> tau+    tau-   )
     2.25770834E-04    2         -13        13   # BR(h -> mu+     mu-    )
     4.78600122E-04    2           3        -3   # BR(h -> s       sb     )
     2.07366169E-02    2           4        -4   # BR(h -> c       cb     )
     6.71098189E-02    2          21        21   # BR(h -> g       g      )
     2.30718051E-03    2          22        22   # BR(h -> gam     gam    )
     1.49032187E-03    2          22        23   # BR(h -> Z       gam    )
     2.10359717E-01    2          24       -24   # BR(h -> W+      W-     )
     2.50718996E-02    2          23        23   # BR(h -> Z       Z      )
     8.52406916E-05    2     1000022   1000022   # BR(h -> ~chi_10 ~chi_10)
#
#         PDG            Width
DECAY        35     8.65981361E+00   # H decays
#          BR         NDA      ID1       ID2
     3.68261885E-01    2           5        -5   # BR(H -> b       bb     )
     6.43151870E-02    2         -15        15   # BR(H -> tau+    tau-   )
     2.27423610E-04    2         -13        13   # BR(H -> mu+     mu-    )
     2.78786412E-04    2           3        -3   # BR(H -> s       sb     )
     1.56045989E-06    2           4        -4   # BR(H -> c       cb     )
     1.55902307E-01    2           6        -6   # BR(H -> t       tb     )
     5.18566695E-05    2          21        21   # BR(H -> g       g      )
     1.49187873E-07    2          22        22   # BR(H -> gam     gam    )
     9.20149797E-08    2          23        22   # BR(H -> Z       gam    )
     7.45901304E-05    2          24       -24   # BR(H -> W+      W-     )
     3.72478517E-05    2          23        23   # BR(H -> Z       Z      )
     2.69955281E-04    2          25        25   # BR(H -> h       h      )
    -1.08173535E-23    2          36        36   # BR(H -> A       A      )
     7.87797869E-19    2          23        36   # BR(H -> Z       A      )
     3.17475851E-03    2     1000024  -1000024   # BR(H -> ~chi_1+ ~chi_1-)
     6.71596522E-03    2     1000022   1000022   # BR(H -> ~chi_10 ~chi_10)
     3.68993124E-04    2     1000023   1000023   # BR(H -> ~chi_20 ~chi_20)
     2.44875250E-03    2     1000025   1000025   # BR(H -> ~chi_30 ~chi_30)
     2.39590890E-01    2     1000022   1000023   # BR(H -> ~chi_10 ~chi_20)
     1.54955186E-01    2     1000022   1000025   # BR(H -> ~chi_10 ~chi_30)
     3.32441425E-03    2     1000023   1000025   # BR(H -> ~chi_20 ~chi_30)
#
#         PDG            Width
DECAY        36     8.66683835E+00   # A decays
#          BR         NDA      ID1       ID2
     3.68088915E-01    2           5        -5   # BR(A -> b       bb     )
     6.42649734E-02    2         -15        15   # BR(A -> tau+    tau-   )
     2.27245733E-04    2         -13        13   # BR(A -> mu+     mu-    )
     2.78772057E-04    2           3        -3   # BR(A -> s       sb     )
     1.56542770E-06    2           4        -4   # BR(A -> c       cb     )
     1.56312334E-01    2           6        -6   # BR(A -> t       tb     )
     1.54667774E-04    2          21        21   # BR(A -> g       g      )
     5.93913263E-07    2          22        22   # BR(A -> gam     gam    )
     1.87240852E-07    2          23        22   # BR(A -> Z       gam    )
     7.42474587E-05    2          23        25   # BR(A -> Z       h      )
     3.48671594E-03    2     1000024  -1000024   # BR(A -> ~chi_1+ ~chi_1-)
     6.67311024E-03    2     1000022   1000022   # BR(A -> ~chi_10 ~chi_10)
     2.71105928E-04    2     1000023   1000023   # BR(A -> ~chi_20 ~chi_20)
     4.22372478E-03    2     1000025   1000025   # BR(A -> ~chi_30 ~chi_30)
     1.58356646E-01    2     1000022   1000023   # BR(A -> ~chi_10 ~chi_20)
     2.35222167E-01    2     1000022   1000025   # BR(A -> ~chi_10 ~chi_30)
     2.36302889E-03    2     1000023   1000025   # BR(A -> ~chi_20 ~chi_30)
#
#         PDG            Width
DECAY        37     8.62117188E+00   # H+ decays
#          BR         NDA      ID1       ID2
     5.91647324E-04    2           4        -5   # BR(H+ -> c       bb     )
     6.46362006E-02    2         -15        16   # BR(H+ -> tau+    nu_tau )
     2.28558420E-04    2         -13        14   # BR(H+ -> mu+     nu_mu  )
     3.78652305E-06    2           2        -5   # BR(H+ -> u       bb     )
     1.34110094E-05    2           2        -3   # BR(H+ -> u       sb     )
     2.77341335E-04    2           4        -3   # BR(H+ -> c       sb     )
     5.23669934E-01    2           6        -5   # BR(H+ -> t       bb     )
     7.47957751E-05    2          24        25   # BR(H+ -> W+      h      )
     9.14308635E-13    2          24        36   # BR(H+ -> W+      A      )
     4.06711277E-01    2     1000024   1000022   # BR(H+ -> ~chi_1+ ~chi_10)
     3.46348692E-03    2     1000024   1000023   # BR(H+ -> ~chi_1+ ~chi_20)
     3.29560802E-04    2     1000024   1000025   # BR(H+ -> ~chi_1+ ~chi_30)
