#
#                              ======================
#                              | THE SUSYHIT OUTPUT |
#                              ======================
#
#
#              ------------------------------------------------------
#              |     This is the output of the SUSY-HIT package     |
#              |  created by A.Djouadi, M.Muehlleitner and M.Spira. |
#              |  In case of problems with SUSY-HIT email to        |
#              |           margarete.muehlleitner@cern.ch           |
#              |           michael.spira@psi.ch                     |
#              |           abdelhak.djouadi@cern.ch                 |
#              ------------------------------------------------------
#
#              ------------------------------------------------------
#              |  SUSY Les Houches Accord - MSSM Spectrum + Decays  |
#              |              based on the decay programs           |
#              |                                                    |
#              |                     SDECAY 1.3b                    |
#              |                                                    |
#              |  Authors: M.Muhlleitner, A.Djouadi and Y.Mambrini  |
#              |  Ref.:    Comput.Phys.Commun.168(2005)46           |
#              |           [hep-ph/0311167]                         |
#              |                                                    |
#              |                     HDECAY 3.4                     |
#              |                                                    |
#              |  By: A.Djouadi,J.Kalinowski,M.Muhlleitner,M.Spira  |
#              |  Ref.:    Comput.Phys.Commun.108(1998)56           |
#              |           [hep-ph/9704448]                         |
#              |                                                    |
#              |                                                    |
#              |  If not stated otherwise all DRbar couplings and   |
#              |  soft SUSY breaking masses are given at the scale  |
#              |  Q=  0.50007209E+04
#              |                                                    |
#              ------------------------------------------------------
#
#
BLOCK DCINFO  # Decay Program information
     1   SDECAY/HDECAY # decay calculator
     2   1.3b  /3.4    # version number
#
BLOCK SPINFO  # Spectrum calculator information
     1    SOFTSUSY    # spectrum calculator                
     2    3.4.0       # version number                     
#
BLOCK MODSEL  # Model selection
     1     0   #  nonUniversal                                     
#
BLOCK SMINPUTS  # Standard Model inputs
         1     1.25778332E+02   # alpha_em^-1(M_Z)^MSbar
         2     1.16570000E-05   # G_F [GeV^-2]
         3     1.17200002E-01   # alpha_S(M_Z)^MSbar
         4     9.11876000E+01   # M_Z pole mass
         5     4.25000000E+00   # mb(mb)^MSbar
         6     1.72500000E+02   # mt pole mass
         7     1.77682000E+00   # mtau pole mass
#
BLOCK MINPAR  # Input parameters - minimal models
         3     1.00000000E+01   # tanb                
#
BLOCK EXTPAR  # Input parameters - non-minimal models
         0    -1.00000000E+00   # Set                 
         1     6.00000000E+01   # M_1(MX)             
         2     3.00000000E+03   # M_2(MX)             
         3     1.94903300E+03   # M_3(MX)             
        11     5.00000000E+03   # At(MX)              
        12     5.00000000E+03   # Ab(MX)              
        13     0.00000000E+00   # Atau(MX)            
        23    -1.44654900E+03   # mu(MX)              
        26     3.00000000E+03   # mA(pole)            
        31     5.00000000E+03   # meL(MX)             
        32     5.00000000E+03   # mmuL(MX)            
        33     5.00000000E+03   # mtauL(MX)           
        34     5.00000000E+03   # meR(MX)             
        35     5.00000000E+03   # mmuR(MX)            
        36     5.00000000E+03   # mtauR(MX)           
        41     5.00000000E+03   # mqL1(MX)            
        42     5.00000000E+03   # mqL2(MX)            
        43     5.00000000E+03   # mqL3(MX)            
        44     5.00000000E+03   # muR(MX)             
        45     5.00000000E+03   # mcR(MX)             
        46     5.00000000E+03   # mtR(MX)             
        47     5.00000000E+03   # mdR(MX)             
        48     5.00000000E+03   # msR(MX)             
        49     5.00000000E+03   # mbR(MX)             
#
BLOCK MASS  # Mass Spectrum
# PDG code           mass       particle
        24     8.00967226E+01   # W+
        25     1.24813715E+02   # h
        35     3.00008799E+03   # H
        36     2.99999993E+03   # A
        37     3.00087745E+03   # H+
         5     4.87878001E+00   # b-quark pole mass calculated from mb(mb)_Msbar
   1000001     5.07633300E+03   # ~d_L
   2000001     5.05857247E+03   # ~d_R
   1000002     5.07586079E+03   # ~u_L
   2000002     5.05829777E+03   # ~u_R
   1000003     5.07633300E+03   # ~s_L
   2000003     5.05857247E+03   # ~s_R
   1000004     5.07586079E+03   # ~c_L
   2000004     5.05829777E+03   # ~c_R
   1000005     5.02229022E+03   # ~b_1
   2000005     5.05740444E+03   # ~b_2
   1000006     4.91411414E+03   # ~t_1
   2000006     5.06786704E+03   # ~t_2
   1000011     5.01904797E+03   # ~e_L
   2000011     5.00591074E+03   # ~e_R
   1000012     5.01810005E+03   # ~nu_eL
   1000013     5.01904797E+03   # ~mu_L
   2000013     5.00591074E+03   # ~mu_R
   1000014     5.01810005E+03   # ~nu_muL
   1000015     5.00437074E+03   # ~tau_1
   2000015     5.01900234E+03   # ~tau_2
   1000016     5.01756116E+03   # ~nu_tauL
   1000021     2.30000001E+03   # ~g
   1000022     6.03030617E+01   # ~chi_10
   1000023     1.49944851E+03   # ~chi_20
   1000025    -1.50189573E+03   # ~chi_30
   1000035     3.07432670E+03   # ~chi_40
   1000024     1.50000031E+03   # ~chi_1+
   1000037     3.07449416E+03   # ~chi_2+
#
BLOCK NMIX  # Neutralino Mixing Matrix
  1  1     9.99556262E-01   # N_11
  1  2     1.39916179E-04   # N_12
  1  3    -2.97250518E-02   # N_13
  1  4     1.91876386E-03   # N_14
  2  1     1.96616139E-02   # N_21
  2  2     3.08958025E-02   # N_22
  2  3     7.06897481E-01   # N_23
  2  4     7.06367342E-01   # N_24
  3  1    -2.23718047E-02   # N_31
  3  2     1.32648528E-02   # N_32
  3  3    -7.06581108E-01   # N_33
  3  4     7.07153932E-01   # N_34
  4  1    -4.50811636E-04   # N_41
  4  2     9.99434577E-01   # N_42
  4  3    -1.24703626E-02   # N_43
  4  4    -3.12220008E-02   # N_44
#
BLOCK UMIX  # Chargino Mixing Matrix U
  1  1     1.76451596E-02   # U_11
  1  2     9.99844312E-01   # U_12
  2  1    -9.99844312E-01   # U_21
  2  2     1.76451596E-02   # U_22
#
BLOCK VMIX  # Chargino Mixing Matrix V
  1  1     4.41735982E-02   # V_11
  1  2    -9.99023870E-01   # V_12
  2  1    -9.99023870E-01   # V_21
  2  2    -4.41735982E-02   # V_22
#
BLOCK STOPMIX  # Stop Mixing Matrix
  1  1    -5.09847833E-01   # cos(theta_t)
  1  2     8.60264603E-01   # sin(theta_t)
  2  1    -8.60264603E-01   # -sin(theta_t)
  2  2    -5.09847833E-01   # cos(theta_t)
#
BLOCK SBOTMIX  # Sbottom Mixing Matrix
  1  1     9.94530291E-01   # cos(theta_b)
  1  2    -1.04448553E-01   # sin(theta_b)
  2  1     1.04448553E-01   # -sin(theta_b)
  2  2     9.94530291E-01   # cos(theta_b)
#
BLOCK STAUMIX  # Stau Mixing Matrix
  1  1    -1.68202290E-01   # cos(theta_tau)
  1  2     9.85752499E-01   # sin(theta_tau)
  2  1    -9.85752499E-01   # -sin(theta_tau)
  2  2    -1.68202290E-01   # cos(theta_tau)
#
BLOCK ALPHA  # Higgs mixing
          -1.05469983E-01   # Mixing angle in the neutral Higgs boson sector
#
BLOCK HMIX Q=  5.00072094E+03  # DRbar Higgs Parameters
         1    -1.47315929E+03   # mu(Q)MSSM           
         2     9.46985295E+00   # tan                 
         3     2.41954181E+02   # higgs               
         4     8.40283373E+06   # mA^2(Q)MSSM         
#
BLOCK GAUGE Q=  5.00072094E+03  # The gauge couplings
     1     3.70696950E-01   # gprime(Q) DRbar
     2     6.32075850E-01   # g(Q) DRbar
     3     9.96442120E-01   # g3(Q) DRbar
#
BLOCK AU Q=  5.00072094E+03  # The trilinear couplings
  1  1     5.00000001E+03   # A_u(Q) DRbar
  2  2     5.00000001E+03   # A_c(Q) DRbar
  3  3     5.00000002E+03   # A_t(Q) DRbar
#
BLOCK AD Q=  5.00072094E+03  # The trilinear couplings
  1  1     5.00000001E+03   # A_d(Q) DRbar
  2  2     5.00000001E+03   # A_s(Q) DRbar
  3  3     5.00000001E+03   # A_b(Q) DRbar
#
BLOCK AE Q=  5.00072094E+03  # The trilinear couplings
  1  1     0.00000000E+00   # A_e(Q) DRbar
  2  2     2.22677770E-07   # A_mu(Q) DRbar
  3  3     2.22497880E-07   # A_tau(Q) DRbar
#
BLOCK Yu Q=  5.00072094E+03  # The Yukawa couplings
  1  1     0.00000000E+00   # y_u(Q) DRbar
  2  2     0.00000000E+00   # y_c(Q) DRbar
  3  3     8.20389338E-01   # y_t(Q) DRbar
#
BLOCK Yd Q=  5.00072094E+03  # The Yukawa couplings
  1  1     0.00000000E+00   # y_d(Q) DRbar
  2  2     0.00000000E+00   # y_s(Q) DRbar
  3  3     1.31559380E-01   # y_b(Q) DRbar
#
BLOCK Ye Q=  5.00072094E+03  # The Yukawa couplings
  1  1     0.00000000E+00   # y_e(Q) DRbar
  2  2     0.00000000E+00   # y_mu(Q) DRbar
  3  3     9.66271761E-02   # y_tau(Q) DRbar
#
BLOCK MSOFT Q=  5.00072094E+03  # The soft SUSY breaking masses at the scale Q
         1     6.00000000E+01   # M_1(Q)              
         2     3.00000000E+03   # M_2(Q)              
         3     1.94903300E+03   # M_3(Q)              
        21     6.49991749E+06   # mH1^2(Q)            
        22    -1.62058049E+06   # mH2^2(Q)            
        31     5.00000000E+03   # meL(Q)              
        32     5.00000000E+03   # mmuL(Q)             
        33     5.00000000E+03   # mtauL(Q)            
        34     5.00000000E+03   # meR(Q)              
        35     5.00000000E+03   # mmuR(Q)             
        36     5.00000000E+03   # mtauR(Q)            
        41     5.00000000E+03   # mqL1(Q)             
        42     5.00000000E+03   # mqL2(Q)             
        43     4.99999999E+03   # mqL3(Q)             
        44     5.00000000E+03   # muR(Q)              
        45     5.00000000E+03   # mcR(Q)              
        46     4.99999999E+03   # mtR(Q)              
        47     5.00000000E+03   # mdR(Q)              
        48     5.00000000E+03   # msR(Q)              
        49     5.00000000E+03   # mbR(Q)              
#
#
#
#                             =================
#                             |The decay table|
#                             =================
#
# - The QCD corrections to the decays gluino -> squark  + quark
#                                     squark -> gaugino + quark_prime
#                                     squark -> squark_prime + Higgs
#                                     squark -> gluino  + quark
#   are included.
#
# - The multi-body decays for the inos, stops and sbottoms are included.
#
# - The loop induced decays for the gluino, neutralinos and stops
#   are included.
#
# - The SUSY decays of the top quark are included.
#
#
#         PDG            Width
DECAY         6     1.39997803E+00   # top decays
#          BR         NDA      ID1       ID2
     1.00000000E+00    2           5        24   # BR(t ->  b    W+)
#
#         PDG            Width
DECAY   1000021     8.11728610E-04   # gluino decays
#          BR         NDA      ID1       ID2
     5.81740631E-06    2     1000022        21   # BR(~g -> ~chi_10 g)
     6.29244209E-03    2     1000023        21   # BR(~g -> ~chi_20 g)
     6.26603883E-03    2     1000025        21   # BR(~g -> ~chi_30 g)
#           BR         NDA      ID1       ID2       ID3
     5.98394279E-02    3     1000022         1        -1   # BR(~g -> ~chi_10 d  db)
     1.43269582E-05    3     1000023         1        -1   # BR(~g -> ~chi_20 d  db)
     2.46407846E-06    3     1000025         1        -1   # BR(~g -> ~chi_30 d  db)
     2.04018153E-01    3     1000022         2        -2   # BR(~g -> ~chi_10 u  ub)
     2.61920205E-05    3     1000023         2        -2   # BR(~g -> ~chi_20 u  ub)
     2.47297208E-06    3     1000025         2        -2   # BR(~g -> ~chi_30 u  ub)
     5.98394279E-02    3     1000022         3        -3   # BR(~g -> ~chi_10 s  sb)
     1.43269582E-05    3     1000023         3        -3   # BR(~g -> ~chi_20 s  sb)
     2.46407846E-06    3     1000025         3        -3   # BR(~g -> ~chi_30 s  sb)
     2.04018153E-01    3     1000022         4        -4   # BR(~g -> ~chi_10 c  cb)
     2.61920205E-05    3     1000023         4        -4   # BR(~g -> ~chi_20 c  cb)
     2.47297208E-06    3     1000025         4        -4   # BR(~g -> ~chi_30 c  cb)
     6.05889913E-02    3     1000022         5        -5   # BR(~g -> ~chi_10 b  bb)
     1.66496303E-03    3     1000023         5        -5   # BR(~g -> ~chi_20 b  bb)
     1.62266792E-03    3     1000025         5        -5   # BR(~g -> ~chi_30 b  bb)
     2.04457105E-01    3     1000022         6        -6   # BR(~g -> ~chi_10 t  tb)
     4.75411992E-02    3     1000023         6        -6   # BR(~g -> ~chi_20 t  tb)
     3.54787866E-02    3     1000025         6        -6   # BR(~g -> ~chi_30 t  tb)
     3.67358121E-05    3     1000024         1        -2   # BR(~g -> ~chi_1+ d  ub)
     3.67358121E-05    3    -1000024         2        -1   # BR(~g -> ~chi_1- u  db)
     3.67358121E-05    3     1000024         3        -4   # BR(~g -> ~chi_1+ s  cb)
     3.67358121E-05    3    -1000024         4        -3   # BR(~g -> ~chi_1- c  sb)
     5.40644855E-02    3     1000024         5        -6   # BR(~g -> ~chi_1+ b  tb)
     5.40644855E-02    3    -1000024         6        -5   # BR(~g -> ~chi_1- t  bb)
#
#         PDG            Width
DECAY   1000006     3.02313325E+02   # stop1 decays
#          BR         NDA      ID1       ID2
     2.92096278E-02    2     1000022         6   # BR(~t_1 -> ~chi_10 t )
     8.97897033E-02    2     1000023         6   # BR(~t_1 -> ~chi_20 t )
     8.63085133E-02    2     1000025         6   # BR(~t_1 -> ~chi_30 t )
     7.08935681E-03    2     1000035         6   # BR(~t_1 -> ~chi_40 t )
     1.30118572E-01    2     1000024         5   # BR(~t_1 -> ~chi_1+ b )
     1.41011333E-02    2     1000037         5   # BR(~t_1 -> ~chi_2+ b )
     6.43383093E-01    2     1000021         6   # BR(~t_1 -> ~g      t )
#
#         PDG            Width
DECAY   2000006     3.14631933E+02   # stop2 decays
#          BR         NDA      ID1       ID2
     1.11297051E-02    2     1000022         6   # BR(~t_2 -> ~chi_10 t )
     8.94481497E-02    2     1000023         6   # BR(~t_2 -> ~chi_20 t )
     9.30857606E-02    2     1000025         6   # BR(~t_2 -> ~chi_30 t )
     1.75159642E-02    2     1000035         6   # BR(~t_2 -> ~chi_40 t )
     5.40259253E-02    2     1000024         5   # BR(~t_2 -> ~chi_1+ b )
     3.47815773E-02    2     1000037         5   # BR(~t_2 -> ~chi_2+ b )
     6.95988900E-01    2     1000021         6   # BR(~t_2 -> ~g      t )
     8.95576319E-04    2     1000006        25   # BR(~t_2 -> ~t_1    h )
     3.12844111E-03    2     1000006        23   # BR(~t_2 -> ~t_1    Z )
#
#         PDG            Width
DECAY   1000005     2.90338362E+02   # sbottom1 decays
#          BR         NDA      ID1       ID2
     2.68710953E-03    2     1000022         5   # BR(~b_1 -> ~chi_10 b )
     2.56258100E-03    2     1000023         5   # BR(~b_1 -> ~chi_20 b )
     2.42696887E-03    2     1000025         5   # BR(~b_1 -> ~chi_30 b )
     2.58568112E-02    2     1000035         5   # BR(~b_1 -> ~chi_40 b )
     1.90015473E-01    2    -1000024         6   # BR(~b_1 -> ~chi_1- t )
     5.20488831E-02    2    -1000037         6   # BR(~b_1 -> ~chi_2- t )
     7.22535209E-01    2     1000021         5   # BR(~b_1 -> ~g      b )
     1.86696377E-03    2     1000006       -24   # BR(~b_1 -> ~t_1    W-)
#
#         PDG            Width
DECAY   2000005     2.19290871E+02   # sbottom2 decays
#          BR         NDA      ID1       ID2
     1.33360070E-02    2     1000022         5   # BR(~b_2 -> ~chi_10 b )
     3.25439539E-03    2     1000023         5   # BR(~b_2 -> ~chi_20 b )
     3.39556540E-03    2     1000025         5   # BR(~b_2 -> ~chi_30 b )
     3.94165403E-04    2     1000035         5   # BR(~b_2 -> ~chi_40 b )
     9.25459951E-03    2    -1000024         6   # BR(~b_2 -> ~chi_1- t )
     7.93094625E-04    2    -1000037         6   # BR(~b_2 -> ~chi_2- t )
     9.69454507E-01    2     1000021         5   # BR(~b_2 -> ~g      b )
     1.17665486E-04    2     1000006       -24   # BR(~b_2 -> ~t_1    W-)
#
#         PDG            Width
DECAY   1000002     2.38472304E+02   # sup_L decays
#          BR         NDA      ID1       ID2
     3.12593197E-03    2     1000022         2   # BR(~u_L -> ~chi_10 u)
     8.24378066E-05    2     1000023         2   # BR(~u_L -> ~chi_20 u)
     5.39690784E-06    2     1000025         2   # BR(~u_L -> ~chi_30 u)
     3.29712930E-02    2     1000035         2   # BR(~u_L -> ~chi_40 u)
     2.66547352E-04    2     1000024         1   # BR(~u_L -> ~chi_1+ d)
     6.58917684E-02    2     1000037         1   # BR(~u_L -> ~chi_2+ d)
     8.97656624E-01    2     1000021         2   # BR(~u_L -> ~g      u)
#
#         PDG            Width
DECAY   2000002     2.24436438E+02   # sup_R decays
#          BR         NDA      ID1       ID2
     5.28801429E-02    2     1000022         2   # BR(~u_R -> ~chi_10 u)
     1.70743537E-05    2     1000023         2   # BR(~u_R -> ~chi_20 u)
     2.20920525E-05    2     1000025         2   # BR(~u_R -> ~chi_30 u)
     4.30948739E-09    2     1000035         2   # BR(~u_R -> ~chi_40 u)
     9.47080686E-01    2     1000021         2   # BR(~u_R -> ~g      u)
#
#         PDG            Width
DECAY   1000001     2.38489206E+02   # sdown_L decays
#          BR         NDA      ID1       ID2
     3.11706545E-03    2     1000022         1   # BR(~d_L -> ~chi_10 d)
     4.99928128E-05    2     1000023         1   # BR(~d_L -> ~chi_20 d)
     2.12398518E-05    2     1000025         1   # BR(~d_L -> ~chi_30 d)
     3.29907198E-02    2     1000035         1   # BR(~d_L -> ~chi_40 d)
     4.25329406E-05    2    -1000024         2   # BR(~d_L -> ~chi_1- u)
     6.60156400E-02    2    -1000037         2   # BR(~d_L -> ~chi_2- u)
     8.97762809E-01    2     1000021         1   # BR(~d_L -> ~g      d)
#
#         PDG            Width
DECAY   2000001     2.15552413E+02   # sdown_R decays
#          BR         NDA      ID1       ID2
     1.37656612E-02    2     1000022         1   # BR(~d_R -> ~chi_10 d)
     4.44485527E-06    2     1000023         1   # BR(~d_R -> ~chi_20 d)
     5.75108054E-06    2     1000025         1   # BR(~d_R -> ~chi_30 d)
     1.12197861E-09    2     1000035         1   # BR(~d_R -> ~chi_40 d)
     9.86224142E-01    2     1000021         1   # BR(~d_R -> ~g      d)
#
#         PDG            Width
DECAY   1000004     2.38472304E+02   # scharm_L decays
#          BR         NDA      ID1       ID2
     3.12593197E-03    2     1000022         4   # BR(~c_L -> ~chi_10 c)
     8.24378066E-05    2     1000023         4   # BR(~c_L -> ~chi_20 c)
     5.39690784E-06    2     1000025         4   # BR(~c_L -> ~chi_30 c)
     3.29712930E-02    2     1000035         4   # BR(~c_L -> ~chi_40 c)
     2.66547352E-04    2     1000024         3   # BR(~c_L -> ~chi_1+ s)
     6.58917684E-02    2     1000037         3   # BR(~c_L -> ~chi_2+ s)
     8.97656624E-01    2     1000021         4   # BR(~c_L -> ~g      c)
#
#         PDG            Width
DECAY   2000004     2.24436438E+02   # scharm_R decays
#          BR         NDA      ID1       ID2
     5.28801429E-02    2     1000022         4   # BR(~c_R -> ~chi_10 c)
     1.70743537E-05    2     1000023         4   # BR(~c_R -> ~chi_20 c)
     2.20920525E-05    2     1000025         4   # BR(~c_R -> ~chi_30 c)
     4.30948739E-09    2     1000035         4   # BR(~c_R -> ~chi_40 c)
     9.47080686E-01    2     1000021         4   # BR(~c_R -> ~g      c)
#
#         PDG            Width
DECAY   1000003     2.38489206E+02   # sstrange_L decays
#          BR         NDA      ID1       ID2
     3.11706545E-03    2     1000022         3   # BR(~s_L -> ~chi_10 s)
     4.99928128E-05    2     1000023         3   # BR(~s_L -> ~chi_20 s)
     2.12398518E-05    2     1000025         3   # BR(~s_L -> ~chi_30 s)
     3.29907198E-02    2     1000035         3   # BR(~s_L -> ~chi_40 s)
     4.25329406E-05    2    -1000024         4   # BR(~s_L -> ~chi_1- c)
     6.60156400E-02    2    -1000037         4   # BR(~s_L -> ~chi_2- c)
     8.97762809E-01    2     1000021         3   # BR(~s_L -> ~g      s)
#
#         PDG            Width
DECAY   2000003     2.15552413E+02   # sstrange_R decays
#          BR         NDA      ID1       ID2
     1.37656612E-02    2     1000022         3   # BR(~s_R -> ~chi_10 s)
     4.44485527E-06    2     1000023         3   # BR(~s_R -> ~chi_20 s)
     5.75108054E-06    2     1000025         3   # BR(~s_R -> ~chi_30 s)
     1.12197861E-09    2     1000035         3   # BR(~s_R -> ~chi_40 s)
     9.86224142E-01    2     1000021         3   # BR(~s_R -> ~g      s)
#
#         PDG            Width
DECAY   1000011     3.02358790E+01   # selectron_L decays
#          BR         NDA      ID1       ID2
     2.26742694E-01    2     1000022        11   # BR(~e_L -> ~chi_10 e-)
     9.84951749E-04    2     1000023        11   # BR(~e_L -> ~chi_20 e-)
     1.13926275E-08    2     1000025        11   # BR(~e_L -> ~chi_30 e-)
     2.57101647E-01    2     1000035        11   # BR(~e_L -> ~chi_40 e-)
     3.40684029E-04    2    -1000024        12   # BR(~e_L -> ~chi_1- nu_e)
     5.14830011E-01    2    -1000037        12   # BR(~e_L -> ~chi_2- nu_e)
#
#         PDG            Width
DECAY   2000011     2.73582996E+01   # selectron_R decays
#          BR         NDA      ID1       ID2
     9.99264825E-01    2     1000022        11   # BR(~e_R -> ~chi_10 e-)
     3.20463807E-04    2     1000023        11   # BR(~e_R -> ~chi_20 e-)
     4.14632150E-04    2     1000025        11   # BR(~e_R -> ~chi_30 e-)
     7.88724728E-08    2     1000035        11   # BR(~e_R -> ~chi_40 e-)
#
#         PDG            Width
DECAY   1000013     3.02358790E+01   # smuon_L decays
#          BR         NDA      ID1       ID2
     2.26742694E-01    2     1000022        13   # BR(~mu_L -> ~chi_10 mu-)
     9.84951749E-04    2     1000023        13   # BR(~mu_L -> ~chi_20 mu-)
     1.13926275E-08    2     1000025        13   # BR(~mu_L -> ~chi_30 mu-)
     2.57101647E-01    2     1000035        13   # BR(~mu_L -> ~chi_40 mu-)
     3.40684029E-04    2    -1000024        14   # BR(~mu_L -> ~chi_1- nu_mu)
     5.14830011E-01    2    -1000037        14   # BR(~mu_L -> ~chi_2- nu_mu)
#
#         PDG            Width
DECAY   2000013     2.73582996E+01   # smuon_R decays
#          BR         NDA      ID1       ID2
     9.99264825E-01    2     1000022        13   # BR(~mu_R -> ~chi_10 mu-)
     3.20463807E-04    2     1000023        13   # BR(~mu_R -> ~chi_20 mu-)
     4.14632150E-04    2     1000025        13   # BR(~mu_R -> ~chi_30 mu-)
     7.88724728E-08    2     1000035        13   # BR(~mu_R -> ~chi_40 mu-)
#
#         PDG            Width
DECAY   1000015     2.89702339E+01   # stau_1 decays
#          BR         NDA      ID1       ID2
     9.24243938E-01    2     1000022        15   # BR(~tau_1 -> ~chi_10  tau-)
     1.41653944E-02    2     1000023        15   # BR(~tau_1 -> ~chi_20  tau-)
     1.28843499E-02    2     1000025        15   # BR(~tau_1 -> ~chi_30  tau-)
     7.28036348E-03    2     1000035        15   # BR(~tau_1 -> ~chi_40  tau-)
     2.68474339E-02    2    -1000024        16   # BR(~tau_1 -> ~chi_1-  nu_tau)
     1.45785206E-02    2    -1000037        16   # BR(~tau_1 -> ~chi_2-  nu_tau)
#
#         PDG            Width
DECAY   2000015     3.09230219E+01   # stau_2 decays
#          BR         NDA      ID1       ID2
     2.39729848E-01    2     1000022        15   # BR(~tau_2 -> ~chi_10  tau-)
     1.29154219E-02    2     1000023        15   # BR(~tau_2 -> ~chi_20  tau-)
     1.32029025E-02    2     1000025        15   # BR(~tau_2 -> ~chi_30  tau-)
     2.44494506E-01    2     1000035        15   # BR(~tau_2 -> ~chi_40  tau-)
     7.39847404E-05    2    -1000024        16   # BR(~tau_2 -> ~chi_1-  nu_tau)
     4.89583337E-01    2    -1000037        16   # BR(~tau_2 -> ~chi_2-  nu_tau)
#
#         PDG            Width
DECAY   1000012     3.02379193E+01   # snu_eL decays
#          BR         NDA      ID1       ID2
     2.26468235E-01    2     1000022        12   # BR(~nu_eL -> ~chi_10 nu_e)
     2.05122602E-04    2     1000023        12   # BR(~nu_eL -> ~chi_20 nu_e)
     3.80572835E-04    2     1000025        12   # BR(~nu_eL -> ~chi_30 nu_e)
     2.57191126E-01    2     1000035        12   # BR(~nu_eL -> ~chi_40 nu_e)
     2.13443347E-03    2     1000024        11   # BR(~nu_eL -> ~chi_1+ e-)
     5.13620511E-01    2     1000037        11   # BR(~nu_eL -> ~chi_2+ e-)
#
#         PDG            Width
DECAY   1000014     3.02379193E+01   # snu_muL decays
#          BR         NDA      ID1       ID2
     2.26468235E-01    2     1000022        14   # BR(~nu_muL -> ~chi_10 nu_mu)
     2.05122602E-04    2     1000023        14   # BR(~nu_muL -> ~chi_20 nu_mu)
     3.80572835E-04    2     1000025        14   # BR(~nu_muL -> ~chi_30 nu_mu)
     2.57191126E-01    2     1000035        14   # BR(~nu_muL -> ~chi_40 nu_mu)
     2.13443347E-03    2     1000024        13   # BR(~nu_muL -> ~chi_1+ mu-)
     5.13620511E-01    2     1000037        13   # BR(~nu_muL -> ~chi_2+ mu-)
#
#         PDG            Width
DECAY   1000016     3.10014256E+01   # snu_tauL decays
#          BR         NDA      ID1       ID2
     2.20867017E-01    2     1000022        16   # BR(~nu_tauL -> ~chi_10 nu_tau)
     2.00040910E-04    2     1000023        16   # BR(~nu_tauL -> ~chi_20 nu_tau)
     3.71144495E-04    2     1000025        16   # BR(~nu_tauL -> ~chi_30 nu_tau)
     2.50765310E-01    2     1000035        16   # BR(~nu_tauL -> ~chi_40 nu_tau)
     2.70071492E-02    2     1000024        15   # BR(~nu_tauL -> ~chi_1+ tau-)
     5.00789339E-01    2     1000037        15   # BR(~nu_tauL -> ~chi_2+ tau-)
#
#         PDG            Width
DECAY   1000024     9.22574198E-01   # chargino1+ decays
#          BR         NDA      ID1       ID2
     1.00000000E+00    2     1000022        24   # BR(~chi_1+ -> ~chi_10  W+)
#
#         PDG            Width
DECAY   1000037     1.83972095E+01   # chargino2+ decays
#          BR         NDA      ID1       ID2
     2.52702056E-01    2     1000024        23   # BR(~chi_2+ -> ~chi_1+  Z )
     2.61221460E-04    2     1000022        24   # BR(~chi_2+ -> ~chi_10  W+)
     2.44010421E-01    2     1000023        24   # BR(~chi_2+ -> ~chi_20  W+)
     2.43670950E-01    2     1000025        24   # BR(~chi_2+ -> ~chi_30  W+)
     2.59354987E-01    2     1000024        25   # BR(~chi_2+ -> ~chi_1+  h )
     3.63725664E-07    2     1000022        37   # BR(~chi_2+ -> ~chi_10  H+)
#
#         PDG            Width
DECAY   1000022     0.00000000E+00   # neutralino1 decays
#
#         PDG            Width
DECAY   1000023     9.69565208E-01   # neutralino2 decays
#          BR         NDA      ID1       ID2
     5.56480891E-01    2     1000022        23   # BR(~chi_20 -> ~chi_10   Z )
     4.43519109E-01    2     1000022        25   # BR(~chi_20 -> ~chi_10   h )
#
#         PDG            Width
DECAY   1000025     9.79151699E-01   # neutralino3 decays
#          BR         NDA      ID1       ID2
     4.26428750E-01    2     1000022        23   # BR(~chi_30 -> ~chi_10   Z )
     5.73571250E-01    2     1000022        25   # BR(~chi_30 -> ~chi_10   h )
#
#         PDG            Width
DECAY   1000035     1.83975573E+01   # neutralino4 decays
#          BR         NDA      ID1       ID2
     9.39466218E-05    2     1000022        23   # BR(~chi_40 -> ~chi_10   Z )
     3.95272341E-02    2     1000023        23   # BR(~chi_40 -> ~chi_20   Z )
     2.12642118E-01    2     1000025        23   # BR(~chi_40 -> ~chi_30   Z )
     2.44316087E-01    2     1000024       -24   # BR(~chi_40 -> ~chi_1+   W-)
     2.44316087E-01    2    -1000024        24   # BR(~chi_40 -> ~chi_1-   W+)
     1.73556895E-04    2     1000022        25   # BR(~chi_40 -> ~chi_10   h )
     3.27777298E-07    2     1000022        35   # BR(~chi_40 -> ~chi_10   H )
     4.92858509E-08    2     1000022        36   # BR(~chi_40 -> ~chi_10   A )
     2.19437094E-01    2     1000023        25   # BR(~chi_40 -> ~chi_20   h )
     3.94934984E-02    2     1000025        25   # BR(~chi_40 -> ~chi_30   h )
#
#         PDG            Width
DECAY        25     4.04557719E-03   # h decays
#          BR         NDA      ID1       ID2
     6.05924223E-01    2           5        -5   # BR(h -> b       bb     )
     6.41285787E-02    2         -15        15   # BR(h -> tau+    tau-   )
     2.27038307E-04    2         -13        13   # BR(h -> mu+     mu-    )
     4.81277958E-04    2           3        -3   # BR(h -> s       sb     )
     2.08561740E-02    2           4        -4   # BR(h -> c       cb     )
     6.75109152E-02    2          21        21   # BR(h -> g       g      )
     2.32229424E-03    2          22        22   # BR(h -> gam     gam    )
     1.50077833E-03    2          22        23   # BR(h -> Z       gam    )
     2.11758678E-01    2          24       -24   # BR(h -> W+      W-     )
     2.52567919E-02    2          23        23   # BR(h -> Z       Z      )
     3.32497152E-05    2     1000022   1000022   # BR(h -> ~chi_10 ~chi_10)
#
#         PDG            Width
DECAY        35     7.27161815E+00   # H decays
#          BR         NDA      ID1       ID2
     4.49521048E-01    2           5        -5   # BR(H -> b       bb     )
     7.66149036E-02    2         -15        15   # BR(H -> tau+    tau-   )
     2.70916385E-04    2         -13        13   # BR(H -> mu+     mu-    )
     3.32101877E-04    2           3        -3   # BR(H -> s       sb     )
     1.85752858E-06    2           4        -4   # BR(H -> c       cb     )
     1.85581825E-01    2           6        -6   # BR(H -> t       tb     )
     6.16117459E-05    2          21        21   # BR(H -> g       g      )
     3.88230672E-07    2          22        22   # BR(H -> gam     gam    )
     1.09614389E-07    2          23        22   # BR(H -> Z       gam    )
     8.30052372E-05    2          24       -24   # BR(H -> W+      W-     )
     4.14500937E-05    2          23        23   # BR(H -> Z       Z      )
     3.13019500E-04    2          25        25   # BR(H -> h       h      )
     5.70316960E-24    2          36        36   # BR(H -> A       A      )
     9.28178863E-19    2          23        36   # BR(H -> Z       A      )
     3.23443419E-09    2     1000024  -1000024   # BR(H -> ~chi_1+ ~chi_1-)
     8.82805616E-04    2     1000022   1000022   # BR(H -> ~chi_10 ~chi_10)
     1.91410305E-08    2     1000023   1000023   # BR(H -> ~chi_20 ~chi_20)
     1.70138135E-01    2     1000022   1000023   # BR(H -> ~chi_10 ~chi_20)
     1.16156799E-01    2     1000022   1000025   # BR(H -> ~chi_10 ~chi_30)
#
#         PDG            Width
DECAY        36     7.27428539E+00   # A decays
#          BR         NDA      ID1       ID2
     4.49505705E-01    2           5        -5   # BR(A -> b       bb     )
     7.65889080E-02    2         -15        15   # BR(A -> tau+    tau-   )
     2.70824084E-04    2         -13        13   # BR(A -> mu+     mu-    )
     3.32231435E-04    2           3        -3   # BR(A -> s       sb     )
     1.86458558E-06    2           4        -4   # BR(A -> c       cb     )
     1.86184084E-01    2           6        -6   # BR(A -> t       tb     )
     1.84246572E-04    2          21        21   # BR(A -> g       g      )
     2.67750202E-07    2          22        22   # BR(A -> gam     gam    )
     2.23219644E-07    2          23        22   # BR(A -> Z       gam    )
     8.26604175E-05    2          23        25   # BR(A -> Z       h      )
     9.08397531E-04    2     1000022   1000022   # BR(A -> ~chi_10 ~chi_10)
     1.51788170E-05    2     1000023   1000023   # BR(A -> ~chi_20 ~chi_20)
     1.17497597E-01    2     1000022   1000023   # BR(A -> ~chi_10 ~chi_20)
     1.68427811E-01    2     1000022   1000025   # BR(A -> ~chi_10 ~chi_30)
#
#         PDG            Width
DECAY        37     7.28432559E+00   # H+ decays
#          BR         NDA      ID1       ID2
     7.24177929E-04    2           4        -5   # BR(H+ -> c       bb     )
     7.65057151E-02    2         -15        16   # BR(H+ -> tau+    nu_tau )
     2.70529907E-04    2         -13        14   # BR(H+ -> mu+     nu_mu  )
     4.63471512E-06    2           2        -5   # BR(H+ -> u       bb     )
     1.58741285E-05    2           2        -3   # BR(H+ -> u       sb     )
     3.28277947E-04    2           4        -3   # BR(H+ -> c       sb     )
     6.34641177E-01    2           6        -5   # BR(H+ -> t       bb     )
     8.26719472E-05    2          24        25   # BR(H+ -> W+      h      )
     9.38827884E-14    2          24        36   # BR(H+ -> W+      A      )
     2.87411412E-01    2     1000024   1000022   # BR(H+ -> ~chi_1+ ~chi_10)
     1.55293417E-05    2     1000024   1000023   # BR(H+ -> ~chi_1+ ~chi_20)
