#
#                              ======================
#                              | THE SUSYHIT OUTPUT |
#                              ======================
#
#
#              ------------------------------------------------------
#              |     This is the output of the SUSY-HIT package     |
#              |  created by A.Djouadi, M.Muehlleitner and M.Spira. |
#              |  In case of problems with SUSY-HIT email to        |
#              |           margarete.muehlleitner@cern.ch           |
#              |           michael.spira@psi.ch                     |
#              |           abdelhak.djouadi@cern.ch                 |
#              ------------------------------------------------------
#
#              ------------------------------------------------------
#              |  SUSY Les Houches Accord - MSSM Spectrum + Decays  |
#              |              based on the decay programs           |
#              |                                                    |
#              |                     SDECAY 1.3b                    |
#              |                                                    |
#              |  Authors: M.Muhlleitner, A.Djouadi and Y.Mambrini  |
#              |  Ref.:    Comput.Phys.Commun.168(2005)46           |
#              |           [hep-ph/0311167]                         |
#              |                                                    |
#              |                     HDECAY 3.4                     |
#              |                                                    |
#              |  By: A.Djouadi,J.Kalinowski,M.Muhlleitner,M.Spira  |
#              |  Ref.:    Comput.Phys.Commun.108(1998)56           |
#              |           [hep-ph/9704448]                         |
#              |                                                    |
#              |                                                    |
#              |  If not stated otherwise all DRbar couplings and   |
#              |  soft SUSY breaking masses are given at the scale  |
#              |  Q=  0.50007016E+04
#              |                                                    |
#              ------------------------------------------------------
#
#
BLOCK DCINFO  # Decay Program information
     1   SDECAY/HDECAY # decay calculator
     2   1.3b  /3.4    # version number
#
BLOCK SPINFO  # Spectrum calculator information
     1    SOFTSUSY    # spectrum calculator                
     2    3.4.0       # version number                     
#
BLOCK MODSEL  # Model selection
     1     0   #  nonUniversal                                     
#
BLOCK SMINPUTS  # Standard Model inputs
         1     1.25778332E+02   # alpha_em^-1(M_Z)^MSbar
         2     1.16570000E-05   # G_F [GeV^-2]
         3     1.17200002E-01   # alpha_S(M_Z)^MSbar
         4     9.11876000E+01   # M_Z pole mass
         5     4.25000000E+00   # mb(mb)^MSbar
         6     1.72500000E+02   # mt pole mass
         7     1.77682000E+00   # mtau pole mass
#
BLOCK MINPAR  # Input parameters - minimal models
         3     1.00000000E+01   # tanb                
#
BLOCK EXTPAR  # Input parameters - non-minimal models
         0    -1.00000000E+00   # Set                 
         1     6.00000000E+01   # M_1(MX)             
         2     3.00000000E+03   # M_2(MX)             
         3     1.57544200E+03   # M_3(MX)             
        11     5.00000000E+03   # At(MX)              
        12     5.00000000E+03   # Ab(MX)              
        13     0.00000000E+00   # Atau(MX)            
        23    -1.83880800E+03   # mu(MX)              
        26     3.00000000E+03   # mA(pole)            
        31     5.00000000E+03   # meL(MX)             
        32     5.00000000E+03   # mmuL(MX)            
        33     5.00000000E+03   # mtauL(MX)           
        34     5.00000000E+03   # meR(MX)             
        35     5.00000000E+03   # mmuR(MX)            
        36     5.00000000E+03   # mtauR(MX)           
        41     5.00000000E+03   # mqL1(MX)            
        42     5.00000000E+03   # mqL2(MX)            
        43     5.00000000E+03   # mqL3(MX)            
        44     5.00000000E+03   # muR(MX)             
        45     5.00000000E+03   # mcR(MX)             
        46     5.00000000E+03   # mtR(MX)             
        47     5.00000000E+03   # mdR(MX)             
        48     5.00000000E+03   # msR(MX)             
        49     5.00000000E+03   # mbR(MX)             
#
BLOCK MASS  # Mass Spectrum
# PDG code           mass       particle
        24     8.00970453E+01   # W+
        25     1.24751777E+02   # h
        35     3.00007721E+03   # H
        36     2.99999995E+03   # A
        37     3.00087289E+03   # H+
         5     4.87878001E+00   # b-quark pole mass calculated from mb(mb)_Msbar
   1000001     5.07061324E+03   # ~d_L
   2000001     5.05284508E+03   # ~d_R
   1000002     5.07013903E+03   # ~u_L
   2000002     5.05257547E+03   # ~u_R
   1000003     5.07061324E+03   # ~s_L
   2000003     5.05284508E+03   # ~s_R
   1000004     5.07013903E+03   # ~c_L
   2000004     5.05257547E+03   # ~c_R
   1000005     5.01721183E+03   # ~b_1
   2000005     5.05202667E+03   # ~b_2
   1000006     4.90912084E+03   # ~t_1
   2000006     5.06435511E+03   # ~t_2
   1000011     5.01903644E+03   # ~e_L
   2000011     5.00590335E+03   # ~e_R
   1000012     5.01808859E+03   # ~nu_eL
   1000013     5.01903644E+03   # ~mu_L
   2000013     5.00590335E+03   # ~mu_R
   1000014     5.01808859E+03   # ~nu_muL
   1000015     5.00412554E+03   # ~tau_1
   2000015     5.01926009E+03   # ~tau_2
   1000016     5.01755785E+03   # ~nu_tauL
   1000021     1.90000103E+03   # ~g
   1000022     6.03002254E+01   # ~chi_10
   1000023     1.89938989E+03   # ~chi_20
   1000025    -1.90224223E+03   # ~chi_30
   1000035     3.07443101E+03   # ~chi_40
   1000024     1.90000010E+03   # ~chi_1+
   1000037     3.07459878E+03   # ~chi_2+
#
BLOCK NMIX  # Neutralino Mixing Matrix
  1  1     9.99722536E-01   # N_11
  1  2     1.16359678E-04   # N_12
  1  3    -2.34919352E-02   # N_13
  1  4     1.72224294E-03   # N_14
  2  1     1.53868765E-02   # N_21
  2  2     4.14175238E-02   # N_22
  2  3     7.06771681E-01   # N_23
  2  4     7.06060638E-01   # N_24
  3  1    -1.78271272E-02   # N_31
  3  2     1.21852756E-02   # N_32
  3  3    -7.06749155E-01   # N_33
  3  4     7.07134602E-01   # N_34
  4  1    -5.36885845E-04   # N_41
  4  2     9.99067612E-01   # N_42
  4  3    -2.06773455E-02   # N_43
  4  4    -3.78954470E-02   # N_44
#
BLOCK UMIX  # Chargino Mixing Matrix U
  1  1     2.92034081E-02   # U_11
  1  2     9.99573490E-01   # U_12
  2  1    -9.99573490E-01   # U_21
  2  2     2.92034081E-02   # U_22
#
BLOCK VMIX  # Chargino Mixing Matrix V
  1  1     5.35563864E-02   # V_11
  1  2    -9.98564827E-01   # V_12
  2  1    -9.98564827E-01   # V_21
  2  2    -5.35563864E-02   # V_22
#
BLOCK STOPMIX  # Stop Mixing Matrix
  1  1    -5.15631642E-01   # cos(theta_t)
  1  2     8.56810370E-01   # sin(theta_t)
  2  1    -8.56810370E-01   # -sin(theta_t)
  2  2    -5.15631642E-01   # cos(theta_t)
#
BLOCK SBOTMIX  # Sbottom Mixing Matrix
  1  1     9.91569584E-01   # cos(theta_b)
  1  2    -1.29575307E-01   # sin(theta_b)
  2  1     1.29575307E-01   # -sin(theta_b)
  2  2     9.91569584E-01   # cos(theta_b)
#
BLOCK STAUMIX  # Stau Mixing Matrix
  1  1    -2.08906680E-01   # cos(theta_tau)
  1  2     9.77935580E-01   # sin(theta_tau)
  2  1    -9.77935580E-01   # -sin(theta_tau)
  2  2    -2.08906680E-01   # cos(theta_tau)
#
BLOCK ALPHA  # Higgs mixing
          -1.05454336E-01   # Mixing angle in the neutral Higgs boson sector
#
BLOCK HMIX Q=  5.00070157E+03  # DRbar Higgs Parameters
         1    -1.87247572E+03   # mu(Q)MSSM           
         2     9.47096378E+00   # tan                 
         3     2.42041643E+02   # higgs               
         4     8.33861122E+06   # mA^2(Q)MSSM         
#
BLOCK GAUGE Q=  5.00070157E+03  # The gauge couplings
     1     3.70648586E-01   # gprime(Q) DRbar
     2     6.31828678E-01   # g(Q) DRbar
     3     9.99245159E-01   # g3(Q) DRbar
#
BLOCK AU Q=  5.00070157E+03  # The trilinear couplings
  1  1     5.00000001E+03   # A_u(Q) DRbar
  2  2     5.00000001E+03   # A_c(Q) DRbar
  3  3     5.00000002E+03   # A_t(Q) DRbar
#
BLOCK AD Q=  5.00070157E+03  # The trilinear couplings
  1  1     5.00000001E+03   # A_d(Q) DRbar
  2  2     5.00000001E+03   # A_s(Q) DRbar
  3  3     5.00000001E+03   # A_b(Q) DRbar
#
BLOCK AE Q=  5.00070157E+03  # The trilinear couplings
  1  1     0.00000000E+00   # A_e(Q) DRbar
  2  2     1.62652638E-07   # A_mu(Q) DRbar
  3  3     1.62236250E-07   # A_tau(Q) DRbar
#
BLOCK Yu Q=  5.00070157E+03  # The Yukawa couplings
  1  1     0.00000000E+00   # y_u(Q) DRbar
  2  2     0.00000000E+00   # y_c(Q) DRbar
  3  3     8.19012001E-01   # y_t(Q) DRbar
#
BLOCK Yd Q=  5.00070157E+03  # The Yukawa couplings
  1  1     0.00000000E+00   # y_d(Q) DRbar
  2  2     0.00000000E+00   # y_s(Q) DRbar
  3  3     1.31679156E-01   # y_b(Q) DRbar
#
BLOCK Ye Q=  5.00070157E+03  # The Yukawa couplings
  1  1     0.00000000E+00   # y_e(Q) DRbar
  2  2     0.00000000E+00   # y_mu(Q) DRbar
  3  3     9.64888613E-02   # y_tau(Q) DRbar
#
BLOCK MSOFT Q=  5.00070157E+03  # The soft SUSY breaking masses at the scale Q
         1     6.00000000E+01   # M_1(Q)              
         2     3.00000000E+03   # M_2(Q)              
         3     1.57544200E+03   # M_3(Q)              
        21     5.14215224E+06   # mH1^2(Q)            
        22    -2.97214382E+06   # mH2^2(Q)            
        31     5.00000000E+03   # meL(Q)              
        32     5.00000000E+03   # mmuL(Q)             
        33     5.00000000E+03   # mtauL(Q)            
        34     5.00000000E+03   # meR(Q)              
        35     5.00000000E+03   # mmuR(Q)             
        36     5.00000000E+03   # mtauR(Q)            
        41     5.00000000E+03   # mqL1(Q)             
        42     5.00000000E+03   # mqL2(Q)             
        43     5.00000000E+03   # mqL3(Q)             
        44     5.00000000E+03   # muR(Q)              
        45     5.00000000E+03   # mcR(Q)              
        46     4.99999999E+03   # mtR(Q)              
        47     5.00000000E+03   # mdR(Q)              
        48     5.00000000E+03   # msR(Q)              
        49     5.00000000E+03   # mbR(Q)              
#
#
#
#                             =================
#                             |The decay table|
#                             =================
#
# - The QCD corrections to the decays gluino -> squark  + quark
#                                     squark -> gaugino + quark_prime
#                                     squark -> squark_prime + Higgs
#                                     squark -> gluino  + quark
#   are included.
#
# - The multi-body decays for the inos, stops and sbottoms are included.
#
# - The loop induced decays for the gluino, neutralinos and stops
#   are included.
#
# - The SUSY decays of the top quark are included.
#
#
#         PDG            Width
DECAY         6     1.39886926E+00   # top decays
#          BR         NDA      ID1       ID2
     1.00000000E+00    2           5        24   # BR(t ->  b    W+)
#
#         PDG            Width
DECAY   1000021     2.34565709E-04   # gluino decays
#          BR         NDA      ID1       ID2
     8.46113049E-06    2     1000022        21   # BR(~g -> ~chi_10 g)
     1.68500145E-11    2     1000023        21   # BR(~g -> ~chi_20 g)
#           BR         NDA      ID1       ID2       ID3
     7.64338776E-02    3     1000022         1        -1   # BR(~g -> ~chi_10 d  db)
     4.51711915E-20    3     1000023         1        -1   # BR(~g -> ~chi_20 d  db)
     2.60560427E-01    3     1000022         2        -2   # BR(~g -> ~chi_10 u  ub)
     6.33881794E-20    3     1000023         2        -2   # BR(~g -> ~chi_20 u  ub)
     7.64338776E-02    3     1000022         3        -3   # BR(~g -> ~chi_10 s  sb)
     4.51711915E-20    3     1000023         3        -3   # BR(~g -> ~chi_20 s  sb)
     2.60560427E-01    3     1000022         4        -4   # BR(~g -> ~chi_10 c  cb)
     6.33881794E-20    3     1000023         4        -4   # BR(~g -> ~chi_20 c  cb)
     7.73113322E-02    3     1000022         5        -5   # BR(~g -> ~chi_10 b  bb)
     2.48691597E-01    3     1000022         6        -6   # BR(~g -> ~chi_10 t  tb)
     8.59727064E-34    3     1000024         1        -2   # BR(~g -> ~chi_1+ d  ub)
     8.59727064E-34    3    -1000024         2        -1   # BR(~g -> ~chi_1- u  db)
     8.59727064E-34    3     1000024         3        -4   # BR(~g -> ~chi_1+ s  cb)
     8.59727064E-34    3    -1000024         4        -3   # BR(~g -> ~chi_1- c  sb)
#
#         PDG            Width
DECAY   1000006     3.27303239E+02   # stop1 decays
#          BR         NDA      ID1       ID2
     2.67457396E-02    2     1000022         6   # BR(~t_1 -> ~chi_10 t )
     7.26435771E-02    2     1000023         6   # BR(~t_1 -> ~chi_20 t )
     6.96882273E-02    2     1000025         6   # BR(~t_1 -> ~chi_30 t )
     6.98029841E-03    2     1000035         6   # BR(~t_1 -> ~chi_40 t )
     1.03449043E-01    2     1000024         5   # BR(~t_1 -> ~chi_1+ b )
     1.38445920E-02    2     1000037         5   # BR(~t_1 -> ~chi_2+ b )
     7.06648523E-01    2     1000021         6   # BR(~t_1 -> ~g      t )
#
#         PDG            Width
DECAY   2000006     3.41296506E+02   # stop2 decays
#          BR         NDA      ID1       ID2
     1.05480400E-02    2     1000022         6   # BR(~t_2 -> ~chi_10 t )
     7.31734375E-02    2     1000023         6   # BR(~t_2 -> ~chi_20 t )
     7.62869937E-02    2     1000025         6   # BR(~t_2 -> ~chi_30 t )
     1.56983604E-02    2     1000035         6   # BR(~t_2 -> ~chi_40 t )
     4.62731310E-02    2     1000024         5   # BR(~t_2 -> ~chi_1+ b )
     3.10659542E-02    2     1000037         5   # BR(~t_2 -> ~chi_2+ b )
     7.43115378E-01    2     1000021         6   # BR(~t_2 -> ~g      t )
     8.27082404E-04    2     1000006        25   # BR(~t_2 -> ~t_1    h )
     3.01162240E-03    2     1000006        23   # BR(~t_2 -> ~t_1    Z )
#
#         PDG            Width
DECAY   1000005     3.18728432E+02   # sbottom1 decays
#          BR         NDA      ID1       ID2
     2.49009088E-03    2     1000022         5   # BR(~b_1 -> ~chi_10 b )
     2.14617178E-03    2     1000023         5   # BR(~b_1 -> ~chi_20 b )
     1.95798025E-03    2     1000025         5   # BR(~b_1 -> ~chi_30 b )
     2.32818425E-02    2     1000035         5   # BR(~b_1 -> ~chi_40 b )
     1.51861725E-01    2    -1000024         6   # BR(~b_1 -> ~chi_1- t )
     4.70170541E-02    2    -1000037         6   # BR(~b_1 -> ~chi_2- t )
     7.69558951E-01    2     1000021         5   # BR(~b_1 -> ~g      b )
     1.68618446E-03    2     1000006       -24   # BR(~b_1 -> ~t_1    W-)
#
#         PDG            Width
DECAY   2000005     2.54641502E+02   # sbottom2 decays
#          BR         NDA      ID1       ID2
     1.14466988E-02    2     1000022         5   # BR(~b_2 -> ~chi_10 b )
     2.44209802E-03    2     1000023         5   # BR(~b_2 -> ~chi_20 b )
     2.60601359E-03    2     1000025         5   # BR(~b_2 -> ~chi_30 b )
     5.42020254E-04    2     1000035         5   # BR(~b_2 -> ~chi_40 b )
     8.19085482E-03    2    -1000024         6   # BR(~b_2 -> ~chi_1- t )
     1.09345932E-03    2    -1000037         6   # BR(~b_2 -> ~chi_2- t )
     9.73524240E-01    2     1000021         5   # BR(~b_2 -> ~g      b )
     1.54615046E-04    2     1000006       -24   # BR(~b_2 -> ~t_1    W-)
#
#         PDG            Width
DECAY   1000002     2.73568243E+02   # sup_L decays
#          BR         NDA      ID1       ID2
     2.72756370E-03    2     1000022         2   # BR(~u_L -> ~chi_10 u)
     1.04224555E-04    2     1000023         2   # BR(~u_L -> ~chi_20 u)
     3.99239854E-06    2     1000025         2   # BR(~u_L -> ~chi_30 u)
     2.85923140E-02    2     1000035         2   # BR(~u_L -> ~chi_40 u)
     3.02866396E-04    2     1000024         1   # BR(~u_L -> ~chi_1+ d)
     5.71318907E-02    2     1000037         1   # BR(~u_L -> ~chi_2+ d)
     9.11137148E-01    2     1000021         2   # BR(~u_L -> ~g      u)
#
#         PDG            Width
DECAY   2000002     2.59717507E+02   # sup_R decays
#          BR         NDA      ID1       ID2
     4.57529408E-02    2     1000022         2   # BR(~u_R -> ~chi_10 u)
     8.01048993E-06    2     1000023         2   # BR(~u_R -> ~chi_20 u)
     1.07421766E-05    2     1000025         2   # BR(~u_R -> ~chi_30 u)
     5.26107531E-09    2     1000035         2   # BR(~u_R -> ~chi_40 u)
     9.54228301E-01    2     1000021         2   # BR(~u_R -> ~g      u)
#
#         PDG            Width
DECAY   1000001     2.73584278E+02   # sdown_L decays
#          BR         NDA      ID1       ID2
     2.72117512E-03    2     1000022         1   # BR(~d_L -> ~chi_10 d)
     7.79096337E-05    2     1000023         1   # BR(~d_L -> ~chi_20 d)
     1.29572542E-05    2     1000025         1   # BR(~d_L -> ~chi_30 d)
     2.86115144E-02    2     1000035         1   # BR(~d_L -> ~chi_40 d)
     9.00611409E-05    2    -1000024         2   # BR(~d_L -> ~chi_1- u)
     5.72617395E-02    2    -1000037         2   # BR(~d_L -> ~chi_2- u)
     9.11224643E-01    2     1000021         1   # BR(~d_L -> ~g      d)
#
#         PDG            Width
DECAY   2000001     2.50823820E+02   # sdown_R decays
#          BR         NDA      ID1       ID2
     1.18444499E-02    2     1000022         1   # BR(~d_R -> ~chi_10 d)
     2.07381507E-06    2     1000023         1   # BR(~d_R -> ~chi_20 d)
     2.78101473E-06    2     1000025         1   # BR(~d_R -> ~chi_30 d)
     1.36214793E-09    2     1000035         1   # BR(~d_R -> ~chi_40 d)
     9.88150694E-01    2     1000021         1   # BR(~d_R -> ~g      d)
#
#         PDG            Width
DECAY   1000004     2.73568243E+02   # scharm_L decays
#          BR         NDA      ID1       ID2
     2.72756370E-03    2     1000022         4   # BR(~c_L -> ~chi_10 c)
     1.04224555E-04    2     1000023         4   # BR(~c_L -> ~chi_20 c)
     3.99239854E-06    2     1000025         4   # BR(~c_L -> ~chi_30 c)
     2.85923140E-02    2     1000035         4   # BR(~c_L -> ~chi_40 c)
     3.02866396E-04    2     1000024         3   # BR(~c_L -> ~chi_1+ s)
     5.71318907E-02    2     1000037         3   # BR(~c_L -> ~chi_2+ s)
     9.11137148E-01    2     1000021         4   # BR(~c_L -> ~g      c)
#
#         PDG            Width
DECAY   2000004     2.59717507E+02   # scharm_R decays
#          BR         NDA      ID1       ID2
     4.57529408E-02    2     1000022         4   # BR(~c_R -> ~chi_10 c)
     8.01048993E-06    2     1000023         4   # BR(~c_R -> ~chi_20 c)
     1.07421766E-05    2     1000025         4   # BR(~c_R -> ~chi_30 c)
     5.26107531E-09    2     1000035         4   # BR(~c_R -> ~chi_40 c)
     9.54228301E-01    2     1000021         4   # BR(~c_R -> ~g      c)
#
#         PDG            Width
DECAY   1000003     2.73584278E+02   # sstrange_L decays
#          BR         NDA      ID1       ID2
     2.72117512E-03    2     1000022         3   # BR(~s_L -> ~chi_10 s)
     7.79096337E-05    2     1000023         3   # BR(~s_L -> ~chi_20 s)
     1.29572542E-05    2     1000025         3   # BR(~s_L -> ~chi_30 s)
     2.86115144E-02    2     1000035         3   # BR(~s_L -> ~chi_40 s)
     9.00611409E-05    2    -1000024         4   # BR(~s_L -> ~chi_1- c)
     5.72617395E-02    2    -1000037         4   # BR(~s_L -> ~chi_2- c)
     9.11224643E-01    2     1000021         3   # BR(~s_L -> ~g      s)
#
#         PDG            Width
DECAY   2000003     2.50823820E+02   # sstrange_R decays
#          BR         NDA      ID1       ID2
     1.18444499E-02    2     1000022         3   # BR(~s_R -> ~chi_10 s)
     2.07381507E-06    2     1000023         3   # BR(~s_R -> ~chi_20 s)
     2.78101473E-06    2     1000025         3   # BR(~s_R -> ~chi_30 s)
     1.36214793E-09    2     1000035         3   # BR(~s_R -> ~chi_40 s)
     9.88150694E-01    2     1000021         3   # BR(~s_R -> ~g      s)
#
#         PDG            Width
DECAY   1000011     3.02226918E+01   # selectron_L decays
#          BR         NDA      ID1       ID2
     2.26839118E-01    2     1000022        11   # BR(~e_L -> ~chi_10 e-)
     1.23182038E-03    2     1000023        11   # BR(~e_L -> ~chi_20 e-)
     1.44300696E-06    2     1000025        11   # BR(~e_L -> ~chi_30 e-)
     2.56775015E-01    2     1000035        11   # BR(~e_L -> ~chi_40 e-)
     8.25531818E-04    2    -1000024        12   # BR(~e_L -> ~chi_1- nu_e)
     5.14327072E-01    2    -1000037        12   # BR(~e_L -> ~chi_2- nu_e)
#
#         PDG            Width
DECAY   2000011     2.73512239E+01   # selectron_R decays
#          BR         NDA      ID1       ID2
     9.99593566E-01    2     1000022        11   # BR(~e_R -> ~chi_10 e-)
     1.73569078E-04    2     1000023        11   # BR(~e_R -> ~chi_20 e-)
     2.32752830E-04    2     1000025        11   # BR(~e_R -> ~chi_30 e-)
     1.11856248E-07    2     1000035        11   # BR(~e_R -> ~chi_40 e-)
#
#         PDG            Width
DECAY   1000013     3.02226918E+01   # smuon_L decays
#          BR         NDA      ID1       ID2
     2.26839118E-01    2     1000022        13   # BR(~mu_L -> ~chi_10 mu-)
     1.23182038E-03    2     1000023        13   # BR(~mu_L -> ~chi_20 mu-)
     1.44300696E-06    2     1000025        13   # BR(~mu_L -> ~chi_30 mu-)
     2.56775015E-01    2     1000035        13   # BR(~mu_L -> ~chi_40 mu-)
     8.25531818E-04    2    -1000024        14   # BR(~mu_L -> ~chi_1- nu_mu)
     5.14327072E-01    2    -1000037        14   # BR(~mu_L -> ~chi_2- nu_mu)
#
#         PDG            Width
DECAY   2000013     2.73512239E+01   # smuon_R decays
#          BR         NDA      ID1       ID2
     9.99593566E-01    2     1000022        13   # BR(~mu_R -> ~chi_10 mu-)
     1.73569078E-04    2     1000023        13   # BR(~mu_R -> ~chi_20 mu-)
     2.32752830E-04    2     1000025        13   # BR(~mu_R -> ~chi_30 mu-)
     1.11856248E-07    2     1000035        13   # BR(~mu_R -> ~chi_40 mu-)
#
#         PDG            Width
DECAY   1000015     2.88276435E+01   # stau_1 decays
#          BR         NDA      ID1       ID2
     9.17888118E-01    2     1000022        15   # BR(~tau_1 -> ~chi_10  tau-)
     1.30006732E-02    2     1000023        15   # BR(~tau_1 -> ~chi_20  tau-)
     1.12517780E-02    2     1000025        15   # BR(~tau_1 -> ~chi_30  tau-)
     1.11479966E-02    2     1000035        15   # BR(~tau_1 -> ~chi_40  tau-)
     2.43796751E-02    2    -1000024        16   # BR(~tau_1 -> ~chi_1-  nu_tau)
     2.23317591E-02    2    -1000037        16   # BR(~tau_1 -> ~chi_2-  nu_tau)
#
#         PDG            Width
DECAY   2000015     3.07722953E+01   # stau_2 decays
#          BR         NDA      ID1       ID2
     2.51183256E-01    2     1000022        15   # BR(~tau_2 -> ~chi_10  tau-)
     1.12825595E-02    2     1000023        15   # BR(~tau_2 -> ~chi_20  tau-)
     1.17493777E-02    2     1000025        15   # BR(~tau_2 -> ~chi_30  tau-)
     2.41683903E-01    2     1000035        15   # BR(~tau_2 -> ~chi_40  tau-)
     1.05444494E-05    2    -1000024        16   # BR(~tau_2 -> ~chi_1-  nu_tau)
     4.84090359E-01    2    -1000037        16   # BR(~tau_2 -> ~chi_2-  nu_tau)
#
#         PDG            Width
DECAY   1000012     3.02239337E+01   # snu_eL decays
#          BR         NDA      ID1       ID2
     2.26607020E-01    2     1000022        12   # BR(~nu_eL -> ~chi_10 nu_e)
     5.07724324E-04    2     1000023        12   # BR(~nu_eL -> ~chi_20 nu_e)
     2.47863859E-04    2     1000025        12   # BR(~nu_eL -> ~chi_30 nu_e)
     2.56923261E-01    2     1000035        12   # BR(~nu_eL -> ~chi_40 nu_e)
     2.77545703E-03    2     1000024        11   # BR(~nu_eL -> ~chi_1+ e-)
     5.12938673E-01    2     1000037        11   # BR(~nu_eL -> ~chi_2+ e-)
#
#         PDG            Width
DECAY   1000014     3.02239337E+01   # snu_muL decays
#          BR         NDA      ID1       ID2
     2.26607020E-01    2     1000022        14   # BR(~nu_muL -> ~chi_10 nu_mu)
     5.07724324E-04    2     1000023        14   # BR(~nu_muL -> ~chi_20 nu_mu)
     2.47863859E-04    2     1000025        14   # BR(~nu_muL -> ~chi_30 nu_mu)
     2.56923261E-01    2     1000035        14   # BR(~nu_muL -> ~chi_40 nu_mu)
     2.77545703E-03    2     1000024        13   # BR(~nu_muL -> ~chi_1+ mu-)
     5.12938673E-01    2     1000037        13   # BR(~nu_muL -> ~chi_2+ mu-)
#
#         PDG            Width
DECAY   1000016     3.08965172E+01   # snu_tauL decays
#          BR         NDA      ID1       ID2
     2.21650574E-01    2     1000022        16   # BR(~nu_tauL -> ~chi_10 nu_tau)
     4.96584050E-04    2     1000023        16   # BR(~nu_tauL -> ~chi_20 nu_tau)
     2.42425274E-04    2     1000025        16   # BR(~nu_tauL -> ~chi_30 nu_tau)
     2.51239845E-01    2     1000035        16   # BR(~nu_tauL -> ~chi_40 nu_tau)
     2.47721019E-02    2     1000024        15   # BR(~nu_tauL -> ~chi_1+ tau-)
     5.01598470E-01    2     1000037        15   # BR(~nu_tauL -> ~chi_2+ tau-)
#
#         PDG            Width
DECAY   1000024     1.17283907E+00   # chargino1+ decays
#          BR         NDA      ID1       ID2
     1.00000000E+00    2     1000022        24   # BR(~chi_1+ -> ~chi_10  W+)
#
#         PDG            Width
DECAY   1000037     1.61030687E+01   # chargino2+ decays
#          BR         NDA      ID1       ID2
     2.52103467E-01    2     1000024        23   # BR(~chi_2+ -> ~chi_1+  Z )
     4.06512889E-04    2     1000022        24   # BR(~chi_2+ -> ~chi_10  W+)
     2.44890847E-01    2     1000023        24   # BR(~chi_2+ -> ~chi_20  W+)
     2.43032214E-01    2     1000025        24   # BR(~chi_2+ -> ~chi_30  W+)
     2.59566873E-01    2     1000024        25   # BR(~chi_2+ -> ~chi_1+  h )
     8.63724210E-08    2     1000022        37   # BR(~chi_2+ -> ~chi_10  H+)
#
#         PDG            Width
DECAY   1000022     0.00000000E+00   # neutralino1 decays
#
#         PDG            Width
DECAY   1000023     1.23492743E+00   # neutralino2 decays
#          BR         NDA      ID1       ID2
     5.64025049E-01    2     1000022        23   # BR(~chi_20 -> ~chi_10   Z )
     4.35974951E-01    2     1000022        25   # BR(~chi_20 -> ~chi_10   h )
#
#         PDG            Width
DECAY   1000025     1.24970362E+00   # neutralino3 decays
#          BR         NDA      ID1       ID2
     4.16985518E-01    2     1000022        23   # BR(~chi_30 -> ~chi_10   Z )
     5.83014482E-01    2     1000022        25   # BR(~chi_30 -> ~chi_10   h )
#
#         PDG            Width
DECAY   1000035     1.60698708E+01   # neutralino4 decays
#          BR         NDA      ID1       ID2
     1.76032314E-04    2     1000022        23   # BR(~chi_40 -> ~chi_10   Z )
     2.04002196E-02    2     1000023        23   # BR(~chi_40 -> ~chi_20   Z )
     2.31972244E-01    2     1000025        23   # BR(~chi_40 -> ~chi_30   Z )
     2.43776083E-01    2     1000024       -24   # BR(~chi_40 -> ~chi_1+   W-)
     2.43776083E-01    2    -1000024        24   # BR(~chi_40 -> ~chi_1-   W+)
     2.45986304E-04    2     1000022        25   # BR(~chi_40 -> ~chi_10   h )
     7.13828569E-08    2     1000022        35   # BR(~chi_40 -> ~chi_10   H )
     1.82490435E-08    2     1000022        36   # BR(~chi_40 -> ~chi_10   A )
     2.39469063E-01    2     1000023        25   # BR(~chi_40 -> ~chi_20   h )
     2.01842000E-02    2     1000025        25   # BR(~chi_40 -> ~chi_30   h )
#
#         PDG            Width
DECAY        25     4.03454342E-03   # h decays
#          BR         NDA      ID1       ID2
     6.06646875E-01    2           5        -5   # BR(h -> b       bb     )
     6.42678817E-02    2         -15        15   # BR(h -> tau+    tau-   )
     2.27531764E-04    2         -13        13   # BR(h -> mu+     mu-    )
     4.82371041E-04    2           3        -3   # BR(h -> s       sb     )
     2.09048754E-02    2           4        -4   # BR(h -> c       cb     )
     6.75961949E-02    2          21        21   # BR(h -> g       g      )
     2.32390464E-03    2          22        22   # BR(h -> gam     gam    )
     1.49652041E-03    2          22        23   # BR(h -> Z       gam    )
     2.10901769E-01    2          24       -24   # BR(h -> W+      W-     )
     2.51294978E-02    2          23        23   # BR(h -> Z       Z      )
     2.25782800E-05    2     1000022   1000022   # BR(h -> ~chi_10 ~chi_10)
#
#         PDG            Width
DECAY        35     6.53394189E+00   # H decays
#          BR         NDA      ID1       ID2
     5.03879339E-01    2           5        -5   # BR(H -> b       bb     )
     8.52844185E-02    2         -15        15   # BR(H -> tau+    tau-   )
     3.01572478E-04    2         -13        13   # BR(H -> mu+     mu-    )
     3.69681744E-04    2           3        -3   # BR(H -> s       sb     )
     2.06661907E-06    2           4        -4   # BR(H -> c       cb     )
     2.06471606E-01    2           6        -6   # BR(H -> t       tb     )
     6.84878118E-05    2          21        21   # BR(H -> g       g      )
     3.91850283E-07    2          22        22   # BR(H -> gam     gam    )
     1.21949151E-07    2          23        22   # BR(H -> Z       gam    )
     8.99913694E-05    2          24       -24   # BR(H -> W+      W-     )
     4.49387402E-05    2          23        23   # BR(H -> Z       Z      )
     3.44678355E-04    2          25        25   # BR(H -> h       h      )
    -6.59732196E-23    2          36        36   # BR(H -> A       A      )
     7.21441167E-19    2          23        36   # BR(H -> Z       A      )
     6.12735381E-04    2     1000022   1000022   # BR(H -> ~chi_10 ~chi_10)
     1.18827352E-01    2     1000022   1000023   # BR(H -> ~chi_10 ~chi_20)
     8.37026174E-02    2     1000022   1000025   # BR(H -> ~chi_10 ~chi_30)
#
#         PDG            Width
DECAY        36     6.53718071E+00   # A decays
#          BR         NDA      ID1       ID2
     5.03797708E-01    2           5        -5   # BR(A -> b       bb     )
     8.52447431E-02    2         -15        15   # BR(A -> tau+    tau-   )
     3.01431761E-04    2         -13        13   # BR(A -> mu+     mu-    )
     3.69779139E-04    2           3        -3   # BR(A -> s       sb     )
     2.07434165E-06    2           4        -4   # BR(A -> c       cb     )
     2.07128815E-01    2           6        -6   # BR(A -> t       tb     )
     2.04993335E-04    2          21        21   # BR(A -> g       g      )
     3.92713228E-07    2          22        22   # BR(A -> gam     gam    )
     2.48366349E-07    2          23        22   # BR(A -> Z       gam    )
     8.96074202E-05    2          23        25   # BR(A -> Z       h      )
     6.32756558E-04    2     1000022   1000022   # BR(A -> ~chi_10 ~chi_10)
     8.47036960E-02    2     1000022   1000023   # BR(A -> ~chi_10 ~chi_20)
     1.17523755E-01    2     1000022   1000025   # BR(A -> ~chi_10 ~chi_30)
#
#         PDG            Width
DECAY        37     6.54792063E+00   # H+ decays
#          BR         NDA      ID1       ID2
     8.12180858E-04    2           4        -5   # BR(H+ -> c       bb     )
     8.51296883E-02    2         -15        16   # BR(H+ -> tau+    nu_tau )
     3.01024919E-04    2         -13        14   # BR(H+ -> mu+     nu_mu  )
     5.19793116E-06    2           2        -5   # BR(H+ -> u       bb     )
     1.76635154E-05    2           2        -3   # BR(H+ -> u       sb     )
     3.65281645E-04    2           4        -3   # BR(H+ -> c       sb     )
     7.10060810E-01    2           6        -5   # BR(H+ -> t       bb     )
     8.95960032E-05    2          24        25   # BR(H+ -> W+      h      )
     1.01744463E-13    2          24        36   # BR(H+ -> W+      A      )
     2.03218557E-01    2     1000024   1000022   # BR(H+ -> ~chi_1+ ~chi_10)
