#
#                              ======================
#                              | THE SUSYHIT OUTPUT |
#                              ======================
#
#
#              ------------------------------------------------------
#              |     This is the output of the SUSY-HIT package     |
#              |  created by A.Djouadi, M.Muehlleitner and M.Spira. |
#              |  In case of problems with SUSY-HIT email to        |
#              |           margarete.muehlleitner@cern.ch           |
#              |           michael.spira@psi.ch                     |
#              |           abdelhak.djouadi@cern.ch                 |
#              ------------------------------------------------------
#
#              ------------------------------------------------------
#              |  SUSY Les Houches Accord - MSSM Spectrum + Decays  |
#              |              based on the decay programs           |
#              |                                                    |
#              |                     SDECAY 1.3b                    |
#              |                                                    |
#              |  Authors: M.Muhlleitner, A.Djouadi and Y.Mambrini  |
#              |  Ref.:    Comput.Phys.Commun.168(2005)46           |
#              |           [hep-ph/0311167]                         |
#              |                                                    |
#              |                     HDECAY 3.4                     |
#              |                                                    |
#              |  By: A.Djouadi,J.Kalinowski,M.Muhlleitner,M.Spira  |
#              |  Ref.:    Comput.Phys.Commun.108(1998)56           |
#              |           [hep-ph/9704448]                         |
#              |                                                    |
#              |                                                    |
#              |  If not stated otherwise all DRbar couplings and   |
#              |  soft SUSY breaking masses are given at the scale  |
#              |  Q=  0.50007297E+04
#              |                                                    |
#              ------------------------------------------------------
#
#
BLOCK DCINFO  # Decay Program information
     1   SDECAY/HDECAY # decay calculator
     2   1.3b  /3.4    # version number
#
BLOCK SPINFO  # Spectrum calculator information
     1    SOFTSUSY    # spectrum calculator                
     2    3.4.0       # version number                     
#
BLOCK MODSEL  # Model selection
     1     0   #  nonUniversal                                     
#
BLOCK SMINPUTS  # Standard Model inputs
         1     1.25778332E+02   # alpha_em^-1(M_Z)^MSbar
         2     1.16570000E-05   # G_F [GeV^-2]
         3     1.17200002E-01   # alpha_S(M_Z)^MSbar
         4     9.11876000E+01   # M_Z pole mass
         5     4.25000000E+00   # mb(mb)^MSbar
         6     1.72500000E+02   # mt pole mass
         7     1.77682000E+00   # mtau pole mass
#
BLOCK MINPAR  # Input parameters - minimal models
         3     1.00000000E+01   # tanb                
#
BLOCK EXTPAR  # Input parameters - non-minimal models
         0    -1.00000000E+00   # Set                 
         1     6.00000000E+01   # M_1(MX)             
         2     3.00000000E+03   # M_2(MX)             
         3     2.04381900E+03   # M_3(MX)             
        11     5.00000000E+03   # At(MX)              
        12     5.00000000E+03   # Ab(MX)              
        13     0.00000000E+00   # Atau(MX)            
        23    -1.25114400E+03   # mu(MX)              
        26     3.00000000E+03   # mA(pole)            
        31     5.00000000E+03   # meL(MX)             
        32     5.00000000E+03   # mmuL(MX)            
        33     5.00000000E+03   # mtauL(MX)           
        34     5.00000000E+03   # meR(MX)             
        35     5.00000000E+03   # mmuR(MX)            
        36     5.00000000E+03   # mtauR(MX)           
        41     5.00000000E+03   # mqL1(MX)            
        42     5.00000000E+03   # mqL2(MX)            
        43     5.00000000E+03   # mqL3(MX)            
        44     5.00000000E+03   # muR(MX)             
        45     5.00000000E+03   # mcR(MX)             
        46     5.00000000E+03   # mtR(MX)             
        47     5.00000000E+03   # mdR(MX)             
        48     5.00000000E+03   # msR(MX)             
        49     5.00000000E+03   # mbR(MX)             
#
BLOCK MASS  # Mass Spectrum
# PDG code           mass       particle
        24     8.00963167E+01   # W+
        25     1.24819501E+02   # h
        35     3.00008172E+03   # H
        36     2.99999987E+03   # A
        37     3.00086825E+03   # H+
         5     4.87878001E+00   # b-quark pole mass calculated from mb(mb)_Msbar
   1000001     5.07806704E+03   # ~d_L
   2000001     5.06030454E+03   # ~d_R
   1000002     5.07759538E+03   # ~u_L
   2000002     5.06002637E+03   # ~u_R
   1000003     5.07806704E+03   # ~s_L
   2000003     5.06030454E+03   # ~s_R
   1000004     5.07759538E+03   # ~c_L
   2000004     5.06002637E+03   # ~c_R
   1000005     5.02385985E+03   # ~b_1
   2000005     5.05899029E+03   # ~b_2
   1000006     4.91565428E+03   # ~t_1
   2000006     5.06882943E+03   # ~t_2
   1000011     5.01905528E+03   # ~e_L
   2000011     5.00591542E+03   # ~e_R
   1000012     5.01810720E+03   # ~nu_eL
   1000013     5.01905528E+03   # ~mu_L
   2000013     5.00591542E+03   # ~mu_R
   1000014     5.01810720E+03   # ~nu_muL
   1000015     5.00447638E+03   # ~tau_1
   2000015     5.01889532E+03   # ~tau_2
   1000016     5.01756512E+03   # ~nu_tauL
   1000021     2.40000039E+03   # ~g
   1000022     6.03030337E+01   # ~chi_10
   1000023     1.29950402E+03   # ~chi_20
   1000025    -1.30184345E+03   # ~chi_30
   1000035     3.07430058E+03   # ~chi_40
   1000024     1.30000079E+03   # ~chi_1+
   1000037     3.07446801E+03   # ~chi_2+
#
BLOCK NMIX  # Neutralino Mixing Matrix
  1  1     9.99410423E-01   # N_11
  1  2     1.55344118E-04   # N_12
  1  3    -3.42753763E-02   # N_13
  1  4     1.99517471E-03   # N_14
  2  1     2.28281359E-02   # N_21
  2  2     2.74276231E-02   # N_22
  2  3     7.06874939E-01   # N_23
  2  4     7.06437840E-01   # N_24
  3  1    -2.56417874E-02   # N_31
  3  2     1.38784399E-02   # N_32
  3  3    -7.06442630E-01   # N_33
  3  4     7.07169498E-01   # N_34
  4  1    -4.25707206E-04   # N_41
  4  2     9.99527433E-01   # N_42
  4  3    -9.58278186E-03   # N_43
  4  4    -2.92044312E-02   # N_44
#
BLOCK UMIX  # Chargino Mixing Matrix U
  1  1     1.35664297E-02   # U_11
  1  2     9.99907972E-01   # U_12
  2  1    -9.99907972E-01   # U_21
  2  2     1.35664297E-02   # U_22
#
BLOCK VMIX  # Chargino Mixing Matrix V
  1  1     4.13281855E-02   # V_11
  1  2    -9.99145626E-01   # V_12
  2  1    -9.99145626E-01   # V_21
  2  2    -4.13281855E-02   # V_22
#
BLOCK STOPMIX  # Stop Mixing Matrix
  1  1    -5.07648339E-01   # cos(theta_t)
  1  2     8.61564370E-01   # sin(theta_t)
  2  1    -8.61564370E-01   # -sin(theta_t)
  2  2    -5.07648339E-01   # cos(theta_t)
#
BLOCK SBOTMIX  # Sbottom Mixing Matrix
  1  1     9.95690269E-01   # cos(theta_b)
  1  2    -9.27409738E-02   # sin(theta_b)
  2  1     9.27409738E-02   # -sin(theta_b)
  2  2     9.95690269E-01   # cos(theta_b)
#
BLOCK STAUMIX  # Stau Mixing Matrix
  1  1    -1.46899019E-01   # cos(theta_tau)
  1  2     9.89151494E-01   # sin(theta_tau)
  2  1    -9.89151494E-01   # -sin(theta_tau)
  2  2    -1.46899019E-01   # cos(theta_tau)
#
BLOCK ALPHA  # Higgs mixing
          -1.05475030E-01   # Mixing angle in the neutral Higgs boson sector
#
BLOCK HMIX Q=  5.00072975E+03  # DRbar Higgs Parameters
         1    -1.27416860E+03   # mu(Q)MSSM           
         2     9.46954637E+00   # tan                 
         3     2.41913410E+02   # higgs               
         4     8.44323027E+06   # mA^2(Q)MSSM         
#
BLOCK GAUGE Q=  5.00072975E+03  # The gauge couplings
     1     3.70728558E-01   # gprime(Q) DRbar
     2     6.32232167E-01   # g(Q) DRbar
     3     9.95814753E-01   # g3(Q) DRbar
#
BLOCK AU Q=  5.00072975E+03  # The trilinear couplings
  1  1     5.00000002E+03   # A_u(Q) DRbar
  2  2     5.00000002E+03   # A_c(Q) DRbar
  3  3     5.00000002E+03   # A_t(Q) DRbar
#
BLOCK AD Q=  5.00072975E+03  # The trilinear couplings
  1  1     5.00000001E+03   # A_d(Q) DRbar
  2  2     5.00000001E+03   # A_s(Q) DRbar
  3  3     5.00000001E+03   # A_b(Q) DRbar
#
BLOCK AE Q=  5.00072975E+03  # The trilinear couplings
  1  1     0.00000000E+00   # A_e(Q) DRbar
  2  2     2.36719029E-07   # A_mu(Q) DRbar
  3  3     2.36596656E-07   # A_tau(Q) DRbar
#
BLOCK Yu Q=  5.00072975E+03  # The Yukawa couplings
  1  1     0.00000000E+00   # y_u(Q) DRbar
  2  2     0.00000000E+00   # y_c(Q) DRbar
  3  3     8.20708118E-01   # y_t(Q) DRbar
#
BLOCK Yd Q=  5.00072975E+03  # The Yukawa couplings
  1  1     0.00000000E+00   # y_d(Q) DRbar
  2  2     0.00000000E+00   # y_s(Q) DRbar
  3  3     1.31349192E-01   # y_b(Q) DRbar
#
BLOCK Ye Q=  5.00072975E+03  # The Yukawa couplings
  1  1     0.00000000E+00   # y_e(Q) DRbar
  2  2     0.00000000E+00   # y_mu(Q) DRbar
  3  3     9.67090824E-02   # y_tau(Q) DRbar
#
BLOCK MSOFT Q=  5.00072975E+03  # The soft SUSY breaking masses at the scale Q
         1     6.00000000E+01   # M_1(Q)              
         2     3.00000000E+03   # M_2(Q)              
         3     2.04381900E+03   # M_3(Q)              
        21     7.05685141E+06   # mH1^2(Q)            
        22    -1.06687162E+06   # mH2^2(Q)            
        31     5.00000000E+03   # meL(Q)              
        32     5.00000000E+03   # mmuL(Q)             
        33     5.00000000E+03   # mtauL(Q)            
        34     5.00000000E+03   # meR(Q)              
        35     5.00000000E+03   # mmuR(Q)             
        36     5.00000000E+03   # mtauR(Q)            
        41     5.00000000E+03   # mqL1(Q)             
        42     5.00000000E+03   # mqL2(Q)             
        43     4.99999999E+03   # mqL3(Q)             
        44     5.00000000E+03   # muR(Q)              
        45     5.00000000E+03   # mcR(Q)              
        46     4.99999999E+03   # mtR(Q)              
        47     5.00000000E+03   # mdR(Q)              
        48     5.00000000E+03   # msR(Q)              
        49     5.00000000E+03   # mbR(Q)              
#
#
#
#                             =================
#                             |The decay table|
#                             =================
#
# - The QCD corrections to the decays gluino -> squark  + quark
#                                     squark -> gaugino + quark_prime
#                                     squark -> squark_prime + Higgs
#                                     squark -> gluino  + quark
#   are included.
#
# - The multi-body decays for the inos, stops and sbottoms are included.
#
# - The loop induced decays for the gluino, neutralinos and stops
#   are included.
#
# - The SUSY decays of the top quark are included.
#
#
#         PDG            Width
DECAY         6     1.40068829E+00   # top decays
#          BR         NDA      ID1       ID2
     1.00000000E+00    2           5        24   # BR(t ->  b    W+)
#
#         PDG            Width
DECAY   1000021     1.54834298E-03   # gluino decays
#          BR         NDA      ID1       ID2
     3.73768193E-06    2     1000022        21   # BR(~g -> ~chi_10 g)
     6.96851566E-03    2     1000023        21   # BR(~g -> ~chi_20 g)
     6.91305763E-03    2     1000025        21   # BR(~g -> ~chi_30 g)
#           BR         NDA      ID1       ID2       ID3
     3.93073154E-02    3     1000022         1        -1   # BR(~g -> ~chi_10 d  db)
     2.19632834E-05    3     1000023         1        -1   # BR(~g -> ~chi_20 d  db)
     6.18292501E-06    3     1000025         1        -1   # BR(~g -> ~chi_30 d  db)
     1.34024082E-01    3     1000022         2        -2   # BR(~g -> ~chi_10 u  ub)
     4.84218852E-05    3     1000023         2        -2   # BR(~g -> ~chi_20 u  ub)
     6.56479769E-06    3     1000025         2        -2   # BR(~g -> ~chi_30 u  ub)
     3.93073154E-02    3     1000022         3        -3   # BR(~g -> ~chi_10 s  sb)
     2.19632834E-05    3     1000023         3        -3   # BR(~g -> ~chi_20 s  sb)
     6.18292501E-06    3     1000025         3        -3   # BR(~g -> ~chi_30 s  sb)
     1.34024082E-01    3     1000022         4        -4   # BR(~g -> ~chi_10 c  cb)
     4.84218852E-05    3     1000023         4        -4   # BR(~g -> ~chi_20 c  cb)
     6.56479769E-06    3     1000025         4        -4   # BR(~g -> ~chi_30 c  cb)
     3.98250525E-02    3     1000022         5        -5   # BR(~g -> ~chi_10 b  bb)
     3.35034713E-03    3     1000023         5        -5   # BR(~g -> ~chi_20 b  bb)
     3.29250264E-03    3     1000025         5        -5   # BR(~g -> ~chi_30 b  bb)
     1.35540732E-01    3     1000022         6        -6   # BR(~g -> ~chi_10 t  tb)
     1.14852096E-01    3     1000023         6        -6   # BR(~g -> ~chi_20 t  tb)
     9.77595235E-02    3     1000025         6        -6   # BR(~g -> ~chi_30 t  tb)
     5.95504013E-05    3     1000024         1        -2   # BR(~g -> ~chi_1+ d  ub)
     5.95504013E-05    3    -1000024         2        -1   # BR(~g -> ~chi_1- u  db)
     5.95504013E-05    3     1000024         3        -4   # BR(~g -> ~chi_1+ s  cb)
     5.95504013E-05    3    -1000024         4        -3   # BR(~g -> ~chi_1- c  sb)
     1.22213587E-01    3     1000024         5        -6   # BR(~g -> ~chi_1+ b  tb)
     1.22213587E-01    3    -1000024         6        -5   # BR(~g -> ~chi_1- t  bb)
#
#         PDG            Width
DECAY   1000006     2.97693520E+02   # stop1 decays
#          BR         NDA      ID1       ID2
     2.97543898E-02    2     1000022         6   # BR(~t_1 -> ~chi_10 t )
     9.60038118E-02    2     1000023         6   # BR(~t_1 -> ~chi_20 t )
     9.23400637E-02    2     1000025         6   # BR(~t_1 -> ~chi_30 t )
     7.04854514E-03    2     1000035         6   # BR(~t_1 -> ~chi_40 t )
     1.39917927E-01    2     1000024         5   # BR(~t_1 -> ~chi_1+ b )
     1.40313661E-02    2     1000037         5   # BR(~t_1 -> ~chi_2+ b )
     6.20903896E-01    2     1000021         6   # BR(~t_1 -> ~g      t )
#
#         PDG            Width
DECAY   2000006     3.08749283E+02   # stop2 decays
#          BR         NDA      ID1       ID2
     1.12295783E-02    2     1000022         6   # BR(~t_2 -> ~chi_10 t )
     9.55217284E-02    2     1000023         6   # BR(~t_2 -> ~chi_20 t )
     9.93731097E-02    2     1000025         6   # BR(~t_2 -> ~chi_30 t )
     1.80129635E-02    2     1000035         6   # BR(~t_2 -> ~chi_40 t )
     5.67958986E-02    2     1000024         5   # BR(~t_2 -> ~chi_1+ b )
     3.58034846E-02    2     1000037         5   # BR(~t_2 -> ~chi_2+ b )
     6.79221623E-01    2     1000021         6   # BR(~t_2 -> ~g      t )
     9.09869296E-04    2     1000006        25   # BR(~t_2 -> ~t_1    h )
     3.13174502E-03    2     1000006        23   # BR(~t_2 -> ~t_1    Z )
#
#         PDG            Width
DECAY   1000005     2.83955299E+02   # sbottom1 decays
#          BR         NDA      ID1       ID2
     2.73115607E-03    2     1000022         5   # BR(~b_1 -> ~chi_10 b )
     2.70931832E-03    2     1000023         5   # BR(~b_1 -> ~chi_20 b )
     2.59799870E-03    2     1000025         5   # BR(~b_1 -> ~chi_30 b )
     2.65484640E-02    2     1000035         5   # BR(~b_1 -> ~chi_40 b )
     2.04463300E-01    2    -1000024         6   # BR(~b_1 -> ~chi_1- t )
     5.33917084E-02    2    -1000037         6   # BR(~b_1 -> ~chi_2- t )
     7.05644991E-01    2     1000021         5   # BR(~b_1 -> ~g      b )
     1.91306333E-03    2     1000006       -24   # BR(~b_1 -> ~t_1    W-)
#
#         PDG            Width
DECAY   2000005     2.09889107E+02   # sbottom2 decays
#          BR         NDA      ID1       ID2
     1.39516525E-02    2     1000022         5   # BR(~b_2 -> ~chi_10 b )
     3.57696786E-03    2     1000023         5   # BR(~b_2 -> ~chi_20 b )
     3.70411547E-03    2     1000025         5   # BR(~b_2 -> ~chi_30 b )
     3.18924073E-04    2     1000035         5   # BR(~b_2 -> ~chi_40 b )
     9.48531617E-03    2    -1000024         6   # BR(~b_2 -> ~chi_1- t )
     6.41209934E-04    2    -1000037         6   # BR(~b_2 -> ~chi_2- t )
     9.68224968E-01    2     1000021         5   # BR(~b_2 -> ~g      b )
     9.68459687E-05    2     1000006       -24   # BR(~b_2 -> ~t_1    W-)
#
#         PDG            Width
DECAY   1000002     2.29167044E+02   # sup_L decays
#          BR         NDA      ID1       ID2
     3.25196704E-03    2     1000022         2   # BR(~u_L -> ~chi_10 u)
     7.57849545E-05    2     1000023         2   # BR(~u_L -> ~chi_20 u)
     5.85558580E-06    2     1000025         2   # BR(~u_L -> ~chi_30 u)
     3.43691129E-02    2     1000035         2   # BR(~u_L -> ~chi_40 u)
     2.54542866E-04    2     1000024         1   # BR(~u_L -> ~chi_1+ d)
     6.86885684E-02    2     1000037         1   # BR(~u_L -> ~chi_2+ d)
     8.93354168E-01    2     1000021         2   # BR(~u_L -> ~g      u)
#
#         PDG            Width
DECAY   2000002     2.15078485E+02   # sup_R decays
#          BR         NDA      ID1       ID2
     5.51567826E-02    2     1000022         2   # BR(~u_R -> ~chi_10 u)
     2.51809799E-05    2     1000023         2   # BR(~u_R -> ~chi_20 u)
     3.17547619E-05    2     1000025         2   # BR(~u_R -> ~chi_30 u)
     4.01493082E-09    2     1000035         2   # BR(~u_R -> ~chi_40 u)
     9.44786278E-01    2     1000021         2   # BR(~u_R -> ~g      u)
#
#         PDG            Width
DECAY   1000001     2.29183894E+02   # sdown_L decays
#          BR         NDA      ID1       ID2
     3.24170729E-03    2     1000022         1   # BR(~d_L -> ~chi_10 d)
     3.93062334E-05    2     1000023         1   # BR(~d_L -> ~chi_20 d)
     2.65808292E-05    2     1000025         1   # BR(~d_L -> ~chi_30 d)
     3.43885705E-02    2     1000035         1   # BR(~d_L -> ~chi_40 d)
     2.74296034E-05    2    -1000024         2   # BR(~d_L -> ~chi_1- u)
     6.88094590E-02    2    -1000037         2   # BR(~d_L -> ~chi_2- u)
     8.93466947E-01    2     1000021         1   # BR(~d_L -> ~g      d)
#
#         PDG            Width
DECAY   2000001     2.06196330E+02   # sdown_R decays
#          BR         NDA      ID1       ID2
     1.43839866E-02    2     1000022         1   # BR(~d_R -> ~chi_10 d)
     6.56688691E-06    2     1000023         1   # BR(~d_R -> ~chi_20 d)
     8.28124810E-06    2     1000025         1   # BR(~d_R -> ~chi_30 d)
     1.04716110E-09    2     1000035         1   # BR(~d_R -> ~chi_40 d)
     9.85601164E-01    2     1000021         1   # BR(~d_R -> ~g      d)
#
#         PDG            Width
DECAY   1000004     2.29167044E+02   # scharm_L decays
#          BR         NDA      ID1       ID2
     3.25196704E-03    2     1000022         4   # BR(~c_L -> ~chi_10 c)
     7.57849545E-05    2     1000023         4   # BR(~c_L -> ~chi_20 c)
     5.85558580E-06    2     1000025         4   # BR(~c_L -> ~chi_30 c)
     3.43691129E-02    2     1000035         4   # BR(~c_L -> ~chi_40 c)
     2.54542866E-04    2     1000024         3   # BR(~c_L -> ~chi_1+ s)
     6.86885684E-02    2     1000037         3   # BR(~c_L -> ~chi_2+ s)
     8.93354168E-01    2     1000021         4   # BR(~c_L -> ~g      c)
#
#         PDG            Width
DECAY   2000004     2.15078485E+02   # scharm_R decays
#          BR         NDA      ID1       ID2
     5.51567826E-02    2     1000022         4   # BR(~c_R -> ~chi_10 c)
     2.51809799E-05    2     1000023         4   # BR(~c_R -> ~chi_20 c)
     3.17547619E-05    2     1000025         4   # BR(~c_R -> ~chi_30 c)
     4.01493082E-09    2     1000035         4   # BR(~c_R -> ~chi_40 c)
     9.44786278E-01    2     1000021         4   # BR(~c_R -> ~g      c)
#
#         PDG            Width
DECAY   1000003     2.29183894E+02   # sstrange_L decays
#          BR         NDA      ID1       ID2
     3.24170729E-03    2     1000022         3   # BR(~s_L -> ~chi_10 s)
     3.93062334E-05    2     1000023         3   # BR(~s_L -> ~chi_20 s)
     2.65808292E-05    2     1000025         3   # BR(~s_L -> ~chi_30 s)
     3.43885705E-02    2     1000035         3   # BR(~s_L -> ~chi_40 s)
     2.74296034E-05    2    -1000024         4   # BR(~s_L -> ~chi_1- c)
     6.88094590E-02    2    -1000037         4   # BR(~s_L -> ~chi_2- c)
     8.93466947E-01    2     1000021         3   # BR(~s_L -> ~g      s)
#
#         PDG            Width
DECAY   2000003     2.06196330E+02   # sstrange_R decays
#          BR         NDA      ID1       ID2
     1.43839866E-02    2     1000022         3   # BR(~s_R -> ~chi_10 s)
     6.56688691E-06    2     1000023         3   # BR(~s_R -> ~chi_20 s)
     8.28124810E-06    2     1000025         3   # BR(~s_R -> ~chi_30 s)
     1.04716110E-09    2     1000035         3   # BR(~s_R -> ~chi_40 s)
     9.85601164E-01    2     1000021         3   # BR(~s_R -> ~g      s)
#
#         PDG            Width
DECAY   1000011     3.02464853E+01   # selectron_L decays
#          BR         NDA      ID1       ID2
     2.26647985E-01    2     1000022        11   # BR(~e_L -> ~chi_10 e-)
     9.56619869E-04    2     1000023        11   # BR(~e_L -> ~chi_20 e-)
     7.68905855E-07    2     1000025        11   # BR(~e_L -> ~chi_30 e-)
     2.57200547E-01    2     1000035        11   # BR(~e_L -> ~chi_40 e-)
     2.11369882E-04    2    -1000024        12   # BR(~e_L -> ~chi_1- nu_e)
     5.14982709E-01    2    -1000037        12   # BR(~e_L -> ~chi_2- nu_e)
#
#         PDG            Width
DECAY   2000011     2.73629527E+01   # selectron_R decays
#          BR         NDA      ID1       ID2
     9.98974647E-01    2     1000022        11   # BR(~e_R -> ~chi_10 e-)
     4.53455683E-04    2     1000023        11   # BR(~e_R -> ~chi_20 e-)
     5.71826570E-04    2     1000025        11   # BR(~e_R -> ~chi_30 e-)
     7.03343944E-08    2     1000035        11   # BR(~e_R -> ~chi_40 e-)
#
#         PDG            Width
DECAY   1000013     3.02464853E+01   # smuon_L decays
#          BR         NDA      ID1       ID2
     2.26647985E-01    2     1000022        13   # BR(~mu_L -> ~chi_10 mu-)
     9.56619869E-04    2     1000023        13   # BR(~mu_L -> ~chi_20 mu-)
     7.68905855E-07    2     1000025        13   # BR(~mu_L -> ~chi_30 mu-)
     2.57200547E-01    2     1000035        13   # BR(~mu_L -> ~chi_40 mu-)
     2.11369882E-04    2    -1000024        14   # BR(~mu_L -> ~chi_1- nu_mu)
     5.14982709E-01    2    -1000037        14   # BR(~mu_L -> ~chi_2- nu_mu)
#
#         PDG            Width
DECAY   2000013     2.73629527E+01   # smuon_R decays
#          BR         NDA      ID1       ID2
     9.98974647E-01    2     1000022        13   # BR(~mu_R -> ~chi_10 mu-)
     4.53455683E-04    2     1000023        13   # BR(~mu_R -> ~chi_20 mu-)
     5.71826570E-04    2     1000025        13   # BR(~mu_R -> ~chi_30 mu-)
     7.03343944E-08    2     1000035        13   # BR(~mu_R -> ~chi_40 mu-)
#
#         PDG            Width
DECAY   1000015     2.90345346E+01   # stau_1 decays
#          BR         NDA      ID1       ID2
     9.26861973E-01    2     1000022        15   # BR(~tau_1 -> ~chi_10  tau-)
     1.47478153E-02    2     1000023        15   # BR(~tau_1 -> ~chi_20  tau-)
     1.36747530E-02    2     1000025        15   # BR(~tau_1 -> ~chi_30  tau-)
     5.56596483E-03    2     1000035        15   # BR(~tau_1 -> ~chi_40  tau-)
     2.80051588E-02    2    -1000024        16   # BR(~tau_1 -> ~chi_1-  nu_tau)
     1.11443356E-02    2    -1000037        16   # BR(~tau_1 -> ~chi_2-  nu_tau)
#
#         PDG            Width
DECAY   2000015     3.09928076E+01   # stau_2 decays
#          BR         NDA      ID1       ID2
     2.34715729E-01    2     1000022        15   # BR(~tau_2 -> ~chi_10  tau-)
     1.36775283E-02    2     1000023        15   # BR(~tau_2 -> ~chi_20  tau-)
     1.38134446E-02    2     1000025        15   # BR(~tau_2 -> ~chi_30  tau-)
     2.45715416E-01    2     1000035        15   # BR(~tau_2 -> ~chi_40  tau-)
     9.17720998E-05    2    -1000024        16   # BR(~tau_2 -> ~chi_1-  nu_tau)
     4.91986110E-01    2    -1000037        16   # BR(~tau_2 -> ~chi_2-  nu_tau)
#
#         PDG            Width
DECAY   1000012     3.02488602E+01   # snu_eL decays
#          BR         NDA      ID1       ID2
     2.26347232E-01    2     1000022        12   # BR(~nu_eL -> ~chi_10 nu_e)
     1.13194766E-04    2     1000023        12   # BR(~nu_eL -> ~chi_20 nu_e)
     4.79722133E-04    2     1000025        12   # BR(~nu_eL -> ~chi_30 nu_e)
     2.57271971E-01    2     1000035        12   # BR(~nu_eL -> ~chi_40 nu_e)
     1.96094268E-03    2     1000024        11   # BR(~nu_eL -> ~chi_1+ e-)
     5.13826938E-01    2     1000037        11   # BR(~nu_eL -> ~chi_2+ e-)
#
#         PDG            Width
DECAY   1000014     3.02488602E+01   # snu_muL decays
#          BR         NDA      ID1       ID2
     2.26347232E-01    2     1000022        14   # BR(~nu_muL -> ~chi_10 nu_mu)
     1.13194766E-04    2     1000023        14   # BR(~nu_muL -> ~chi_20 nu_mu)
     4.79722133E-04    2     1000025        14   # BR(~nu_muL -> ~chi_30 nu_mu)
     2.57271971E-01    2     1000035        14   # BR(~nu_muL -> ~chi_40 nu_mu)
     1.96094268E-03    2     1000024        13   # BR(~nu_muL -> ~chi_1+ mu-)
     5.13826938E-01    2     1000037        13   # BR(~nu_muL -> ~chi_2+ mu-)
#
#         PDG            Width
DECAY   1000016     3.10519424E+01   # snu_tauL decays
#          BR         NDA      ID1       ID2
     2.20469483E-01    2     1000022        16   # BR(~nu_tauL -> ~chi_10 nu_tau)
     1.10251924E-04    2     1000023        16   # BR(~nu_tauL -> ~chi_20 nu_tau)
     4.67250244E-04    2     1000025        16   # BR(~nu_tauL -> ~chi_30 nu_tau)
     2.50526124E-01    2     1000035        16   # BR(~nu_tauL -> ~chi_40 nu_tau)
     2.80724765E-02    2     1000024        15   # BR(~nu_tauL -> ~chi_1+ tau-)
     5.00354414E-01    2     1000037        15   # BR(~nu_tauL -> ~chi_2+ tau-)
#
#         PDG            Width
DECAY   1000024     7.97162084E-01   # chargino1+ decays
#          BR         NDA      ID1       ID2
     1.00000000E+00    2     1000022        24   # BR(~chi_1+ -> ~chi_10  W+)
#
#         PDG            Width
DECAY   1000037     1.92737537E+01   # chargino2+ decays
#          BR         NDA      ID1       ID2
     2.52917025E-01    2     1000024        23   # BR(~chi_2+ -> ~chi_1+  Z )
     2.27531929E-04    2     1000022        24   # BR(~chi_2+ -> ~chi_10  W+)
     2.43958742E-01    2     1000023        24   # BR(~chi_2+ -> ~chi_20  W+)
     2.43871119E-01    2     1000025        24   # BR(~chi_2+ -> ~chi_30  W+)
     2.59024990E-01    2     1000024        25   # BR(~chi_2+ -> ~chi_1+  h )
     5.91916143E-07    2     1000022        37   # BR(~chi_2+ -> ~chi_10  H+)
#
#         PDG            Width
DECAY   1000022     0.00000000E+00   # neutralino1 decays
#
#         PDG            Width
DECAY   1000023     8.36385258E-01   # neutralino2 decays
#          BR         NDA      ID1       ID2
     5.51244991E-01    2     1000022        23   # BR(~chi_20 -> ~chi_10   Z )
     4.48755009E-01    2     1000022        25   # BR(~chi_20 -> ~chi_10   h )
#
#         PDG            Width
DECAY   1000025     8.43493292E-01   # neutralino3 decays
#          BR         NDA      ID1       ID2
     4.33554115E-01    2     1000022        23   # BR(~chi_30 -> ~chi_10   Z )
     5.66445885E-01    2     1000022        25   # BR(~chi_30 -> ~chi_10   h )
#
#         PDG            Width
DECAY   1000035     1.92825670E+01   # neutralino4 decays
#          BR         NDA      ID1       ID2
     7.23291001E-05    2     1000022        23   # BR(~chi_40 -> ~chi_10   Z )
     5.16780480E-02    2     1000023        23   # BR(~chi_40 -> ~chi_20   Z )
     2.00566281E-01    2     1000025        23   # BR(~chi_40 -> ~chi_30   Z )
     2.44514864E-01    2     1000024       -24   # BR(~chi_40 -> ~chi_1+   W-)
     2.44514864E-01    2    -1000024        24   # BR(~chi_40 -> ~chi_1-   W+)
     1.59132451E-04    2     1000022        25   # BR(~chi_40 -> ~chi_10   h )
     5.39713828E-07    2     1000022        35   # BR(~chi_40 -> ~chi_10   H )
     7.32667364E-08    2     1000022        36   # BR(~chi_40 -> ~chi_10   A )
     2.06750969E-01    2     1000023        25   # BR(~chi_40 -> ~chi_20   h )
     5.17428996E-02    2     1000025        25   # BR(~chi_40 -> ~chi_30   h )
#
#         PDG            Width
DECAY        25     4.05059005E-03   # h decays
#          BR         NDA      ID1       ID2
     6.06223820E-01    2           5        -5   # BR(h -> b       bb     )
     6.40541975E-02    2         -15        15   # BR(h -> tau+    tau-   )
     2.26774945E-04    2         -13        13   # BR(h -> mu+     mu-    )
     4.80715142E-04    2           3        -3   # BR(h -> s       sb     )
     2.08311328E-02    2           4        -4   # BR(h -> c       cb     )
     6.74368034E-02    2          21        21   # BR(h -> g       g      )
     2.31980097E-03    2          22        22   # BR(h -> gam     gam    )
     1.49968070E-03    2          22        23   # BR(h -> Z       gam    )
     2.11642201E-01    2          24       -24   # BR(h -> W+      W-     )
     2.52438721E-02    2          23        23   # BR(h -> Z       Z      )
     4.10020607E-05    2     1000022   1000022   # BR(h -> ~chi_10 ~chi_10)
#
#         PDG            Width
DECAY        35     7.62746463E+00   # H decays
#          BR         NDA      ID1       ID2
     4.26635353E-01    2           5        -5   # BR(H -> b       bb     )
     7.30356569E-02    2         -15        15   # BR(H -> tau+    tau-   )
     2.58259884E-04    2         -13        13   # BR(H -> mu+     mu-    )
     3.16587032E-04    2           3        -3   # BR(H -> s       sb     )
     1.77103563E-06    2           4        -4   # BR(H -> c       cb     )
     1.76940486E-01    2           6        -6   # BR(H -> t       tb     )
     5.87660822E-05    2          21        21   # BR(H -> g       g      )
     3.62425294E-07    2          22        22   # BR(H -> gam     gam    )
     1.04503174E-07    2          23        22   # BR(H -> Z       gam    )
     8.01432448E-05    2          24       -24   # BR(H -> W+      W-     )
     4.00209066E-05    2          23        23   # BR(H -> Z       Z      )
     3.00022409E-04    2          25        25   # BR(H -> h       h      )
     1.75822113E-23    2          36        36   # BR(H -> A       A      )
     7.24637332E-19    2          23        36   # BR(H -> Z       A      )
     7.43371088E-04    2     1000024  -1000024   # BR(H -> ~chi_1+ ~chi_1-)
     1.12016963E-03    2     1000022   1000022   # BR(H -> ~chi_10 ~chi_10)
     5.61261285E-05    2     1000023   1000023   # BR(H -> ~chi_20 ~chi_20)
     1.24017357E-04    2     1000025   1000025   # BR(H -> ~chi_30 ~chi_30)
     1.91145207E-01    2     1000022   1000023   # BR(H -> ~chi_10 ~chi_20)
     1.29020651E-01    2     1000022   1000025   # BR(H -> ~chi_10 ~chi_30)
     1.22924333E-04    2     1000023   1000025   # BR(H -> ~chi_20 ~chi_30)
#
#         PDG            Width
DECAY        36     7.64849304E+00   # A decays
#          BR         NDA      ID1       ID2
     4.25605286E-01    2           5        -5   # BR(A -> b       bb     )
     7.28370265E-02    2         -15        15   # BR(A -> tau+    tau-   )
     2.57557151E-04    2         -13        13   # BR(A -> mu+     mu-    )
     3.15956334E-04    2           3        -3   # BR(A -> s       sb     )
     1.77347427E-06    2           4        -4   # BR(A -> c       cb     )
     1.77086366E-01    2           6        -6   # BR(A -> t       tb     )
     1.75238815E-04    2          21        21   # BR(A -> g       g      )
     4.87223792E-07    2          22        22   # BR(A -> gam     gam    )
     2.12287948E-07    2          23        22   # BR(A -> Z       gam    )
     7.96205356E-05    2          23        25   # BR(A -> Z       h      )
     2.59203383E-03    2     1000024  -1000024   # BR(A -> ~chi_1+ ~chi_1-)
     1.14681969E-03    2     1000022   1000022   # BR(A -> ~chi_10 ~chi_10)
     1.46771233E-04    2     1000023   1000023   # BR(A -> ~chi_20 ~chi_20)
     7.66489431E-04    2     1000025   1000025   # BR(A -> ~chi_30 ~chi_30)
     1.30266506E-01    2     1000022   1000023   # BR(A -> ~chi_10 ~chi_20)
     1.88714889E-01    2     1000022   1000025   # BR(A -> ~chi_10 ~chi_30)
     6.96679454E-06    2     1000023   1000025   # BR(A -> ~chi_20 ~chi_30)
#
#         PDG            Width
DECAY        37     7.63147576E+00   # H+ decays
#          BR         NDA      ID1       ID2
     6.87078350E-04    2           4        -5   # BR(H+ -> c       bb     )
     7.30205749E-02    2         -15        16   # BR(H+ -> tau+    nu_tau )
     2.58206192E-04    2         -13        14   # BR(H+ -> mu+     nu_mu  )
     4.39727891E-06    2           2        -5   # BR(H+ -> u       bb     )
     1.51510047E-05    2           2        -3   # BR(H+ -> u       sb     )
     3.13323923E-04    2           4        -3   # BR(H+ -> c       sb     )
     6.03188185E-01    2           6        -5   # BR(H+ -> t       bb     )
     7.99186337E-05    2          24        25   # BR(H+ -> W+      h      )
     8.50400142E-14    2          24        36   # BR(H+ -> W+      A      )
     3.22011662E-01    2     1000024   1000022   # BR(H+ -> ~chi_1+ ~chi_10)
     3.55444410E-04    2     1000024   1000023   # BR(H+ -> ~chi_1+ ~chi_20)
     6.60579098E-05    2     1000024   1000025   # BR(H+ -> ~chi_1+ ~chi_30)
