#
#                              ======================
#                              | THE SUSYHIT OUTPUT |
#                              ======================
#
#
#              ------------------------------------------------------
#              |     This is the output of the SUSY-HIT package     |
#              |  created by A.Djouadi, M.Muehlleitner and M.Spira. |
#              |  In case of problems with SUSY-HIT email to        |
#              |           margarete.muehlleitner@cern.ch           |
#              |           michael.spira@psi.ch                     |
#              |           abdelhak.djouadi@cern.ch                 |
#              ------------------------------------------------------
#
#              ------------------------------------------------------
#              |  SUSY Les Houches Accord - MSSM Spectrum + Decays  |
#              |              based on the decay programs           |
#              |                                                    |
#              |                     SDECAY 1.3b                    |
#              |                                                    |
#              |  Authors: M.Muhlleitner, A.Djouadi and Y.Mambrini  |
#              |  Ref.:    Comput.Phys.Commun.168(2005)46           |
#              |           [hep-ph/0311167]                         |
#              |                                                    |
#              |                     HDECAY 3.4                     |
#              |                                                    |
#              |  By: A.Djouadi,J.Kalinowski,M.Muhlleitner,M.Spira  |
#              |  Ref.:    Comput.Phys.Commun.108(1998)56           |
#              |           [hep-ph/9704448]                         |
#              |                                                    |
#              |                                                    |
#              |  If not stated otherwise all DRbar couplings and   |
#              |  soft SUSY breaking masses are given at the scale  |
#              |  Q=  0.50007209E+04
#              |                                                    |
#              ------------------------------------------------------
#
#
BLOCK DCINFO  # Decay Program information
     1   SDECAY/HDECAY # decay calculator
     2   1.3b  /3.4    # version number
#
BLOCK SPINFO  # Spectrum calculator information
     1    SOFTSUSY    # spectrum calculator                
     2    3.4.0       # version number                     
#
BLOCK MODSEL  # Model selection
     1     0   #  nonUniversal                                     
#
BLOCK SMINPUTS  # Standard Model inputs
         1     1.25778332E+02   # alpha_em^-1(M_Z)^MSbar
         2     1.16570000E-05   # G_F [GeV^-2]
         3     1.17200002E-01   # alpha_S(M_Z)^MSbar
         4     9.11876000E+01   # M_Z pole mass
         5     4.25000000E+00   # mb(mb)^MSbar
         6     1.72500000E+02   # mt pole mass
         7     1.77682000E+00   # mtau pole mass
#
BLOCK MINPAR  # Input parameters - minimal models
         3     1.00000000E+01   # tanb                
#
BLOCK EXTPAR  # Input parameters - non-minimal models
         0    -1.00000000E+00   # Set                 
         1     6.00000000E+01   # M_1(MX)             
         2     3.00000000E+03   # M_2(MX)             
         3     1.39220000E+03   # M_3(MX)             
        11     5.00000000E+03   # At(MX)              
        12     5.00000000E+03   # Ab(MX)              
        13     0.00000000E+00   # Atau(MX)            
        23    -1.34899100E+03   # mu(MX)              
        26     3.00000000E+03   # mA(pole)            
        31     5.00000000E+03   # meL(MX)             
        32     5.00000000E+03   # mmuL(MX)            
        33     5.00000000E+03   # mtauL(MX)           
        34     5.00000000E+03   # meR(MX)             
        35     5.00000000E+03   # mmuR(MX)            
        36     5.00000000E+03   # mtauR(MX)           
        41     5.00000000E+03   # mqL1(MX)            
        42     5.00000000E+03   # mqL2(MX)            
        43     5.00000000E+03   # mqL3(MX)            
        44     5.00000000E+03   # muR(MX)             
        45     5.00000000E+03   # mcR(MX)             
        46     5.00000000E+03   # mtR(MX)             
        47     5.00000000E+03   # mdR(MX)             
        48     5.00000000E+03   # msR(MX)             
        49     5.00000000E+03   # mbR(MX)             
#
BLOCK MASS  # Mass Spectrum
# PDG code           mass       particle
        24     8.00957103E+01   # W+
        25     1.24696352E+02   # h
        35     3.00008402E+03   # H
        36     2.99999990E+03   # A
        37     3.00087334E+03   # H+
         5     4.87878001E+00   # b-quark pole mass calculated from mb(mb)_Msbar
   1000001     5.06844650E+03   # ~d_L
   2000001     5.05065138E+03   # ~d_R
   1000002     5.06797162E+03   # ~u_L
   2000002     5.05037413E+03   # ~u_R
   1000003     5.06844650E+03   # ~s_L
   2000003     5.05065138E+03   # ~s_R
   1000004     5.06797162E+03   # ~c_L
   2000004     5.05037413E+03   # ~c_R
   1000005     5.01446909E+03   # ~b_1
   2000005     5.04945085E+03   # ~b_2
   1000006     4.90542144E+03   # ~t_1
   2000006     5.06066933E+03   # ~t_2
   1000011     5.01905379E+03   # ~e_L
   2000011     5.00591307E+03   # ~e_R
   1000012     5.01810558E+03   # ~nu_eL
   1000013     5.01905379E+03   # ~mu_L
   2000013     5.00591307E+03   # ~mu_R
   1000014     5.01810558E+03   # ~nu_muL
   1000015     5.00442494E+03   # ~tau_1
   2000015     5.01894925E+03   # ~tau_2
   1000016     5.01756496E+03   # ~nu_tauL
   1000021     1.70000094E+03   # ~g
   1000022     6.03030782E+01   # ~chi_10
   1000023     1.39947253E+03   # ~chi_20
   1000025    -1.40186132E+03   # ~chi_30
   1000035     3.07432006E+03   # ~chi_40
   1000024     1.40000051E+03   # ~chi_1+
   1000037     3.07448753E+03   # ~chi_2+
#
BLOCK NMIX  # Neutralino Mixing Matrix
  1  1     9.99491063E-01   # N_11
  1  2     1.47248145E-04   # N_12
  1  3    -3.18394104E-02   # N_13
  1  4     1.96090069E-03   # N_14
  2  1     2.11283455E-02   # N_21
  2  2     2.90597097E-02   # N_22
  2  3     7.06893294E-01   # N_23
  2  4     7.06407105E-01   # N_24
  3  1    -2.38959563E-02   # N_31
  3  2     1.35656718E-02   # N_32
  3  3    -7.06518245E-01   # N_33
  3  4     7.07161173E-01   # N_34
  4  1    -4.37216993E-04   # N_41
  4  2     9.99485610E-01   # N_42
  4  3    -1.09586680E-02   # N_43
  4  4    -3.01368926E-02   # N_44
#
BLOCK UMIX  # Chargino Mixing Matrix U
  1  1     1.55105723E-02   # U_11
  1  2     9.99879704E-01   # U_12
  2  1    -9.99879704E-01   # U_21
  2  2     1.55105723E-02   # U_22
#
BLOCK VMIX  # Chargino Mixing Matrix V
  1  1     4.26437724E-02   # V_11
  1  2    -9.99090341E-01   # V_12
  2  1    -9.99090341E-01   # V_21
  2  2    -4.26437724E-02   # V_22
#
BLOCK STOPMIX  # Stop Mixing Matrix
  1  1    -5.11103474E-01   # cos(theta_t)
  1  2     8.59519191E-01   # sin(theta_t)
  2  1    -8.59519191E-01   # -sin(theta_t)
  2  2    -5.11103474E-01   # cos(theta_t)
#
BLOCK SBOTMIX  # Sbottom Mixing Matrix
  1  1     9.95093454E-01   # cos(theta_b)
  1  2    -9.89394654E-02   # sin(theta_b)
  2  1     9.89394654E-02   # -sin(theta_b)
  2  2     9.95093454E-01   # cos(theta_b)
#
BLOCK STAUMIX  # Stau Mixing Matrix
  1  1    -1.57617716E-01   # cos(theta_tau)
  1  2     9.87500205E-01   # sin(theta_tau)
  2  1    -9.87500205E-01   # -sin(theta_tau)
  2  2    -1.57617716E-01   # cos(theta_tau)
#
BLOCK ALPHA  # Higgs mixing
          -1.05457249E-01   # Mixing angle in the neutral Higgs boson sector
#
BLOCK HMIX Q=  5.00072086E+03  # DRbar Higgs Parameters
         1    -1.37358066E+03   # mu(Q)MSSM           
         2     9.47102964E+00   # tan                 
         3     2.41946779E+02   # higgs               
         4     8.41849807E+06   # mA^2(Q)MSSM         
#
BLOCK GAUGE Q=  5.00072086E+03  # The gauge couplings
     1     3.70724623E-01   # gprime(Q) DRbar
     2     6.32187866E-01   # g(Q) DRbar
     3     1.00087733E+00   # g3(Q) DRbar
#
BLOCK AU Q=  5.00072086E+03  # The trilinear couplings
  1  1     5.00000001E+03   # A_u(Q) DRbar
  2  2     5.00000001E+03   # A_c(Q) DRbar
  3  3     5.00000001E+03   # A_t(Q) DRbar
#
BLOCK AD Q=  5.00072086E+03  # The trilinear couplings
  1  1     5.00000000E+03   # A_d(Q) DRbar
  2  2     5.00000000E+03   # A_s(Q) DRbar
  3  3     5.00000001E+03   # A_b(Q) DRbar
#
BLOCK AE Q=  5.00072086E+03  # The trilinear couplings
  1  1     0.00000000E+00   # A_e(Q) DRbar
  2  2     1.29564236E-07   # A_mu(Q) DRbar
  3  3     1.29025103E-07   # A_tau(Q) DRbar
#
BLOCK Yu Q=  5.00072086E+03  # The Yukawa couplings
  1  1     0.00000000E+00   # y_u(Q) DRbar
  2  2     0.00000000E+00   # y_c(Q) DRbar
  3  3     8.18507841E-01   # y_t(Q) DRbar
#
BLOCK Yd Q=  5.00072086E+03  # The Yukawa couplings
  1  1     0.00000000E+00   # y_d(Q) DRbar
  2  2     0.00000000E+00   # y_s(Q) DRbar
  3  3     1.30795466E-01   # y_b(Q) DRbar
#
BLOCK Ye Q=  5.00072086E+03  # The Yukawa couplings
  1  1     0.00000000E+00   # y_e(Q) DRbar
  2  2     0.00000000E+00   # y_mu(Q) DRbar
  3  3     9.66751406E-02   # y_tau(Q) DRbar
#
BLOCK MSOFT Q=  5.00072086E+03  # The soft SUSY breaking masses at the scale Q
         1     6.00000000E+01   # M_1(Q)              
         2     3.00000000E+03   # M_2(Q)              
         3     1.39220000E+03   # M_3(Q)              
        21     6.78824021E+06   # mH1^2(Q)            
        22    -1.33599254E+06   # mH2^2(Q)            
        31     5.00000000E+03   # meL(Q)              
        32     5.00000000E+03   # mmuL(Q)             
        33     5.00000000E+03   # mtauL(Q)            
        34     5.00000000E+03   # meR(Q)              
        35     5.00000000E+03   # mmuR(Q)             
        36     5.00000000E+03   # mtauR(Q)            
        41     5.00000000E+03   # mqL1(Q)             
        42     5.00000000E+03   # mqL2(Q)             
        43     5.00000000E+03   # mqL3(Q)             
        44     5.00000000E+03   # muR(Q)              
        45     5.00000000E+03   # mcR(Q)              
        46     4.99999999E+03   # mtR(Q)              
        47     5.00000000E+03   # mdR(Q)              
        48     5.00000000E+03   # msR(Q)              
        49     5.00000000E+03   # mbR(Q)              
#
#
#
#                             =================
#                             |The decay table|
#                             =================
#
# - The QCD corrections to the decays gluino -> squark  + quark
#                                     squark -> gaugino + quark_prime
#                                     squark -> squark_prime + Higgs
#                                     squark -> gluino  + quark
#   are included.
#
# - The multi-body decays for the inos, stops and sbottoms are included.
#
# - The loop induced decays for the gluino, neutralinos and stops
#   are included.
#
# - The SUSY decays of the top quark are included.
#
#
#         PDG            Width
DECAY         6     1.40051848E+00   # top decays
#          BR         NDA      ID1       ID2
     1.00000000E+00    2           5        24   # BR(t ->  b    W+)
#
#         PDG            Width
DECAY   1000021     1.32287845E-04   # gluino decays
#          BR         NDA      ID1       ID2
     9.98079768E-06    2     1000022        21   # BR(~g -> ~chi_10 g)
     2.52991761E-03    2     1000023        21   # BR(~g -> ~chi_20 g)
     2.47800368E-03    2     1000025        21   # BR(~g -> ~chi_30 g)
#           BR         NDA      ID1       ID2       ID3
     7.65598719E-02    3     1000022         1        -1   # BR(~g -> ~chi_10 d  db)
     7.17176651E-07    3     1000023         1        -1   # BR(~g -> ~chi_20 d  db)
     1.42165777E-07    3     1000025         1        -1   # BR(~g -> ~chi_30 d  db)
     2.61006115E-01    3     1000022         2        -2   # BR(~g -> ~chi_10 u  ub)
     1.43195371E-06    3     1000023         2        -2   # BR(~g -> ~chi_20 u  ub)
     1.46411032E-07    3     1000025         2        -2   # BR(~g -> ~chi_30 u  ub)
     7.65598719E-02    3     1000022         3        -3   # BR(~g -> ~chi_10 s  sb)
     7.17176651E-07    3     1000023         3        -3   # BR(~g -> ~chi_20 s  sb)
     1.42165777E-07    3     1000025         3        -3   # BR(~g -> ~chi_30 s  sb)
     2.61006115E-01    3     1000022         4        -4   # BR(~g -> ~chi_10 c  cb)
     1.43195371E-06    3     1000023         4        -4   # BR(~g -> ~chi_20 c  cb)
     1.46411032E-07    3     1000025         4        -4   # BR(~g -> ~chi_30 c  cb)
     7.75154108E-02    3     1000022         5        -5   # BR(~g -> ~chi_10 b  bb)
     9.30846760E-05    3     1000023         5        -5   # BR(~g -> ~chi_20 b  bb)
     8.80747278E-05    3     1000025         5        -5   # BR(~g -> ~chi_30 b  bb)
     2.40761142E-01    3     1000022         6        -6   # BR(~g -> ~chi_10 t  tb)
     1.86977718E-06    3     1000024         1        -2   # BR(~g -> ~chi_1+ d  ub)
     1.86977718E-06    3    -1000024         2        -1   # BR(~g -> ~chi_1- u  db)
     1.86977718E-06    3     1000024         3        -4   # BR(~g -> ~chi_1+ s  cb)
     1.86977718E-06    3    -1000024         4        -3   # BR(~g -> ~chi_1- c  sb)
     6.90029016E-04    3     1000024         5        -6   # BR(~g -> ~chi_1+ b  tb)
     6.90029016E-04    3    -1000024         6        -5   # BR(~g -> ~chi_1- t  bb)
#
#         PDG            Width
DECAY   1000006     3.58133642E+02   # stop1 decays
#          BR         NDA      ID1       ID2
     2.45767458E-02    2     1000022         6   # BR(~t_1 -> ~chi_10 t )
     7.77592122E-02    2     1000023         6   # BR(~t_1 -> ~chi_20 t )
     7.47397667E-02    2     1000025         6   # BR(~t_1 -> ~chi_30 t )
     6.00089969E-03    2     1000035         6   # BR(~t_1 -> ~chi_40 t )
     1.12108566E-01    2     1000024         5   # BR(~t_1 -> ~chi_1+ b )
     1.19413803E-02    2     1000037         5   # BR(~t_1 -> ~chi_2+ b )
     6.92873429E-01    2     1000021         6   # BR(~t_1 -> ~g      t )
#
#         PDG            Width
DECAY   2000006     3.66513387E+02   # stop2 decays
#          BR         NDA      ID1       ID2
     9.69468776E-03    2     1000022         6   # BR(~t_2 -> ~chi_10 t )
     7.85123113E-02    2     1000023         6   # BR(~t_2 -> ~chi_20 t )
     8.17139118E-02    2     1000025         6   # BR(~t_2 -> ~chi_30 t )
     1.49042595E-02    2     1000035         6   # BR(~t_2 -> ~chi_40 t )
     4.79061856E-02    2     1000024         5   # BR(~t_2 -> ~chi_1+ b )
     2.96109723E-02    2     1000037         5   # BR(~t_2 -> ~chi_2+ b )
     7.34106681E-01    2     1000021         6   # BR(~t_2 -> ~g      t )
     7.88151896E-04    2     1000006        25   # BR(~t_2 -> ~t_1    h )
     2.76283898E-03    2     1000006        23   # BR(~t_2 -> ~t_1    Z )
#
#         PDG            Width
DECAY   1000005     3.43296971E+02   # sbottom1 decays
#          BR         NDA      ID1       ID2
     2.27196228E-03    2     1000022         5   # BR(~b_1 -> ~chi_10 b )
     2.19099501E-03    2     1000023         5   # BR(~b_1 -> ~chi_20 b )
     2.08710882E-03    2     1000025         5   # BR(~b_1 -> ~chi_30 b )
     2.17874558E-02    2     1000035         5   # BR(~b_1 -> ~chi_40 b )
     1.64688993E-01    2    -1000024         6   # BR(~b_1 -> ~chi_1- t )
     4.38352115E-02    2    -1000037         6   # BR(~b_1 -> ~chi_2- t )
     7.61506303E-01    2     1000021         5   # BR(~b_1 -> ~g      b )
     1.63196996E-03    2     1000006       -24   # BR(~b_1 -> ~t_1    W-)
#
#         PDG            Width
DECAY   2000005     2.70630308E+02   # sbottom2 decays
#          BR         NDA      ID1       ID2
     1.08312972E-02    2     1000022         5   # BR(~b_2 -> ~chi_10 b )
     2.68833748E-03    2     1000023         5   # BR(~b_2 -> ~chi_20 b )
     2.79580336E-03    2     1000025         5   # BR(~b_2 -> ~chi_30 b )
     2.87460556E-04    2     1000035         5   # BR(~b_2 -> ~chi_40 b )
     7.43904839E-03    2    -1000024         6   # BR(~b_2 -> ~chi_1- t )
     5.78144436E-04    2    -1000037         6   # BR(~b_2 -> ~chi_2- t )
     9.75294187E-01    2     1000021         5   # BR(~b_2 -> ~g      b )
     8.57217781E-05    2     1000006       -24   # BR(~b_2 -> ~t_1    W-)
#
#         PDG            Width
DECAY   1000002     2.89593054E+02   # sup_L decays
#          BR         NDA      ID1       ID2
     2.57857827E-03    2     1000022         2   # BR(~u_L -> ~chi_10 u)
     6.35009237E-05    2     1000023         2   # BR(~u_L -> ~chi_20 u)
     4.55816428E-06    2     1000025         2   # BR(~u_L -> ~chi_30 u)
     2.70258407E-02    2     1000035         2   # BR(~u_L -> ~chi_40 u)
     2.09633394E-04    2     1000024         1   # BR(~u_L -> ~chi_1+ d)
     5.40113664E-02    2     1000037         1   # BR(~u_L -> ~chi_2+ d)
     9.16106522E-01    2     1000021         2   # BR(~u_L -> ~g      u)
#
#         PDG            Width
DECAY   2000002     2.75807486E+02   # sup_R decays
#          BR         NDA      ID1       ID2
     4.31026913E-02    2     1000022         2   # BR(~u_R -> ~chi_10 u)
     1.64420947E-05    2     1000023         2   # BR(~u_R -> ~chi_20 u)
     2.10197962E-05    2     1000025         2   # BR(~u_R -> ~chi_30 u)
     3.28200997E-09    2     1000035         2   # BR(~u_R -> ~chi_40 u)
     9.56859844E-01    2     1000021         2   # BR(~u_R -> ~g      u)
#
#         PDG            Width
DECAY   1000001     2.89606581E+02   # sdown_L decays
#          BR         NDA      ID1       ID2
     2.57093915E-03    2     1000022         1   # BR(~d_L -> ~chi_10 d)
     3.58295944E-05    2     1000023         1   # BR(~d_L -> ~chi_20 d)
     1.91625410E-05    2     1000025         1   # BR(~d_L -> ~chi_30 d)
     2.70422168E-02    2     1000035         1   # BR(~d_L -> ~chi_40 d)
     2.77356845E-05    2    -1000024         2   # BR(~d_L -> ~chi_1- u)
     5.41110176E-02    2    -1000037         2   # BR(~d_L -> ~chi_2- u)
     9.16193099E-01    2     1000021         1   # BR(~d_L -> ~g      d)
#
#         PDG            Width
DECAY   2000001     2.66905760E+02   # sdown_R decays
#          BR         NDA      ID1       ID2
     1.11356750E-02    2     1000022         1   # BR(~d_R -> ~chi_10 d)
     4.24792777E-06    2     1000023         1   # BR(~d_R -> ~chi_20 d)
     5.43060865E-06    2     1000025         1   # BR(~d_R -> ~chi_30 d)
     8.48022954E-10    2     1000035         1   # BR(~d_R -> ~chi_40 d)
     9.88854646E-01    2     1000021         1   # BR(~d_R -> ~g      d)
#
#         PDG            Width
DECAY   1000004     2.89593054E+02   # scharm_L decays
#          BR         NDA      ID1       ID2
     2.57857827E-03    2     1000022         4   # BR(~c_L -> ~chi_10 c)
     6.35009237E-05    2     1000023         4   # BR(~c_L -> ~chi_20 c)
     4.55816428E-06    2     1000025         4   # BR(~c_L -> ~chi_30 c)
     2.70258407E-02    2     1000035         4   # BR(~c_L -> ~chi_40 c)
     2.09633394E-04    2     1000024         3   # BR(~c_L -> ~chi_1+ s)
     5.40113664E-02    2     1000037         3   # BR(~c_L -> ~chi_2+ s)
     9.16106522E-01    2     1000021         4   # BR(~c_L -> ~g      c)
#
#         PDG            Width
DECAY   2000004     2.75807486E+02   # scharm_R decays
#          BR         NDA      ID1       ID2
     4.31026913E-02    2     1000022         4   # BR(~c_R -> ~chi_10 c)
     1.64420947E-05    2     1000023         4   # BR(~c_R -> ~chi_20 c)
     2.10197962E-05    2     1000025         4   # BR(~c_R -> ~chi_30 c)
     3.28200997E-09    2     1000035         4   # BR(~c_R -> ~chi_40 c)
     9.56859844E-01    2     1000021         4   # BR(~c_R -> ~g      c)
#
#         PDG            Width
DECAY   1000003     2.89606581E+02   # sstrange_L decays
#          BR         NDA      ID1       ID2
     2.57093915E-03    2     1000022         3   # BR(~s_L -> ~chi_10 s)
     3.58295944E-05    2     1000023         3   # BR(~s_L -> ~chi_20 s)
     1.91625410E-05    2     1000025         3   # BR(~s_L -> ~chi_30 s)
     2.70422168E-02    2     1000035         3   # BR(~s_L -> ~chi_40 s)
     2.77356845E-05    2    -1000024         4   # BR(~s_L -> ~chi_1- c)
     5.41110176E-02    2    -1000037         4   # BR(~s_L -> ~chi_2- c)
     9.16193099E-01    2     1000021         3   # BR(~s_L -> ~g      s)
#
#         PDG            Width
DECAY   2000003     2.66905760E+02   # sstrange_R decays
#          BR         NDA      ID1       ID2
     1.11356750E-02    2     1000022         3   # BR(~s_R -> ~chi_10 s)
     4.24792777E-06    2     1000023         3   # BR(~s_R -> ~chi_20 s)
     5.43060865E-06    2     1000025         3   # BR(~s_R -> ~chi_30 s)
     8.48022954E-10    2     1000035         3   # BR(~s_R -> ~chi_40 s)
     9.88854646E-01    2     1000021         3   # BR(~s_R -> ~g      s)
#
#         PDG            Width
DECAY   1000011     3.02439400E+01   # selectron_L decays
#          BR         NDA      ID1       ID2
     2.26692481E-01    2     1000022        11   # BR(~e_L -> ~chi_10 e-)
     9.64092093E-04    2     1000023        11   # BR(~e_L -> ~chi_20 e-)
     1.12198893E-07    2     1000025        11   # BR(~e_L -> ~chi_30 e-)
     2.57156964E-01    2     1000035        11   # BR(~e_L -> ~chi_40 e-)
     2.69964237E-04    2    -1000024        12   # BR(~e_L -> ~chi_1- nu_e)
     5.14916386E-01    2    -1000037        12   # BR(~e_L -> ~chi_2- nu_e)
#
#         PDG            Width
DECAY   2000011     2.73623766E+01   # selectron_R decays
#          BR         NDA      ID1       ID2
     9.99135221E-01    2     1000022        11   # BR(~e_R -> ~chi_10 e-)
     3.79523235E-04    2     1000023        11   # BR(~e_R -> ~chi_20 e-)
     4.85181877E-04    2     1000025        11   # BR(~e_R -> ~chi_30 e-)
     7.41877802E-08    2     1000035        11   # BR(~e_R -> ~chi_40 e-)
#
#         PDG            Width
DECAY   1000013     3.02439400E+01   # smuon_L decays
#          BR         NDA      ID1       ID2
     2.26692481E-01    2     1000022        13   # BR(~mu_L -> ~chi_10 mu-)
     9.64092093E-04    2     1000023        13   # BR(~mu_L -> ~chi_20 mu-)
     1.12198893E-07    2     1000025        13   # BR(~mu_L -> ~chi_30 mu-)
     2.57156964E-01    2     1000035        13   # BR(~mu_L -> ~chi_40 mu-)
     2.69964237E-04    2    -1000024        14   # BR(~mu_L -> ~chi_1- nu_mu)
     5.14916386E-01    2    -1000037        14   # BR(~mu_L -> ~chi_2- nu_mu)
#
#         PDG            Width
DECAY   2000013     2.73623766E+01   # smuon_R decays
#          BR         NDA      ID1       ID2
     9.99135221E-01    2     1000022        13   # BR(~mu_R -> ~chi_10 mu-)
     3.79523235E-04    2     1000023        13   # BR(~mu_R -> ~chi_20 mu-)
     4.85181877E-04    2     1000025        13   # BR(~mu_R -> ~chi_30 mu-)
     7.41877802E-08    2     1000035        13   # BR(~mu_R -> ~chi_40 mu-)
#
#         PDG            Width
DECAY   1000015     2.90051718E+01   # stau_1 decays
#          BR         NDA      ID1       ID2
     9.25604386E-01    2     1000022        15   # BR(~tau_1 -> ~chi_10  tau-)
     1.44574734E-02    2     1000023        15   # BR(~tau_1 -> ~chi_20  tau-)
     1.32811267E-02    2     1000025        15   # BR(~tau_1 -> ~chi_30  tau-)
     6.40090207E-03    2     1000035        15   # BR(~tau_1 -> ~chi_40  tau-)
     2.74394087E-02    2    -1000024        16   # BR(~tau_1 -> ~chi_1-  nu_tau)
     1.28167033E-02    2    -1000037        16   # BR(~tau_1 -> ~chi_2-  nu_tau)
#
#         PDG            Width
DECAY   2000015     3.09616377E+01   # stau_2 decays
#          BR         NDA      ID1       ID2
     2.37147872E-01    2     1000022        15   # BR(~tau_2 -> ~chi_10  tau-)
     1.33025864E-02    2     1000023        15   # BR(~tau_2 -> ~chi_20  tau-)
     1.35194037E-02    2     1000025        15   # BR(~tau_2 -> ~chi_30  tau-)
     2.45124071E-01    2     1000035        15   # BR(~tau_2 -> ~chi_40  tau-)
     8.45654874E-05    2    -1000024        16   # BR(~tau_2 -> ~chi_1-  nu_tau)
     4.90821501E-01    2    -1000037        16   # BR(~tau_2 -> ~chi_2-  nu_tau)
#
#         PDG            Width
DECAY   1000012     3.02461534E+01   # snu_eL decays
#          BR         NDA      ID1       ID2
     2.26405413E-01    2     1000022        12   # BR(~nu_eL -> ~chi_10 nu_e)
     1.55880296E-04    2     1000023        12   # BR(~nu_eL -> ~chi_20 nu_e)
     4.26411844E-04    2     1000025        12   # BR(~nu_eL -> ~chi_30 nu_e)
     2.57236696E-01    2     1000035        12   # BR(~nu_eL -> ~chi_40 nu_e)
     2.03995360E-03    2     1000024        11   # BR(~nu_eL -> ~chi_1+ e-)
     5.13735646E-01    2     1000037        11   # BR(~nu_eL -> ~chi_2+ e-)
#
#         PDG            Width
DECAY   1000014     3.02461534E+01   # snu_muL decays
#          BR         NDA      ID1       ID2
     2.26405413E-01    2     1000022        14   # BR(~nu_muL -> ~chi_10 nu_mu)
     1.55880296E-04    2     1000023        14   # BR(~nu_muL -> ~chi_20 nu_mu)
     4.26411844E-04    2     1000025        14   # BR(~nu_muL -> ~chi_30 nu_mu)
     2.57236696E-01    2     1000035        14   # BR(~nu_muL -> ~chi_40 nu_mu)
     2.03995360E-03    2     1000024        13   # BR(~nu_muL -> ~chi_1+ mu-)
     5.13735646E-01    2     1000037        13   # BR(~nu_muL -> ~chi_2+ mu-)
#
#         PDG            Width
DECAY   1000016     3.10301130E+01   # snu_tauL decays
#          BR         NDA      ID1       ID2
     2.20661609E-01    2     1000022        16   # BR(~nu_tauL -> ~chi_10 nu_tau)
     1.51920170E-04    2     1000023        16   # BR(~nu_tauL -> ~chi_20 nu_tau)
     4.15578830E-04    2     1000025        16   # BR(~nu_tauL -> ~chi_30 nu_tau)
     2.50645809E-01    2     1000035        16   # BR(~nu_tauL -> ~chi_40 nu_tau)
     2.75514835E-02    2     1000024        15   # BR(~nu_tauL -> ~chi_1+ tau-)
     5.00573599E-01    2     1000037        15   # BR(~nu_tauL -> ~chi_2+ tau-)
#
#         PDG            Width
DECAY   1000024     8.60071266E-01   # chargino1+ decays
#          BR         NDA      ID1       ID2
     1.00000000E+00    2     1000022        24   # BR(~chi_1+ -> ~chi_10  W+)
#
#         PDG            Width
DECAY   1000037     1.88565700E+01   # chargino2+ decays
#          BR         NDA      ID1       ID2
     2.52817617E-01    2     1000024        23   # BR(~chi_2+ -> ~chi_1+  Z )
     2.42476627E-04    2     1000022        24   # BR(~chi_2+ -> ~chi_10  W+)
     2.43974869E-01    2     1000023        24   # BR(~chi_2+ -> ~chi_20  W+)
     2.43789475E-01    2     1000025        24   # BR(~chi_2+ -> ~chi_30  W+)
     2.59175095E-01    2     1000024        25   # BR(~chi_2+ -> ~chi_1+  h )
     4.67209267E-07    2     1000022        37   # BR(~chi_2+ -> ~chi_10  H+)
#
#         PDG            Width
DECAY   1000022     0.00000000E+00   # neutralino1 decays
#
#         PDG            Width
DECAY   1000023     9.03146428E-01   # neutralino2 decays
#          BR         NDA      ID1       ID2
     5.54029632E-01    2     1000022        23   # BR(~chi_20 -> ~chi_10   Z )
     4.45970368E-01    2     1000022        25   # BR(~chi_20 -> ~chi_10   h )
#
#         PDG            Width
DECAY   1000025     9.11495473E-01   # neutralino3 decays
#          BR         NDA      ID1       ID2
     4.29748998E-01    2     1000022        23   # BR(~chi_30 -> ~chi_10   Z )
     5.70251002E-01    2     1000022        25   # BR(~chi_30 -> ~chi_10   h )
#
#         PDG            Width
DECAY   1000035     1.88616560E+01   # neutralino4 decays
#          BR         NDA      ID1       ID2
     8.23019755E-05    2     1000022        23   # BR(~chi_40 -> ~chi_10   Z )
     4.53958014E-02    2     1000023        23   # BR(~chi_40 -> ~chi_20   Z )
     2.06805111E-01    2     1000025        23   # BR(~chi_40 -> ~chi_30   Z )
     2.44430876E-01    2     1000024       -24   # BR(~chi_40 -> ~chi_1+   W-)
     2.44430876E-01    2    -1000024        24   # BR(~chi_40 -> ~chi_1-   W+)
     1.65183666E-04    2     1000022        25   # BR(~chi_40 -> ~chi_10   h )
     4.23846529E-07    2     1000022        35   # BR(~chi_40 -> ~chi_10   H )
     6.02535180E-08    2     1000022        36   # BR(~chi_40 -> ~chi_10   A )
     2.13283547E-01    2     1000023        25   # BR(~chi_40 -> ~chi_20   h )
     4.54058196E-02    2     1000025        25   # BR(~chi_40 -> ~chi_30   h )
#
#         PDG            Width
DECAY        25     4.04352908E-03   # h decays
#          BR         NDA      ID1       ID2
     6.09039803E-01    2           5        -5   # BR(h -> b       bb     )
     6.41009140E-02    2         -15        15   # BR(h -> tau+    tau-   )
     2.26940883E-04    2         -13        13   # BR(h -> mu+     mu-    )
     4.81159587E-04    2           3        -3   # BR(h -> s       sb     )
     2.08509463E-02    2           4        -4   # BR(h -> c       cb     )
     6.73583194E-02    2          21        21   # BR(h -> g       g      )
     2.31431077E-03    2          22        22   # BR(h -> gam     gam    )
     1.48567067E-03    2          22        23   # BR(h -> Z       gam    )
     2.09207162E-01    2          24       -24   # BR(h -> W+      W-     )
     2.48994198E-02    2          23        23   # BR(h -> Z       Z      )
     3.53533869E-05    2     1000022   1000022   # BR(h -> ~chi_10 ~chi_10)
#
#         PDG            Width
DECAY        35     7.44612617E+00   # H decays
#          BR         NDA      ID1       ID2
     4.37263985E-01    2           5        -5   # BR(H -> b       bb     )
     7.48378429E-02    2         -15        15   # BR(H -> tau+    tau-   )
     2.64632557E-04    2         -13        13   # BR(H -> mu+     mu-    )
     3.24398951E-04    2           3        -3   # BR(H -> s       sb     )
     1.81355196E-06    2           4        -4   # BR(H -> c       cb     )
     1.81188207E-01    2           6        -6   # BR(H -> t       tb     )
     6.01539186E-05    2          21        21   # BR(H -> g       g      )
     3.84218353E-07    2          22        22   # BR(H -> gam     gam    )
     1.06980354E-07    2          23        22   # BR(H -> Z       gam    )
     8.12089916E-05    2          24       -24   # BR(H -> W+      W-     )
     4.05531031E-05    2          23        23   # BR(H -> Z       Z      )
     3.06504029E-04    2          25        25   # BR(H -> h       h      )
     2.16251393E-23    2          36        36   # BR(H -> A       A      )
     1.04800818E-18    2          23        36   # BR(H -> Z       A      )
     3.04393693E-04    2     1000024  -1000024   # BR(H -> ~chi_1+ ~chi_1-)
     9.89680105E-04    2     1000022   1000022   # BR(H -> ~chi_10 ~chi_10)
     2.94805556E-05    2     1000023   1000023   # BR(H -> ~chi_20 ~chi_20)
     4.25571745E-05    2     1000025   1000025   # BR(H -> ~chi_30 ~chi_30)
     1.81212244E-01    2     1000022   1000023   # BR(H -> ~chi_10 ~chi_20)
     1.22995674E-01    2     1000022   1000025   # BR(H -> ~chi_10 ~chi_30)
     5.61780243E-05    2     1000023   1000025   # BR(H -> ~chi_20 ~chi_30)
#
#         PDG            Width
DECAY        36     7.46529868E+00   # A decays
#          BR         NDA      ID1       ID2
     4.36287297E-01    2           5        -5   # BR(A -> b       bb     )
     7.46477878E-02    2         -15        15   # BR(A -> tau+    tau-   )
     2.63960138E-04    2         -13        13   # BR(A -> mu+     mu-    )
     3.23811106E-04    2           3        -3   # BR(A -> s       sb     )
     1.81642530E-06    2           4        -4   # BR(A -> c       cb     )
     1.81375146E-01    2           6        -6   # BR(A -> t       tb     )
     1.79506226E-04    2          21        21   # BR(A -> g       g      )
     4.26381397E-07    2          22        22   # BR(A -> gam     gam    )
     2.17417797E-07    2          23        22   # BR(A -> Z       gam    )
     8.06946269E-05    2          23        25   # BR(A -> Z       h      )
     2.01881157E-03    2     1000024  -1000024   # BR(A -> ~chi_1+ ~chi_1-)
     1.01485287E-03    2     1000022   1000022   # BR(A -> ~chi_10 ~chi_10)
     1.48449110E-04    2     1000023   1000023   # BR(A -> ~chi_20 ~chi_20)
     5.12642117E-04    2     1000025   1000025   # BR(A -> ~chi_30 ~chi_30)
     1.24165981E-01    2     1000022   1000023   # BR(A -> ~chi_10 ~chi_20)
     1.78977872E-01    2     1000022   1000025   # BR(A -> ~chi_10 ~chi_30)
     7.27562927E-07    2     1000023   1000025   # BR(A -> ~chi_20 ~chi_30)
#
#         PDG            Width
DECAY        37     7.44097310E+00   # H+ decays
#          BR         NDA      ID1       ID2
     7.02469473E-04    2           4        -5   # BR(H+ -> c       bb     )
     7.49136263E-02    2         -15        16   # BR(H+ -> tau+    nu_tau )
     2.64900163E-04    2         -13        14   # BR(H+ -> mu+     nu_mu  )
     4.49578154E-06    2           2        -5   # BR(H+ -> u       bb     )
     1.55437897E-05    2           2        -3   # BR(H+ -> u       sb     )
     3.21445650E-04    2           4        -3   # BR(H+ -> c       sb     )
     6.17202587E-01    2           6        -5   # BR(H+ -> t       bb     )
     8.10811493E-05    2          24        25   # BR(H+ -> W+      h      )
     8.97897670E-14    2          24        36   # BR(H+ -> W+      A      )
     3.06219984E-01    2     1000024   1000022   # BR(H+ -> ~chi_1+ ~chi_10)
     2.17121268E-04    2     1000024   1000023   # BR(H+ -> ~chi_1+ ~chi_20)
     5.67459672E-05    2     1000024   1000025   # BR(H+ -> ~chi_1+ ~chi_30)
