#
#                              ======================
#                              | THE SUSYHIT OUTPUT |
#                              ======================
#
#
#              ------------------------------------------------------
#              |     This is the output of the SUSY-HIT package     |
#              |  created by A.Djouadi, M.Muehlleitner and M.Spira. |
#              |  In case of problems with SUSY-HIT email to        |
#              |           margarete.muehlleitner@cern.ch           |
#              |           michael.spira@psi.ch                     |
#              |           abdelhak.djouadi@cern.ch                 |
#              ------------------------------------------------------
#
#              ------------------------------------------------------
#              |  SUSY Les Houches Accord - MSSM Spectrum + Decays  |
#              |              based on the decay programs           |
#              |                                                    |
#              |                     SDECAY 1.3b                    |
#              |                                                    |
#              |  Authors: M.Muhlleitner, A.Djouadi and Y.Mambrini  |
#              |  Ref.:    Comput.Phys.Commun.168(2005)46           |
#              |           [hep-ph/0311167]                         |
#              |                                                    |
#              |                     HDECAY 3.4                     |
#              |                                                    |
#              |  By: A.Djouadi,J.Kalinowski,M.Muhlleitner,M.Spira  |
#              |  Ref.:    Comput.Phys.Commun.108(1998)56           |
#              |           [hep-ph/9704448]                         |
#              |                                                    |
#              |                                                    |
#              |  If not stated otherwise all DRbar couplings and   |
#              |  soft SUSY breaking masses are given at the scale  |
#              |  Q=  0.50007305E+04
#              |                                                    |
#              ------------------------------------------------------
#
#
BLOCK DCINFO  # Decay Program information
     1   SDECAY/HDECAY # decay calculator
     2   1.3b  /3.4    # version number
#
BLOCK SPINFO  # Spectrum calculator information
     1    SOFTSUSY    # spectrum calculator                
     2    3.4.0       # version number                     
#
BLOCK MODSEL  # Model selection
     1     0   #  nonUniversal                                     
#
BLOCK SMINPUTS  # Standard Model inputs
         1     1.25778332E+02   # alpha_em^-1(M_Z)^MSbar
         2     1.16570000E-05   # G_F [GeV^-2]
         3     1.17200002E-01   # alpha_S(M_Z)^MSbar
         4     9.11876000E+01   # M_Z pole mass
         5     4.25000000E+00   # mb(mb)^MSbar
         6     1.72500000E+02   # mt pole mass
         7     1.77682000E+00   # mtau pole mass
#
BLOCK MINPAR  # Input parameters - minimal models
         3     1.00000000E+01   # tanb                
#
BLOCK EXTPAR  # Input parameters - non-minimal models
         0    -1.00000000E+00   # Set                 
         1     6.00000000E+01   # M_1(MX)             
         2     3.00000000E+03   # M_2(MX)             
         3     2.23497600E+03   # M_3(MX)             
        11     5.00000000E+03   # At(MX)              
        12     5.00000000E+03   # Ab(MX)              
        13     0.00000000E+00   # Atau(MX)            
        23    -1.25112400E+03   # mu(MX)              
        26     3.00000000E+03   # mA(pole)            
        31     5.00000000E+03   # meL(MX)             
        32     5.00000000E+03   # mmuL(MX)            
        33     5.00000000E+03   # mtauL(MX)           
        34     5.00000000E+03   # meR(MX)             
        35     5.00000000E+03   # mmuR(MX)            
        36     5.00000000E+03   # mtauR(MX)           
        41     5.00000000E+03   # mqL1(MX)            
        42     5.00000000E+03   # mqL2(MX)            
        43     5.00000000E+03   # mqL3(MX)            
        44     5.00000000E+03   # muR(MX)             
        45     5.00000000E+03   # mcR(MX)             
        46     5.00000000E+03   # mtR(MX)             
        47     5.00000000E+03   # mdR(MX)             
        48     5.00000000E+03   # msR(MX)             
        49     5.00000000E+03   # mbR(MX)             
#
BLOCK MASS  # Mass Spectrum
# PDG code           mass       particle
        24     8.00963845E+01   # W+
        25     1.24827099E+02   # h
        35     3.00008175E+03   # H
        36     2.99999987E+03   # A
        37     3.00086817E+03   # H+
         5     4.87878001E+00   # b-quark pole mass calculated from mb(mb)_Msbar
   1000001     5.08189740E+03   # ~d_L
   2000001     5.06414945E+03   # ~d_R
   1000002     5.08142690E+03   # ~u_L
   2000002     5.06387172E+03   # ~u_R
   1000003     5.08189740E+03   # ~s_L
   2000003     5.06414945E+03   # ~s_R
   1000004     5.08142690E+03   # ~c_L
   2000004     5.06387172E+03   # ~c_R
   1000005     5.02769465E+03   # ~b_1
   2000005     5.06282408E+03   # ~b_2
   1000006     4.91986292E+03   # ~t_1
   2000006     5.07231513E+03   # ~t_2
   1000011     5.01905446E+03   # ~e_L
   2000011     5.00591534E+03   # ~e_R
   1000012     5.01810641E+03   # ~nu_eL
   1000013     5.01905446E+03   # ~mu_L
   2000013     5.00591534E+03   # ~mu_R
   1000014     5.01810641E+03   # ~nu_muL
   1000015     5.00447633E+03   # ~tau_1
   2000015     5.01889453E+03   # ~tau_2
   1000016     5.01756436E+03   # ~nu_tauL
   1000021     2.60000094E+03   # ~g
   1000022     6.03030526E+01   # ~chi_10
   1000023     1.29950405E+03   # ~chi_20
   1000025    -1.30184329E+03   # ~chi_30
   1000035     3.07429787E+03   # ~chi_40
   1000024     1.30000070E+03   # ~chi_1+
   1000037     3.07446528E+03   # ~chi_2+
#
BLOCK NMIX  # Neutralino Mixing Matrix
  1  1     9.99410418E-01   # N_11
  1  2     1.55347424E-04   # N_12
  1  3    -3.42755223E-02   # N_13
  1  4     1.99523136E-03   # N_14
  2  1     2.28281982E-02   # N_21
  2  2     2.74274067E-02   # N_22
  2  3     7.06874913E-01   # N_23
  2  4     7.06437873E-01   # N_24
  3  1    -2.56419315E-02   # N_31
  3  2     1.38783510E-02   # N_32
  3  3    -7.06442650E-01   # N_33
  3  4     7.07169474E-01   # N_34
  4  1    -4.25707557E-04   # N_41
  4  2     9.99527441E-01   # N_42
  4  3    -9.58269049E-03   # N_43
  4  4    -2.92042157E-02   # N_44
#
BLOCK UMIX  # Chargino Mixing Matrix U
  1  1     1.35662995E-02   # U_11
  1  2     9.99907974E-01   # U_12
  2  1    -9.99907974E-01   # U_21
  2  2     1.35662995E-02   # U_22
#
BLOCK VMIX  # Chargino Mixing Matrix V
  1  1     4.13278835E-02   # V_11
  1  2    -9.99145638E-01   # V_12
  2  1    -9.99145638E-01   # V_21
  2  2    -4.13278835E-02   # V_22
#
BLOCK STOPMIX  # Stop Mixing Matrix
  1  1    -5.06854770E-01   # cos(theta_t)
  1  2     8.62031462E-01   # sin(theta_t)
  2  1    -8.62031462E-01   # -sin(theta_t)
  2  2    -5.06854770E-01   # cos(theta_t)
#
BLOCK SBOTMIX  # Sbottom Mixing Matrix
  1  1     9.95698874E-01   # cos(theta_b)
  1  2    -9.26485419E-02   # sin(theta_b)
  2  1     9.26485419E-02   # -sin(theta_b)
  2  2     9.95698874E-01   # cos(theta_b)
#
BLOCK STAUMIX  # Stau Mixing Matrix
  1  1    -1.46905326E-01   # cos(theta_tau)
  1  2     9.89150557E-01   # sin(theta_tau)
  2  1    -9.89150557E-01   # -sin(theta_tau)
  2  2    -1.46905326E-01   # cos(theta_tau)
#
BLOCK ALPHA  # Higgs mixing
          -1.05476554E-01   # Mixing angle in the neutral Higgs boson sector
#
BLOCK HMIX Q=  5.00073050E+03  # DRbar Higgs Parameters
         1    -1.27417321E+03   # mu(Q)MSSM           
         2     9.46941648E+00   # tan                 
         3     2.41915296E+02   # higgs               
         4     8.44377222E+06   # mA^2(Q)MSSM         
#
BLOCK GAUGE Q=  5.00073050E+03  # The gauge couplings
     1     3.70724457E-01   # gprime(Q) DRbar
     2     6.32218630E-01   # g(Q) DRbar
     3     9.94625609E-01   # g3(Q) DRbar
#
BLOCK AU Q=  5.00073050E+03  # The trilinear couplings
  1  1     5.00000002E+03   # A_u(Q) DRbar
  2  2     5.00000002E+03   # A_c(Q) DRbar
  3  3     5.00000002E+03   # A_t(Q) DRbar
#
BLOCK AD Q=  5.00073050E+03  # The trilinear couplings
  1  1     5.00000001E+03   # A_d(Q) DRbar
  2  2     5.00000001E+03   # A_s(Q) DRbar
  3  3     5.00000001E+03   # A_b(Q) DRbar
#
BLOCK AE Q=  5.00073050E+03  # The trilinear couplings
  1  1     0.00000000E+00   # A_e(Q) DRbar
  2  2     2.66824520E-07   # A_mu(Q) DRbar
  3  3     2.66819600E-07   # A_tau(Q) DRbar
#
BLOCK Yu Q=  5.00073050E+03  # The Yukawa couplings
  1  1     0.00000000E+00   # y_u(Q) DRbar
  2  2     0.00000000E+00   # y_c(Q) DRbar
  3  3     8.21036084E-01   # y_t(Q) DRbar
#
BLOCK Yd Q=  5.00073050E+03  # The Yukawa couplings
  1  1     0.00000000E+00   # y_d(Q) DRbar
  2  2     0.00000000E+00   # y_s(Q) DRbar
  3  3     1.31480172E-01   # y_b(Q) DRbar
#
BLOCK Ye Q=  5.00073050E+03  # The Yukawa couplings
  1  1     0.00000000E+00   # y_e(Q) DRbar
  2  2     0.00000000E+00   # y_mu(Q) DRbar
  3  3     9.67070599E-02   # y_tau(Q) DRbar
#
BLOCK MSOFT Q=  5.00073050E+03  # The soft SUSY breaking masses at the scale Q
         1     6.00000000E+01   # M_1(Q)              
         2     3.00000000E+03   # M_2(Q)              
         3     2.23497600E+03   # M_3(Q)              
        21     7.05692388E+06   # mH1^2(Q)            
        22    -1.06617230E+06   # mH2^2(Q)            
        31     5.00000000E+03   # meL(Q)              
        32     5.00000000E+03   # mmuL(Q)             
        33     5.00000000E+03   # mtauL(Q)            
        34     5.00000000E+03   # meR(Q)              
        35     5.00000000E+03   # mmuR(Q)             
        36     5.00000000E+03   # mtauR(Q)            
        41     4.99999999E+03   # mqL1(Q)             
        42     4.99999999E+03   # mqL2(Q)             
        43     4.99999999E+03   # mqL3(Q)             
        44     4.99999999E+03   # muR(Q)              
        45     4.99999999E+03   # mcR(Q)              
        46     4.99999999E+03   # mtR(Q)              
        47     4.99999999E+03   # mdR(Q)              
        48     4.99999999E+03   # msR(Q)              
        49     4.99999999E+03   # mbR(Q)              
#
#
#
#                             =================
#                             |The decay table|
#                             =================
#
# - The QCD corrections to the decays gluino -> squark  + quark
#                                     squark -> gaugino + quark_prime
#                                     squark -> squark_prime + Higgs
#                                     squark -> gluino  + quark
#   are included.
#
# - The multi-body decays for the inos, stops and sbottoms are included.
#
# - The loop induced decays for the gluino, neutralinos and stops
#   are included.
#
# - The SUSY decays of the top quark are included.
#
#
#         PDG            Width
DECAY         6     1.40062535E+00   # top decays
#          BR         NDA      ID1       ID2
     1.00000000E+00    2           5        24   # BR(t ->  b    W+)
#
#         PDG            Width
DECAY   1000021     2.93094287E-03   # gluino decays
#          BR         NDA      ID1       ID2
     2.87302938E-06    2     1000022        21   # BR(~g -> ~chi_10 g)
     5.78900656E-03    2     1000023        21   # BR(~g -> ~chi_20 g)
     5.74557623E-03    2     1000025        21   # BR(~g -> ~chi_30 g)
#           BR         NDA      ID1       ID2       ID3
     3.18915588E-02    3     1000022         1        -1   # BR(~g -> ~chi_10 d  db)
     2.50389999E-05    3     1000023         1        -1   # BR(~g -> ~chi_20 d  db)
     7.30330891E-06    3     1000025         1        -1   # BR(~g -> ~chi_30 d  db)
     1.08743860E-01    3     1000022         2        -2   # BR(~g -> ~chi_10 u  ub)
     5.52059577E-05    3     1000023         2        -2   # BR(~g -> ~chi_20 u  ub)
     7.75641684E-06    3     1000025         2        -2   # BR(~g -> ~chi_30 u  ub)
     3.18915588E-02    3     1000022         3        -3   # BR(~g -> ~chi_10 s  sb)
     2.50389999E-05    3     1000023         3        -3   # BR(~g -> ~chi_20 s  sb)
     7.30330891E-06    3     1000025         3        -3   # BR(~g -> ~chi_30 s  sb)
     1.08743860E-01    3     1000022         4        -4   # BR(~g -> ~chi_10 c  cb)
     5.52059577E-05    3     1000023         4        -4   # BR(~g -> ~chi_20 c  cb)
     7.75641684E-06    3     1000025         4        -4   # BR(~g -> ~chi_30 c  cb)
     3.23174328E-02    3     1000022         5        -5   # BR(~g -> ~chi_10 b  bb)
     3.86328610E-03    3     1000023         5        -5   # BR(~g -> ~chi_20 b  bb)
     3.80433041E-03    3     1000025         5        -5   # BR(~g -> ~chi_30 b  bb)
     1.11572803E-01    3     1000022         6        -6   # BR(~g -> ~chi_10 t  tb)
     1.39378760E-01    3     1000023         6        -6   # BR(~g -> ~chi_20 t  tb)
     1.23926158E-01    3     1000025         6        -6   # BR(~g -> ~chi_30 t  tb)
     6.81158590E-05    3     1000024         1        -2   # BR(~g -> ~chi_1+ d  ub)
     6.81158590E-05    3    -1000024         2        -1   # BR(~g -> ~chi_1- u  db)
     6.81158590E-05    3     1000024         3        -4   # BR(~g -> ~chi_1+ s  cb)
     6.81158590E-05    3    -1000024         4        -3   # BR(~g -> ~chi_1- c  sb)
     1.45932932E-01    3     1000024         5        -6   # BR(~g -> ~chi_1+ b  tb)
     1.45932932E-01    3    -1000024         6        -5   # BR(~g -> ~chi_1- t  bb)
#
#         PDG            Width
DECAY   1000006     2.78054139E+02   # stop1 decays
#          BR         NDA      ID1       ID2
     3.19068691E-02    2     1000022         6   # BR(~t_1 -> ~chi_10 t )
     1.02715258E-01    2     1000023         6   # BR(~t_1 -> ~chi_20 t )
     9.88116029E-02    2     1000025         6   # BR(~t_1 -> ~chi_30 t )
     7.51317516E-03    2     1000035         6   # BR(~t_1 -> ~chi_40 t )
     1.50099408E-01    2     1000024         5   # BR(~t_1 -> ~chi_1+ b )
     1.49563021E-02    2     1000037         5   # BR(~t_1 -> ~chi_2+ b )
     5.93997385E-01    2     1000021         6   # BR(~t_1 -> ~g      t )
#
#         PDG            Width
DECAY   2000006     2.89684655E+02   # stop2 decays
#          BR         NDA      ID1       ID2
     1.18886999E-02    2     1000022         6   # BR(~t_2 -> ~chi_10 t )
     1.01770809E-01    2     1000023         6   # BR(~t_2 -> ~chi_20 t )
     1.05860114E-01    2     1000025         6   # BR(~t_2 -> ~chi_30 t )
     1.92907467E-02    2     1000035         6   # BR(~t_2 -> ~chi_40 t )
     6.01347872E-02    2     1000024         5   # BR(~t_2 -> ~chi_1+ b )
     3.83434526E-02    2     1000037         5   # BR(~t_2 -> ~chi_2+ b )
     6.58459107E-01    2     1000021         6   # BR(~t_2 -> ~g      t )
     9.57327257E-04    2     1000006        25   # BR(~t_2 -> ~t_1    h )
     3.29495620E-03    2     1000006        23   # BR(~t_2 -> ~t_1    Z )
#
#         PDG            Width
DECAY   1000005     2.64703913E+02   # sbottom1 decays
#          BR         NDA      ID1       ID2
     2.92691515E-03    2     1000022         5   # BR(~b_1 -> ~chi_10 b )
     2.90819978E-03    2     1000023         5   # BR(~b_1 -> ~chi_20 b )
     2.78919230E-03    2     1000025         5   # BR(~b_1 -> ~chi_30 b )
     2.85436255E-02    2     1000035         5   # BR(~b_1 -> ~chi_40 b )
     2.19242874E-01    2    -1000024         6   # BR(~b_1 -> ~chi_1- t )
     5.74041749E-02    2    -1000037         6   # BR(~b_1 -> ~chi_2- t )
     6.84157018E-01    2     1000021         5   # BR(~b_1 -> ~g      b )
     2.02800044E-03    2     1000006       -24   # BR(~b_1 -> ~t_1    W-)
#
#         PDG            Width
DECAY   2000005     1.90684633E+02   # sbottom2 decays
#          BR         NDA      ID1       ID2
     1.53475893E-02    2     1000022         5   # BR(~b_2 -> ~chi_10 b )
     3.94030206E-03    2     1000023         5   # BR(~b_2 -> ~chi_20 b )
     4.07965719E-03    2     1000025         5   # BR(~b_2 -> ~chi_30 b )
     3.48937421E-04    2     1000035         5   # BR(~b_2 -> ~chi_40 b )
     1.04244925E-02    2    -1000024         6   # BR(~b_2 -> ~chi_1- t )
     7.01556955E-04    2    -1000037         6   # BR(~b_2 -> ~chi_2- t )
     9.65051132E-01    2     1000021         5   # BR(~b_2 -> ~g      b )
     1.06332343E-04    2     1000006       -24   # BR(~b_2 -> ~t_1    W-)
#
#         PDG            Width
DECAY   1000002     2.10050045E+02   # sup_L decays
#          BR         NDA      ID1       ID2
     3.54557450E-03    2     1000022         2   # BR(~u_L -> ~chi_10 u)
     8.26752755E-05    2     1000023         2   # BR(~u_L -> ~chi_20 u)
     6.38780239E-06    2     1000025         2   # BR(~u_L -> ~chi_30 u)
     3.75762661E-02    2     1000035         2   # BR(~u_L -> ~chi_40 u)
     2.77684541E-04    2     1000024         1   # BR(~u_L -> ~chi_1+ d)
     7.50982703E-02    2     1000037         1   # BR(~u_L -> ~chi_2+ d)
     8.83413142E-01    2     1000021         2   # BR(~u_L -> ~g      u)
#
#         PDG            Width
DECAY   2000002     1.95877351E+02   # sup_R decays
#          BR         NDA      ID1       ID2
     6.05230326E-02    2     1000022         2   # BR(~u_R -> ~chi_10 u)
     2.76480539E-05    2     1000023         2   # BR(~u_R -> ~chi_20 u)
     3.48661529E-05    2     1000025         2   # BR(~u_R -> ~chi_30 u)
     4.41805643E-09    2     1000035         2   # BR(~u_R -> ~chi_40 u)
     9.39414449E-01    2     1000021         2   # BR(~u_R -> ~g      u)
#
#         PDG            Width
DECAY   1000001     2.10067594E+02   # sdown_L decays
#          BR         NDA      ID1       ID2
     3.53435281E-03    2     1000022         1   # BR(~d_L -> ~chi_10 d)
     4.28788920E-05    2     1000023         1   # BR(~d_L -> ~chi_20 d)
     2.89975527E-05    2     1000025         1   # BR(~d_L -> ~chi_30 d)
     3.75971095E-02    2     1000035         1   # BR(~d_L -> ~chi_40 d)
     2.99229128E-05    2    -1000024         2   # BR(~d_L -> ~chi_1- u)
     7.52295800E-02    2    -1000037         2   # BR(~d_L -> ~chi_2- u)
     8.83537158E-01    2     1000021         1   # BR(~d_L -> ~g      d)
#
#         PDG            Width
DECAY   2000001     1.87001558E+02   # sdown_R decays
#          BR         NDA      ID1       ID2
     1.58498077E-02    2     1000022         1   # BR(~d_R -> ~chi_10 d)
     7.24059751E-06    2     1000023         1   # BR(~d_R -> ~chi_20 d)
     9.13090651E-06    2     1000025         1   # BR(~d_R -> ~chi_30 d)
     1.15714918E-09    2     1000035         1   # BR(~d_R -> ~chi_40 d)
     9.84133820E-01    2     1000021         1   # BR(~d_R -> ~g      d)
#
#         PDG            Width
DECAY   1000004     2.10050045E+02   # scharm_L decays
#          BR         NDA      ID1       ID2
     3.54557450E-03    2     1000022         4   # BR(~c_L -> ~chi_10 c)
     8.26752755E-05    2     1000023         4   # BR(~c_L -> ~chi_20 c)
     6.38780239E-06    2     1000025         4   # BR(~c_L -> ~chi_30 c)
     3.75762661E-02    2     1000035         4   # BR(~c_L -> ~chi_40 c)
     2.77684541E-04    2     1000024         3   # BR(~c_L -> ~chi_1+ s)
     7.50982703E-02    2     1000037         3   # BR(~c_L -> ~chi_2+ s)
     8.83413142E-01    2     1000021         4   # BR(~c_L -> ~g      c)
#
#         PDG            Width
DECAY   2000004     1.95877351E+02   # scharm_R decays
#          BR         NDA      ID1       ID2
     6.05230326E-02    2     1000022         4   # BR(~c_R -> ~chi_10 c)
     2.76480539E-05    2     1000023         4   # BR(~c_R -> ~chi_20 c)
     3.48661529E-05    2     1000025         4   # BR(~c_R -> ~chi_30 c)
     4.41805643E-09    2     1000035         4   # BR(~c_R -> ~chi_40 c)
     9.39414449E-01    2     1000021         4   # BR(~c_R -> ~g      c)
#
#         PDG            Width
DECAY   1000003     2.10067594E+02   # sstrange_L decays
#          BR         NDA      ID1       ID2
     3.53435281E-03    2     1000022         3   # BR(~s_L -> ~chi_10 s)
     4.28788920E-05    2     1000023         3   # BR(~s_L -> ~chi_20 s)
     2.89975527E-05    2     1000025         3   # BR(~s_L -> ~chi_30 s)
     3.75971095E-02    2     1000035         3   # BR(~s_L -> ~chi_40 s)
     2.99229128E-05    2    -1000024         4   # BR(~s_L -> ~chi_1- c)
     7.52295800E-02    2    -1000037         4   # BR(~s_L -> ~chi_2- c)
     8.83537158E-01    2     1000021         3   # BR(~s_L -> ~g      s)
#
#         PDG            Width
DECAY   2000003     1.87001558E+02   # sstrange_R decays
#          BR         NDA      ID1       ID2
     1.58498077E-02    2     1000022         3   # BR(~s_R -> ~chi_10 s)
     7.24059751E-06    2     1000023         3   # BR(~s_R -> ~chi_20 s)
     9.13090651E-06    2     1000025         3   # BR(~s_R -> ~chi_30 s)
     1.15714918E-09    2     1000035         3   # BR(~s_R -> ~chi_40 s)
     9.84133820E-01    2     1000021         3   # BR(~s_R -> ~g      s)
#
#         PDG            Width
DECAY   1000011     3.02453675E+01   # selectron_L decays
#          BR         NDA      ID1       ID2
     2.26651308E-01    2     1000022        11   # BR(~e_L -> ~chi_10 e-)
     9.56612113E-04    2     1000023        11   # BR(~e_L -> ~chi_20 e-)
     7.69338422E-07    2     1000025        11   # BR(~e_L -> ~chi_30 e-)
     2.57199443E-01    2     1000035        11   # BR(~e_L -> ~chi_40 e-)
     2.11364545E-04    2    -1000024        12   # BR(~e_L -> ~chi_1- nu_e)
     5.14980503E-01    2    -1000037        12   # BR(~e_L -> ~chi_2- nu_e)
#
#         PDG            Width
DECAY   2000011     2.73623469E+01   # selectron_R decays
#          BR         NDA      ID1       ID2
     9.98974638E-01    2     1000022        11   # BR(~e_R -> ~chi_10 e-)
     4.53458154E-04    2     1000023        11   # BR(~e_R -> ~chi_20 e-)
     5.71833015E-04    2     1000025        11   # BR(~e_R -> ~chi_30 e-)
     7.03346580E-08    2     1000035        11   # BR(~e_R -> ~chi_40 e-)
#
#         PDG            Width
DECAY   1000013     3.02453675E+01   # smuon_L decays
#          BR         NDA      ID1       ID2
     2.26651308E-01    2     1000022        13   # BR(~mu_L -> ~chi_10 mu-)
     9.56612113E-04    2     1000023        13   # BR(~mu_L -> ~chi_20 mu-)
     7.69338422E-07    2     1000025        13   # BR(~mu_L -> ~chi_30 mu-)
     2.57199443E-01    2     1000035        13   # BR(~mu_L -> ~chi_40 mu-)
     2.11364545E-04    2    -1000024        14   # BR(~mu_L -> ~chi_1- nu_mu)
     5.14980503E-01    2    -1000037        14   # BR(~mu_L -> ~chi_2- nu_mu)
#
#         PDG            Width
DECAY   2000013     2.73623469E+01   # smuon_R decays
#          BR         NDA      ID1       ID2
     9.98974638E-01    2     1000022        13   # BR(~mu_R -> ~chi_10 mu-)
     4.53458154E-04    2     1000023        13   # BR(~mu_R -> ~chi_20 mu-)
     5.71833015E-04    2     1000025        13   # BR(~mu_R -> ~chi_30 mu-)
     7.03346580E-08    2     1000035        13   # BR(~mu_R -> ~chi_40 mu-)
#
#         PDG            Width
DECAY   1000015     2.90338548E+01   # stau_1 decays
#          BR         NDA      ID1       ID2
     9.26861873E-01    2     1000022        15   # BR(~tau_1 -> ~chi_10  tau-)
     1.47475590E-02    2     1000023        15   # BR(~tau_1 -> ~chi_20  tau-)
     1.36744818E-02    2     1000025        15   # BR(~tau_1 -> ~chi_30  tau-)
     5.56635485E-03    2     1000035        15   # BR(~tau_1 -> ~chi_40  tau-)
     2.80046150E-02    2    -1000024        16   # BR(~tau_1 -> ~chi_1-  nu_tau)
     1.11451166E-02    2    -1000037        16   # BR(~tau_1 -> ~chi_2-  nu_tau)
#
#         PDG            Width
DECAY   2000015     3.09916629E+01   # stau_2 decays
#          BR         NDA      ID1       ID2
     2.34720366E-01    2     1000022        15   # BR(~tau_2 -> ~chi_10  tau-)
     1.36774492E-02    2     1000023        15   # BR(~tau_2 -> ~chi_20  tau-)
     1.38134108E-02    2     1000025        15   # BR(~tau_2 -> ~chi_30  tau-)
     2.45713900E-01    2     1000035        15   # BR(~tau_2 -> ~chi_40  tau-)
     9.17942083E-05    2    -1000024        16   # BR(~tau_2 -> ~chi_1-  nu_tau)
     4.91983080E-01    2    -1000037        16   # BR(~tau_2 -> ~chi_2-  nu_tau)
#
#         PDG            Width
DECAY   1000012     3.02477421E+01   # snu_eL decays
#          BR         NDA      ID1       ID2
     2.26350551E-01    2     1000022        12   # BR(~nu_eL -> ~chi_10 nu_e)
     1.13187767E-04    2     1000023        12   # BR(~nu_eL -> ~chi_20 nu_e)
     4.79724259E-04    2     1000025        12   # BR(~nu_eL -> ~chi_30 nu_e)
     2.57270875E-01    2     1000035        12   # BR(~nu_eL -> ~chi_40 nu_e)
     1.96090216E-03    2     1000024        11   # BR(~nu_eL -> ~chi_1+ e-)
     5.13824760E-01    2     1000037        11   # BR(~nu_eL -> ~chi_2+ e-)
#
#         PDG            Width
DECAY   1000014     3.02477421E+01   # snu_muL decays
#          BR         NDA      ID1       ID2
     2.26350551E-01    2     1000022        14   # BR(~nu_muL -> ~chi_10 nu_mu)
     1.13187767E-04    2     1000023        14   # BR(~nu_muL -> ~chi_20 nu_mu)
     4.79724259E-04    2     1000025        14   # BR(~nu_muL -> ~chi_30 nu_mu)
     2.57270875E-01    2     1000035        14   # BR(~nu_muL -> ~chi_40 nu_mu)
     1.96090216E-03    2     1000024        13   # BR(~nu_muL -> ~chi_1+ mu-)
     5.13824760E-01    2     1000037        13   # BR(~nu_muL -> ~chi_2+ mu-)
#
#         PDG            Width
DECAY   1000016     3.10507912E+01   # snu_tauL decays
#          BR         NDA      ID1       ID2
     2.20472743E-01    2     1000022        16   # BR(~nu_tauL -> ~chi_10 nu_tau)
     1.10245121E-04    2     1000023        16   # BR(~nu_tauL -> ~chi_20 nu_tau)
     4.67252371E-04    2     1000025        16   # BR(~nu_tauL -> ~chi_30 nu_tau)
     2.50525091E-01    2     1000035        16   # BR(~nu_tauL -> ~chi_40 nu_tau)
     2.80723085E-02    2     1000024        15   # BR(~nu_tauL -> ~chi_1+ tau-)
     5.00352360E-01    2     1000037        15   # BR(~nu_tauL -> ~chi_2+ tau-)
#
#         PDG            Width
DECAY   1000024     7.97133355E-01   # chargino1+ decays
#          BR         NDA      ID1       ID2
     1.00000000E+00    2     1000022        24   # BR(~chi_1+ -> ~chi_10  W+)
#
#         PDG            Width
DECAY   1000037     1.92726480E+01   # chargino2+ decays
#          BR         NDA      ID1       ID2
     2.52917295E-01    2     1000024        23   # BR(~chi_2+ -> ~chi_1+  Z )
     2.27536023E-04    2     1000022        24   # BR(~chi_2+ -> ~chi_10  W+)
     2.43957252E-01    2     1000023        24   # BR(~chi_2+ -> ~chi_20  W+)
     2.43869641E-01    2     1000025        24   # BR(~chi_2+ -> ~chi_30  W+)
     2.59027685E-01    2     1000024        25   # BR(~chi_2+ -> ~chi_1+  h )
     5.91841338E-07    2     1000022        37   # BR(~chi_2+ -> ~chi_10  H+)
#
#         PDG            Width
DECAY   1000022     0.00000000E+00   # neutralino1 decays
#
#         PDG            Width
DECAY   1000023     8.36362629E-01   # neutralino2 decays
#          BR         NDA      ID1       ID2
     5.51245379E-01    2     1000022        23   # BR(~chi_20 -> ~chi_10   Z )
     4.48754621E-01    2     1000022        25   # BR(~chi_20 -> ~chi_10   h )
#
#         PDG            Width
DECAY   1000025     8.43470824E-01   # neutralino3 decays
#          BR         NDA      ID1       ID2
     4.33551657E-01    2     1000022        23   # BR(~chi_30 -> ~chi_10   Z )
     5.66448343E-01    2     1000022        25   # BR(~chi_30 -> ~chi_10   h )
#
#         PDG            Width
DECAY   1000035     1.92814637E+01   # neutralino4 decays
#          BR         NDA      ID1       ID2
     7.23301431E-05    2     1000022        23   # BR(~chi_40 -> ~chi_10   Z )
     5.16782239E-02    2     1000023        23   # BR(~chi_40 -> ~chi_20   Z )
     2.00566318E-01    2     1000025        23   # BR(~chi_40 -> ~chi_30   Z )
     2.44513412E-01    2     1000024       -24   # BR(~chi_40 -> ~chi_1+   W-)
     2.44513412E-01    2    -1000024        24   # BR(~chi_40 -> ~chi_1-   W+)
     1.59136888E-04    2     1000022        25   # BR(~chi_40 -> ~chi_10   h )
     5.39656594E-07    2     1000022        35   # BR(~chi_40 -> ~chi_10   H )
     7.32466036E-08    2     1000022        36   # BR(~chi_40 -> ~chi_10   A )
     2.06752955E-01    2     1000023        25   # BR(~chi_40 -> ~chi_20   h )
     5.17435994E-02    2     1000025        25   # BR(~chi_40 -> ~chi_30   h )
#
#         PDG            Width
DECAY        25     4.04889309E-03   # h decays
#          BR         NDA      ID1       ID2
     6.05842735E-01    2           5        -5   # BR(h -> b       bb     )
     6.40850603E-02    2         -15        15   # BR(h -> tau+    tau-   )
     2.26884178E-04    2         -13        13   # BR(h -> mu+     mu-    )
     4.80940977E-04    2           3        -3   # BR(h -> s       sb     )
     2.08408839E-02    2           4        -4   # BR(h -> c       cb     )
     6.74772794E-02    2          21        21   # BR(h -> g       g      )
     2.32136291E-03    2          22        22   # BR(h -> gam     gam    )
     1.50133986E-03    2          22        23   # BR(h -> Z       gam    )
     2.11903826E-01    2          24       -24   # BR(h -> W+      W-     )
     2.52785594E-02    2          23        23   # BR(h -> Z       Z      )
     4.11281869E-05    2     1000022   1000022   # BR(h -> ~chi_10 ~chi_10)
#
#         PDG            Width
DECAY        35     7.62889445E+00   # H decays
#          BR         NDA      ID1       ID2
     4.26741458E-01    2           5        -5   # BR(H -> b       bb     )
     7.30199646E-02    2         -15        15   # BR(H -> tau+    tau-   )
     2.58204395E-04    2         -13        13   # BR(H -> mu+     mu-    )
     3.16519008E-04    2           3        -3   # BR(H -> s       sb     )
     1.77075523E-06    2           4        -4   # BR(H -> c       cb     )
     1.76912472E-01    2           6        -6   # BR(H -> t       tb     )
     5.87584393E-05    2          21        21   # BR(H -> g       g      )
     3.62383408E-07    2          22        22   # BR(H -> gam     gam    )
     1.04489714E-07    2          23        22   # BR(H -> Z       gam    )
     8.01839040E-05    2          24       -24   # BR(H -> W+      W-     )
     4.00412108E-05    2          23        23   # BR(H -> Z       Z      )
     2.99960149E-04    2          25        25   # BR(H -> h       h      )
     4.71573022E-23    2          36        36   # BR(H -> A       A      )
     8.08205585E-19    2          23        36   # BR(H -> Z       A      )
     7.43223077E-04    2     1000024  -1000024   # BR(H -> ~chi_1+ ~chi_1-)
     1.11996191E-03    2     1000022   1000022   # BR(H -> ~chi_10 ~chi_10)
     5.61143054E-05    2     1000023   1000023   # BR(H -> ~chi_20 ~chi_20)
     1.23993463E-04    2     1000025   1000025   # BR(H -> ~chi_30 ~chi_30)
     1.91108740E-01    2     1000022   1000023   # BR(H -> ~chi_10 ~chi_20)
     1.28995264E-01    2     1000022   1000025   # BR(H -> ~chi_10 ~chi_30)
     1.22904011E-04    2     1000023   1000025   # BR(H -> ~chi_20 ~chi_30)
#
#         PDG            Width
DECAY        36     7.64991997E+00   # A decays
#          BR         NDA      ID1       ID2
     4.25711406E-01    2           5        -5   # BR(A -> b       bb     )
     7.28214426E-02    2         -15        15   # BR(A -> tau+    tau-   )
     2.57502045E-04    2         -13        13   # BR(A -> mu+     mu-    )
     3.15888737E-04    2           3        -3   # BR(A -> s       sb     )
     1.77319212E-06    2           4        -4   # BR(A -> c       cb     )
     1.77058192E-01    2           6        -6   # BR(A -> t       tb     )
     1.75208936E-04    2          21        21   # BR(A -> g       g      )
     4.87142237E-07    2          22        22   # BR(A -> gam     gam    )
     2.12255889E-07    2          23        22   # BR(A -> Z       gam    )
     7.96609483E-05    2          23        25   # BR(A -> Z       h      )
     2.59151449E-03    2     1000024  -1000024   # BR(A -> ~chi_1+ ~chi_1-)
     1.14660914E-03    2     1000022   1000022   # BR(A -> ~chi_10 ~chi_10)
     1.46739566E-04    2     1000023   1000023   # BR(A -> ~chi_20 ~chi_20)
     7.66346432E-04    2     1000025   1000025   # BR(A -> ~chi_30 ~chi_30)
     1.30240983E-01    2     1000022   1000023   # BR(A -> ~chi_10 ~chi_20)
     1.88679068E-01    2     1000022   1000025   # BR(A -> ~chi_10 ~chi_30)
     6.96568643E-06    2     1000023   1000025   # BR(A -> ~chi_20 ~chi_30)
#
#         PDG            Width
DECAY        37     7.63643473E+00   # H+ decays
#          BR         NDA      ID1       ID2
     6.87669519E-04    2           4        -5   # BR(H+ -> c       bb     )
     7.29711527E-02    2         -15        16   # BR(H+ -> tau+    nu_tau )
     2.58031431E-04    2         -13        14   # BR(H+ -> mu+     nu_mu  )
     4.40106240E-06    2           2        -5   # BR(H+ -> u       bb     )
     1.51407502E-05    2           2        -3   # BR(H+ -> u       sb     )
     3.13111952E-04    2           4        -3   # BR(H+ -> c       sb     )
     6.03448648E-01    2           6        -5   # BR(H+ -> t       bb     )
     7.99221746E-05    2          24        25   # BR(H+ -> W+      h      )
     8.49447638E-14    2          24        36   # BR(H+ -> W+      A      )
     3.21800699E-01    2     1000024   1000022   # BR(H+ -> ~chi_1+ ~chi_10)
     3.55211347E-04    2     1000024   1000023   # BR(H+ -> ~chi_1+ ~chi_20)
     6.60122716E-05    2     1000024   1000025   # BR(H+ -> ~chi_1+ ~chi_30)
