#
#                              ======================
#                              | THE SUSYHIT OUTPUT |
#                              ======================
#
#
#              ------------------------------------------------------
#              |     This is the output of the SUSY-HIT package     |
#              |  created by A.Djouadi, M.Muehlleitner and M.Spira. |
#              |  In case of problems with SUSY-HIT email to        |
#              |           margarete.muehlleitner@cern.ch           |
#              |           michael.spira@psi.ch                     |
#              |           abdelhak.djouadi@cern.ch                 |
#              ------------------------------------------------------
#
#              ------------------------------------------------------
#              |  SUSY Les Houches Accord - MSSM Spectrum + Decays  |
#              |              based on the decay programs           |
#              |                                                    |
#              |                     SDECAY 1.3b                    |
#              |                                                    |
#              |  Authors: M.Muhlleitner, A.Djouadi and Y.Mambrini  |
#              |  Ref.:    Comput.Phys.Commun.168(2005)46           |
#              |           [hep-ph/0311167]                         |
#              |                                                    |
#              |                     HDECAY 3.4                     |
#              |                                                    |
#              |  By: A.Djouadi,J.Kalinowski,M.Muhlleitner,M.Spira  |
#              |  Ref.:    Comput.Phys.Commun.108(1998)56           |
#              |           [hep-ph/9704448]                         |
#              |                                                    |
#              |                                                    |
#              |  If not stated otherwise all DRbar couplings and   |
#              |  soft SUSY breaking masses are given at the scale  |
#              |  Q=  0.50007288E+04
#              |                                                    |
#              ------------------------------------------------------
#
#
BLOCK DCINFO  # Decay Program information
     1   SDECAY/HDECAY # decay calculator
     2   1.3b  /3.4    # version number
#
BLOCK SPINFO  # Spectrum calculator information
     1    SOFTSUSY    # spectrum calculator                
     2    3.4.0       # version number                     
#
BLOCK MODSEL  # Model selection
     1     0   #  nonUniversal                                     
#
BLOCK SMINPUTS  # Standard Model inputs
         1     1.25778332E+02   # alpha_em^-1(M_Z)^MSbar
         2     1.16570000E-05   # G_F [GeV^-2]
         3     1.17200002E-01   # alpha_S(M_Z)^MSbar
         4     9.11876000E+01   # M_Z pole mass
         5     4.25000000E+00   # mb(mb)^MSbar
         6     1.72500000E+02   # mt pole mass
         7     1.77682000E+00   # mtau pole mass
#
BLOCK MINPAR  # Input parameters - minimal models
         3     1.00000000E+01   # tanb                
#
BLOCK EXTPAR  # Input parameters - non-minimal models
         0    -1.00000000E+00   # Set                 
         1     6.00000000E+01   # M_1(MX)             
         2     3.00000000E+03   # M_2(MX)             
         3     1.85478600E+03   # M_3(MX)             
        11     5.00000000E+03   # At(MX)              
        12     5.00000000E+03   # Ab(MX)              
        13     0.00000000E+00   # Atau(MX)            
        23    -1.25117800E+03   # mu(MX)              
        26     3.00000000E+03   # mA(pole)            
        31     5.00000000E+03   # meL(MX)             
        32     5.00000000E+03   # mmuL(MX)            
        33     5.00000000E+03   # mtauL(MX)           
        34     5.00000000E+03   # meR(MX)             
        35     5.00000000E+03   # mmuR(MX)            
        36     5.00000000E+03   # mtauR(MX)           
        41     5.00000000E+03   # mqL1(MX)            
        42     5.00000000E+03   # mqL2(MX)            
        43     5.00000000E+03   # mqL3(MX)            
        44     5.00000000E+03   # muR(MX)             
        45     5.00000000E+03   # mcR(MX)             
        46     5.00000000E+03   # mtR(MX)             
        47     5.00000000E+03   # mdR(MX)             
        48     5.00000000E+03   # msR(MX)             
        49     5.00000000E+03   # mbR(MX)             
#
BLOCK MASS  # Mass Spectrum
# PDG code           mass       particle
        24     8.00961789E+01   # W+
        25     1.24801347E+02   # h
        35     3.00008167E+03   # H
        36     2.99999987E+03   # A
        37     3.00086837E+03   # H+
         5     4.87878001E+00   # b-quark pole mass calculated from mb(mb)_Msbar
   1000001     5.07474229E+03   # ~d_L
   2000001     5.05696708E+03   # ~d_R
   1000002     5.07426957E+03   # ~u_L
   2000002     5.05668854E+03   # ~u_R
   1000003     5.07474229E+03   # ~s_L
   2000003     5.05696708E+03   # ~s_R
   1000004     5.07426957E+03   # ~c_L
   2000004     5.05668854E+03   # ~c_R
   1000005     5.02055123E+03   # ~b_1
   2000005     5.05566441E+03   # ~b_2
   1000006     4.91201696E+03   # ~t_1
   2000006     5.06584421E+03   # ~t_2
   1000011     5.01905605E+03   # ~e_L
   2000011     5.00591548E+03   # ~e_R
   1000012     5.01810792E+03   # ~nu_eL
   1000013     5.01905605E+03   # ~mu_L
   2000013     5.00591548E+03   # ~mu_R
   1000014     5.01810792E+03   # ~nu_muL
   1000015     5.00447640E+03   # ~tau_1
   2000015     5.01889607E+03   # ~tau_2
   1000016     5.01756583E+03   # ~nu_tauL
   1000021     2.20000042E+03   # ~g
   1000022     6.03030056E+01   # ~chi_10
   1000023     1.29950408E+03   # ~chi_20
   1000025    -1.30184378E+03   # ~chi_30
   1000035     3.07430292E+03   # ~chi_40
   1000024     1.30000099E+03   # ~chi_1+
   1000037     3.07447035E+03   # ~chi_2+
#
BLOCK NMIX  # Neutralino Mixing Matrix
  1  1     9.99410421E-01   # N_11
  1  2     1.55339815E-04   # N_12
  1  3    -3.42754408E-02   # N_13
  1  4     1.99509221E-03   # N_14
  2  1     2.28282410E-02   # N_21
  2  2     2.74280313E-02   # N_22
  2  3     7.06874968E-01   # N_23
  2  4     7.06437792E-01   # N_24
  3  1    -2.56417735E-02   # N_31
  3  2     1.38785908E-02   # N_32
  3  3    -7.06442595E-01   # N_33
  3  4     7.07169530E-01   # N_34
  4  1    -4.25711438E-04   # N_41
  4  2     9.99527420E-01   # N_42
  4  3    -9.58296541E-03   # N_43
  4  4    -2.92048259E-02   # N_44
#
BLOCK UMIX  # Chargino Mixing Matrix U
  1  1     1.35666906E-02   # U_11
  1  2     9.99907968E-01   # U_12
  2  1    -9.99907968E-01   # U_21
  2  2     1.35666906E-02   # U_22
#
BLOCK VMIX  # Chargino Mixing Matrix V
  1  1     4.13287401E-02   # V_11
  1  2    -9.99145603E-01   # V_12
  2  1    -9.99145603E-01   # V_21
  2  2    -4.13287401E-02   # V_22
#
BLOCK STOPMIX  # Stop Mixing Matrix
  1  1    -5.08419467E-01   # cos(theta_t)
  1  2     8.61109543E-01   # sin(theta_t)
  2  1    -8.61109543E-01   # -sin(theta_t)
  2  2    -5.08419467E-01   # cos(theta_t)
#
BLOCK SBOTMIX  # Sbottom Mixing Matrix
  1  1     9.95680505E-01   # cos(theta_b)
  1  2    -9.28457428E-02   # sin(theta_b)
  2  1     9.28457428E-02   # -sin(theta_b)
  2  2     9.95680505E-01   # cos(theta_b)
#
BLOCK STAUMIX  # Stau Mixing Matrix
  1  1    -1.46894394E-01   # cos(theta_tau)
  1  2     9.89152181E-01   # sin(theta_tau)
  2  1    -9.89152181E-01   # -sin(theta_tau)
  2  2    -1.46894394E-01   # cos(theta_tau)
#
BLOCK ALPHA  # Higgs mixing
          -1.05472326E-01   # Mixing angle in the neutral Higgs boson sector
#
BLOCK HMIX Q=  5.00072876E+03  # DRbar Higgs Parameters
         1    -1.27416310E+03   # mu(Q)MSSM           
         2     9.46978055E+00   # tan                 
         3     2.41913688E+02   # higgs               
         4     8.44245340E+06   # mA^2(Q)MSSM         
#
BLOCK GAUGE Q=  5.00072876E+03  # The gauge couplings
     1     3.70732524E-01   # gprime(Q) DRbar
     2     6.32244732E-01   # g(Q) DRbar
     3     9.97099670E-01   # g3(Q) DRbar
#
BLOCK AU Q=  5.00072876E+03  # The trilinear couplings
  1  1     5.00000001E+03   # A_u(Q) DRbar
  2  2     5.00000001E+03   # A_c(Q) DRbar
  3  3     5.00000002E+03   # A_t(Q) DRbar
#
BLOCK AD Q=  5.00072876E+03  # The trilinear couplings
  1  1     5.00000001E+03   # A_d(Q) DRbar
  2  2     5.00000001E+03   # A_s(Q) DRbar
  3  3     5.00000001E+03   # A_b(Q) DRbar
#
BLOCK AE Q=  5.00072876E+03  # The trilinear couplings
  1  1     0.00000000E+00   # A_e(Q) DRbar
  2  2     2.06367714E-07   # A_mu(Q) DRbar
  3  3     2.06127124E-07   # A_tau(Q) DRbar
#
BLOCK Yu Q=  5.00072876E+03  # The Yukawa couplings
  1  1     0.00000000E+00   # y_u(Q) DRbar
  2  2     0.00000000E+00   # y_c(Q) DRbar
  3  3     8.20269544E-01   # y_t(Q) DRbar
#
BLOCK Yd Q=  5.00072876E+03  # The Yukawa couplings
  1  1     0.00000000E+00   # y_d(Q) DRbar
  2  2     0.00000000E+00   # y_s(Q) DRbar
  3  3     1.31193788E-01   # y_b(Q) DRbar
#
BLOCK Ye Q=  5.00072876E+03  # The Yukawa couplings
  1  1     0.00000000E+00   # y_e(Q) DRbar
  2  2     0.00000000E+00   # y_mu(Q) DRbar
  3  3     9.67112897E-02   # y_tau(Q) DRbar
#
BLOCK MSOFT Q=  5.00072876E+03  # The soft SUSY breaking masses at the scale Q
         1     6.00000000E+01   # M_1(Q)              
         2     3.00000000E+03   # M_2(Q)              
         3     1.85478600E+03   # M_3(Q)              
        21     7.05677704E+06   # mH1^2(Q)            
        22    -1.06756694E+06   # mH2^2(Q)            
        31     5.00000000E+03   # meL(Q)              
        32     5.00000000E+03   # mmuL(Q)             
        33     5.00000000E+03   # mtauL(Q)            
        34     5.00000000E+03   # meR(Q)              
        35     5.00000000E+03   # mmuR(Q)             
        36     5.00000000E+03   # mtauR(Q)            
        41     5.00000000E+03   # mqL1(Q)             
        42     5.00000000E+03   # mqL2(Q)             
        43     4.99999999E+03   # mqL3(Q)             
        44     5.00000000E+03   # muR(Q)              
        45     5.00000000E+03   # mcR(Q)              
        46     4.99999999E+03   # mtR(Q)              
        47     5.00000000E+03   # mdR(Q)              
        48     5.00000000E+03   # msR(Q)              
        49     5.00000000E+03   # mbR(Q)              
#
#
#
#                             =================
#                             |The decay table|
#                             =================
#
# - The QCD corrections to the decays gluino -> squark  + quark
#                                     squark -> gaugino + quark_prime
#                                     squark -> squark_prime + Higgs
#                                     squark -> gluino  + quark
#   are included.
#
# - The multi-body decays for the inos, stops and sbottoms are included.
#
# - The loop induced decays for the gluino, neutralinos and stops
#   are included.
#
# - The SUSY decays of the top quark are included.
#
#
#         PDG            Width
DECAY         6     1.40074999E+00   # top decays
#          BR         NDA      ID1       ID2
     1.00000000E+00    2           5        24   # BR(t ->  b    W+)
#
#         PDG            Width
DECAY   1000021     7.78951519E-04   # gluino decays
#          BR         NDA      ID1       ID2
     5.02449525E-06    2     1000022        21   # BR(~g -> ~chi_10 g)
     8.09277081E-03    2     1000023        21   # BR(~g -> ~chi_20 g)
     8.02096626E-03    2     1000025        21   # BR(~g -> ~chi_30 g)
#           BR         NDA      ID1       ID2       ID3
     4.93349904E-02    3     1000022         1        -1   # BR(~g -> ~chi_10 d  db)
     1.73593023E-05    3     1000023         1        -1   # BR(~g -> ~chi_20 d  db)
     4.72171196E-06    3     1000025         1        -1   # BR(~g -> ~chi_30 d  db)
     1.68208366E-01    3     1000022         2        -2   # BR(~g -> ~chi_10 u  ub)
     3.82696663E-05    3     1000023         2        -2   # BR(~g -> ~chi_20 u  ub)
     5.01218960E-06    3     1000025         2        -2   # BR(~g -> ~chi_30 u  ub)
     4.93349904E-02    3     1000022         3        -3   # BR(~g -> ~chi_10 s  sb)
     1.73593023E-05    3     1000023         3        -3   # BR(~g -> ~chi_20 s  sb)
     4.72171196E-06    3     1000025         3        -3   # BR(~g -> ~chi_30 s  sb)
     1.68208366E-01    3     1000022         4        -4   # BR(~g -> ~chi_10 c  cb)
     3.82696663E-05    3     1000023         4        -4   # BR(~g -> ~chi_20 c  cb)
     5.01218960E-06    3     1000025         4        -4   # BR(~g -> ~chi_30 c  cb)
     4.99775560E-02    3     1000022         5        -5   # BR(~g -> ~chi_10 b  bb)
     2.61882261E-03    3     1000023         5        -5   # BR(~g -> ~chi_20 b  bb)
     2.56610091E-03    3     1000025         5        -5   # BR(~g -> ~chi_30 b  bb)
     1.67084439E-01    3     1000022         6        -6   # BR(~g -> ~chi_10 t  tb)
     8.16668761E-02    3     1000023         6        -6   # BR(~g -> ~chi_20 t  tb)
     6.45816581E-02    3     1000025         6        -6   # BR(~g -> ~chi_30 t  tb)
     4.69152484E-05    3     1000024         1        -2   # BR(~g -> ~chi_1+ d  ub)
     4.69152484E-05    3    -1000024         2        -1   # BR(~g -> ~chi_1- u  db)
     4.69152484E-05    3     1000024         3        -4   # BR(~g -> ~chi_1+ s  cb)
     4.69152484E-05    3    -1000024         4        -3   # BR(~g -> ~chi_1- c  sb)
     8.99903429E-02    3     1000024         5        -6   # BR(~g -> ~chi_1+ b  tb)
     8.99903429E-02    3    -1000024         6        -5   # BR(~g -> ~chi_1- t  bb)
#
#         PDG            Width
DECAY   1000006     3.16765477E+02   # stop1 decays
#          BR         NDA      ID1       ID2
     2.79197516E-02    2     1000022         6   # BR(~t_1 -> ~chi_10 t )
     9.02494751E-02    2     1000023         6   # BR(~t_1 -> ~chi_20 t )
     8.67921404E-02    2     1000025         6   # BR(~t_1 -> ~chi_30 t )
     6.65347657E-03    2     1000035         6   # BR(~t_1 -> ~chi_40 t )
     1.31188605E-01    2     1000024         5   # BR(~t_1 -> ~chi_1+ b )
     1.32448251E-02    2     1000037         5   # BR(~t_1 -> ~chi_2+ b )
     6.43951726E-01    2     1000021         6   # BR(~t_1 -> ~g      t )
#
#         PDG            Width
DECAY   2000006     3.27029581E+02   # stop2 decays
#          BR         NDA      ID1       ID2
     1.06706435E-02    2     1000022         6   # BR(~t_2 -> ~chi_10 t )
     9.01803229E-02    2     1000023         6   # BR(~t_2 -> ~chi_20 t )
     9.38278502E-02    2     1000025         6   # BR(~t_2 -> ~chi_30 t )
     1.69291024E-02    2     1000035         6   # BR(~t_2 -> ~chi_40 t )
     5.39440799E-02    2     1000024         5   # BR(~t_2 -> ~chi_1+ b )
     3.36488194E-02    2     1000037         5   # BR(~t_2 -> ~chi_2+ b )
     6.96936488E-01    2     1000021         6   # BR(~t_2 -> ~g      t )
     8.68388408E-04    2     1000006        25   # BR(~t_2 -> ~t_1    h )
     2.99430554E-03    2     1000006        23   # BR(~t_2 -> ~t_1    Z )
#
#         PDG            Width
DECAY   1000005     3.02526303E+02   # sbottom1 decays
#          BR         NDA      ID1       ID2
     2.56593687E-03    2     1000022         5   # BR(~b_1 -> ~chi_10 b )
     2.54014807E-03    2     1000023         5   # BR(~b_1 -> ~chi_20 b )
     2.43532264E-03    2     1000025         5   # BR(~b_1 -> ~chi_30 b )
     2.48675575E-02    2     1000035         5   # BR(~b_1 -> ~chi_40 b )
     1.91916224E-01    2    -1000024         6   # BR(~b_1 -> ~chi_1- t )
     5.00115134E-02    2    -1000037         6   # BR(~b_1 -> ~chi_2- t )
     7.23847193E-01    2     1000021         5   # BR(~b_1 -> ~g      b )
     1.81610440E-03    2     1000006       -24   # BR(~b_1 -> ~t_1    W-)
#
#         PDG            Width
DECAY   2000005     2.28416823E+02   # sbottom2 decays
#          BR         NDA      ID1       ID2
     1.28272251E-02    2     1000022         5   # BR(~b_2 -> ~chi_10 b )
     3.28258596E-03    2     1000023         5   # BR(~b_2 -> ~chi_20 b )
     3.39990153E-03    2     1000025         5   # BR(~b_2 -> ~chi_30 b )
     2.94911751E-04    2     1000035         5   # BR(~b_2 -> ~chi_40 b )
     8.72560237E-03    2    -1000024         6   # BR(~b_2 -> ~chi_1- t )
     5.92932534E-04    2    -1000037         6   # BR(~b_2 -> ~chi_2- t )
     9.70787561E-01    2     1000021         5   # BR(~b_2 -> ~g      b )
     8.92794450E-05    2     1000006       -24   # BR(~b_2 -> ~t_1    W-)
#
#         PDG            Width
DECAY   1000002     2.47608191E+02   # sup_L decays
#          BR         NDA      ID1       ID2
     3.01169441E-03    2     1000022         2   # BR(~u_L -> ~chi_10 u)
     7.01468865E-05    2     1000023         2   # BR(~u_L -> ~chi_20 u)
     5.42005963E-06    2     1000025         2   # BR(~u_L -> ~chi_30 u)
     3.17483452E-02    2     1000035         2   # BR(~u_L -> ~chi_40 u)
     2.35606504E-04    2     1000024         1   # BR(~u_L -> ~chi_1+ d)
     6.34507975E-02    2     1000037         1   # BR(~u_L -> ~chi_2+ d)
     9.01477989E-01    2     1000021         2   # BR(~u_L -> ~g      u)
#
#         PDG            Width
DECAY   2000002     2.33606114E+02   # sup_R decays
#          BR         NDA      ID1       ID2
     5.08149586E-02    2     1000022         2   # BR(~u_R -> ~chi_10 u)
     2.31851025E-05    2     1000023         2   # BR(~u_R -> ~chi_20 u)
     2.92374907E-05    2     1000025         2   # BR(~u_R -> ~chi_30 u)
     3.68929949E-09    2     1000035         2   # BR(~u_R -> ~chi_40 u)
     9.49132615E-01    2     1000021         2   # BR(~u_R -> ~g      u)
#
#         PDG            Width
DECAY   1000001     2.47624150E+02   # sdown_L decays
#          BR         NDA      ID1       ID2
     3.00222016E-03    2     1000022         1   # BR(~d_L -> ~chi_10 d)
     3.63828326E-05    2     1000023         1   # BR(~d_L -> ~chi_20 d)
     2.46031895E-05    2     1000025         1   # BR(~d_L -> ~chi_30 d)
     3.17666484E-02    2     1000035         1   # BR(~d_L -> ~chi_40 d)
     2.53895468E-05    2    -1000024         2   # BR(~d_L -> ~chi_1- u)
     6.35631310E-02    2    -1000037         2   # BR(~d_L -> ~chi_2- u)
     9.01581625E-01    2     1000021         1   # BR(~d_L -> ~g      d)
#
#         PDG            Width
DECAY   2000001     2.24717700E+02   # sdown_R decays
#          BR         NDA      ID1       ID2
     1.32069577E-02    2     1000022         1   # BR(~d_R -> ~chi_10 d)
     6.02596821E-06    2     1000023         1   # BR(~d_R -> ~chi_20 d)
     7.59902613E-06    2     1000025         1   # BR(~d_R -> ~chi_30 d)
     9.58982082E-10    2     1000035         1   # BR(~d_R -> ~chi_40 d)
     9.86779416E-01    2     1000021         1   # BR(~d_R -> ~g      d)
#
#         PDG            Width
DECAY   1000004     2.47608191E+02   # scharm_L decays
#          BR         NDA      ID1       ID2
     3.01169441E-03    2     1000022         4   # BR(~c_L -> ~chi_10 c)
     7.01468865E-05    2     1000023         4   # BR(~c_L -> ~chi_20 c)
     5.42005963E-06    2     1000025         4   # BR(~c_L -> ~chi_30 c)
     3.17483452E-02    2     1000035         4   # BR(~c_L -> ~chi_40 c)
     2.35606504E-04    2     1000024         3   # BR(~c_L -> ~chi_1+ s)
     6.34507975E-02    2     1000037         3   # BR(~c_L -> ~chi_2+ s)
     9.01477989E-01    2     1000021         4   # BR(~c_L -> ~g      c)
#
#         PDG            Width
DECAY   2000004     2.33606114E+02   # scharm_R decays
#          BR         NDA      ID1       ID2
     5.08149586E-02    2     1000022         4   # BR(~c_R -> ~chi_10 c)
     2.31851025E-05    2     1000023         4   # BR(~c_R -> ~chi_20 c)
     2.92374907E-05    2     1000025         4   # BR(~c_R -> ~chi_30 c)
     3.68929949E-09    2     1000035         4   # BR(~c_R -> ~chi_40 c)
     9.49132615E-01    2     1000021         4   # BR(~c_R -> ~g      c)
#
#         PDG            Width
DECAY   1000003     2.47624150E+02   # sstrange_L decays
#          BR         NDA      ID1       ID2
     3.00222016E-03    2     1000022         3   # BR(~s_L -> ~chi_10 s)
     3.63828326E-05    2     1000023         3   # BR(~s_L -> ~chi_20 s)
     2.46031895E-05    2     1000025         3   # BR(~s_L -> ~chi_30 s)
     3.17666484E-02    2     1000035         3   # BR(~s_L -> ~chi_40 s)
     2.53895468E-05    2    -1000024         4   # BR(~s_L -> ~chi_1- c)
     6.35631310E-02    2    -1000037         4   # BR(~s_L -> ~chi_2- c)
     9.01581625E-01    2     1000021         3   # BR(~s_L -> ~g      s)
#
#         PDG            Width
DECAY   2000003     2.24717700E+02   # sstrange_R decays
#          BR         NDA      ID1       ID2
     1.32069577E-02    2     1000022         3   # BR(~s_R -> ~chi_10 s)
     6.02596821E-06    2     1000023         3   # BR(~s_R -> ~chi_20 s)
     7.59902613E-06    2     1000025         3   # BR(~s_R -> ~chi_30 s)
     9.58982082E-10    2     1000035         3   # BR(~s_R -> ~chi_40 s)
     9.86779416E-01    2     1000021         3   # BR(~s_R -> ~g      s)
#
#         PDG            Width
DECAY   1000011     3.02475326E+01   # selectron_L decays
#          BR         NDA      ID1       ID2
     2.26645018E-01    2     1000022        11   # BR(~e_L -> ~chi_10 e-)
     9.56641213E-04    2     1000023        11   # BR(~e_L -> ~chi_20 e-)
     7.68515296E-07    2     1000025        11   # BR(~e_L -> ~chi_30 e-)
     2.57201522E-01    2     1000035        11   # BR(~e_L -> ~chi_40 e-)
     2.11379128E-04    2    -1000024        12   # BR(~e_L -> ~chi_1- nu_e)
     5.14984671E-01    2    -1000037        12   # BR(~e_L -> ~chi_2- nu_e)
#
#         PDG            Width
DECAY   2000011     2.73635385E+01   # selectron_R decays
#          BR         NDA      ID1       ID2
     9.98974644E-01    2     1000022        11   # BR(~e_R -> ~chi_10 e-)
     4.53459854E-04    2     1000023        11   # BR(~e_R -> ~chi_20 e-)
     5.71825910E-04    2     1000025        11   # BR(~e_R -> ~chi_30 e-)
     7.03356652E-08    2     1000035        11   # BR(~e_R -> ~chi_40 e-)
#
#         PDG            Width
DECAY   1000013     3.02475326E+01   # smuon_L decays
#          BR         NDA      ID1       ID2
     2.26645018E-01    2     1000022        13   # BR(~mu_L -> ~chi_10 mu-)
     9.56641213E-04    2     1000023        13   # BR(~mu_L -> ~chi_20 mu-)
     7.68515296E-07    2     1000025        13   # BR(~mu_L -> ~chi_30 mu-)
     2.57201522E-01    2     1000035        13   # BR(~mu_L -> ~chi_40 mu-)
     2.11379128E-04    2    -1000024        14   # BR(~mu_L -> ~chi_1- nu_mu)
     5.14984671E-01    2    -1000037        14   # BR(~mu_L -> ~chi_2- nu_mu)
#
#         PDG            Width
DECAY   2000013     2.73635385E+01   # smuon_R decays
#          BR         NDA      ID1       ID2
     9.98974644E-01    2     1000022        13   # BR(~mu_R -> ~chi_10 mu-)
     4.53459854E-04    2     1000023        13   # BR(~mu_R -> ~chi_20 mu-)
     5.71825910E-04    2     1000025        13   # BR(~mu_R -> ~chi_30 mu-)
     7.03356652E-08    2     1000035        13   # BR(~mu_R -> ~chi_40 mu-)
#
#         PDG            Width
DECAY   1000015     2.90352006E+01   # stau_1 decays
#          BR         NDA      ID1       ID2
     9.26861488E-01    2     1000022        15   # BR(~tau_1 -> ~chi_10  tau-)
     1.47481443E-02    2     1000023        15   # BR(~tau_1 -> ~chi_20  tau-)
     1.36750743E-02    2     1000025        15   # BR(~tau_1 -> ~chi_30  tau-)
     5.56568901E-03    2     1000035        15   # BR(~tau_1 -> ~chi_40  tau-)
     2.80058208E-02    2    -1000024        16   # BR(~tau_1 -> ~chi_1-  nu_tau)
     1.11437835E-02    2    -1000037        16   # BR(~tau_1 -> ~chi_2-  nu_tau)
#
#         PDG            Width
DECAY   2000015     3.09938848E+01   # stau_2 decays
#          BR         NDA      ID1       ID2
     2.34711739E-01    2     1000022        15   # BR(~tau_2 -> ~chi_10  tau-)
     1.36776917E-02    2     1000023        15   # BR(~tau_2 -> ~chi_20  tau-)
     1.38135699E-02    2     1000025        15   # BR(~tau_2 -> ~chi_30  tau-)
     2.45716652E-01    2     1000035        15   # BR(~tau_2 -> ~chi_40  tau-)
     9.17541431E-05    2    -1000024        16   # BR(~tau_2 -> ~chi_1-  nu_tau)
     4.91988593E-01    2    -1000037        16   # BR(~tau_2 -> ~chi_2-  nu_tau)
#
#         PDG            Width
DECAY   1000012     3.02499075E+01   # snu_eL decays
#          BR         NDA      ID1       ID2
     2.26344271E-01    2     1000022        12   # BR(~nu_eL -> ~chi_10 nu_e)
     1.13202933E-04    2     1000023        12   # BR(~nu_eL -> ~chi_20 nu_e)
     4.79724804E-04    2     1000025        12   # BR(~nu_eL -> ~chi_30 nu_e)
     2.57272937E-01    2     1000035        12   # BR(~nu_eL -> ~chi_40 nu_e)
     1.96100563E-03    2     1000024        11   # BR(~nu_eL -> ~chi_1+ e-)
     5.13828858E-01    2     1000037        11   # BR(~nu_eL -> ~chi_2+ e-)
#
#         PDG            Width
DECAY   1000014     3.02499075E+01   # snu_muL decays
#          BR         NDA      ID1       ID2
     2.26344271E-01    2     1000022        14   # BR(~nu_muL -> ~chi_10 nu_mu)
     1.13202933E-04    2     1000023        14   # BR(~nu_muL -> ~chi_20 nu_mu)
     4.79724804E-04    2     1000025        14   # BR(~nu_muL -> ~chi_30 nu_mu)
     2.57272937E-01    2     1000035        14   # BR(~nu_muL -> ~chi_40 nu_mu)
     1.96100563E-03    2     1000024        13   # BR(~nu_muL -> ~chi_1+ mu-)
     5.13828858E-01    2     1000037        13   # BR(~nu_muL -> ~chi_2+ mu-)
#
#         PDG            Width
DECAY   1000016     3.10530265E+01   # snu_tauL decays
#          BR         NDA      ID1       ID2
     2.20466537E-01    2     1000022        16   # BR(~nu_tauL -> ~chi_10 nu_tau)
     1.10259848E-04    2     1000023        16   # BR(~nu_tauL -> ~chi_20 nu_tau)
     4.67252711E-04    2     1000025        16   # BR(~nu_tauL -> ~chi_30 nu_tau)
     2.50526992E-01    2     1000035        16   # BR(~nu_tauL -> ~chi_40 nu_tau)
     2.80728217E-02    2     1000024        15   # BR(~nu_tauL -> ~chi_1+ tau-)
     5.00356137E-01    2     1000037        15   # BR(~nu_tauL -> ~chi_2+ tau-)
#
#         PDG            Width
DECAY   1000024     7.97199645E-01   # chargino1+ decays
#          BR         NDA      ID1       ID2
     1.00000000E+00    2     1000022        24   # BR(~chi_1+ -> ~chi_10  W+)
#
#         PDG            Width
DECAY   1000037     1.92750070E+01   # chargino2+ decays
#          BR         NDA      ID1       ID2
     2.52917285E-01    2     1000024        23   # BR(~chi_2+ -> ~chi_1+  Z )
     2.27529381E-04    2     1000022        24   # BR(~chi_2+ -> ~chi_10  W+)
     2.43961040E-01    2     1000023        24   # BR(~chi_2+ -> ~chi_20  W+)
     2.43873393E-01    2     1000025        24   # BR(~chi_2+ -> ~chi_30  W+)
     2.59020161E-01    2     1000024        25   # BR(~chi_2+ -> ~chi_1+  h )
     5.91977660E-07    2     1000022        37   # BR(~chi_2+ -> ~chi_10  H+)
#
#         PDG            Width
DECAY   1000022     0.00000000E+00   # neutralino1 decays
#
#         PDG            Width
DECAY   1000023     8.36413497E-01   # neutralino2 decays
#          BR         NDA      ID1       ID2
     5.51245275E-01    2     1000022        23   # BR(~chi_20 -> ~chi_10   Z )
     4.48754725E-01    2     1000022        25   # BR(~chi_20 -> ~chi_10   h )
#
#         PDG            Width
DECAY   1000025     8.43520742E-01   # neutralino3 decays
#          BR         NDA      ID1       ID2
     4.33559440E-01    2     1000022        23   # BR(~chi_30 -> ~chi_10   Z )
     5.66440560E-01    2     1000022        25   # BR(~chi_30 -> ~chi_10   h )
#
#         PDG            Width
DECAY   1000035     1.92838180E+01   # neutralino4 decays
#          BR         NDA      ID1       ID2
     7.23290866E-05    2     1000022        23   # BR(~chi_40 -> ~chi_10   Z )
     5.16777722E-02    2     1000023        23   # BR(~chi_40 -> ~chi_20   Z )
     2.00566882E-01    2     1000025        23   # BR(~chi_40 -> ~chi_30   Z )
     2.44517113E-01    2     1000024       -24   # BR(~chi_40 -> ~chi_1+   W-)
     2.44517113E-01    2    -1000024        24   # BR(~chi_40 -> ~chi_1-   W+)
     1.59127577E-04    2     1000022        25   # BR(~chi_40 -> ~chi_10   h )
     5.39763330E-07    2     1000022        35   # BR(~chi_40 -> ~chi_10   H )
     7.32838435E-08    2     1000022        36   # BR(~chi_40 -> ~chi_10   A )
     2.06747467E-01    2     1000023        25   # BR(~chi_40 -> ~chi_20   h )
     5.17415832E-02    2     1000025        25   # BR(~chi_40 -> ~chi_30   h )
#
#         PDG            Width
DECAY        25     4.05112958E-03   # h decays
#          BR         NDA      ID1       ID2
     6.06792014E-01    2           5        -5   # BR(h -> b       bb     )
     6.40361902E-02    2         -15        15   # BR(h -> tau+    tau-   )
     2.26711273E-04    2         -13        13   # BR(h -> mu+     mu-    )
     4.80593802E-04    2           3        -3   # BR(h -> s       sb     )
     2.08259213E-02    2           4        -4   # BR(h -> c       cb     )
     6.73988656E-02    2          21        21   # BR(h -> g       g      )
     2.31808141E-03    2          22        22   # BR(h -> gam     gam    )
     1.49702325E-03    2          22        23   # BR(h -> Z       gam    )
     2.11200839E-01    2          24       -24   # BR(h -> W+      W-     )
     2.51830215E-02    2          23        23   # BR(h -> Z       Z      )
     4.07381068E-05    2     1000022   1000022   # BR(h -> ~chi_10 ~chi_10)
#
#         PDG            Width
DECAY        35     7.62600386E+00   # H decays
#          BR         NDA      ID1       ID2
     4.26527390E-01    2           5        -5   # BR(H -> b       bb     )
     7.30532608E-02    2         -15        15   # BR(H -> tau+    tau-   )
     2.58322133E-04    2         -13        13   # BR(H -> mu+     mu-    )
     3.16663346E-04    2           3        -3   # BR(H -> s       sb     )
     1.77128340E-06    2           4        -4   # BR(H -> c       cb     )
     1.76965240E-01    2           6        -6   # BR(H -> t       tb     )
     5.87720494E-05    2          21        21   # BR(H -> g       g      )
     3.62461458E-07    2          22        22   # BR(H -> gam     gam    )
     1.04511839E-07    2          23        22   # BR(H -> Z       gam    )
     8.00847172E-05    2          24       -24   # BR(H -> W+      W-     )
     3.99916793E-05    2          23        23   # BR(H -> Z       Z      )
     3.00080682E-04    2          25        25   # BR(H -> h       h      )
    -3.20751739E-24    2          36        36   # BR(H -> A       A      )
     1.20444475E-18    2          23        36   # BR(H -> Z       A      )
     7.43529138E-04    2     1000024  -1000024   # BR(H -> ~chi_1+ ~chi_1-)
     1.12040304E-03    2     1000022   1000022   # BR(H -> ~chi_10 ~chi_10)
     5.61383382E-05    2     1000023   1000023   # BR(H -> ~chi_20 ~chi_20)
     1.24043407E-04    2     1000025   1000025   # BR(H -> ~chi_30 ~chi_30)
     1.91183216E-01    2     1000022   1000023   # BR(H -> ~chi_10 ~chi_20)
     1.29047680E-01    2     1000022   1000025   # BR(H -> ~chi_10 ~chi_30)
     1.22946462E-04    2     1000023   1000025   # BR(H -> ~chi_20 ~chi_30)
#
#         PDG            Width
DECAY        36     7.64703610E+00   # A decays
#          BR         NDA      ID1       ID2
     4.25497262E-01    2           5        -5   # BR(A -> b       bb     )
     7.28545069E-02    2         -15        15   # BR(A -> tau+    tau-   )
     2.57618963E-04    2         -13        13   # BR(A -> mu+     mu-    )
     3.16032154E-04    2           3        -3   # BR(A -> s       sb     )
     1.77372443E-06    2           4        -4   # BR(A -> c       cb     )
     1.77111345E-01    2           6        -6   # BR(A -> t       tb     )
     1.75267137E-04    2          21        21   # BR(A -> g       g      )
     4.87299799E-07    2          22        22   # BR(A -> gam     gam    )
     2.12314020E-07    2          23        22   # BR(A -> Z       gam    )
     7.95624314E-05    2          23        25   # BR(A -> Z       h      )
     2.59259204E-03    2     1000024  -1000024   # BR(A -> ~chi_1+ ~chi_1-)
     1.14705552E-03    2     1000022   1000022   # BR(A -> ~chi_10 ~chi_10)
     1.46804661E-04    2     1000023   1000023   # BR(A -> ~chi_20 ~chi_20)
     7.66642650E-04    2     1000025   1000025   # BR(A -> ~chi_30 ~chi_30)
     1.30293683E-01    2     1000022   1000023   # BR(A -> ~chi_10 ~chi_20)
     1.88752186E-01    2     1000022   1000025   # BR(A -> ~chi_10 ~chi_30)
     6.96817860E-06    2     1000023   1000025   # BR(A -> ~chi_20 ~chi_30)
#
#         PDG            Width
DECAY        37     7.62619420E+00   # H+ decays
#          BR         NDA      ID1       ID2
     6.86448306E-04    2           4        -5   # BR(H+ -> c       bb     )
     7.30747627E-02    2         -15        16   # BR(H+ -> tau+    nu_tau )
     2.58397804E-04    2         -13        14   # BR(H+ -> mu+     nu_mu  )
     4.39324662E-06    2           2        -5   # BR(H+ -> u       bb     )
     1.51622480E-05    2           2        -3   # BR(H+ -> u       sb     )
     3.13556267E-04    2           4        -3   # BR(H+ -> c       sb     )
     6.02907142E-01    2           6        -5   # BR(H+ -> t       bb     )
     7.99004068E-05    2          24        25   # BR(H+ -> W+      h      )
     8.51596624E-14    2          24        36   # BR(H+ -> W+      A      )
     3.22238433E-01    2     1000024   1000022   # BR(H+ -> ~chi_1+ ~chi_10)
     3.55697415E-04    2     1000024   1000023   # BR(H+ -> ~chi_1+ ~chi_20)
     6.61070763E-05    2     1000024   1000025   # BR(H+ -> ~chi_1+ ~chi_30)
