#
#                              ======================
#                              | THE SUSYHIT OUTPUT |
#                              ======================
#
#
#              ------------------------------------------------------
#              |     This is the output of the SUSY-HIT package     |
#              |  created by A.Djouadi, M.Muehlleitner and M.Spira. |
#              |  In case of problems with SUSY-HIT email to        |
#              |           margarete.muehlleitner@cern.ch           |
#              |           michael.spira@psi.ch                     |
#              |           abdelhak.djouadi@cern.ch                 |
#              ------------------------------------------------------
#
#              ------------------------------------------------------
#              |  SUSY Les Houches Accord - MSSM Spectrum + Decays  |
#              |              based on the decay programs           |
#              |                                                    |
#              |                     SDECAY 1.3b                    |
#              |                                                    |
#              |  Authors: M.Muhlleitner, A.Djouadi and Y.Mambrini  |
#              |  Ref.:    Comput.Phys.Commun.168(2005)46           |
#              |           [hep-ph/0311167]                         |
#              |                                                    |
#              |                     HDECAY 3.4                     |
#              |                                                    |
#              |  By: A.Djouadi,J.Kalinowski,M.Muhlleitner,M.Spira  |
#              |  Ref.:    Comput.Phys.Commun.108(1998)56           |
#              |           [hep-ph/9704448]                         |
#              |                                                    |
#              |                                                    |
#              |  If not stated otherwise all DRbar couplings and   |
#              |  soft SUSY breaking masses are given at the scale  |
#              |  Q=  0.50007364E+04
#              |                                                    |
#              ------------------------------------------------------
#
#
BLOCK DCINFO  # Decay Program information
     1   SDECAY/HDECAY # decay calculator
     2   1.3b  /3.4    # version number
#
BLOCK SPINFO  # Spectrum calculator information
     1    SOFTSUSY    # spectrum calculator                
     2    3.4.0       # version number                     
#
BLOCK MODSEL  # Model selection
     1     0   #  nonUniversal                                     
#
BLOCK SMINPUTS  # Standard Model inputs
         1     1.25778332E+02   # alpha_em^-1(M_Z)^MSbar
         2     1.16570000E-05   # G_F [GeV^-2]
         3     1.17200002E-01   # alpha_S(M_Z)^MSbar
         4     9.11876000E+01   # M_Z pole mass
         5     4.25000000E+00   # mb(mb)^MSbar
         6     1.72500000E+02   # mt pole mass
         7     1.77682000E+00   # mtau pole mass
#
BLOCK MINPAR  # Input parameters - minimal models
         3     1.00000000E+01   # tanb                
#
BLOCK EXTPAR  # Input parameters - non-minimal models
         0    -1.00000000E+00   # Set                 
         1     6.00000000E+01   # M_1(MX)             
         2     3.00000000E+03   # M_2(MX)             
         3     1.76109300E+03   # M_3(MX)             
        11     5.00000000E+03   # At(MX)              
        12     5.00000000E+03   # Ab(MX)              
        13     0.00000000E+00   # Atau(MX)            
        23    -1.05626500E+03   # mu(MX)              
        26     3.00000000E+03   # mA(pole)            
        31     5.00000000E+03   # meL(MX)             
        32     5.00000000E+03   # mmuL(MX)            
        33     5.00000000E+03   # mtauL(MX)           
        34     5.00000000E+03   # meR(MX)             
        35     5.00000000E+03   # mmuR(MX)            
        36     5.00000000E+03   # mtauR(MX)           
        41     5.00000000E+03   # mqL1(MX)            
        42     5.00000000E+03   # mqL2(MX)            
        43     5.00000000E+03   # mqL3(MX)            
        44     5.00000000E+03   # muR(MX)             
        45     5.00000000E+03   # mcR(MX)             
        46     5.00000000E+03   # mtR(MX)             
        47     5.00000000E+03   # mdR(MX)             
        48     5.00000000E+03   # msR(MX)             
        49     5.00000000E+03   # mbR(MX)             
#
BLOCK MASS  # Mass Spectrum
# PDG code           mass       particle
        24     8.00955406E+01   # W+
        25     1.24784792E+02   # h
        35     3.00008324E+03   # H
        36     2.99999741E+03   # A
        37     3.00102468E+03   # H+
         5     4.87878001E+00   # b-quark pole mass calculated from mb(mb)_Msbar
   1000001     5.07327249E+03   # ~d_L
   2000001     5.05548164E+03   # ~d_R
   1000002     5.07279924E+03   # ~u_L
   2000002     5.05519857E+03   # ~u_R
   1000003     5.07327249E+03   # ~s_L
   2000003     5.05548164E+03   # ~s_R
   1000004     5.07279924E+03   # ~c_L
   2000004     5.05519857E+03   # ~c_R
   1000005     5.01901156E+03   # ~b_1
   2000005     5.05405405E+03   # ~b_2
   1000006     4.91020513E+03   # ~t_1
   2000006     5.06400201E+03   # ~t_2
   1000011     5.01906531E+03   # ~e_L
   2000011     5.00592111E+03   # ~e_R
   1000012     5.01811688E+03   # ~nu_eL
   1000013     5.01906531E+03   # ~mu_L
   2000013     5.00592111E+03   # ~mu_R
   1000014     5.01811688E+03   # ~nu_muL
   1000015     5.00457010E+03   # ~tau_1
   2000015     5.01880491E+03   # ~tau_2
   1000016     5.01757203E+03   # ~nu_tauL
   1000021     2.10000008E+03   # ~g
   1000022     6.03010066E+01   # ~chi_10
   1000023     1.09959029E+03   # ~chi_20
   1000025    -1.10186376E+03   # ~chi_30
   1000035     3.07427175E+03   # ~chi_40
   1000024     1.10000024E+03   # ~chi_1+
   1000037     3.07443919E+03   # ~chi_2+
#
BLOCK NMIX  # Neutralino Mixing Matrix
  1  1     9.99178418E-01   # N_11
  1  2     1.73965608E-04   # N_12
  1  3    -4.04774995E-02   # N_13
  1  4     2.00790737E-03   # N_14
  2  1     2.72084151E-02   # N_21
  2  2     2.46695447E-02   # N_22
  2  3     7.06784963E-01   # N_23
  2  4     7.06474438E-01   # N_24
  3  1    -3.00337386E-02   # N_31
  3  2     1.45508535E-02   # N_32
  3  3    -7.06233237E-01   # N_33
  3  4     7.07192238E-01   # N_34
  4  1    -4.08192824E-04   # N_41
  4  2     9.99589744E-01   # N_42
  4  3    -7.15566079E-03   # N_43
  4  4    -2.77303792E-02   # N_44
#
BLOCK UMIX  # Chargino Mixing Matrix U
  1  1     1.01341938E-02   # U_11
  1  2     9.99948648E-01   # U_12
  2  1    -9.99948648E-01   # U_21
  2  2     1.01341938E-02   # U_22
#
BLOCK VMIX  # Chargino Mixing Matrix V
  1  1     3.92463319E-02   # V_11
  1  2    -9.99229566E-01   # V_12
  2  1    -9.99229566E-01   # V_21
  2  2    -3.92463319E-02   # V_22
#
BLOCK STOPMIX  # Stop Mixing Matrix
  1  1    -5.07205770E-01   # cos(theta_t)
  1  2     8.61824986E-01   # sin(theta_t)
  2  1    -8.61824986E-01   # -sin(theta_t)
  2  2    -5.07205770E-01   # cos(theta_t)
#
BLOCK SBOTMIX  # Sbottom Mixing Matrix
  1  1     9.96659216E-01   # cos(theta_b)
  1  2    -8.16725606E-02   # sin(theta_b)
  2  1     8.16725606E-02   # -sin(theta_b)
  2  2     9.96659216E-01   # cos(theta_b)
#
BLOCK STAUMIX  # Stau Mixing Matrix
  1  1    -1.25029747E-01   # cos(theta_tau)
  1  2     9.92152993E-01   # sin(theta_tau)
  2  1    -9.92152993E-01   # -sin(theta_tau)
  2  2    -1.25029747E-01   # cos(theta_tau)
#
BLOCK ALPHA  # Higgs mixing
          -1.05474365E-01   # Mixing angle in the neutral Higgs boson sector
#
BLOCK HMIX Q=  5.00073644E+03  # DRbar Higgs Parameters
         1    -1.07563769E+03   # mu(Q)MSSM           
         2     9.46974032E+00   # tan                 
         3     2.41873946E+02   # higgs               
         4     8.48997984E+06   # mA^2(Q)MSSM         
#
BLOCK GAUGE Q=  5.00073644E+03  # The gauge couplings
     1     3.70773430E-01   # gprime(Q) DRbar
     2     6.32439918E-01   # g(Q) DRbar
     3     9.97785866E-01   # g3(Q) DRbar
#
BLOCK AU Q=  5.00073644E+03  # The trilinear couplings
  1  1     5.00000001E+03   # A_u(Q) DRbar
  2  2     5.00000001E+03   # A_c(Q) DRbar
  3  3     5.00000002E+03   # A_t(Q) DRbar
#
BLOCK AD Q=  5.00073644E+03  # The trilinear couplings
  1  1     5.00000001E+03   # A_d(Q) DRbar
  2  2     5.00000001E+03   # A_s(Q) DRbar
  3  3     5.00000001E+03   # A_b(Q) DRbar
#
BLOCK AE Q=  5.00073644E+03  # The trilinear couplings
  1  1     0.00000000E+00   # A_e(Q) DRbar
  2  2     1.90179853E-07   # A_mu(Q) DRbar
  3  3     1.89878338E-07   # A_tau(Q) DRbar
#
BLOCK Yu Q=  5.00073644E+03  # The Yukawa couplings
  1  1     0.00000000E+00   # y_u(Q) DRbar
  2  2     0.00000000E+00   # y_c(Q) DRbar
  3  3     8.20119824E-01   # y_t(Q) DRbar
#
BLOCK Yd Q=  5.00073644E+03  # The Yukawa couplings
  1  1     0.00000000E+00   # y_d(Q) DRbar
  2  2     0.00000000E+00   # y_s(Q) DRbar
  3  3     1.30844274E-01   # y_b(Q) DRbar
#
BLOCK Ye Q=  5.00073644E+03  # The Yukawa couplings
  1  1     0.00000000E+00   # y_e(Q) DRbar
  2  2     0.00000000E+00   # y_mu(Q) DRbar
  3  3     9.68041234E-02   # y_tau(Q) DRbar
#
BLOCK MSOFT Q=  5.00073644E+03  # The soft SUSY breaking masses at the scale Q
         1     6.00000000E+01   # M_1(Q)              
         2     3.00000000E+03   # M_2(Q)              
         3     1.76109300E+03   # M_3(Q)              
        21     7.53420711E+06   # mH1^2(Q)            
        22    -5.95203185E+05   # mH2^2(Q)            
        31     5.00000000E+03   # meL(Q)              
        32     5.00000000E+03   # mmuL(Q)             
        33     5.00000000E+03   # mtauL(Q)            
        34     5.00000000E+03   # meR(Q)              
        35     5.00000000E+03   # mmuR(Q)             
        36     5.00000000E+03   # mtauR(Q)            
        41     5.00000000E+03   # mqL1(Q)             
        42     5.00000000E+03   # mqL2(Q)             
        43     4.99999999E+03   # mqL3(Q)             
        44     5.00000000E+03   # muR(Q)              
        45     5.00000000E+03   # mcR(Q)              
        46     4.99999999E+03   # mtR(Q)              
        47     5.00000000E+03   # mdR(Q)              
        48     5.00000000E+03   # msR(Q)              
        49     5.00000000E+03   # mbR(Q)              
#
#
#
#                             =================
#                             |The decay table|
#                             =================
#
# - The QCD corrections to the decays gluino -> squark  + quark
#                                     squark -> gaugino + quark_prime
#                                     squark -> squark_prime + Higgs
#                                     squark -> gluino  + quark
#   are included.
#
# - The multi-body decays for the inos, stops and sbottoms are included.
#
# - The loop induced decays for the gluino, neutralinos and stops
#   are included.
#
# - The SUSY decays of the top quark are included.
#
#
#         PDG            Width
DECAY         6     1.40164288E+00   # top decays
#          BR         NDA      ID1       ID2
     1.00000000E+00    2           5        24   # BR(t ->  b    W+)
#
#         PDG            Width
DECAY   1000021     7.94533537E-04   # gluino decays
#          BR         NDA      ID1       ID2
     3.98479258E-06    2     1000022        21   # BR(~g -> ~chi_10 g)
     9.31874772E-03    2     1000023        21   # BR(~g -> ~chi_20 g)
     9.19195010E-03    2     1000025        21   # BR(~g -> ~chi_30 g)
#           BR         NDA      ID1       ID2       ID3
     3.79048555E-02    3     1000022         1        -1   # BR(~g -> ~chi_10 d  db)
     1.91229235E-05    3     1000023         1        -1   # BR(~g -> ~chi_20 d  db)
     8.15988300E-06    3     1000025         1        -1   # BR(~g -> ~chi_30 d  db)
     1.29241826E-01    3     1000022         2        -2   # BR(~g -> ~chi_10 u  ub)
     5.31096292E-05    3     1000023         2        -2   # BR(~g -> ~chi_20 u  ub)
     9.31032310E-06    3     1000025         2        -2   # BR(~g -> ~chi_30 u  ub)
     3.79048555E-02    3     1000022         3        -3   # BR(~g -> ~chi_10 s  sb)
     1.91229235E-05    3     1000023         3        -3   # BR(~g -> ~chi_20 s  sb)
     8.15988300E-06    3     1000025         3        -3   # BR(~g -> ~chi_30 s  sb)
     1.29241826E-01    3     1000022         4        -4   # BR(~g -> ~chi_10 c  cb)
     5.31096292E-05    3     1000023         4        -4   # BR(~g -> ~chi_20 c  cb)
     9.31032310E-06    3     1000025         4        -4   # BR(~g -> ~chi_30 c  cb)
     3.84275234E-02    3     1000022         5        -5   # BR(~g -> ~chi_10 b  bb)
     3.59069932E-03    3     1000023         5        -5   # BR(~g -> ~chi_20 b  bb)
     3.53250900E-03    3     1000025         5        -5   # BR(~g -> ~chi_30 b  bb)
     1.27051527E-01    3     1000022         6        -6   # BR(~g -> ~chi_10 t  tb)
     1.18886943E-01    3     1000023         6        -6   # BR(~g -> ~chi_20 t  tb)
     9.81096912E-02    3     1000025         6        -6   # BR(~g -> ~chi_30 t  tb)
     5.38426404E-05    3     1000024         1        -2   # BR(~g -> ~chi_1+ d  ub)
     5.38426404E-05    3    -1000024         2        -1   # BR(~g -> ~chi_1- u  db)
     5.38426404E-05    3     1000024         3        -4   # BR(~g -> ~chi_1+ s  cb)
     5.38426404E-05    3    -1000024         4        -3   # BR(~g -> ~chi_1- c  sb)
     1.28599142E-01    3     1000024         5        -6   # BR(~g -> ~chi_1+ b  tb)
     1.28599142E-01    3    -1000024         6        -5   # BR(~g -> ~chi_1- t  bb)
#
#         PDG            Width
DECAY   1000006     3.30437828E+02   # stop1 decays
#          BR         NDA      ID1       ID2
     2.67916813E-02    2     1000022         6   # BR(~t_1 -> ~chi_10 t )
     9.03828859E-02    2     1000023         6   # BR(~t_1 -> ~chi_20 t )
     8.68950057E-02    2     1000025         6   # BR(~t_1 -> ~chi_30 t )
     6.29909975E-03    2     1000035         6   # BR(~t_1 -> ~chi_40 t )
     1.31636355E-01    2     1000024         5   # BR(~t_1 -> ~chi_1+ b )
     1.25466007E-02    2     1000037         5   # BR(~t_1 -> ~chi_2+ b )
     6.45448372E-01    2     1000021         6   # BR(~t_1 -> ~g      t )
#
#         PDG            Width
DECAY   2000006     3.38774260E+02   # stop2 decays
#          BR         NDA      ID1       ID2
     1.02740972E-02    2     1000022         6   # BR(~t_2 -> ~chi_10 t )
     9.05093360E-02    2     1000023         6   # BR(~t_2 -> ~chi_20 t )
     9.42333553E-02    2     1000025         6   # BR(~t_2 -> ~chi_30 t )
     1.63975659E-02    2     1000035         6   # BR(~t_2 -> ~chi_40 t )
     5.37655431E-02    2     1000024         5   # BR(~t_2 -> ~chi_1+ b )
     3.26149838E-02    2     1000037         5   # BR(~t_2 -> ~chi_2+ b )
     6.98493996E-01    2     1000021         6   # BR(~t_2 -> ~g      t )
     8.41533490E-04    2     1000006        25   # BR(~t_2 -> ~t_1    h )
     2.86958934E-03    2     1000006        23   # BR(~t_2 -> ~t_1    Z )
#
#         PDG            Width
DECAY   1000005     3.14145925E+02   # sbottom1 decays
#          BR         NDA      ID1       ID2
     2.46234462E-03    2     1000022         5   # BR(~b_1 -> ~chi_10 b )
     2.51254075E-03    2     1000023         5   # BR(~b_1 -> ~chi_20 b )
     2.43388735E-03    2     1000025         5   # BR(~b_1 -> ~chi_30 b )
     2.39919154E-02    2     1000035         5   # BR(~b_1 -> ~chi_40 b )
     1.92910790E-01    2    -1000024         6   # BR(~b_1 -> ~chi_1- t )
     4.82186464E-02    2    -1000037         6   # BR(~b_1 -> ~chi_2- t )
     7.25704744E-01    2     1000021         5   # BR(~b_1 -> ~g      b )
     1.76513064E-03    2     1000006       -24   # BR(~b_1 -> ~t_1    W-)
#
#         PDG            Width
DECAY   2000005     2.37323725E+02   # sbottom2 decays
#          BR         NDA      ID1       ID2
     1.23639824E-02    2     1000022         5   # BR(~b_2 -> ~chi_10 b )
     3.29154699E-03    2     1000023         5   # BR(~b_2 -> ~chi_20 b )
     3.38844170E-03    2     1000025         5   # BR(~b_2 -> ~chi_30 b )
     2.16521797E-04    2     1000035         5   # BR(~b_2 -> ~chi_40 b )
     8.22943853E-03    2    -1000024         6   # BR(~b_2 -> ~chi_1- t )
     4.35086567E-04    2    -1000037         6   # BR(~b_2 -> ~chi_2- t )
     9.72008693E-01    2     1000021         5   # BR(~b_2 -> ~g      b )
     6.62886161E-05    2     1000006       -24   # BR(~b_2 -> ~t_1    W-)
#
#         PDG            Width
DECAY   1000002     2.56530443E+02   # sup_L decays
#          BR         NDA      ID1       ID2
     2.90765487E-03    2     1000022         2   # BR(~u_L -> ~chi_10 u)
     6.23035589E-05    2     1000023         2   # BR(~u_L -> ~chi_20 u)
     5.22022262E-06    2     1000025         2   # BR(~u_L -> ~chi_30 u)
     3.06400873E-02    2     1000035         2   # BR(~u_L -> ~chi_40 u)
     2.13429651E-04    2     1000024         1   # BR(~u_L -> ~chi_1+ d)
     6.12381074E-02    2     1000037         1   # BR(~u_L -> ~chi_2+ d)
     9.04933197E-01    2     1000021         2   # BR(~u_L -> ~g      u)
#
#         PDG            Width
DECAY   2000002     2.42559534E+02   # sup_R decays
#          BR         NDA      ID1       ID2
     4.89418196E-02    2     1000022         2   # BR(~u_R -> ~chi_10 u)
     3.30081457E-05    2     1000023         2   # BR(~u_R -> ~chi_20 u)
     4.02027705E-05    2     1000025         2   # BR(~u_R -> ~chi_30 u)
     3.26447448E-09    2     1000035         2   # BR(~u_R -> ~chi_40 u)
     9.50984966E-01    2     1000021         2   # BR(~u_R -> ~g      u)
#
#         PDG            Width
DECAY   1000001     2.56545483E+02   # sdown_L decays
#          BR         NDA      ID1       ID2
     2.89741507E-03    2     1000022         1   # BR(~d_L -> ~chi_10 d)
     2.59510728E-05    2     1000023         1   # BR(~d_L -> ~chi_20 d)
     2.88814180E-05    2     1000025         1   # BR(~d_L -> ~chi_30 d)
     3.06575260E-02    2     1000035         1   # BR(~d_L -> ~chi_40 d)
     1.42317529E-05    2    -1000024         2   # BR(~d_L -> ~chi_1- u)
     6.13415998E-02    2    -1000037         2   # BR(~d_L -> ~chi_2- u)
     9.05034395E-01    2     1000021         1   # BR(~d_L -> ~g      d)
#
#         PDG            Width
DECAY   2000001     2.33666597E+02   # sdown_R decays
#          BR         NDA      ID1       ID2
     1.27018355E-02    2     1000022         1   # BR(~d_R -> ~chi_10 d)
     8.56667317E-06    2     1000023         1   # BR(~d_R -> ~chi_20 d)
     1.04339097E-05    2     1000025         1   # BR(~d_R -> ~chi_30 d)
     8.47336702E-10    2     1000035         1   # BR(~d_R -> ~chi_40 d)
     9.87279163E-01    2     1000021         1   # BR(~d_R -> ~g      d)
#
#         PDG            Width
DECAY   1000004     2.56530443E+02   # scharm_L decays
#          BR         NDA      ID1       ID2
     2.90765487E-03    2     1000022         4   # BR(~c_L -> ~chi_10 c)
     6.23035589E-05    2     1000023         4   # BR(~c_L -> ~chi_20 c)
     5.22022262E-06    2     1000025         4   # BR(~c_L -> ~chi_30 c)
     3.06400873E-02    2     1000035         4   # BR(~c_L -> ~chi_40 c)
     2.13429651E-04    2     1000024         3   # BR(~c_L -> ~chi_1+ s)
     6.12381074E-02    2     1000037         3   # BR(~c_L -> ~chi_2+ s)
     9.04933197E-01    2     1000021         4   # BR(~c_L -> ~g      c)
#
#         PDG            Width
DECAY   2000004     2.42559534E+02   # scharm_R decays
#          BR         NDA      ID1       ID2
     4.89418196E-02    2     1000022         4   # BR(~c_R -> ~chi_10 c)
     3.30081457E-05    2     1000023         4   # BR(~c_R -> ~chi_20 c)
     4.02027705E-05    2     1000025         4   # BR(~c_R -> ~chi_30 c)
     3.26447448E-09    2     1000035         4   # BR(~c_R -> ~chi_40 c)
     9.50984966E-01    2     1000021         4   # BR(~c_R -> ~g      c)
#
#         PDG            Width
DECAY   1000003     2.56545483E+02   # sstrange_L decays
#          BR         NDA      ID1       ID2
     2.89741507E-03    2     1000022         3   # BR(~s_L -> ~chi_10 s)
     2.59510728E-05    2     1000023         3   # BR(~s_L -> ~chi_20 s)
     2.88814180E-05    2     1000025         3   # BR(~s_L -> ~chi_30 s)
     3.06575260E-02    2     1000035         3   # BR(~s_L -> ~chi_40 s)
     1.42317529E-05    2    -1000024         4   # BR(~s_L -> ~chi_1- c)
     6.13415998E-02    2    -1000037         4   # BR(~s_L -> ~chi_2- c)
     9.05034395E-01    2     1000021         3   # BR(~s_L -> ~g      s)
#
#         PDG            Width
DECAY   2000003     2.33666597E+02   # sstrange_R decays
#          BR         NDA      ID1       ID2
     1.27018355E-02    2     1000022         3   # BR(~s_R -> ~chi_10 s)
     8.56667317E-06    2     1000023         3   # BR(~s_R -> ~chi_20 s)
     1.04339097E-05    2     1000025         3   # BR(~s_R -> ~chi_30 s)
     8.47336702E-10    2     1000035         3   # BR(~s_R -> ~chi_40 s)
     9.87279163E-01    2     1000021         3   # BR(~s_R -> ~g      s)
#
#         PDG            Width
DECAY   1000011     3.02622482E+01   # selectron_L decays
#          BR         NDA      ID1       ID2
     2.26494488E-01    2     1000022        11   # BR(~e_L -> ~chi_10 e-)
     9.86806342E-04    2     1000023        11   # BR(~e_L -> ~chi_20 e-)
     5.58544524E-06    2     1000025        11   # BR(~e_L -> ~chi_30 e-)
     2.57280488E-01    2     1000035        11   # BR(~e_L -> ~chi_40 e-)
     1.22832285E-04    2    -1000024        12   # BR(~e_L -> ~chi_1- nu_e)
     5.15109800E-01    2    -1000037        12   # BR(~e_L -> ~chi_2- nu_e)
#
#         PDG            Width
DECAY   2000011     2.73695796E+01   # selectron_R decays
#          BR         NDA      ID1       ID2
     9.98511953E-01    2     1000022        11   # BR(~e_R -> ~chi_10 e-)
     6.70881540E-04    2     1000023        11   # BR(~e_R -> ~chi_20 e-)
     8.17101210E-04    2     1000025        11   # BR(~e_R -> ~chi_30 e-)
     6.46677861E-08    2     1000035        11   # BR(~e_R -> ~chi_40 e-)
#
#         PDG            Width
DECAY   1000013     3.02622482E+01   # smuon_L decays
#          BR         NDA      ID1       ID2
     2.26494488E-01    2     1000022        13   # BR(~mu_L -> ~chi_10 mu-)
     9.86806342E-04    2     1000023        13   # BR(~mu_L -> ~chi_20 mu-)
     5.58544524E-06    2     1000025        13   # BR(~mu_L -> ~chi_30 mu-)
     2.57280488E-01    2     1000035        13   # BR(~mu_L -> ~chi_40 mu-)
     1.22832285E-04    2    -1000024        14   # BR(~mu_L -> ~chi_1- nu_mu)
     5.15109800E-01    2    -1000037        14   # BR(~mu_L -> ~chi_2- nu_mu)
#
#         PDG            Width
DECAY   2000013     2.73695796E+01   # smuon_R decays
#          BR         NDA      ID1       ID2
     9.98511953E-01    2     1000022        13   # BR(~mu_R -> ~chi_10 mu-)
     6.70881540E-04    2     1000023        13   # BR(~mu_R -> ~chi_20 mu-)
     8.17101210E-04    2     1000025        13   # BR(~mu_R -> ~chi_30 mu-)
     6.46677861E-08    2     1000035        13   # BR(~mu_R -> ~chi_40 mu-)
#
#         PDG            Width
DECAY   1000015     2.90946991E+01   # stau_1 decays
#          BR         NDA      ID1       ID2
     9.28968053E-01    2     1000022        15   # BR(~tau_1 -> ~chi_10  tau-)
     1.53517707E-02    2     1000023        15   # BR(~tau_1 -> ~chi_20  tau-)
     1.44824868E-02    2     1000025        15   # BR(~tau_1 -> ~chi_30  tau-)
     4.04099049E-03    2     1000035        15   # BR(~tau_1 -> ~chi_40  tau-)
     2.90663393E-02    2    -1000024        16   # BR(~tau_1 -> ~chi_1-  nu_tau)
     8.09035946E-03    2    -1000037        16   # BR(~tau_1 -> ~chi_2-  nu_tau)
#
#         PDG            Width
DECAY   2000015     3.10606684E+01   # stau_2 decays
#          BR         NDA      ID1       ID2
     2.30233177E-01    2     1000022        15   # BR(~tau_2 -> ~chi_10  tau-)
     1.44015314E-02    2     1000023        15   # BR(~tau_2 -> ~chi_20  tau-)
     1.43386034E-02    2     1000025        15   # BR(~tau_2 -> ~chi_30  tau-)
     2.46801273E-01    2     1000035        15   # BR(~tau_2 -> ~chi_40  tau-)
     9.61074960E-05    2    -1000024        16   # BR(~tau_2 -> ~chi_1-  nu_tau)
     4.94129307E-01    2    -1000037        16   # BR(~tau_2 -> ~chi_2-  nu_tau)
#
#         PDG            Width
DECAY   1000012     3.02649135E+01   # snu_eL decays
#          BR         NDA      ID1       ID2
     2.26162896E-01    2     1000022        12   # BR(~nu_eL -> ~chi_10 nu_e)
     4.54434037E-05    2     1000023        12   # BR(~nu_eL -> ~chi_20 nu_e)
     6.18026767E-04    2     1000025        12   # BR(~nu_eL -> ~chi_30 nu_e)
     2.57338775E-01    2     1000035        12   # BR(~nu_eL -> ~chi_40 nu_e)
     1.84160030E-03    2     1000024        11   # BR(~nu_eL -> ~chi_1+ e-)
     5.13993259E-01    2     1000037        11   # BR(~nu_eL -> ~chi_2+ e-)
#
#         PDG            Width
DECAY   1000014     3.02649135E+01   # snu_muL decays
#          BR         NDA      ID1       ID2
     2.26162896E-01    2     1000022        14   # BR(~nu_muL -> ~chi_10 nu_mu)
     4.54434037E-05    2     1000023        14   # BR(~nu_muL -> ~chi_20 nu_mu)
     6.18026767E-04    2     1000025        14   # BR(~nu_muL -> ~chi_30 nu_mu)
     2.57338775E-01    2     1000035        14   # BR(~nu_muL -> ~chi_40 nu_mu)
     1.84160030E-03    2     1000024        13   # BR(~nu_muL -> ~chi_1+ mu-)
     5.13993259E-01    2     1000037        13   # BR(~nu_muL -> ~chi_2+ mu-)
#
#         PDG            Width
DECAY   1000016     3.11031853E+01   # snu_tauL decays
#          BR         NDA      ID1       ID2
     2.20043600E-01    2     1000022        16   # BR(~nu_tauL -> ~chi_10 nu_tau)
     4.42128743E-05    2     1000023        16   # BR(~nu_tauL -> ~chi_20 nu_tau)
     6.01291605E-04    2     1000025        16   # BR(~nu_tauL -> ~chi_30 nu_tau)
     2.50310628E-01    2     1000035        16   # BR(~nu_tauL -> ~chi_40 nu_tau)
     2.90448310E-02    2     1000024        15   # BR(~nu_tauL -> ~chi_1+ tau-)
     4.99955436E-01    2     1000037        15   # BR(~nu_tauL -> ~chi_2+ tau-)
#
#         PDG            Width
DECAY   1000024     6.71727268E-01   # chargino1+ decays
#          BR         NDA      ID1       ID2
     1.00000000E+00    2     1000022        24   # BR(~chi_1+ -> ~chi_10  W+)
#
#         PDG            Width
DECAY   1000037     2.00497909E+01   # chargino2+ decays
#          BR         NDA      ID1       ID2
     2.53107073E-01    2     1000024        23   # BR(~chi_2+ -> ~chi_1+  Z )
     2.05836423E-04    2     1000022        24   # BR(~chi_2+ -> ~chi_10  W+)
     2.44060251E-01    2     1000023        24   # BR(~chi_2+ -> ~chi_20  W+)
     2.44034329E-01    2     1000025        24   # BR(~chi_2+ -> ~chi_30  W+)
     2.58591580E-01    2     1000024        25   # BR(~chi_2+ -> ~chi_1+  h )
     9.30349878E-07    2     1000022        37   # BR(~chi_2+ -> ~chi_10  H+)
#
#         PDG            Width
DECAY   1000022     0.00000000E+00   # neutralino1 decays
#
#         PDG            Width
DECAY   1000023     7.02929576E-01   # neutralino2 decays
#          BR         NDA      ID1       ID2
     5.44441006E-01    2     1000022        23   # BR(~chi_20 -> ~chi_10   Z )
     4.55558994E-01    2     1000022        25   # BR(~chi_20 -> ~chi_10   h )
#
#         PDG            Width
DECAY   1000025     7.07402787E-01   # neutralino3 decays
#          BR         NDA      ID1       ID2
     4.43587739E-01    2     1000022        23   # BR(~chi_30 -> ~chi_10   Z )
     5.56412261E-01    2     1000022        25   # BR(~chi_30 -> ~chi_10   h )
#
#         PDG            Width
DECAY   1000035     2.00634631E+01   # neutralino4 decays
#          BR         NDA      ID1       ID2
     5.54567499E-05    2     1000022        23   # BR(~chi_40 -> ~chi_10   Z )
     6.53752881E-02    2     1000023        23   # BR(~chi_40 -> ~chi_20   Z )
     1.87013853E-01    2     1000025        23   # BR(~chi_40 -> ~chi_30   Z )
     2.44697651E-01    2     1000024       -24   # BR(~chi_40 -> ~chi_1+   W-)
     2.44697651E-01    2    -1000024        24   # BR(~chi_40 -> ~chi_1-   W+)
     1.52333330E-04    2     1000022        25   # BR(~chi_40 -> ~chi_10   h )
     8.62312355E-07    2     1000022        35   # BR(~chi_40 -> ~chi_10   H )
     1.09046826E-07    2     1000022        36   # BR(~chi_40 -> ~chi_10   A )
     1.92475410E-01    2     1000023        25   # BR(~chi_40 -> ~chi_20   h )
     6.55313858E-02    2     1000025        25   # BR(~chi_40 -> ~chi_30   h )
#
#         PDG            Width
DECAY        25     4.05599421E-03   # h decays
#          BR         NDA      ID1       ID2
     6.07704553E-01    2           5        -5   # BR(h -> b       bb     )
     6.39528084E-02    2         -15        15   # BR(h -> tau+    tau-   )
     2.26416144E-04    2         -13        13   # BR(h -> mu+     mu-    )
     4.79980388E-04    2           3        -3   # BR(h -> s       sb     )
     2.07987159E-02    2           4        -4   # BR(h -> c       cb     )
     6.72918993E-02    2          21        21   # BR(h -> g       g      )
     2.31392016E-03    2          22        22   # BR(h -> gam     gam    )
     1.49296441E-03    2          22        23   # BR(h -> Z       gam    )
     2.10587482E-01    2          24       -24   # BR(h -> W+      W-     )
     2.51005524E-02    2          23        23   # BR(h -> Z       Z      )
     5.07079354E-05    2     1000022   1000022   # BR(h -> ~chi_10 ~chi_10)
#
#         PDG            Width
DECAY        35     7.95375087E+00   # H decays
#          BR         NDA      ID1       ID2
     4.06973956E-01    2           5        -5   # BR(H -> b       bb     )
     7.00424024E-02    2         -15        15   # BR(H -> tau+    tau-   )
     2.47675498E-04    2         -13        13   # BR(H -> mu+     mu-    )
     3.03612180E-04    2           3        -3   # BR(H -> s       sb     )
     1.69836119E-06    2           4        -4   # BR(H -> c       cb     )
     1.69679735E-01    2           6        -6   # BR(H -> t       tb     )
     5.63722445E-05    2          21        21   # BR(H -> g       g      )
     3.01293419E-07    2          22        22   # BR(H -> gam     gam    )
     1.00193483E-07    2          23        22   # BR(H -> Z       gam    )
     7.77185841E-05    2          24       -24   # BR(H -> W+      W-     )
     3.88101075E-05    2          23        23   # BR(H -> Z       Z      )
     2.89233432E-04    2          25        25   # BR(H -> h       h      )
    -6.09353215E-24    2          36        36   # BR(H -> A       A      )
     9.13064012E-19    2          23        36   # BR(H -> Z       A      )
     1.60365250E-03    2     1000024  -1000024   # BR(H -> ~chi_1+ ~chi_1-)
     1.50019610E-03    2     1000022   1000022   # BR(H -> ~chi_10 ~chi_10)
     5.87030009E-05    2     1000023   1000023   # BR(H -> ~chi_20 ~chi_20)
     3.73174419E-04    2     1000025   1000025   # BR(H -> ~chi_30 ~chi_30)
     2.08854469E-01    2     1000022   1000023   # BR(H -> ~chi_10 ~chi_20)
     1.39555758E-01    2     1000022   1000025   # BR(H -> ~chi_10 ~chi_30)
     3.42430907E-04    2     1000023   1000025   # BR(H -> ~chi_20 ~chi_30)
#
#         PDG            Width
DECAY        36     7.97223045E+00   # A decays
#          BR         NDA      ID1       ID2
     4.06167290E-01    2           5        -5   # BR(A -> b       bb     )
     6.98820559E-02    2         -15        15   # BR(A -> tau+    tau-   )
     2.47108155E-04    2         -13        13   # BR(A -> mu+     mu-    )
     3.03138132E-04    2           3        -3   # BR(A -> s       sb     )
     1.70138589E-06    2           4        -4   # BR(A -> c       cb     )
     1.69888138E-01    2           6        -6   # BR(A -> t       tb     )
     1.68118698E-04    2          21        21   # BR(A -> g       g      )
     5.55119917E-07    2          22        22   # BR(A -> gam     gam    )
     2.03624119E-07    2          23        22   # BR(A -> Z       gam    )
     7.72449956E-05    2          23        25   # BR(A -> Z       h      )
     3.10324383E-03    2     1000024  -1000024   # BR(A -> ~chi_1+ ~chi_1-)
     1.53096761E-03    2     1000022   1000022   # BR(A -> ~chi_10 ~chi_10)
     8.28198752E-05    2     1000023   1000023   # BR(A -> ~chi_20 ~chi_20)
     1.23703880E-03    2     1000025   1000025   # BR(A -> ~chi_30 ~chi_30)
     1.41115429E-01    2     1000022   1000023   # BR(A -> ~chi_10 ~chi_20)
     2.06126241E-01    2     1000022   1000025   # BR(A -> ~chi_10 ~chi_30)
     6.87056474E-05    2     1000023   1000025   # BR(A -> ~chi_20 ~chi_30)
#
#         PDG            Width
DECAY        37     7.93924241E+00   # H+ decays
#          BR         NDA      ID1       ID2
     6.54471385E-04    2           4        -5   # BR(H+ -> c       bb     )
     7.01964489E-02    2         -15        16   # BR(H+ -> tau+    nu_tau )
     2.48219872E-04    2         -13        14   # BR(H+ -> mu+     nu_mu  )
     4.18859526E-06    2           2        -5   # BR(H+ -> u       bb     )
     1.45649298E-05    2           2        -3   # BR(H+ -> u       sb     )
     3.01203715E-04    2           4        -3   # BR(H+ -> c       sb     )
     5.76079209E-01    2           6        -5   # BR(H+ -> t       bb     )
     7.76955387E-05    2          24        25   # BR(H+ -> W+      h      )
     1.89369598E-13    2          24        36   # BR(H+ -> W+      A      )
     3.51702336E-01    2     1000024   1000022   # BR(H+ -> ~chi_1+ ~chi_10)
     6.73573396E-04    2     1000024   1000023   # BR(H+ -> ~chi_1+ ~chi_20)
     4.80878589E-05    2     1000024   1000025   # BR(H+ -> ~chi_1+ ~chi_30)
