#
#                              ======================
#                              | THE SUSYHIT OUTPUT |
#                              ======================
#
#
#              ------------------------------------------------------
#              |     This is the output of the SUSY-HIT package     |
#              |  created by A.Djouadi, M.Muehlleitner and M.Spira. |
#              |  In case of problems with SUSY-HIT email to        |
#              |           margarete.muehlleitner@cern.ch           |
#              |           michael.spira@psi.ch                     |
#              |           abdelhak.djouadi@cern.ch                 |
#              ------------------------------------------------------
#
#              ------------------------------------------------------
#              |  SUSY Les Houches Accord - MSSM Spectrum + Decays  |
#              |              based on the decay programs           |
#              |                                                    |
#              |                     SDECAY 1.3b                    |
#              |                                                    |
#              |  Authors: M.Muhlleitner, A.Djouadi and Y.Mambrini  |
#              |  Ref.:    Comput.Phys.Commun.168(2005)46           |
#              |           [hep-ph/0311167]                         |
#              |                                                    |
#              |                     HDECAY 3.4                     |
#              |                                                    |
#              |  By: A.Djouadi,J.Kalinowski,M.Muhlleitner,M.Spira  |
#              |  Ref.:    Comput.Phys.Commun.108(1998)56           |
#              |           [hep-ph/9704448]                         |
#              |                                                    |
#              |                                                    |
#              |  If not stated otherwise all DRbar couplings and   |
#              |  soft SUSY breaking masses are given at the scale  |
#              |  Q=  0.50007092E+04
#              |                                                    |
#              ------------------------------------------------------
#
#
BLOCK DCINFO  # Decay Program information
     1   SDECAY/HDECAY # decay calculator
     2   1.3b  /3.4    # version number
#
BLOCK SPINFO  # Spectrum calculator information
     1    SOFTSUSY    # spectrum calculator                
     2    3.4.0       # version number                     
#
BLOCK MODSEL  # Model selection
     1     0   #  nonUniversal                                     
#
BLOCK SMINPUTS  # Standard Model inputs
         1     1.25778332E+02   # alpha_em^-1(M_Z)^MSbar
         2     1.16570000E-05   # G_F [GeV^-2]
         3     1.17200002E-01   # alpha_S(M_Z)^MSbar
         4     9.11876000E+01   # M_Z pole mass
         5     4.25000000E+00   # mb(mb)^MSbar
         6     1.72500000E+02   # mt pole mass
         7     1.77682000E+00   # mtau pole mass
#
BLOCK MINPAR  # Input parameters - minimal models
         3     1.00000000E+01   # tanb                
#
BLOCK EXTPAR  # Input parameters - non-minimal models
         0    -1.00000000E+00   # Set                 
         1     6.00000000E+01   # M_1(MX)             
         2     3.00000000E+03   # M_2(MX)             
         3     1.48350800E+03   # M_3(MX)             
        11     5.00000000E+03   # At(MX)              
        12     5.00000000E+03   # Ab(MX)              
        13     0.00000000E+00   # Atau(MX)            
        23    -1.64256400E+03   # mu(MX)              
        26     3.00000000E+03   # mA(pole)            
        31     5.00000000E+03   # meL(MX)             
        32     5.00000000E+03   # mmuL(MX)            
        33     5.00000000E+03   # mtauL(MX)           
        34     5.00000000E+03   # meR(MX)             
        35     5.00000000E+03   # mmuR(MX)            
        36     5.00000000E+03   # mtauR(MX)           
        41     5.00000000E+03   # mqL1(MX)            
        42     5.00000000E+03   # mqL2(MX)            
        43     5.00000000E+03   # mqL3(MX)            
        44     5.00000000E+03   # muR(MX)             
        45     5.00000000E+03   # mcR(MX)             
        46     5.00000000E+03   # mtR(MX)             
        47     5.00000000E+03   # mdR(MX)             
        48     5.00000000E+03   # msR(MX)             
        49     5.00000000E+03   # mbR(MX)             
#
BLOCK MASS  # Mass Spectrum
# PDG code           mass       particle
        24     8.00965251E+01   # W+
        25     1.24726782E+02   # h
        35     3.00008014E+03   # H
        36     2.99999995E+03   # A
        37     3.00087303E+03   # H+
         5     4.87878001E+00   # b-quark pole mass calculated from mb(mb)_Msbar
   1000001     5.06947488E+03   # ~d_L
   2000001     5.05169550E+03   # ~d_R
   1000002     5.06900034E+03   # ~u_L
   2000002     5.05142325E+03   # ~u_R
   1000003     5.06947488E+03   # ~s_L
   2000003     5.05169550E+03   # ~s_R
   1000004     5.06900034E+03   # ~c_L
   2000004     5.05142325E+03   # ~c_R
   1000005     5.01578284E+03   # ~b_1
   2000005     5.05071635E+03   # ~b_2
   1000006     4.90721657E+03   # ~t_1
   2000006     5.06255632E+03   # ~t_2
   1000011     5.01904296E+03   # ~e_L
   2000011     5.00590672E+03   # ~e_R
   1000012     5.01809500E+03   # ~nu_eL
   1000013     5.01904296E+03   # ~mu_L
   2000013     5.00590672E+03   # ~mu_R
   1000014     5.01809500E+03   # ~nu_muL
   1000015     5.00425350E+03   # ~tau_1
   2000015     5.01912531E+03   # ~tau_2
   1000016     5.01755981E+03   # ~nu_tauL
   1000021     1.80000068E+03   # ~g
   1000022     6.03019038E+01   # ~chi_10
   1000023     1.69941255E+03   # ~chi_20
   1000025    -1.70202355E+03   # ~chi_30
   1000035     3.07436149E+03   # ~chi_40
   1000024     1.70000021E+03   # ~chi_1+
   1000037     3.07452908E+03   # ~chi_2+
#
BLOCK NMIX  # Neutralino Mixing Matrix
  1  1     9.99653907E-01   # N_11
  1  2     1.27093821E-04   # N_12
  1  3    -2.62436856E-02   # N_13
  1  4     1.82188963E-03   # N_14
  2  1     1.72655448E-02   # N_21
  2  2     3.53859275E-02   # N_22
  2  3     7.06866305E-01   # N_23
  2  4     7.06250497E-01   # N_24
  3  1    -1.98426549E-02   # N_31
  3  2     1.27029431E-02   # N_32
  3  3    -7.06678059E-01   # N_33
  3  4     7.07142861E-01   # N_34
  4  1    -4.86290851E-04   # N_41
  4  2     9.99292978E-01   # N_42
  4  3    -1.60442369E-02   # N_43
  4  4    -3.39983936E-02   # N_44
#
BLOCK UMIX  # Chargino Mixing Matrix U
  1  1     2.26851125E-02   # U_11
  1  2     9.99742660E-01   # U_12
  2  1    -9.99742660E-01   # U_21
  2  2     2.26851125E-02   # U_22
#
BLOCK VMIX  # Chargino Mixing Matrix V
  1  1     4.80824958E-02   # V_11
  1  2    -9.98843368E-01   # V_12
  2  1    -9.98843368E-01   # V_21
  2  2    -4.80824958E-02   # V_22
#
BLOCK STOPMIX  # Stop Mixing Matrix
  1  1    -5.13697860E-01   # cos(theta_t)
  1  2     8.57971158E-01   # sin(theta_t)
  2  1    -8.57971158E-01   # -sin(theta_t)
  2  2    -5.13697860E-01   # cos(theta_t)
#
BLOCK SBOTMIX  # Sbottom Mixing Matrix
  1  1     9.93146918E-01   # cos(theta_b)
  1  2    -1.16872577E-01   # sin(theta_b)
  2  1     1.16872577E-01   # -sin(theta_b)
  2  2     9.93146918E-01   # cos(theta_b)
#
BLOCK STAUMIX  # Stau Mixing Matrix
  1  1    -1.88881754E-01   # cos(theta_tau)
  1  2     9.81999839E-01   # sin(theta_tau)
  2  1    -9.81999839E-01   # -sin(theta_tau)
  2  2    -1.88881754E-01   # cos(theta_tau)
#
BLOCK ALPHA  # Higgs mixing
          -1.05455061E-01   # Mixing angle in the neutral Higgs boson sector
#
BLOCK HMIX Q=  5.00070921E+03  # DRbar Higgs Parameters
         1    -1.67257806E+03   # mu(Q)MSSM           
         2     9.47102403E+00   # tan                 
         3     2.42004058E+02   # higgs               
         4     8.36565980E+06   # mA^2(Q)MSSM         
#
BLOCK GAUGE Q=  5.00070921E+03  # The gauge couplings
     1     3.70676921E-01   # gprime(Q) DRbar
     2     6.31961351E-01   # g(Q) DRbar
     3     1.00003868E+00   # g3(Q) DRbar
#
BLOCK AU Q=  5.00070921E+03  # The trilinear couplings
  1  1     5.00000001E+03   # A_u(Q) DRbar
  2  2     5.00000001E+03   # A_c(Q) DRbar
  3  3     5.00000002E+03   # A_t(Q) DRbar
#
BLOCK AD Q=  5.00070921E+03  # The trilinear couplings
  1  1     5.00000000E+03   # A_d(Q) DRbar
  2  2     5.00000000E+03   # A_s(Q) DRbar
  3  3     5.00000001E+03   # A_b(Q) DRbar
#
BLOCK AE Q=  5.00070921E+03  # The trilinear couplings
  1  1     0.00000000E+00   # A_e(Q) DRbar
  2  2     1.46213123E-07   # A_mu(Q) DRbar
  3  3     1.45735703E-07   # A_tau(Q) DRbar
#
BLOCK Yu Q=  5.00070921E+03  # The Yukawa couplings
  1  1     0.00000000E+00   # y_u(Q) DRbar
  2  2     0.00000000E+00   # y_c(Q) DRbar
  3  3     8.18751066E-01   # y_t(Q) DRbar
#
BLOCK Yd Q=  5.00070921E+03  # The Yukawa couplings
  1  1     0.00000000E+00   # y_d(Q) DRbar
  2  2     0.00000000E+00   # y_s(Q) DRbar
  3  3     1.31287414E-01   # y_b(Q) DRbar
#
BLOCK Ye Q=  5.00070921E+03  # The Yukawa couplings
  1  1     0.00000000E+00   # y_e(Q) DRbar
  2  2     0.00000000E+00   # y_mu(Q) DRbar
  3  3     9.65580914E-02   # y_tau(Q) DRbar
#
BLOCK MSOFT Q=  5.00070921E+03  # The soft SUSY breaking masses at the scale Q
         1     6.00000000E+01   # M_1(Q)              
         2     3.00000000E+03   # M_2(Q)              
         3     1.48350800E+03   # M_3(Q)              
        21     5.86164417E+06   # mH1^2(Q)            
        22    -2.25673772E+06   # mH2^2(Q)            
        31     5.00000000E+03   # meL(Q)              
        32     5.00000000E+03   # mmuL(Q)             
        33     5.00000000E+03   # mtauL(Q)            
        34     5.00000000E+03   # meR(Q)              
        35     5.00000000E+03   # mmuR(Q)             
        36     5.00000000E+03   # mtauR(Q)            
        41     5.00000000E+03   # mqL1(Q)             
        42     5.00000000E+03   # mqL2(Q)             
        43     5.00000000E+03   # mqL3(Q)             
        44     5.00000000E+03   # muR(Q)              
        45     5.00000000E+03   # mcR(Q)              
        46     4.99999999E+03   # mtR(Q)              
        47     5.00000000E+03   # mdR(Q)              
        48     5.00000000E+03   # msR(Q)              
        49     5.00000000E+03   # mbR(Q)              
#
#
#
#                             =================
#                             |The decay table|
#                             =================
#
# - The QCD corrections to the decays gluino -> squark  + quark
#                                     squark -> gaugino + quark_prime
#                                     squark -> squark_prime + Higgs
#                                     squark -> gluino  + quark
#   are included.
#
# - The multi-body decays for the inos, stops and sbottoms are included.
#
# - The loop induced decays for the gluino, neutralinos and stops
#   are included.
#
# - The SUSY decays of the top quark are included.
#
#
#         PDG            Width
DECAY         6     1.39947949E+00   # top decays
#          BR         NDA      ID1       ID2
     1.00000000E+00    2           5        24   # BR(t ->  b    W+)
#
#         PDG            Width
DECAY   1000021     1.76940559E-04   # gluino decays
#          BR         NDA      ID1       ID2
     9.17802165E-06    2     1000022        21   # BR(~g -> ~chi_10 g)
     8.90215020E-05    2     1000023        21   # BR(~g -> ~chi_20 g)
     8.33520591E-05    2     1000025        21   # BR(~g -> ~chi_30 g)
#           BR         NDA      ID1       ID2       ID3
     7.67138730E-02    3     1000022         1        -1   # BR(~g -> ~chi_10 d  db)
     4.49439846E-09    3     1000023         1        -1   # BR(~g -> ~chi_20 d  db)
     4.13834941E-10    3     1000025         1        -1   # BR(~g -> ~chi_30 d  db)
     2.61519348E-01    3     1000022         2        -2   # BR(~g -> ~chi_10 u  ub)
     7.08552111E-09    3     1000023         2        -2   # BR(~g -> ~chi_20 u  ub)
     3.97196715E-10    3     1000025         2        -2   # BR(~g -> ~chi_30 u  ub)
     7.67138730E-02    3     1000022         3        -3   # BR(~g -> ~chi_10 s  sb)
     4.49439846E-09    3     1000023         3        -3   # BR(~g -> ~chi_20 s  sb)
     4.13834941E-10    3     1000025         3        -3   # BR(~g -> ~chi_30 s  sb)
     2.61519348E-01    3     1000022         4        -4   # BR(~g -> ~chi_10 c  cb)
     7.08552111E-09    3     1000023         4        -4   # BR(~g -> ~chi_20 c  cb)
     3.97196715E-10    3     1000025         4        -4   # BR(~g -> ~chi_30 c  cb)
     7.76189651E-02    3     1000022         5        -5   # BR(~g -> ~chi_10 b  bb)
     3.81253744E-07    3     1000023         5        -5   # BR(~g -> ~chi_20 b  bb)
     3.16109554E-07    3     1000025         5        -5   # BR(~g -> ~chi_30 b  bb)
     2.45732277E-01    3     1000022         6        -6   # BR(~g -> ~chi_10 t  tb)
     1.06532487E-08    3     1000024         1        -2   # BR(~g -> ~chi_1+ d  ub)
     1.06532487E-08    3    -1000024         2        -1   # BR(~g -> ~chi_1- u  db)
     1.06532487E-08    3     1000024         3        -4   # BR(~g -> ~chi_1+ s  cb)
     1.06532487E-08    3    -1000024         4        -3   # BR(~g -> ~chi_1- c  sb)
#
#         PDG            Width
DECAY   1000006     3.41807232E+02   # stop1 decays
#          BR         NDA      ID1       ID2
     2.56700728E-02    2     1000022         6   # BR(~t_1 -> ~chi_10 t )
     7.46539179E-02    2     1000023         6   # BR(~t_1 -> ~chi_20 t )
     7.16684641E-02    2     1000025         6   # BR(~t_1 -> ~chi_30 t )
     6.49034814E-03    2     1000035         6   # BR(~t_1 -> ~chi_40 t )
     1.06913312E-01    2     1000024         5   # BR(~t_1 -> ~chi_1+ b )
     1.28947394E-02    2     1000037         5   # BR(~t_1 -> ~chi_2+ b )
     7.01709145E-01    2     1000021         6   # BR(~t_1 -> ~g      t )
#
#         PDG            Width
DECAY   2000006     3.53353065E+02   # stop2 decays
#          BR         NDA      ID1       ID2
     1.01344527E-02    2     1000022         6   # BR(~t_2 -> ~chi_10 t )
     7.52587724E-02    2     1000023         6   # BR(~t_2 -> ~chi_20 t )
     7.83994199E-02    2     1000025         6   # BR(~t_2 -> ~chi_30 t )
     1.53017274E-02    2     1000035         6   # BR(~t_2 -> ~chi_40 t )
     4.68110505E-02    2     1000024         5   # BR(~t_2 -> ~chi_1+ b )
     3.03426565E-02    2     1000037         5   # BR(~t_2 -> ~chi_2+ b )
     7.40045688E-01    2     1000021         6   # BR(~t_2 -> ~g      t )
     8.09011553E-04    2     1000006        25   # BR(~t_2 -> ~t_1    h )
     2.89722106E-03    2     1000006        23   # BR(~t_2 -> ~t_1    Z )
#
#         PDG            Width
DECAY   1000005     3.30529489E+02   # sbottom1 decays
#          BR         NDA      ID1       ID2
     2.38209621E-03    2     1000022         5   # BR(~b_1 -> ~chi_10 b )
     2.15458158E-03    2     1000023         5   # BR(~b_1 -> ~chi_20 b )
     2.00757324E-03    2     1000025         5   # BR(~b_1 -> ~chi_30 b )
     2.25286841E-02    2     1000035         5   # BR(~b_1 -> ~chi_40 b )
     1.56925339E-01    2    -1000024         6   # BR(~b_1 -> ~chi_1- t )
     4.54086456E-02    2    -1000037         6   # BR(~b_1 -> ~chi_2- t )
     7.66931920E-01    2     1000021         5   # BR(~b_1 -> ~g      b )
     1.66116018E-03    2     1000006       -24   # BR(~b_1 -> ~t_1    W-)
#
#         PDG            Width
DECAY   2000005     2.62788779E+02   # sbottom2 decays
#          BR         NDA      ID1       ID2
     1.11207769E-02    2     1000022         5   # BR(~b_2 -> ~chi_10 b )
     2.54030288E-03    2     1000023         5   # BR(~b_2 -> ~chi_20 b )
     2.67720147E-03    2     1000025         5   # BR(~b_2 -> ~chi_30 b )
     4.21126693E-04    2     1000035         5   # BR(~b_2 -> ~chi_40 b )
     7.84791472E-03    2    -1000024         6   # BR(~b_2 -> ~chi_1- t )
     8.48248921E-04    2    -1000037         6   # BR(~b_2 -> ~chi_2- t )
     9.74421651E-01    2     1000021         5   # BR(~b_2 -> ~g      b )
     1.22777464E-04    2     1000006       -24   # BR(~b_2 -> ~t_1    W-)
#
#         PDG            Width
DECAY   1000002     2.81719093E+02   # sup_L decays
#          BR         NDA      ID1       ID2
     2.64965212E-03    2     1000022         2   # BR(~u_L -> ~chi_10 u)
     8.21545074E-05    2     1000023         2   # BR(~u_L -> ~chi_20 u)
     4.25362348E-06    2     1000025         2   # BR(~u_L -> ~chi_30 u)
     2.77696160E-02    2     1000035         2   # BR(~u_L -> ~chi_40 u)
     2.52787397E-04    2     1000024         1   # BR(~u_L -> ~chi_1+ d)
     5.54928313E-02    2     1000037         1   # BR(~u_L -> ~chi_2+ d)
     9.13748705E-01    2     1000021         2   # BR(~u_L -> ~g      u)
#
#         PDG            Width
DECAY   2000002     2.67904535E+02   # sup_R decays
#          BR         NDA      ID1       ID2
     4.43667091E-02    2     1000022         2   # BR(~u_R -> ~chi_10 u)
     1.04287200E-05    2     1000023         2   # BR(~u_R -> ~chi_20 u)
     1.37635264E-05    2     1000025         2   # BR(~u_R -> ~chi_30 u)
     4.18183869E-09    2     1000035         2   # BR(~u_R -> ~chi_40 u)
     9.55609094E-01    2     1000021         2   # BR(~u_R -> ~g      u)
#
#         PDG            Width
DECAY   1000001     2.81733971E+02   # sdown_L decays
#          BR         NDA      ID1       ID2
     2.64287938E-03    2     1000022         1   # BR(~d_L -> ~chi_10 d)
     5.60329220E-05    2     1000023         1   # BR(~d_L -> ~chi_20 d)
     1.50254994E-05    2     1000025         1   # BR(~d_L -> ~chi_30 d)
     2.77873325E-02    2     1000035         1   # BR(~d_L -> ~chi_40 d)
     5.62732175E-05    2    -1000024         2   # BR(~d_L -> ~chi_1- u)
     5.56071028E-02    2    -1000037         2   # BR(~d_L -> ~chi_2- u)
     9.13835354E-01    2     1000021         1   # BR(~d_L -> ~g      d)
#
#         PDG            Width
DECAY   2000001     2.59007128E+02   # sdown_R decays
#          BR         NDA      ID1       ID2
     1.14733227E-02    2     1000022         1   # BR(~d_R -> ~chi_10 d)
     2.69696179E-06    2     1000023         1   # BR(~d_R -> ~chi_20 d)
     3.55937339E-06    2     1000025         1   # BR(~d_R -> ~chi_30 d)
     1.08156779E-09    2     1000035         1   # BR(~d_R -> ~chi_40 d)
     9.88520420E-01    2     1000021         1   # BR(~d_R -> ~g      d)
#
#         PDG            Width
DECAY   1000004     2.81719093E+02   # scharm_L decays
#          BR         NDA      ID1       ID2
     2.64965212E-03    2     1000022         4   # BR(~c_L -> ~chi_10 c)
     8.21545074E-05    2     1000023         4   # BR(~c_L -> ~chi_20 c)
     4.25362348E-06    2     1000025         4   # BR(~c_L -> ~chi_30 c)
     2.77696160E-02    2     1000035         4   # BR(~c_L -> ~chi_40 c)
     2.52787397E-04    2     1000024         3   # BR(~c_L -> ~chi_1+ s)
     5.54928313E-02    2     1000037         3   # BR(~c_L -> ~chi_2+ s)
     9.13748705E-01    2     1000021         4   # BR(~c_L -> ~g      c)
#
#         PDG            Width
DECAY   2000004     2.67904535E+02   # scharm_R decays
#          BR         NDA      ID1       ID2
     4.43667091E-02    2     1000022         4   # BR(~c_R -> ~chi_10 c)
     1.04287200E-05    2     1000023         4   # BR(~c_R -> ~chi_20 c)
     1.37635264E-05    2     1000025         4   # BR(~c_R -> ~chi_30 c)
     4.18183869E-09    2     1000035         4   # BR(~c_R -> ~chi_40 c)
     9.55609094E-01    2     1000021         4   # BR(~c_R -> ~g      c)
#
#         PDG            Width
DECAY   1000003     2.81733971E+02   # sstrange_L decays
#          BR         NDA      ID1       ID2
     2.64287938E-03    2     1000022         3   # BR(~s_L -> ~chi_10 s)
     5.60329220E-05    2     1000023         3   # BR(~s_L -> ~chi_20 s)
     1.50254994E-05    2     1000025         3   # BR(~s_L -> ~chi_30 s)
     2.77873325E-02    2     1000035         3   # BR(~s_L -> ~chi_40 s)
     5.62732175E-05    2    -1000024         4   # BR(~s_L -> ~chi_1- c)
     5.56071028E-02    2    -1000037         4   # BR(~s_L -> ~chi_2- c)
     9.13835354E-01    2     1000021         3   # BR(~s_L -> ~g      s)
#
#         PDG            Width
DECAY   2000003     2.59007128E+02   # sstrange_R decays
#          BR         NDA      ID1       ID2
     1.14733227E-02    2     1000022         3   # BR(~s_R -> ~chi_10 s)
     2.69696179E-06    2     1000023         3   # BR(~s_R -> ~chi_20 s)
     3.55937339E-06    2     1000025         3   # BR(~s_R -> ~chi_30 s)
     1.08156779E-09    2     1000035         3   # BR(~s_R -> ~chi_40 s)
     9.88520420E-01    2     1000021         3   # BR(~s_R -> ~g      s)
#
#         PDG            Width
DECAY   1000011     3.02297034E+01   # selectron_L decays
#          BR         NDA      ID1       ID2
     2.26798650E-01    2     1000022        11   # BR(~e_L -> ~chi_10 e-)
     1.07096300E-03    2     1000023        11   # BR(~e_L -> ~chi_20 e-)
     5.85101710E-07    2     1000025        11   # BR(~e_L -> ~chi_30 e-)
     2.56969578E-01    2     1000035        11   # BR(~e_L -> ~chi_40 e-)
     5.32031061E-04    2    -1000024        12   # BR(~e_L -> ~chi_1- nu_e)
     5.14628193E-01    2    -1000037        12   # BR(~e_L -> ~chi_2- nu_e)
#
#         PDG            Width
DECAY   2000011     2.73553683E+01   # selectron_R decays
#          BR         NDA      ID1       ID2
     9.99458361E-01    2     1000022        11   # BR(~e_R -> ~chi_10 e-)
     2.33450833E-04    2     1000023        11   # BR(~e_R -> ~chi_20 e-)
     3.08096248E-04    2     1000025        11   # BR(~e_R -> ~chi_30 e-)
     9.17727878E-08    2     1000035        11   # BR(~e_R -> ~chi_40 e-)
#
#         PDG            Width
DECAY   1000013     3.02297034E+01   # smuon_L decays
#          BR         NDA      ID1       ID2
     2.26798650E-01    2     1000022        13   # BR(~mu_L -> ~chi_10 mu-)
     1.07096300E-03    2     1000023        13   # BR(~mu_L -> ~chi_20 mu-)
     5.85101710E-07    2     1000025        13   # BR(~mu_L -> ~chi_30 mu-)
     2.56969578E-01    2     1000035        13   # BR(~mu_L -> ~chi_40 mu-)
     5.32031061E-04    2    -1000024        14   # BR(~mu_L -> ~chi_1- nu_mu)
     5.14628193E-01    2    -1000037        14   # BR(~mu_L -> ~chi_2- nu_mu)
#
#         PDG            Width
DECAY   2000013     2.73553683E+01   # smuon_R decays
#          BR         NDA      ID1       ID2
     9.99458361E-01    2     1000022        13   # BR(~mu_R -> ~chi_10 mu-)
     2.33450833E-04    2     1000023        13   # BR(~mu_R -> ~chi_20 mu-)
     3.08096248E-04    2     1000025        13   # BR(~mu_R -> ~chi_30 mu-)
     9.17727878E-08    2     1000035        13   # BR(~mu_R -> ~chi_40 mu-)
#
#         PDG            Width
DECAY   1000015     2.89021621E+01   # stau_1 decays
#          BR         NDA      ID1       ID2
     9.21225437E-01    2     1000022        15   # BR(~tau_1 -> ~chi_10  tau-)
     1.35827640E-02    2     1000023        15   # BR(~tau_1 -> ~chi_20  tau-)
     1.20815031E-02    2     1000025        15   # BR(~tau_1 -> ~chi_30  tau-)
     9.15326115E-03    2     1000035        15   # BR(~tau_1 -> ~chi_40  tau-)
     2.56253321E-02    2    -1000024        16   # BR(~tau_1 -> ~chi_1-  nu_tau)
     1.83317028E-02    2    -1000037        16   # BR(~tau_1 -> ~chi_2-  nu_tau)
#
#         PDG            Width
DECAY   2000015     3.08511109E+01   # stau_2 decays
#          BR         NDA      ID1       ID2
     2.45231122E-01    2     1000022        15   # BR(~tau_2 -> ~chi_10  tau-)
     1.21139182E-02    2     1000023        15   # BR(~tau_2 -> ~chi_20  tau-)
     1.25128052E-02    2     1000025        15   # BR(~tau_2 -> ~chi_30  tau-)
     2.43150163E-01    2     1000035        15   # BR(~tau_2 -> ~chi_40  tau-)
     4.37979780E-05    2    -1000024        16   # BR(~tau_2 -> ~chi_1-  nu_tau)
     4.86948193E-01    2    -1000037        16   # BR(~tau_2 -> ~chi_2-  nu_tau)
#
#         PDG            Width
DECAY   1000012     3.02313664E+01   # snu_eL decays
#          BR         NDA      ID1       ID2
     2.26546810E-01    2     1000022        12   # BR(~nu_eL -> ~chi_10 nu_e)
     3.29746882E-04    2     1000023        12   # BR(~nu_eL -> ~chi_20 nu_e)
     3.05990893E-04    2     1000025        12   # BR(~nu_eL -> ~chi_30 nu_e)
     2.57083691E-01    2     1000035        12   # BR(~nu_eL -> ~chi_40 nu_e)
     2.38935489E-03    2     1000024        11   # BR(~nu_eL -> ~chi_1+ e-)
     5.13344407E-01    2     1000037        11   # BR(~nu_eL -> ~chi_2+ e-)
#
#         PDG            Width
DECAY   1000014     3.02313664E+01   # snu_muL decays
#          BR         NDA      ID1       ID2
     2.26546810E-01    2     1000022        14   # BR(~nu_muL -> ~chi_10 nu_mu)
     3.29746882E-04    2     1000023        14   # BR(~nu_muL -> ~chi_20 nu_mu)
     3.05990893E-04    2     1000025        14   # BR(~nu_muL -> ~chi_30 nu_mu)
     2.57083691E-01    2     1000035        14   # BR(~nu_muL -> ~chi_40 nu_mu)
     2.38935489E-03    2     1000024        13   # BR(~nu_muL -> ~chi_1+ mu-)
     5.13344407E-01    2     1000037        13   # BR(~nu_muL -> ~chi_2+ mu-)
#
#         PDG            Width
DECAY   1000016     3.09512898E+01   # snu_tauL decays
#          BR         NDA      ID1       ID2
     2.21253744E-01    2     1000022        16   # BR(~nu_tauL -> ~chi_10 nu_tau)
     3.22024857E-04    2     1000023        16   # BR(~nu_tauL -> ~chi_20 nu_tau)
     2.98825130E-04    2     1000025        16   # BR(~nu_tauL -> ~chi_30 nu_tau)
     2.51012805E-01    2     1000035        16   # BR(~nu_tauL -> ~chi_40 nu_tau)
     2.58872585E-02    2     1000024        15   # BR(~nu_tauL -> ~chi_1+ tau-)
     5.01225343E-01    2     1000037        15   # BR(~nu_tauL -> ~chi_2+ tau-)
#
#         PDG            Width
DECAY   1000024     1.04796855E+00   # chargino1+ decays
#          BR         NDA      ID1       ID2
     1.00000000E+00    2     1000022        24   # BR(~chi_1+ -> ~chi_10  W+)
#
#         PDG            Width
DECAY   1000037     1.73648075E+01   # chargino2+ decays
#          BR         NDA      ID1       ID2
     2.52445026E-01    2     1000024        23   # BR(~chi_2+ -> ~chi_1+  Z )
     3.15273187E-04    2     1000022        24   # BR(~chi_2+ -> ~chi_10  W+)
     2.44286425E-01    2     1000023        24   # BR(~chi_2+ -> ~chi_20  W+)
     2.43412529E-01    2     1000025        24   # BR(~chi_2+ -> ~chi_30  W+)
     2.59540543E-01    2     1000024        25   # BR(~chi_2+ -> ~chi_1+  h )
     2.02994262E-07    2     1000022        37   # BR(~chi_2+ -> ~chi_10  H+)
#
#         PDG            Width
DECAY   1000022     0.00000000E+00   # neutralino1 decays
#
#         PDG            Width
DECAY   1000023     1.10252855E+00   # neutralino2 decays
#          BR         NDA      ID1       ID2
     5.60642162E-01    2     1000022        23   # BR(~chi_20 -> ~chi_10   Z )
     4.39357838E-01    2     1000022        25   # BR(~chi_20 -> ~chi_10   h )
#
#         PDG            Width
DECAY   1000025     1.11459439E+00   # neutralino3 decays
#          BR         NDA      ID1       ID2
     4.21129347E-01    2     1000022        23   # BR(~chi_30 -> ~chi_10   Z )
     5.78870653E-01    2     1000022        25   # BR(~chi_30 -> ~chi_10   h )
#
#         PDG            Width
DECAY   1000035     1.73517743E+01   # neutralino4 decays
#          BR         NDA      ID1       ID2
     1.25300290E-04    2     1000022        23   # BR(~chi_40 -> ~chi_10   Z )
     2.90809088E-02    2     1000023        23   # BR(~chi_40 -> ~chi_20   Z )
     2.23116061E-01    2     1000025        23   # BR(~chi_40 -> ~chi_30   Z )
     2.44086541E-01    2     1000024       -24   # BR(~chi_40 -> ~chi_1+   W-)
     2.44086541E-01    2    -1000024        24   # BR(~chi_40 -> ~chi_1-   W+)
     1.99650435E-04    2     1000022        25   # BR(~chi_40 -> ~chi_10   h )
     1.78787517E-07    2     1000022        35   # BR(~chi_40 -> ~chi_10   H )
     3.18426968E-08    2     1000022        36   # BR(~chi_40 -> ~chi_10   A )
     2.30355058E-01    2     1000023        25   # BR(~chi_40 -> ~chi_20   h )
     2.89497293E-02    2     1000025        25   # BR(~chi_40 -> ~chi_30   h )
#
#         PDG            Width
DECAY        25     4.03831274E-03   # h decays
#          BR         NDA      ID1       ID2
     6.07705195E-01    2           5        -5   # BR(h -> b       bb     )
     6.41966860E-02    2         -15        15   # BR(h -> tau+    tau-   )
     2.27279816E-04    2         -13        13   # BR(h -> mu+     mu-    )
     4.81855552E-04    2           3        -3   # BR(h -> s       sb     )
     2.08819895E-02    2           4        -4   # BR(h -> c       cb     )
     6.74934840E-02    2          21        21   # BR(h -> g       g      )
     2.31975010E-03    2          22        22   # BR(h -> gam     gam    )
     1.49172699E-03    2          22        23   # BR(h -> Z       gam    )
     2.10148124E-01    2          24       -24   # BR(h -> W+      W-     )
     2.50272386E-02    2          23        23   # BR(h -> Z       Z      )
     2.66703096E-05    2     1000022   1000022   # BR(h -> ~chi_10 ~chi_10)
#
#         PDG            Width
DECAY        35     6.90069574E+00   # H decays
#          BR         NDA      ID1       ID2
     4.74924015E-01    2           5        -5   # BR(H -> b       bb     )
     8.07528583E-02    2         -15        15   # BR(H -> tau+    tau-   )
     2.85548521E-04    2         -13        13   # BR(H -> mu+     mu-    )
     3.50038778E-04    2           3        -3   # BR(H -> s       sb     )
     1.95681189E-06    2           4        -4   # BR(H -> c       cb     )
     1.95501003E-01    2           6        -6   # BR(H -> t       tb     )
     6.48712259E-05    2          21        21   # BR(H -> g       g      )
     3.83226059E-07    2          22        22   # BR(H -> gam     gam    )
     1.15454273E-07    2          23        22   # BR(H -> Z       gam    )
     8.61281440E-05    2          24       -24   # BR(H -> W+      W-     )
     4.30095698E-05    2          23        23   # BR(H -> Z       Z      )
     3.28127439E-04    2          25        25   # BR(H -> h       h      )
    -5.08258382E-23    2          36        36   # BR(H -> A       A      )
     7.96668096E-19    2          23        36   # BR(H -> Z       A      )
     7.24553243E-04    2     1000022   1000022   # BR(H -> ~chi_10 ~chi_10)
     1.45930599E-01    2     1000022   1000023   # BR(H -> ~chi_10 ~chi_20)
     1.01006791E-01    2     1000022   1000025   # BR(H -> ~chi_10 ~chi_30)
#
#         PDG            Width
DECAY        36     6.90363660E+00   # A decays
#          BR         NDA      ID1       ID2
     4.74880416E-01    2           5        -5   # BR(A -> b       bb     )
     8.07208450E-02    2         -15        15   # BR(A -> tau+    tau-   )
     2.85434921E-04    2         -13        13   # BR(A -> mu+     mu-    )
     3.50155133E-04    2           3        -3   # BR(A -> s       sb     )
     1.96420734E-06    2           4        -4   # BR(A -> c       cb     )
     1.96131596E-01    2           6        -6   # BR(A -> t       tb     )
     1.94110524E-04    2          21        21   # BR(A -> g       g      )
     3.50142036E-07    2          22        22   # BR(A -> gam     gam    )
     2.35151707E-07    2          23        22   # BR(A -> Z       gam    )
     8.57665594E-05    2          23        25   # BR(A -> Z       h      )
     7.47049649E-04    2     1000022   1000022   # BR(A -> ~chi_10 ~chi_10)
     1.02165849E-01    2     1000022   1000023   # BR(A -> ~chi_10 ~chi_20)
     1.44436228E-01    2     1000022   1000025   # BR(A -> ~chi_10 ~chi_30)
#
#         PDG            Width
DECAY        37     6.90654529E+00   # H+ decays
#          BR         NDA      ID1       ID2
     7.64452188E-04    2           4        -5   # BR(H+ -> c       bb     )
     8.07103316E-02    2         -15        16   # BR(H+ -> tau+    nu_tau )
     2.85397744E-04    2         -13        14   # BR(H+ -> mu+     nu_mu  )
     4.89246908E-06    2           2        -5   # BR(H+ -> u       bb     )
     1.67465453E-05    2           2        -3   # BR(H+ -> u       sb     )
     3.46318647E-04    2           4        -3   # BR(H+ -> c       sb     )
     6.69720902E-01    2           6        -5   # BR(H+ -> t       bb     )
     8.58603585E-05    2          24        25   # BR(H+ -> W+      h      )
     9.65400534E-14    2          24        36   # BR(H+ -> W+      A      )
     2.48065098E-01    2     1000024   1000022   # BR(H+ -> ~chi_1+ ~chi_10)
