#
#                              ======================
#                              | THE SUSYHIT OUTPUT |
#                              ======================
#
#
#              ------------------------------------------------------
#              |     This is the output of the SUSY-HIT package     |
#              |  created by A.Djouadi, M.Muehlleitner and M.Spira. |
#              |  In case of problems with SUSY-HIT email to        |
#              |           margarete.muehlleitner@cern.ch           |
#              |           michael.spira@psi.ch                     |
#              |           abdelhak.djouadi@cern.ch                 |
#              ------------------------------------------------------
#
#              ------------------------------------------------------
#              |  SUSY Les Houches Accord - MSSM Spectrum + Decays  |
#              |              based on the decay programs           |
#              |                                                    |
#              |                     SDECAY 1.3b                    |
#              |                                                    |
#              |  Authors: M.Muhlleitner, A.Djouadi and Y.Mambrini  |
#              |  Ref.:    Comput.Phys.Commun.168(2005)46           |
#              |           [hep-ph/0311167]                         |
#              |                                                    |
#              |                     HDECAY 3.4                     |
#              |                                                    |
#              |  By: A.Djouadi,J.Kalinowski,M.Muhlleitner,M.Spira  |
#              |  Ref.:    Comput.Phys.Commun.108(1998)56           |
#              |           [hep-ph/9704448]                         |
#              |                                                    |
#              |                                                    |
#              |  If not stated otherwise all DRbar couplings and   |
#              |  soft SUSY breaking masses are given at the scale  |
#              |  Q=  0.50007257E+04
#              |                                                    |
#              ------------------------------------------------------
#
#
BLOCK DCINFO  # Decay Program information
     1   SDECAY/HDECAY # decay calculator
     2   1.3b  /3.4    # version number
#
BLOCK SPINFO  # Spectrum calculator information
     1    SOFTSUSY    # spectrum calculator                
     2    3.4.0       # version number                     
#
BLOCK MODSEL  # Model selection
     1     0   #  nonUniversal                                     
#
BLOCK SMINPUTS  # Standard Model inputs
         1     1.25778332E+02   # alpha_em^-1(M_Z)^MSbar
         2     1.16570000E-05   # G_F [GeV^-2]
         3     1.17200002E-01   # alpha_S(M_Z)^MSbar
         4     9.11876000E+01   # M_Z pole mass
         5     4.25000000E+00   # mb(mb)^MSbar
         6     1.72500000E+02   # mt pole mass
         7     1.77682000E+00   # mtau pole mass
#
BLOCK MINPAR  # Input parameters - minimal models
         3     1.00000000E+01   # tanb                
#
BLOCK EXTPAR  # Input parameters - non-minimal models
         0    -1.00000000E+00   # Set                 
         1     6.00000000E+01   # M_1(MX)             
         2     3.00000000E+03   # M_2(MX)             
         3     1.12229700E+03   # M_3(MX)             
        11     5.00000000E+03   # At(MX)              
        12     5.00000000E+03   # Ab(MX)              
        13     0.00000000E+00   # Atau(MX)            
        23    -1.15394600E+03   # mu(MX)              
        26     3.00000000E+03   # mA(pole)            
        31     5.00000000E+03   # meL(MX)             
        32     5.00000000E+03   # mmuL(MX)            
        33     5.00000000E+03   # mtauL(MX)           
        34     5.00000000E+03   # meR(MX)             
        35     5.00000000E+03   # mmuR(MX)            
        36     5.00000000E+03   # mtauR(MX)           
        41     5.00000000E+03   # mqL1(MX)            
        42     5.00000000E+03   # mqL2(MX)            
        43     5.00000000E+03   # mqL3(MX)            
        44     5.00000000E+03   # muR(MX)             
        45     5.00000000E+03   # mcR(MX)             
        46     5.00000000E+03   # mtR(MX)             
        47     5.00000000E+03   # mdR(MX)             
        48     5.00000000E+03   # msR(MX)             
        49     5.00000000E+03   # mbR(MX)             
#
BLOCK MASS  # Mass Spectrum
# PDG code           mass       particle
        24     8.00944694E+01   # W+
        25     1.24574678E+02   # h
        35     3.00007987E+03   # H
        36     2.99999986E+03   # A
        37     3.00086484E+03   # H+
         5     4.87878001E+00   # b-quark pole mass calculated from mb(mb)_Msbar
   1000001     5.06591802E+03   # ~d_L
   2000001     5.04810367E+03   # ~d_R
   1000002     5.06544211E+03   # ~u_L
   2000002     5.04782218E+03   # ~u_R
   1000003     5.06591802E+03   # ~s_L
   2000003     5.04810367E+03   # ~s_R
   1000004     5.06544211E+03   # ~c_L
   2000004     5.04782218E+03   # ~c_R
   1000005     5.01199174E+03   # ~b_1
   2000005     5.04678568E+03   # ~b_2
   1000006     4.90259113E+03   # ~t_1
   2000006     5.05805358E+03   # ~t_2
   1000011     5.01906293E+03   # ~e_L
   2000011     5.00591822E+03   # ~e_R
   1000012     5.01811431E+03   # ~nu_eL
   1000013     5.01906293E+03   # ~mu_L
   2000013     5.00591822E+03   # ~mu_R
   1000014     5.01811431E+03   # ~nu_muL
   1000015     5.00452457E+03   # ~tau_1
   2000015     5.01885098E+03   # ~tau_2
   1000016     5.01757071E+03   # ~nu_tauL
   1000021     1.40000055E+03   # ~g
   1000022     6.03021479E+01   # ~chi_10
   1000023     1.19954140E+03   # ~chi_20
   1000025    -1.20184549E+03   # ~chi_30
   1000035     3.07429380E+03   # ~chi_40
   1000024     1.20000088E+03   # ~chi_1+
   1000037     3.07446127E+03   # ~chi_2+
#
BLOCK NMIX  # Neutralino Mixing Matrix
  1  1     9.99308704E-01   # N_11
  1  2     1.64195789E-04   # N_12
  1  3    -3.71218673E-02   # N_13
  1  4     2.01334640E-03   # N_14
  2  1     2.48297920E-02   # N_21
  2  2     2.59783686E-02   # N_22
  2  3     7.06840536E-01   # N_23
  2  4     7.06459526E-01   # N_24
  3  1    -2.76662566E-02   # N_31
  3  2     1.42084648E-02   # N_32
  3  3    -7.06349159E-01   # N_33
  3  4     7.07180008E-01   # N_34
  4  1    -4.16207238E-04   # N_41
  4  2     9.99561512E-01   # N_42
  4  3    -8.32398151E-03   # N_43
  4  4    -2.84133977E-02   # N_44
#
BLOCK UMIX  # Chargino Mixing Matrix U
  1  1     1.17867498E-02   # U_11
  1  2     9.99930534E-01   # U_12
  2  1    -9.99930534E-01   # U_21
  2  2     1.17867498E-02   # U_22
#
BLOCK VMIX  # Chargino Mixing Matrix V
  1  1     4.02113271E-02   # V_11
  1  2    -9.99191198E-01   # V_12
  2  1    -9.99191198E-01   # V_21
  2  2    -4.02113271E-02   # V_22
#
BLOCK STOPMIX  # Stop Mixing Matrix
  1  1    -5.10453631E-01   # cos(theta_t)
  1  2     8.59905280E-01   # sin(theta_t)
  2  1    -8.59905280E-01   # -sin(theta_t)
  2  2    -5.10453631E-01   # cos(theta_t)
#
BLOCK SBOTMIX  # Sbottom Mixing Matrix
  1  1     9.96137265E-01   # cos(theta_b)
  1  2    -8.78097334E-02   # sin(theta_b)
  2  1     8.78097334E-02   # -sin(theta_b)
  2  2     9.96137265E-01   # cos(theta_b)
#
BLOCK STAUMIX  # Stau Mixing Matrix
  1  1    -1.36031226E-01   # cos(theta_tau)
  1  2     9.90704550E-01   # sin(theta_tau)
  2  1    -9.90704550E-01   # -sin(theta_tau)
  2  2    -1.36031226E-01   # cos(theta_tau)
#
BLOCK ALPHA  # Higgs mixing
          -1.05447507E-01   # Mixing angle in the neutral Higgs boson sector
#
BLOCK HMIX Q=  5.00072573E+03  # DRbar Higgs Parameters
         1    -1.17480667E+03   # mu(Q)MSSM           
         2     9.47202654E+00   # tan                 
         3     2.41924241E+02   # higgs               
         4     8.46016415E+06   # mA^2(Q)MSSM         
#
BLOCK GAUGE Q=  5.00072573E+03  # The gauge couplings
     1     3.70766320E-01   # gprime(Q) DRbar
     2     6.32376897E-01   # g(Q) DRbar
     3     1.00371405E+00   # g3(Q) DRbar
#
BLOCK AU Q=  5.00072573E+03  # The trilinear couplings
  1  1     5.00000001E+03   # A_u(Q) DRbar
  2  2     5.00000001E+03   # A_c(Q) DRbar
  3  3     5.00000001E+03   # A_t(Q) DRbar
#
BLOCK AD Q=  5.00072573E+03  # The trilinear couplings
  1  1     5.00000000E+03   # A_d(Q) DRbar
  2  2     5.00000000E+03   # A_s(Q) DRbar
  3  3     5.00000001E+03   # A_b(Q) DRbar
#
BLOCK AE Q=  5.00072573E+03  # The trilinear couplings
  1  1     0.00000000E+00   # A_e(Q) DRbar
  2  2     8.17483121E-08   # A_mu(Q) DRbar
  3  3     8.10250056E-08   # A_tau(Q) DRbar
#
BLOCK Yu Q=  5.00072573E+03  # The Yukawa couplings
  1  1     0.00000000E+00   # y_u(Q) DRbar
  2  2     0.00000000E+00   # y_c(Q) DRbar
  3  3     8.17062415E-01   # y_t(Q) DRbar
#
BLOCK Yd Q=  5.00072573E+03  # The Yukawa couplings
  1  1     0.00000000E+00   # y_d(Q) DRbar
  2  2     0.00000000E+00   # y_s(Q) DRbar
  3  3     1.30174200E-01   # y_b(Q) DRbar
#
BLOCK Ye Q=  5.00072573E+03  # The Yukawa couplings
  1  1     0.00000000E+00   # y_e(Q) DRbar
  2  2     0.00000000E+00   # y_mu(Q) DRbar
  3  3     9.67670897E-02   # y_tau(Q) DRbar
#
BLOCK MSOFT Q=  5.00072573E+03  # The soft SUSY breaking masses at the scale Q
         1     6.00000000E+01   # M_1(Q)              
         2     3.00000000E+03   # M_2(Q)              
         3     1.12229700E+03   # M_3(Q)              
        21     7.30462878E+06   # mH1^2(Q)            
        22    -8.24373880E+05   # mH2^2(Q)            
        31     5.00000000E+03   # meL(Q)              
        32     5.00000000E+03   # mmuL(Q)             
        33     5.00000000E+03   # mtauL(Q)            
        34     5.00000000E+03   # meR(Q)              
        35     5.00000000E+03   # mmuR(Q)             
        36     5.00000000E+03   # mtauR(Q)            
        41     5.00000000E+03   # mqL1(Q)             
        42     5.00000000E+03   # mqL2(Q)             
        43     5.00000000E+03   # mqL3(Q)             
        44     5.00000000E+03   # muR(Q)              
        45     5.00000000E+03   # mcR(Q)              
        46     5.00000000E+03   # mtR(Q)              
        47     5.00000000E+03   # mdR(Q)              
        48     5.00000000E+03   # msR(Q)              
        49     5.00000000E+03   # mbR(Q)              
#
#
#
#                             =================
#                             |The decay table|
#                             =================
#
# - The QCD corrections to the decays gluino -> squark  + quark
#                                     squark -> gaugino + quark_prime
#                                     squark -> squark_prime + Higgs
#                                     squark -> gluino  + quark
#   are included.
#
# - The multi-body decays for the inos, stops and sbottoms are included.
#
# - The loop induced decays for the gluino, neutralinos and stops
#   are included.
#
# - The SUSY decays of the top quark are included.
#
#
#         PDG            Width
DECAY         6     1.40141035E+00   # top decays
#          BR         NDA      ID1       ID2
     1.00000000E+00    2           5        24   # BR(t ->  b    W+)
#
#         PDG            Width
DECAY   1000021     4.82584764E-05   # gluino decays
#          BR         NDA      ID1       ID2
     1.27867014E-05    2     1000022        21   # BR(~g -> ~chi_10 g)
     2.09109047E-03    2     1000023        21   # BR(~g -> ~chi_20 g)
     2.01508378E-03    2     1000025        21   # BR(~g -> ~chi_30 g)
#           BR         NDA      ID1       ID2       ID3
     7.83084295E-02    3     1000022         1        -1   # BR(~g -> ~chi_10 d  db)
     2.04669052E-07    3     1000023         1        -1   # BR(~g -> ~chi_20 d  db)
     6.04434334E-08    3     1000025         1        -1   # BR(~g -> ~chi_30 d  db)
     2.66971315E-01    3     1000022         2        -2   # BR(~g -> ~chi_10 u  ub)
     5.03634181E-07    3     1000023         2        -2   # BR(~g -> ~chi_20 u  ub)
     6.63265702E-08    3     1000025         2        -2   # BR(~g -> ~chi_30 u  ub)
     7.83084295E-02    3     1000022         3        -3   # BR(~g -> ~chi_10 s  sb)
     2.04669052E-07    3     1000023         3        -3   # BR(~g -> ~chi_20 s  sb)
     6.04434334E-08    3     1000025         3        -3   # BR(~g -> ~chi_30 s  sb)
     2.66971315E-01    3     1000022         4        -4   # BR(~g -> ~chi_10 c  cb)
     5.03634181E-07    3     1000023         4        -4   # BR(~g -> ~chi_20 c  cb)
     6.63265702E-08    3     1000025         4        -4   # BR(~g -> ~chi_30 c  cb)
     7.93379672E-02    3     1000022         5        -5   # BR(~g -> ~chi_10 b  bb)
     3.33175741E-05    3     1000023         5        -5   # BR(~g -> ~chi_20 b  bb)
     3.08935700E-05    3     1000025         5        -5   # BR(~g -> ~chi_30 b  bb)
     2.25903161E-01    3     1000022         6        -6   # BR(~g -> ~chi_10 t  tb)
     5.55923184E-07    3     1000024         1        -2   # BR(~g -> ~chi_1+ d  ub)
     5.55923184E-07    3    -1000024         2        -1   # BR(~g -> ~chi_1- u  db)
     5.55923184E-07    3     1000024         3        -4   # BR(~g -> ~chi_1+ s  cb)
     5.55923184E-07    3    -1000024         4        -3   # BR(~g -> ~chi_1- c  sb)
     6.15788749E-06    3     1000024         5        -6   # BR(~g -> ~chi_1+ b  tb)
     6.15788749E-06    3    -1000024         6        -5   # BR(~g -> ~chi_1- t  bb)
#
#         PDG            Width
DECAY   1000006     3.85681218E+02   # stop1 decays
#          BR         NDA      ID1       ID2
     2.28182081E-02    2     1000022         6   # BR(~t_1 -> ~chi_10 t )
     7.55545648E-02    2     1000023         6   # BR(~t_1 -> ~chi_20 t )
     7.26258738E-02    2     1000025         6   # BR(~t_1 -> ~chi_30 t )
     5.51674661E-03    2     1000035         6   # BR(~t_1 -> ~chi_40 t )
     1.08969022E-01    2     1000024         5   # BR(~t_1 -> ~chi_1+ b )
     1.09855561E-02    2     1000037         5   # BR(~t_1 -> ~chi_2+ b )
     7.03530029E-01    2     1000021         6   # BR(~t_1 -> ~g      t )
#
#         PDG            Width
DECAY   2000006     3.90669128E+02   # stop2 decays
#          BR         NDA      ID1       ID2
     9.11416348E-03    2     1000022         6   # BR(~t_2 -> ~chi_10 t )
     7.66814231E-02    2     1000023         6   # BR(~t_2 -> ~chi_20 t )
     7.98284817E-02    2     1000025         6   # BR(~t_2 -> ~chi_30 t )
     1.39941500E-02    2     1000035         6   # BR(~t_2 -> ~chi_40 t )
     4.66429620E-02    2     1000024         5   # BR(~t_2 -> ~chi_1+ b )
     2.78259166E-02    2     1000037         5   # BR(~t_2 -> ~chi_2+ b )
     7.42578019E-01    2     1000021         6   # BR(~t_2 -> ~g      t )
     7.43408964E-04    2     1000006        25   # BR(~t_2 -> ~t_1    h )
     2.59147541E-03    2     1000006        23   # BR(~t_2 -> ~t_1    Z )
#
#         PDG            Width
DECAY   1000005     3.67943880E+02   # sbottom1 decays
#          BR         NDA      ID1       ID2
     2.11211159E-03    2     1000022         5   # BR(~b_1 -> ~chi_10 b )
     2.09867274E-03    2     1000023         5   # BR(~b_1 -> ~chi_20 b )
     2.02117655E-03    2     1000025         5   # BR(~b_1 -> ~chi_30 b )
     2.03469664E-02    2     1000035         5   # BR(~b_1 -> ~chi_40 b )
     1.60622399E-01    2    -1000024         6   # BR(~b_1 -> ~chi_1- t )
     4.09046382E-02    2    -1000037         6   # BR(~b_1 -> ~chi_2- t )
     7.70350749E-01    2     1000021         5   # BR(~b_1 -> ~g      b )
     1.54328698E-03    2     1000006       -24   # BR(~b_1 -> ~t_1    W-)
#
#         PDG            Width
DECAY   2000005     2.92472524E+02   # sbottom2 decays
#          BR         NDA      ID1       ID2
     1.00416081E-02    2     1000022         5   # BR(~b_2 -> ~chi_10 b )
     2.59333640E-03    2     1000023         5   # BR(~b_2 -> ~chi_20 b )
     2.67969198E-03    2     1000025         5   # BR(~b_2 -> ~chi_30 b )
     2.07944420E-04    2     1000035         5   # BR(~b_2 -> ~chi_40 b )
     6.74341197E-03    2    -1000024         6   # BR(~b_2 -> ~chi_1- t )
     4.17940196E-04    2    -1000037         6   # BR(~b_2 -> ~chi_2- t )
     9.77253868E-01    2     1000021         5   # BR(~b_2 -> ~g      b )
     6.21993054E-05    2     1000006       -24   # BR(~b_2 -> ~t_1    W-)
#
#         PDG            Width
DECAY   1000002     3.11386606E+02   # sup_L decays
#          BR         NDA      ID1       ID2
     2.39962603E-03    2     1000022         2   # BR(~u_L -> ~chi_10 u)
     5.32425570E-05    2     1000023         2   # BR(~u_L -> ~chi_20 u)
     4.33709630E-06    2     1000025         2   # BR(~u_L -> ~chi_30 u)
     2.51037013E-02    2     1000035         2   # BR(~u_L -> ~chi_40 u)
     1.81122045E-04    2     1000024         1   # BR(~u_L -> ~chi_1+ d)
     5.01720356E-02    2     1000037         1   # BR(~u_L -> ~chi_2+ d)
     9.22085935E-01    2     1000021         2   # BR(~u_L -> ~g      u)
#
#         PDG            Width
DECAY   2000002     2.97703783E+02   # sup_R decays
#          BR         NDA      ID1       ID2
     3.99509588E-02    2     1000022         2   # BR(~u_R -> ~chi_10 u)
     2.19782546E-05    2     1000023         2   # BR(~u_R -> ~chi_20 u)
     2.72739381E-05    2     1000025         2   # BR(~u_R -> ~chi_30 u)
     2.75049038E-09    2     1000035         2   # BR(~u_R -> ~chi_40 u)
     9.59999786E-01    2     1000021         2   # BR(~u_R -> ~g      u)
#
#         PDG            Width
DECAY   1000001     3.11398067E+02   # sdown_L decays
#          BR         NDA      ID1       ID2
     2.39170772E-03    2     1000022         1   # BR(~d_L -> ~chi_10 d)
     2.50001712E-05    2     1000023         1   # BR(~d_L -> ~chi_20 d)
     2.15434766E-05    2     1000025         1   # BR(~d_L -> ~chi_30 d)
     2.51187773E-02    2     1000035         1   # BR(~d_L -> ~chi_40 d)
     1.55631415E-05    2    -1000024         2   # BR(~d_L -> ~chi_1- u)
     5.02601254E-02    2    -1000037         2   # BR(~d_L -> ~chi_2- u)
     9.22167283E-01    2     1000021         1   # BR(~d_L -> ~g      d)
#
#         PDG            Width
DECAY   2000001     2.88794038E+02   # sdown_R decays
#          BR         NDA      ID1       ID2
     1.02964544E-02    2     1000022         1   # BR(~d_R -> ~chi_10 d)
     5.66447186E-06    2     1000023         1   # BR(~d_R -> ~chi_20 d)
     7.02933268E-06    2     1000025         1   # BR(~d_R -> ~chi_30 d)
     7.08968977E-10    2     1000035         1   # BR(~d_R -> ~chi_40 d)
     9.89690851E-01    2     1000021         1   # BR(~d_R -> ~g      d)
#
#         PDG            Width
DECAY   1000004     3.11386606E+02   # scharm_L decays
#          BR         NDA      ID1       ID2
     2.39962603E-03    2     1000022         4   # BR(~c_L -> ~chi_10 c)
     5.32425570E-05    2     1000023         4   # BR(~c_L -> ~chi_20 c)
     4.33709630E-06    2     1000025         4   # BR(~c_L -> ~chi_30 c)
     2.51037013E-02    2     1000035         4   # BR(~c_L -> ~chi_40 c)
     1.81122045E-04    2     1000024         3   # BR(~c_L -> ~chi_1+ s)
     5.01720356E-02    2     1000037         3   # BR(~c_L -> ~chi_2+ s)
     9.22085935E-01    2     1000021         4   # BR(~c_L -> ~g      c)
#
#         PDG            Width
DECAY   2000004     2.97703783E+02   # scharm_R decays
#          BR         NDA      ID1       ID2
     3.99509588E-02    2     1000022         4   # BR(~c_R -> ~chi_10 c)
     2.19782546E-05    2     1000023         4   # BR(~c_R -> ~chi_20 c)
     2.72739381E-05    2     1000025         4   # BR(~c_R -> ~chi_30 c)
     2.75049038E-09    2     1000035         4   # BR(~c_R -> ~chi_40 c)
     9.59999786E-01    2     1000021         4   # BR(~c_R -> ~g      c)
#
#         PDG            Width
DECAY   1000003     3.11398067E+02   # sstrange_L decays
#          BR         NDA      ID1       ID2
     2.39170772E-03    2     1000022         3   # BR(~s_L -> ~chi_10 s)
     2.50001712E-05    2     1000023         3   # BR(~s_L -> ~chi_20 s)
     2.15434766E-05    2     1000025         3   # BR(~s_L -> ~chi_30 s)
     2.51187773E-02    2     1000035         3   # BR(~s_L -> ~chi_40 s)
     1.55631415E-05    2    -1000024         4   # BR(~s_L -> ~chi_1- c)
     5.02601254E-02    2    -1000037         4   # BR(~s_L -> ~chi_2- c)
     9.22167283E-01    2     1000021         3   # BR(~s_L -> ~g      s)
#
#         PDG            Width
DECAY   2000003     2.88794038E+02   # sstrange_R decays
#          BR         NDA      ID1       ID2
     1.02964544E-02    2     1000022         3   # BR(~s_R -> ~chi_10 s)
     5.66447186E-06    2     1000023         3   # BR(~s_R -> ~chi_20 s)
     7.02933268E-06    2     1000025         3   # BR(~s_R -> ~chi_30 s)
     7.08968977E-10    2     1000035         3   # BR(~s_R -> ~chi_40 s)
     9.89690851E-01    2     1000021         3   # BR(~s_R -> ~g      s)
#
#         PDG            Width
DECAY   1000011     3.02577832E+01   # selectron_L decays
#          BR         NDA      ID1       ID2
     2.26570608E-01    2     1000022        11   # BR(~e_L -> ~chi_10 e-)
     9.63912115E-04    2     1000023        11   # BR(~e_L -> ~chi_20 e-)
     2.37458687E-06    2     1000025        11   # BR(~e_L -> ~chi_30 e-)
     2.57245363E-01    2     1000035        11   # BR(~e_L -> ~chi_40 e-)
     1.62977890E-04    2    -1000024        12   # BR(~e_L -> ~chi_1- nu_e)
     5.15054765E-01    2    -1000037        12   # BR(~e_L -> ~chi_2- nu_e)
#
#         PDG            Width
DECAY   2000011     2.73685264E+01   # selectron_R decays
#          BR         NDA      ID1       ID2
     9.98771911E-01    2     1000022        11   # BR(~e_R -> ~chi_10 e-)
     5.47993818E-04    2     1000023        11   # BR(~e_R -> ~chi_20 e-)
     6.80028021E-04    2     1000025        11   # BR(~e_R -> ~chi_30 e-)
     6.72307835E-08    2     1000035        11   # BR(~e_R -> ~chi_40 e-)
#
#         PDG            Width
DECAY   1000013     3.02577832E+01   # smuon_L decays
#          BR         NDA      ID1       ID2
     2.26570608E-01    2     1000022        13   # BR(~mu_L -> ~chi_10 mu-)
     9.63912115E-04    2     1000023        13   # BR(~mu_L -> ~chi_20 mu-)
     2.37458687E-06    2     1000025        13   # BR(~mu_L -> ~chi_30 mu-)
     2.57245363E-01    2     1000035        13   # BR(~mu_L -> ~chi_40 mu-)
     1.62977890E-04    2    -1000024        14   # BR(~mu_L -> ~chi_1- nu_mu)
     5.15054765E-01    2    -1000037        14   # BR(~mu_L -> ~chi_2- nu_mu)
#
#         PDG            Width
DECAY   2000013     2.73685264E+01   # smuon_R decays
#          BR         NDA      ID1       ID2
     9.98771911E-01    2     1000022        13   # BR(~mu_R -> ~chi_10 mu-)
     5.47993818E-04    2     1000023        13   # BR(~mu_R -> ~chi_20 mu-)
     6.80028021E-04    2     1000025        13   # BR(~mu_R -> ~chi_30 mu-)
     6.72307835E-08    2     1000035        13   # BR(~mu_R -> ~chi_40 mu-)
#
#         PDG            Width
DECAY   1000015     2.90681210E+01   # stau_1 decays
#          BR         NDA      ID1       ID2
     9.27978907E-01    2     1000022        15   # BR(~tau_1 -> ~chi_10  tau-)
     1.50467063E-02    2     1000023        15   # BR(~tau_1 -> ~chi_20  tau-)
     1.40755349E-02    2     1000025        15   # BR(~tau_1 -> ~chi_30  tau-)
     4.77824981E-03    2     1000035        15   # BR(~tau_1 -> ~chi_40  tau-)
     2.85538506E-02    2    -1000024        16   # BR(~tau_1 -> ~chi_1-  nu_tau)
     9.56675183E-03    2    -1000037        16   # BR(~tau_1 -> ~chi_2-  nu_tau)
#
#         PDG            Width
DECAY   2000015     3.10312461E+01   # stau_2 decays
#          BR         NDA      ID1       ID2
     2.32395164E-01    2     1000022        15   # BR(~tau_2 -> ~chi_10  tau-)
     1.40453759E-02    2     1000023        15   # BR(~tau_2 -> ~chi_20  tau-)
     1.40885623E-02    2     1000025        15   # BR(~tau_2 -> ~chi_30  tau-)
     2.46278463E-01    2     1000035        15   # BR(~tau_2 -> ~chi_40  tau-)
     9.54917871E-05    2    -1000024        16   # BR(~tau_2 -> ~chi_1-  nu_tau)
     4.93096942E-01    2    -1000037        16   # BR(~tau_2 -> ~chi_2-  nu_tau)
#
#         PDG            Width
DECAY   1000012     3.02603095E+01   # snu_eL decays
#          BR         NDA      ID1       ID2
     2.26255078E-01    2     1000022        12   # BR(~nu_eL -> ~chi_10 nu_e)
     7.64863571E-05    2     1000023        12   # BR(~nu_eL -> ~chi_20 nu_e)
     5.42744821E-04    2     1000025        12   # BR(~nu_eL -> ~chi_30 nu_e)
     2.57309649E-01    2     1000035        12   # BR(~nu_eL -> ~chi_40 nu_e)
     1.89626536E-03    2     1000024        11   # BR(~nu_eL -> ~chi_1+ e-)
     5.13919776E-01    2     1000037        11   # BR(~nu_eL -> ~chi_2+ e-)
#
#         PDG            Width
DECAY   1000014     3.02603095E+01   # snu_muL decays
#          BR         NDA      ID1       ID2
     2.26255078E-01    2     1000022        14   # BR(~nu_muL -> ~chi_10 nu_mu)
     7.64863571E-05    2     1000023        14   # BR(~nu_muL -> ~chi_20 nu_mu)
     5.42744821E-04    2     1000025        14   # BR(~nu_muL -> ~chi_30 nu_mu)
     2.57309649E-01    2     1000035        14   # BR(~nu_muL -> ~chi_40 nu_mu)
     1.89626536E-03    2     1000024        13   # BR(~nu_muL -> ~chi_1+ mu-)
     5.13919776E-01    2     1000037        13   # BR(~nu_muL -> ~chi_2+ mu-)
#
#         PDG            Width
DECAY   1000016     3.10817630E+01   # snu_tauL decays
#          BR         NDA      ID1       ID2
     2.20251554E-01    2     1000022        16   # BR(~nu_tauL -> ~chi_10 nu_tau)
     7.44548928E-05    2     1000023        16   # BR(~nu_tauL -> ~chi_20 nu_tau)
     5.28329557E-04    2     1000025        16   # BR(~nu_tauL -> ~chi_30 nu_tau)
     2.50416909E-01    2     1000035        16   # BR(~nu_tauL -> ~chi_40 nu_tau)
     2.85756856E-02    2     1000024        15   # BR(~nu_tauL -> ~chi_1+ tau-)
     5.00153067E-01    2     1000037        15   # BR(~nu_tauL -> ~chi_2+ tau-)
#
#         PDG            Width
DECAY   1000024     7.34726775E-01   # chargino1+ decays
#          BR         NDA      ID1       ID2
     1.00000000E+00    2     1000022        24   # BR(~chi_1+ -> ~chi_10  W+)
#
#         PDG            Width
DECAY   1000037     1.96794918E+01   # chargino2+ decays
#          BR         NDA      ID1       ID2
     2.53023627E-01    2     1000024        23   # BR(~chi_2+ -> ~chi_1+  Z )
     2.15552873E-04    2     1000022        24   # BR(~chi_2+ -> ~chi_10  W+)
     2.44015522E-01    2     1000023        24   # BR(~chi_2+ -> ~chi_20  W+)
     2.43978358E-01    2     1000025        24   # BR(~chi_2+ -> ~chi_30  W+)
     2.58766194E-01    2     1000024        25   # BR(~chi_2+ -> ~chi_1+  h )
     7.45795165E-07    2     1000022        37   # BR(~chi_2+ -> ~chi_10  H+)
#
#         PDG            Width
DECAY   1000022     0.00000000E+00   # neutralino1 decays
#
#         PDG            Width
DECAY   1000023     7.69898513E-01   # neutralino2 decays
#          BR         NDA      ID1       ID2
     5.48090504E-01    2     1000022        23   # BR(~chi_20 -> ~chi_10   Z )
     4.51909496E-01    2     1000022        25   # BR(~chi_20 -> ~chi_10   h )
#
#         PDG            Width
DECAY   1000025     7.75708882E-01   # neutralino3 decays
#          BR         NDA      ID1       ID2
     4.38170017E-01    2     1000022        23   # BR(~chi_30 -> ~chi_10   Z )
     5.61829983E-01    2     1000022        25   # BR(~chi_30 -> ~chi_10   h )
#
#         PDG            Width
DECAY   1000035     1.96911055E+01   # neutralino4 decays
#          BR         NDA      ID1       ID2
     6.35380951E-05    2     1000022        23   # BR(~chi_40 -> ~chi_10   Z )
     5.83449955E-02    2     1000023        23   # BR(~chi_40 -> ~chi_20   Z )
     1.93974048E-01    2     1000025        23   # BR(~chi_40 -> ~chi_30   Z )
     2.44629405E-01    2     1000024       -24   # BR(~chi_40 -> ~chi_1+   W-)
     2.44629405E-01    2    -1000024        24   # BR(~chi_40 -> ~chi_1-   W+)
     1.54912156E-04    2     1000022        25   # BR(~chi_40 -> ~chi_10   h )
     6.82760543E-07    2     1000022        35   # BR(~chi_40 -> ~chi_10   H )
     8.92349209E-08    2     1000022        36   # BR(~chi_40 -> ~chi_10   A )
     1.99760024E-01    2     1000023        25   # BR(~chi_40 -> ~chi_20   h )
     5.84429016E-02    2     1000025        25   # BR(~chi_40 -> ~chi_30   h )
#
#         PDG            Width
DECAY        25     4.03815148E-03   # h decays
#          BR         NDA      ID1       ID2
     6.11915374E-01    2           5        -5   # BR(h -> b       bb     )
     6.41250394E-02    2         -15        15   # BR(h -> tau+    tau-   )
     2.27026835E-04    2         -13        13   # BR(h -> mu+     mu-    )
     4.81433247E-04    2           3        -3   # BR(h -> s       sb     )
     2.08623134E-02    2           4        -4   # BR(h -> c       cb     )
     6.72548059E-02    2          21        21   # BR(h -> g       g      )
     2.30787080E-03    2          22        22   # BR(h -> gam     gam    )
     1.47129491E-03    2          22        23   # BR(h -> Z       gam    )
     2.06759566E-01    2          24       -24   # BR(h -> W+      W-     )
     2.45531735E-02    2          23        23   # BR(h -> Z       Z      )
     4.21018742E-05    2     1000022   1000022   # BR(h -> ~chi_10 ~chi_10)
#
#         PDG            Width
DECAY        35     7.78985463E+00   # H decays
#          BR         NDA      ID1       ID2
     4.15997395E-01    2           5        -5   # BR(H -> b       bb     )
     7.15505550E-02    2         -15        15   # BR(H -> tau+    tau-   )
     2.53008446E-04    2         -13        13   # BR(H -> mu+     mu-    )
     3.10149647E-04    2           3        -3   # BR(H -> s       sb     )
     1.73320353E-06    2           4        -4   # BR(H -> c       cb     )
     1.73160758E-01    2           6        -6   # BR(H -> t       tb     )
     5.75025890E-05    2          21        21   # BR(H -> g       g      )
     3.33338236E-07    2          22        22   # BR(H -> gam     gam    )
     1.02199574E-07    2          23        22   # BR(H -> Z       gam    )
     7.83669673E-05    2          24       -24   # BR(H -> W+      W-     )
     3.91338841E-05    2          23        23   # BR(H -> Z       Z      )
     2.94448717E-04    2          25        25   # BR(H -> h       h      )
    -3.69333020E-23    2          36        36   # BR(H -> A       A      )
     6.49609547E-19    2          23        36   # BR(H -> Z       A      )
     1.18995564E-03    2     1000024  -1000024   # BR(H -> ~chi_1+ ~chi_1-)
     1.28755603E-03    2     1000022   1000022   # BR(H -> ~chi_10 ~chi_10)
     6.58644828E-05    2     1000023   1000023   # BR(H -> ~chi_20 ~chi_20)
     2.34560628E-04    2     1000025   1000025   # BR(H -> ~chi_30 ~chi_30)
     2.00565365E-01    2     1000022   1000023   # BR(H -> ~chi_10 ~chi_20)
     1.34697006E-01    2     1000022   1000025   # BR(H -> ~chi_10 ~chi_30)
     2.16205164E-04    2     1000023   1000025   # BR(H -> ~chi_20 ~chi_30)
#
#         PDG            Width
DECAY        36     7.81016889E+00   # A decays
#          BR         NDA      ID1       ID2
     4.15055805E-01    2           5        -5   # BR(A -> b       bb     )
     7.13666185E-02    2         -15        15   # BR(A -> tau+    tau-   )
     2.52357679E-04    2         -13        13   # BR(A -> mu+     mu-    )
     3.09577848E-04    2           3        -3   # BR(A -> s       sb     )
     1.73585274E-06    2           4        -4   # BR(A -> c       cb     )
     1.73329751E-01    2           6        -6   # BR(A -> t       tb     )
     1.71558753E-04    2          21        21   # BR(A -> g       g      )
     5.27417476E-07    2          22        22   # BR(A -> gam     gam    )
     2.07725459E-07    2          23        22   # BR(A -> Z       gam    )
     7.78691454E-05    2          23        25   # BR(A -> Z       h      )
     2.91237760E-03    2     1000024  -1000024   # BR(A -> ~chi_1+ ~chi_1-)
     1.31616309E-03    2     1000022   1000022   # BR(A -> ~chi_10 ~chi_10)
     1.19229393E-04    2     1000023   1000023   # BR(A -> ~chi_20 ~chi_20)
     9.99352675E-04    2     1000025   1000025   # BR(A -> ~chi_30 ~chi_30)
     1.36080739E-01    2     1000022   1000023   # BR(A -> ~chi_10 ~chi_20)
     1.97979669E-01    2     1000022   1000025   # BR(A -> ~chi_10 ~chi_30)
     2.64599339E-05    2     1000023   1000025   # BR(A -> ~chi_20 ~chi_30)
#
#         PDG            Width
DECAY        37     7.76549736E+00   # H+ decays
#          BR         NDA      ID1       ID2
     6.67231528E-04    2           4        -5   # BR(H+ -> c       bb     )
     7.17978550E-02    2         -15        16   # BR(H+ -> tau+    nu_tau )
     2.53882563E-04    2         -13        14   # BR(H+ -> mu+     nu_mu  )
     4.27025971E-06    2           2        -5   # BR(H+ -> u       bb     )
     1.48973053E-05    2           2        -3   # BR(H+ -> u       sb     )
     3.08075646E-04    2           4        -3   # BR(H+ -> c       sb     )
     5.87702427E-01    2           6        -5   # BR(H+ -> t       bb     )
     7.84351471E-05    2          24        25   # BR(H+ -> W+      h      )
     8.19497115E-14    2          24        36   # BR(H+ -> W+      A      )
     3.38606015E-01    2     1000024   1000022   # BR(H+ -> ~chi_1+ ~chi_10)
     5.05625052E-04    2     1000024   1000023   # BR(H+ -> ~chi_1+ ~chi_20)
     6.12853885E-05    2     1000024   1000025   # BR(H+ -> ~chi_1+ ~chi_30)
