#
#                              ======================
#                              | THE SUSYHIT OUTPUT |
#                              ======================
#
#
#              ------------------------------------------------------
#              |     This is the output of the SUSY-HIT package     |
#              |  created by A.Djouadi, M.Muehlleitner and M.Spira. |
#              |  In case of problems with SUSY-HIT email to        |
#              |           margarete.muehlleitner@cern.ch           |
#              |           michael.spira@psi.ch                     |
#              |           abdelhak.djouadi@cern.ch                 |
#              ------------------------------------------------------
#
#              ------------------------------------------------------
#              |  SUSY Les Houches Accord - MSSM Spectrum + Decays  |
#              |              based on the decay programs           |
#              |                                                    |
#              |                     SDECAY 1.3b                    |
#              |                                                    |
#              |  Authors: M.Muhlleitner, A.Djouadi and Y.Mambrini  |
#              |  Ref.:    Comput.Phys.Commun.168(2005)46           |
#              |           [hep-ph/0311167]                         |
#              |                                                    |
#              |                     HDECAY 3.4                     |
#              |                                                    |
#              |  By: A.Djouadi,J.Kalinowski,M.Muhlleitner,M.Spira  |
#              |  Ref.:    Comput.Phys.Commun.108(1998)56           |
#              |           [hep-ph/9704448]                         |
#              |                                                    |
#              |                                                    |
#              |  If not stated otherwise all DRbar couplings and   |
#              |  soft SUSY breaking masses are given at the scale  |
#              |  Q=  0.50007198E+04
#              |                                                    |
#              ------------------------------------------------------
#
#
BLOCK DCINFO  # Decay Program information
     1   SDECAY/HDECAY # decay calculator
     2   1.3b  /3.4    # version number
#
BLOCK SPINFO  # Spectrum calculator information
     1    SOFTSUSY    # spectrum calculator                
     2    3.4.0       # version number                     
#
BLOCK MODSEL  # Model selection
     1     0   #  nonUniversal                                     
#
BLOCK SMINPUTS  # Standard Model inputs
         1     1.25778332E+02   # alpha_em^-1(M_Z)^MSbar
         2     1.16570000E-05   # G_F [GeV^-2]
         3     1.17200002E-01   # alpha_S(M_Z)^MSbar
         4     9.11876000E+01   # M_Z pole mass
         5     4.25000000E+00   # mb(mb)^MSbar
         6     1.72500000E+02   # mt pole mass
         7     1.77682000E+00   # mtau pole mass
#
BLOCK MINPAR  # Input parameters - minimal models
         3     1.00000000E+01   # tanb                
#
BLOCK EXTPAR  # Input parameters - non-minimal models
         0    -1.00000000E+00   # Set                 
         1     6.00000000E+01   # M_1(MX)             
         2     3.00000000E+03   # M_2(MX)             
         3     1.30154400E+03   # M_3(MX)             
        11     5.00000000E+03   # At(MX)              
        12     5.00000000E+03   # Ab(MX)              
        13     0.00000000E+00   # Atau(MX)            
        23    -1.34904200E+03   # mu(MX)              
        26     3.00000000E+03   # mA(pole)            
        31     5.00000000E+03   # meL(MX)             
        32     5.00000000E+03   # mmuL(MX)            
        33     5.00000000E+03   # mtauL(MX)           
        34     5.00000000E+03   # meR(MX)             
        35     5.00000000E+03   # mmuR(MX)            
        36     5.00000000E+03   # mtauR(MX)           
        41     5.00000000E+03   # mqL1(MX)            
        42     5.00000000E+03   # mqL2(MX)            
        43     5.00000000E+03   # mqL3(MX)            
        44     5.00000000E+03   # muR(MX)             
        45     5.00000000E+03   # mcR(MX)             
        46     5.00000000E+03   # mtR(MX)             
        47     5.00000000E+03   # mdR(MX)             
        48     5.00000000E+03   # msR(MX)             
        49     5.00000000E+03   # mbR(MX)             
#
BLOCK MASS  # Mass Spectrum
# PDG code           mass       particle
        24     8.00954912E+01   # W+
        25     1.24661958E+02   # h
        35     3.00008399E+03   # H
        36     2.99999990E+03   # A
        37     3.00087347E+03   # H+
         5     4.87878001E+00   # b-quark pole mass calculated from mb(mb)_Msbar
   1000001     5.06750455E+03   # ~d_L
   2000001     5.04970574E+03   # ~d_R
   1000002     5.06702932E+03   # ~u_L
   2000002     5.04942841E+03   # ~u_R
   1000003     5.06750455E+03   # ~s_L
   2000003     5.04970574E+03   # ~s_R
   1000004     5.06702932E+03   # ~c_L
   2000004     5.04942841E+03   # ~c_R
   1000005     5.01357639E+03   # ~b_1
   2000005     5.04851245E+03   # ~b_2
   1000006     4.90444903E+03   # ~t_1
   2000006     5.05989285E+03   # ~t_2
   1000011     5.01905410E+03   # ~e_L
   2000011     5.00591306E+03   # ~e_R
   1000012     5.01810584E+03   # ~nu_eL
   1000013     5.01905410E+03   # ~mu_L
   2000013     5.00591306E+03   # ~mu_R
   1000014     5.01810584E+03   # ~nu_muL
   1000015     5.00442490E+03   # ~tau_1
   2000015     5.01894956E+03   # ~tau_2
   1000016     5.01756521E+03   # ~nu_tauL
   1000021     1.60000051E+03   # ~g
   1000022     6.03030467E+01   # ~chi_10
   1000023     1.39947218E+03   # ~chi_20
   1000025    -1.40186129E+03   # ~chi_30
   1000035     3.07432064E+03   # ~chi_40
   1000024     1.40000030E+03   # ~chi_1+
   1000037     3.07448812E+03   # ~chi_2+
#
BLOCK NMIX  # Neutralino Mixing Matrix
  1  1     9.99491047E-01   # N_11
  1  2     1.47244913E-04   # N_12
  1  3    -3.18399156E-02   # N_13
  1  4     1.96081026E-03   # N_14
  2  1     2.11287678E-02   # N_21
  2  2     2.90604076E-02   # N_22
  2  3     7.06893312E-01   # N_23
  2  4     7.06407045E-01   # N_24
  3  1    -2.38962484E-02   # N_31
  3  2     1.35659013E-02   # N_32
  3  3    -7.06518199E-01   # N_33
  3  4     7.07161206E-01   # N_34
  4  1    -4.37231348E-04   # N_41
  4  2     9.99485586E-01   # N_42
  4  3    -1.09590008E-02   # N_43
  4  4    -3.01375477E-02   # N_44
#
BLOCK UMIX  # Chargino Mixing Matrix U
  1  1     1.55110451E-02   # U_11
  1  2     9.99879697E-01   # U_12
  2  1    -9.99879697E-01   # U_21
  2  2     1.55110451E-02   # U_22
#
BLOCK VMIX  # Chargino Mixing Matrix V
  1  1     4.26446941E-02   # V_11
  1  2    -9.99090301E-01   # V_12
  2  1    -9.99090301E-01   # V_21
  2  2    -4.26446941E-02   # V_22
#
BLOCK STOPMIX  # Stop Mixing Matrix
  1  1    -5.11446854E-01   # cos(theta_t)
  1  2     8.59314911E-01   # sin(theta_t)
  2  1    -8.59314911E-01   # -sin(theta_t)
  2  2    -5.11446854E-01   # cos(theta_t)
#
BLOCK SBOTMIX  # Sbottom Mixing Matrix
  1  1     9.95085150E-01   # cos(theta_b)
  1  2    -9.90229481E-02   # sin(theta_b)
  2  1     9.90229481E-02   # -sin(theta_b)
  2  2     9.95085150E-01   # cos(theta_b)
#
BLOCK STAUMIX  # Stau Mixing Matrix
  1  1    -1.57618941E-01   # cos(theta_tau)
  1  2     9.87500010E-01   # sin(theta_tau)
  2  1    -9.87500010E-01   # -sin(theta_tau)
  2  2    -1.57618941E-01   # cos(theta_tau)
#
BLOCK ALPHA  # Higgs mixing
          -1.05453285E-01   # Mixing angle in the neutral Higgs boson sector
#
BLOCK HMIX Q=  5.00071984E+03  # DRbar Higgs Parameters
         1    -1.37357479E+03   # mu(Q)MSSM           
         2     9.47137713E+00   # tan                 
         3     2.41951830E+02   # higgs               
         4     8.41772150E+06   # mA^2(Q)MSSM         
#
BLOCK GAUGE Q=  5.00071984E+03  # The gauge couplings
     1     3.70726483E-01   # gprime(Q) DRbar
     2     6.32192684E-01   # g(Q) DRbar
     3     1.00176267E+00   # g3(Q) DRbar
#
BLOCK AU Q=  5.00071984E+03  # The trilinear couplings
  1  1     5.00000001E+03   # A_u(Q) DRbar
  2  2     5.00000001E+03   # A_c(Q) DRbar
  3  3     5.00000001E+03   # A_t(Q) DRbar
#
BLOCK AD Q=  5.00071984E+03  # The trilinear couplings
  1  1     5.00000000E+03   # A_d(Q) DRbar
  2  2     5.00000000E+03   # A_s(Q) DRbar
  3  3     5.00000001E+03   # A_b(Q) DRbar
#
BLOCK AE Q=  5.00071984E+03  # The trilinear couplings
  1  1     0.00000000E+00   # A_e(Q) DRbar
  2  2     1.13858081E-07   # A_mu(Q) DRbar
  3  3     1.13258331E-07   # A_tau(Q) DRbar
#
BLOCK Yu Q=  5.00071984E+03  # The Yukawa couplings
  1  1     0.00000000E+00   # y_u(Q) DRbar
  2  2     0.00000000E+00   # y_c(Q) DRbar
  3  3     8.18038996E-01   # y_t(Q) DRbar
#
BLOCK Yd Q=  5.00071984E+03  # The Yukawa couplings
  1  1     0.00000000E+00   # y_d(Q) DRbar
  2  2     0.00000000E+00   # y_s(Q) DRbar
  3  3     1.30662887E-01   # y_b(Q) DRbar
#
BLOCK Ye Q=  5.00071984E+03  # The Yukawa couplings
  1  1     0.00000000E+00   # y_e(Q) DRbar
  2  2     0.00000000E+00   # y_mu(Q) DRbar
  3  3     9.66765948E-02   # y_tau(Q) DRbar
#
BLOCK MSOFT Q=  5.00071984E+03  # The soft SUSY breaking masses at the scale Q
         1     6.00000000E+01   # M_1(Q)              
         2     3.00000000E+03   # M_2(Q)              
         3     1.30154400E+03   # M_3(Q)              
        21     6.78819962E+06   # mH1^2(Q)            
        22    -1.33641171E+06   # mH2^2(Q)            
        31     5.00000000E+03   # meL(Q)              
        32     5.00000000E+03   # mmuL(Q)             
        33     5.00000000E+03   # mtauL(Q)            
        34     5.00000000E+03   # meR(Q)              
        35     5.00000000E+03   # mmuR(Q)             
        36     5.00000000E+03   # mtauR(Q)            
        41     5.00000000E+03   # mqL1(Q)             
        42     5.00000000E+03   # mqL2(Q)             
        43     5.00000000E+03   # mqL3(Q)             
        44     5.00000000E+03   # muR(Q)              
        45     5.00000000E+03   # mcR(Q)              
        46     4.99999999E+03   # mtR(Q)              
        47     5.00000000E+03   # mdR(Q)              
        48     5.00000000E+03   # msR(Q)              
        49     5.00000000E+03   # mbR(Q)              
#
#
#
#                             =================
#                             |The decay table|
#                             =================
#
# - The QCD corrections to the decays gluino -> squark  + quark
#                                     squark -> gaugino + quark_prime
#                                     squark -> squark_prime + Higgs
#                                     squark -> gluino  + quark
#   are included.
#
# - The multi-body decays for the inos, stops and sbottoms are included.
#
# - The loop induced decays for the gluino, neutralinos and stops
#   are included.
#
# - The SUSY decays of the top quark are included.
#
#
#         PDG            Width
DECAY         6     1.40054939E+00   # top decays
#          BR         NDA      ID1       ID2
     1.00000000E+00    2           5        24   # BR(t ->  b    W+)
#
#         PDG            Width
DECAY   1000021     9.61480124E-05   # gluino decays
#          BR         NDA      ID1       ID2
     1.07816095E-05    2     1000022        21   # BR(~g -> ~chi_10 g)
     1.11350543E-03    2     1000023        21   # BR(~g -> ~chi_20 g)
     1.07787395E-03    2     1000025        21   # BR(~g -> ~chi_30 g)
#           BR         NDA      ID1       ID2       ID3
     7.73307040E-02    3     1000022         1        -1   # BR(~g -> ~chi_10 d  db)
     1.40856962E-07    3     1000023         1        -1   # BR(~g -> ~chi_20 d  db)
     2.71921357E-08    3     1000025         1        -1   # BR(~g -> ~chi_30 d  db)
     2.63630837E-01    3     1000022         2        -2   # BR(~g -> ~chi_10 u  ub)
     2.81237934E-07    3     1000023         2        -2   # BR(~g -> ~chi_20 u  ub)
     2.80021534E-08    3     1000025         2        -2   # BR(~g -> ~chi_30 u  ub)
     7.73307040E-02    3     1000022         3        -3   # BR(~g -> ~chi_10 s  sb)
     1.40856962E-07    3     1000023         3        -3   # BR(~g -> ~chi_20 s  sb)
     2.71921357E-08    3     1000025         3        -3   # BR(~g -> ~chi_30 s  sb)
     2.63630837E-01    3     1000022         4        -4   # BR(~g -> ~chi_10 c  cb)
     2.81237934E-07    3     1000023         4        -4   # BR(~g -> ~chi_20 c  cb)
     2.80021534E-08    3     1000025         4        -4   # BR(~g -> ~chi_30 c  cb)
     7.82939165E-02    3     1000022         5        -5   # BR(~g -> ~chi_10 b  bb)
     1.82159191E-05    3     1000023         5        -5   # BR(~g -> ~chi_20 b  bb)
     1.67910603E-05    3     1000025         5        -5   # BR(~g -> ~chi_30 b  bb)
     2.37536771E-01    3     1000022         6        -6   # BR(~g -> ~chi_10 t  tb)
     3.65465747E-07    3     1000024         1        -2   # BR(~g -> ~chi_1+ d  ub)
     3.65465747E-07    3    -1000024         2        -1   # BR(~g -> ~chi_1- u  db)
     3.65465747E-07    3     1000024         3        -4   # BR(~g -> ~chi_1+ s  cb)
     3.65465747E-07    3    -1000024         4        -3   # BR(~g -> ~chi_1- c  sb)
     3.32300104E-06    3     1000024         5        -6   # BR(~g -> ~chi_1+ b  tb)
     3.32300104E-06    3    -1000024         6        -5   # BR(~g -> ~chi_1- t  bb)
#
#         PDG            Width
DECAY   1000006     3.66062667E+02   # stop1 decays
#          BR         NDA      ID1       ID2
     2.40270629E-02    2     1000022         6   # BR(~t_1 -> ~chi_10 t )
     7.60230562E-02    2     1000023         6   # BR(~t_1 -> ~chi_20 t )
     7.30668993E-02    2     1000025         6   # BR(~t_1 -> ~chi_30 t )
     5.88310920E-03    2     1000035         6   # BR(~t_1 -> ~chi_40 t )
     1.09477641E-01    2     1000024         5   # BR(~t_1 -> ~chi_1+ b )
     1.17070156E-02    2     1000037         5   # BR(~t_1 -> ~chi_2+ b )
     6.99815216E-01    2     1000021         6   # BR(~t_1 -> ~g      t )
#
#         PDG            Width
DECAY   2000006     3.73827748E+02   # stop2 decays
#          BR         NDA      ID1       ID2
     9.53114629E-03    2     1000022         6   # BR(~t_2 -> ~chi_10 t )
     7.69135409E-02    2     1000023         6   # BR(~t_2 -> ~chi_20 t )
     8.00535485E-02    2     1000025         6   # BR(~t_2 -> ~chi_30 t )
     1.45858446E-02    2     1000035         6   # BR(~t_2 -> ~chi_40 t )
     4.70530646E-02    2     1000024         5   # BR(~t_2 -> ~chi_1+ b )
     2.89784394E-02    2     1000037         5   # BR(~t_2 -> ~chi_2+ b )
     7.39388952E-01    2     1000021         6   # BR(~t_2 -> ~g      t )
     7.74293136E-04    2     1000006        25   # BR(~t_2 -> ~t_1    h )
     2.72117095E-03    2     1000006        23   # BR(~t_2 -> ~t_1    Z )
#
#         PDG            Width
DECAY   1000005     3.50883386E+02   # sbottom1 decays
#          BR         NDA      ID1       ID2
     2.22371608E-03    2     1000022         5   # BR(~b_1 -> ~chi_10 b )
     2.14024683E-03    2     1000023         5   # BR(~b_1 -> ~chi_20 b )
     2.03849569E-03    2     1000025         5   # BR(~b_1 -> ~chi_30 b )
     2.13010046E-02    2     1000035         5   # BR(~b_1 -> ~chi_40 b )
     1.60997826E-01    2    -1000024         6   # BR(~b_1 -> ~chi_1- t )
     4.28563226E-02    2    -1000037         6   # BR(~b_1 -> ~chi_2- t )
     7.66840566E-01    2     1000021         5   # BR(~b_1 -> ~g      b )
     1.60182262E-03    2     1000006       -24   # BR(~b_1 -> ~t_1    W-)
#
#         PDG            Width
DECAY   2000005     2.78229084E+02   # sbottom2 decays
#          BR         NDA      ID1       ID2
     1.05374991E-02    2     1000022         5   # BR(~b_2 -> ~chi_10 b )
     2.61044292E-03    2     1000023         5   # BR(~b_2 -> ~chi_20 b )
     2.71513351E-03    2     1000025         5   # BR(~b_2 -> ~chi_30 b )
     2.80574647E-04    2     1000035         5   # BR(~b_2 -> ~chi_40 b )
     7.23372511E-03    2    -1000024         6   # BR(~b_2 -> ~chi_1- t )
     5.64292234E-04    2    -1000037         6   # BR(~b_2 -> ~chi_2- t )
     9.75974847E-01    2     1000021         5   # BR(~b_2 -> ~g      b )
     8.34851140E-05    2     1000006       -24   # BR(~b_2 -> ~t_1    W-)
#
#         PDG            Width
DECAY   1000002     2.97156116E+02   # sup_L decays
#          BR         NDA      ID1       ID2
     2.51352192E-03    2     1000022         2   # BR(~u_L -> ~chi_10 u)
     6.18849932E-05    2     1000023         2   # BR(~u_L -> ~chi_20 u)
     4.44214630E-06    2     1000025         2   # BR(~u_L -> ~chi_30 u)
     2.63198062E-02    2     1000035         2   # BR(~u_L -> ~chi_40 u)
     2.04298100E-04    2     1000024         1   # BR(~u_L -> ~chi_1+ d)
     5.26003434E-02    2     1000037         1   # BR(~u_L -> ~chi_2+ d)
     9.18295703E-01    2     1000021         2   # BR(~u_L -> ~g      u)
#
#         PDG            Width
DECAY   2000002     2.83409945E+02   # sup_R decays
#          BR         NDA      ID1       ID2
     4.19561125E-02    2     1000022         2   # BR(~u_R -> ~chi_10 u)
     1.60009118E-05    2     1000023         2   # BR(~u_R -> ~chi_20 u)
     2.04554500E-05    2     1000025         2   # BR(~u_R -> ~chi_30 u)
     3.19192655E-09    2     1000035         2   # BR(~u_R -> ~chi_40 u)
     9.58007428E-01    2     1000021         2   # BR(~u_R -> ~g      u)
#
#         PDG            Width
DECAY   1000001     2.97169095E+02   # sdown_L decays
#          BR         NDA      ID1       ID2
     2.50608325E-03    2     1000022         1   # BR(~d_L -> ~chi_10 d)
     3.49180691E-05    2     1000023         1   # BR(~d_L -> ~chi_20 d)
     1.86746461E-05    2     1000025         1   # BR(~d_L -> ~chi_30 d)
     2.63358460E-02    2     1000035         1   # BR(~d_L -> ~chi_40 d)
     2.70303585E-05    2    -1000024         2   # BR(~d_L -> ~chi_1- u)
     5.26975774E-02    2    -1000037         2   # BR(~d_L -> ~chi_2- u)
     9.18379870E-01    2     1000021         1   # BR(~d_L -> ~g      d)
#
#         PDG            Width
DECAY   2000001     2.74505844E+02   # sdown_R decays
#          BR         NDA      ID1       ID2
     1.08298583E-02    2     1000022         1   # BR(~d_R -> ~chi_10 d)
     4.13028576E-06    2     1000023         1   # BR(~d_R -> ~chi_20 d)
     5.28012783E-06    2     1000025         1   # BR(~d_R -> ~chi_30 d)
     8.24016794E-10    2     1000035         1   # BR(~d_R -> ~chi_40 d)
     9.89160730E-01    2     1000021         1   # BR(~d_R -> ~g      d)
#
#         PDG            Width
DECAY   1000004     2.97156116E+02   # scharm_L decays
#          BR         NDA      ID1       ID2
     2.51352192E-03    2     1000022         4   # BR(~c_L -> ~chi_10 c)
     6.18849932E-05    2     1000023         4   # BR(~c_L -> ~chi_20 c)
     4.44214630E-06    2     1000025         4   # BR(~c_L -> ~chi_30 c)
     2.63198062E-02    2     1000035         4   # BR(~c_L -> ~chi_40 c)
     2.04298100E-04    2     1000024         3   # BR(~c_L -> ~chi_1+ s)
     5.26003434E-02    2     1000037         3   # BR(~c_L -> ~chi_2+ s)
     9.18295703E-01    2     1000021         4   # BR(~c_L -> ~g      c)
#
#         PDG            Width
DECAY   2000004     2.83409945E+02   # scharm_R decays
#          BR         NDA      ID1       ID2
     4.19561125E-02    2     1000022         4   # BR(~c_R -> ~chi_10 c)
     1.60009118E-05    2     1000023         4   # BR(~c_R -> ~chi_20 c)
     2.04554500E-05    2     1000025         4   # BR(~c_R -> ~chi_30 c)
     3.19192655E-09    2     1000035         4   # BR(~c_R -> ~chi_40 c)
     9.58007428E-01    2     1000021         4   # BR(~c_R -> ~g      c)
#
#         PDG            Width
DECAY   1000003     2.97169095E+02   # sstrange_L decays
#          BR         NDA      ID1       ID2
     2.50608325E-03    2     1000022         3   # BR(~s_L -> ~chi_10 s)
     3.49180691E-05    2     1000023         3   # BR(~s_L -> ~chi_20 s)
     1.86746461E-05    2     1000025         3   # BR(~s_L -> ~chi_30 s)
     2.63358460E-02    2     1000035         3   # BR(~s_L -> ~chi_40 s)
     2.70303585E-05    2    -1000024         4   # BR(~s_L -> ~chi_1- c)
     5.26975774E-02    2    -1000037         4   # BR(~s_L -> ~chi_2- c)
     9.18379870E-01    2     1000021         3   # BR(~s_L -> ~g      s)
#
#         PDG            Width
DECAY   2000003     2.74505844E+02   # sstrange_R decays
#          BR         NDA      ID1       ID2
     1.08298583E-02    2     1000022         3   # BR(~s_R -> ~chi_10 s)
     4.13028576E-06    2     1000023         3   # BR(~s_R -> ~chi_20 s)
     5.28012783E-06    2     1000025         3   # BR(~s_R -> ~chi_30 s)
     8.24016794E-10    2     1000035         3   # BR(~s_R -> ~chi_40 s)
     9.89160730E-01    2     1000021         3   # BR(~s_R -> ~g      s)
#
#         PDG            Width
DECAY   1000011     3.02443607E+01   # selectron_L decays
#          BR         NDA      ID1       ID2
     2.26691607E-01    2     1000022        11   # BR(~e_L -> ~chi_10 e-)
     9.64136023E-04    2     1000023        11   # BR(~e_L -> ~chi_20 e-)
     1.12151549E-07    2     1000025        11   # BR(~e_L -> ~chi_30 e-)
     2.57157228E-01    2     1000035        11   # BR(~e_L -> ~chi_40 e-)
     2.69981091E-04    2    -1000024        12   # BR(~e_L -> ~chi_1- nu_e)
     5.14916936E-01    2    -1000037        12   # BR(~e_L -> ~chi_2- nu_e)
#
#         PDG            Width
DECAY   2000011     2.73626510E+01   # selectron_R decays
#          BR         NDA      ID1       ID2
     9.99135194E-01    2     1000022        11   # BR(~e_R -> ~chi_10 e-)
     3.79538440E-04    2     1000023        11   # BR(~e_R -> ~chi_20 e-)
     4.85193744E-04    2     1000025        11   # BR(~e_R -> ~chi_30 e-)
     7.41926180E-08    2     1000035        11   # BR(~e_R -> ~chi_40 e-)
#
#         PDG            Width
DECAY   1000013     3.02443607E+01   # smuon_L decays
#          BR         NDA      ID1       ID2
     2.26691607E-01    2     1000022        13   # BR(~mu_L -> ~chi_10 mu-)
     9.64136023E-04    2     1000023        13   # BR(~mu_L -> ~chi_20 mu-)
     1.12151549E-07    2     1000025        13   # BR(~mu_L -> ~chi_30 mu-)
     2.57157228E-01    2     1000035        13   # BR(~mu_L -> ~chi_40 mu-)
     2.69981091E-04    2    -1000024        14   # BR(~mu_L -> ~chi_1- nu_mu)
     5.14916936E-01    2    -1000037        14   # BR(~mu_L -> ~chi_2- nu_mu)
#
#         PDG            Width
DECAY   2000013     2.73626510E+01   # smuon_R decays
#          BR         NDA      ID1       ID2
     9.99135194E-01    2     1000022        13   # BR(~mu_R -> ~chi_10 mu-)
     3.79538440E-04    2     1000023        13   # BR(~mu_R -> ~chi_20 mu-)
     4.85193744E-04    2     1000025        13   # BR(~mu_R -> ~chi_30 mu-)
     7.41926180E-08    2     1000035        13   # BR(~mu_R -> ~chi_40 mu-)
#
#         PDG            Width
DECAY   1000015     2.90054985E+01   # stau_1 decays
#          BR         NDA      ID1       ID2
     9.25602970E-01    2     1000022        15   # BR(~tau_1 -> ~chi_10  tau-)
     1.44577687E-02    2     1000023        15   # BR(~tau_1 -> ~chi_20  tau-)
     1.32813665E-02    2     1000025        15   # BR(~tau_1 -> ~chi_30  tau-)
     6.40101777E-03    2     1000035        15   # BR(~tau_1 -> ~chi_40  tau-)
     2.74399421E-02    2    -1000024        16   # BR(~tau_1 -> ~chi_1-  nu_tau)
     1.28169354E-02    2    -1000037        16   # BR(~tau_1 -> ~chi_2-  nu_tau)
#
#         PDG            Width
DECAY   2000015     3.09620772E+01   # stau_2 decays
#          BR         NDA      ID1       ID2
     2.37147121E-01    2     1000022        15   # BR(~tau_2 -> ~chi_10  tau-)
     1.33028148E-02    2     1000023        15   # BR(~tau_2 -> ~chi_20  tau-)
     1.35196278E-02    2     1000025        15   # BR(~tau_2 -> ~chi_30  tau-)
     2.45124164E-01    2     1000035        15   # BR(~tau_2 -> ~chi_40  tau-)
     8.45637027E-05    2    -1000024        16   # BR(~tau_2 -> ~chi_1-  nu_tau)
     4.90821708E-01    2    -1000037        16   # BR(~tau_2 -> ~chi_2-  nu_tau)
#
#         PDG            Width
DECAY   1000012     3.02465742E+01   # snu_eL decays
#          BR         NDA      ID1       ID2
     2.26404542E-01    2     1000022        12   # BR(~nu_eL -> ~chi_10 nu_e)
     1.55889551E-04    2     1000023        12   # BR(~nu_eL -> ~chi_20 nu_e)
     4.26423710E-04    2     1000025        12   # BR(~nu_eL -> ~chi_30 nu_e)
     2.57236959E-01    2     1000035        12   # BR(~nu_eL -> ~chi_40 nu_e)
     2.04004474E-03    2     1000024        11   # BR(~nu_eL -> ~chi_1+ e-)
     5.13736142E-01    2     1000037        11   # BR(~nu_eL -> ~chi_2+ e-)
#
#         PDG            Width
DECAY   1000014     3.02465742E+01   # snu_muL decays
#          BR         NDA      ID1       ID2
     2.26404542E-01    2     1000022        14   # BR(~nu_muL -> ~chi_10 nu_mu)
     1.55889551E-04    2     1000023        14   # BR(~nu_muL -> ~chi_20 nu_mu)
     4.26423710E-04    2     1000025        14   # BR(~nu_muL -> ~chi_30 nu_mu)
     2.57236959E-01    2     1000035        14   # BR(~nu_muL -> ~chi_40 nu_mu)
     2.04004474E-03    2     1000024        13   # BR(~nu_muL -> ~chi_1+ mu-)
     5.13736142E-01    2     1000037        13   # BR(~nu_muL -> ~chi_2+ mu-)
#
#         PDG            Width
DECAY   1000016     3.10305574E+01   # snu_tauL decays
#          BR         NDA      ID1       ID2
     2.20660669E-01    2     1000022        16   # BR(~nu_tauL -> ~chi_10 nu_tau)
     1.51929127E-04    2     1000023        16   # BR(~nu_tauL -> ~chi_20 nu_tau)
     4.15590223E-04    2     1000025        16   # BR(~nu_tauL -> ~chi_30 nu_tau)
     2.50645960E-01    2     1000035        16   # BR(~nu_tauL -> ~chi_40 nu_tau)
     2.75519771E-02    2     1000024        15   # BR(~nu_tauL -> ~chi_1+ tau-)
     5.00573874E-01    2     1000037        15   # BR(~nu_tauL -> ~chi_2+ tau-)
#
#         PDG            Width
DECAY   1000024     8.60115571E-01   # chargino1+ decays
#          BR         NDA      ID1       ID2
     1.00000000E+00    2     1000022        24   # BR(~chi_1+ -> ~chi_10  W+)
#
#         PDG            Width
DECAY   1000037     1.88575986E+01   # chargino2+ decays
#          BR         NDA      ID1       ID2
     2.52819057E-01    2     1000024        23   # BR(~chi_2+ -> ~chi_1+  Z )
     2.42480532E-04    2     1000022        24   # BR(~chi_2+ -> ~chi_10  W+)
     2.43978001E-01    2     1000023        24   # BR(~chi_2+ -> ~chi_20  W+)
     2.43792557E-01    2     1000025        24   # BR(~chi_2+ -> ~chi_30  W+)
     2.59167438E-01    2     1000024        25   # BR(~chi_2+ -> ~chi_1+  h )
     4.67218247E-07    2     1000022        37   # BR(~chi_2+ -> ~chi_10  H+)
#
#         PDG            Width
DECAY   1000022     0.00000000E+00   # neutralino1 decays
#
#         PDG            Width
DECAY   1000023     9.03176531E-01   # neutralino2 decays
#          BR         NDA      ID1       ID2
     5.54032079E-01    2     1000022        23   # BR(~chi_20 -> ~chi_10   Z )
     4.45967921E-01    2     1000022        25   # BR(~chi_20 -> ~chi_10   h )
#
#         PDG            Width
DECAY   1000025     9.11523191E-01   # neutralino3 decays
#          BR         NDA      ID1       ID2
     4.29758958E-01    2     1000022        23   # BR(~chi_30 -> ~chi_10   Z )
     5.70241042E-01    2     1000022        25   # BR(~chi_30 -> ~chi_10   h )
#
#         PDG            Width
DECAY   1000035     1.88626812E+01   # neutralino4 decays
#          BR         NDA      ID1       ID2
     8.23046209E-05    2     1000022        23   # BR(~chi_40 -> ~chi_10   Z )
     4.53955342E-02    2     1000023        23   # BR(~chi_40 -> ~chi_20   Z )
     2.06806882E-01    2     1000025        23   # BR(~chi_40 -> ~chi_30   Z )
     2.44433942E-01    2     1000024       -24   # BR(~chi_40 -> ~chi_1+   W-)
     2.44433942E-01    2    -1000024        24   # BR(~chi_40 -> ~chi_1-   W+)
     1.65180331E-04    2     1000022        25   # BR(~chi_40 -> ~chi_10   h )
     4.23856396E-07    2     1000022        35   # BR(~chi_40 -> ~chi_10   H )
     6.02564659E-08    2     1000022        36   # BR(~chi_40 -> ~chi_10   A )
     2.13277730E-01    2     1000023        25   # BR(~chi_40 -> ~chi_20   h )
     4.54040007E-02    2     1000025        25   # BR(~chi_40 -> ~chi_30   h )
#
#         PDG            Width
DECAY        25     4.04104460E-03   # h decays
#          BR         NDA      ID1       ID2
     6.09769033E-01    2           5        -5   # BR(h -> b       bb     )
     6.41224401E-02    2         -15        15   # BR(h -> tau+    tau-   )
     2.27017245E-04    2         -13        13   # BR(h -> mu+     mu-    )
     4.81347378E-04    2           3        -3   # BR(h -> s       sb     )
     2.08591356E-02    2           4        -4   # BR(h -> c       cb     )
     6.73450536E-02    2          21        21   # BR(h -> g       g      )
     2.31306297E-03    2          22        22   # BR(h -> gam     gam    )
     1.48195823E-03    2          22        23   # BR(h -> Z       gam    )
     2.08558953E-01    2          24       -24   # BR(h -> W+      W-     )
     2.48070578E-02    2          23        23   # BR(h -> Z       Z      )
     3.49411079E-05    2     1000022   1000022   # BR(h -> ~chi_10 ~chi_10)
#
#         PDG            Width
DECAY        35     7.44521055E+00   # H decays
#          BR         NDA      ID1       ID2
     4.37197334E-01    2           5        -5   # BR(H -> b       bb     )
     7.48525404E-02    2         -15        15   # BR(H -> tau+    tau-   )
     2.64684529E-04    2         -13        13   # BR(H -> mu+     mu-    )
     3.24462667E-04    2           3        -3   # BR(H -> s       sb     )
     1.81363766E-06    2           4        -4   # BR(H -> c       cb     )
     1.81196770E-01    2           6        -6   # BR(H -> t       tb     )
     6.01541933E-05    2          21        21   # BR(H -> g       g      )
     3.84230616E-07    2          22        22   # BR(H -> gam     gam    )
     1.06975999E-07    2          23        22   # BR(H -> Z       gam    )
     8.11365265E-05    2          24       -24   # BR(H -> W+      W-     )
     4.05169154E-05    2          23        23   # BR(H -> Z       Z      )
     3.06534513E-04    2          25        25   # BR(H -> h       h      )
    -3.28365009E-23    2          36        36   # BR(H -> A       A      )
     1.13295230E-18    2          23        36   # BR(H -> Z       A      )
     3.04443080E-04    2     1000024  -1000024   # BR(H -> ~chi_1+ ~chi_1-)
     9.89853621E-04    2     1000022   1000022   # BR(H -> ~chi_10 ~chi_10)
     2.94850837E-05    2     1000023   1000023   # BR(H -> ~chi_20 ~chi_20)
     4.25643395E-05    2     1000025   1000025   # BR(H -> ~chi_30 ~chi_30)
     1.81236784E-01    2     1000022   1000023   # BR(H -> ~chi_10 ~chi_20)
     1.23014246E-01    2     1000022   1000025   # BR(H -> ~chi_10 ~chi_30)
     5.61857980E-05    2     1000023   1000025   # BR(H -> ~chi_20 ~chi_30)
#
#         PDG            Width
DECAY        36     7.46438705E+00   # A decays
#          BR         NDA      ID1       ID2
     4.36220494E-01    2           5        -5   # BR(A -> b       bb     )
     7.46623829E-02    2         -15        15   # BR(A -> tau+    tau-   )
     2.64011747E-04    2         -13        13   # BR(A -> mu+     mu-    )
     3.23874407E-04    2           3        -3   # BR(A -> s       sb     )
     1.81651385E-06    2           4        -4   # BR(A -> c       cb     )
     1.81383988E-01    2           6        -6   # BR(A -> t       tb     )
     1.79520454E-04    2          21        21   # BR(A -> g       g      )
     4.26409566E-07    2          22        22   # BR(A -> gam     gam    )
     2.17421762E-07    2          23        22   # BR(A -> Z       gam    )
     8.06227843E-05    2          23        25   # BR(A -> Z       h      )
     2.01914250E-03    2     1000024  -1000024   # BR(A -> ~chi_1+ ~chi_1-)
     1.01502729E-03    2     1000022   1000022   # BR(A -> ~chi_10 ~chi_10)
     1.48473681E-04    2     1000023   1000023   # BR(A -> ~chi_20 ~chi_20)
     5.12719761E-04    2     1000025   1000025   # BR(A -> ~chi_30 ~chi_30)
     1.24184662E-01    2     1000022   1000023   # BR(A -> ~chi_10 ~chi_20)
     1.79001892E-01    2     1000022   1000025   # BR(A -> ~chi_10 ~chi_30)
     7.27748730E-07    2     1000023   1000025   # BR(A -> ~chi_20 ~chi_30)
#
#         PDG            Width
DECAY        37     7.43746681E+00   # H+ decays
#          BR         NDA      ID1       ID2
     7.02049390E-04    2           4        -5   # BR(H+ -> c       bb     )
     7.49544464E-02    2         -15        16   # BR(H+ -> tau+    nu_tau )
     2.65044506E-04    2         -13        14   # BR(H+ -> mu+     nu_mu  )
     4.49309301E-06    2           2        -5   # BR(H+ -> u       bb     )
     1.55522593E-05    2           2        -3   # BR(H+ -> u       sb     )
     3.21620546E-04    2           4        -3   # BR(H+ -> c       sb     )
     6.17011596E-01    2           6        -5   # BR(H+ -> t       bb     )
     8.10372673E-05    2          24        25   # BR(H+ -> W+      h      )
     8.98971061E-14    2          24        36   # BR(H+ -> W+      A      )
     3.06370151E-01    2     1000024   1000022   # BR(H+ -> ~chi_1+ ~chi_10)
     2.17232943E-04    2     1000024   1000023   # BR(H+ -> ~chi_1+ ~chi_20)
     5.67761493E-05    2     1000024   1000025   # BR(H+ -> ~chi_1+ ~chi_30)
