#
#                              ======================
#                              | THE SUSYHIT OUTPUT |
#                              ======================
#
#
#              ------------------------------------------------------
#              |     This is the output of the SUSY-HIT package     |
#              |  created by A.Djouadi, M.Muehlleitner and M.Spira. |
#              |  In case of problems with SUSY-HIT email to        |
#              |           margarete.muehlleitner@cern.ch           |
#              |           michael.spira@psi.ch                     |
#              |           abdelhak.djouadi@cern.ch                 |
#              ------------------------------------------------------
#
#              ------------------------------------------------------
#              |  SUSY Les Houches Accord - MSSM Spectrum + Decays  |
#              |              based on the decay programs           |
#              |                                                    |
#              |                     SDECAY 1.3b                    |
#              |                                                    |
#              |  Authors: M.Muhlleitner, A.Djouadi and Y.Mambrini  |
#              |  Ref.:    Comput.Phys.Commun.168(2005)46           |
#              |           [hep-ph/0311167]                         |
#              |                                                    |
#              |                     HDECAY 3.4                     |
#              |                                                    |
#              |  By: A.Djouadi,J.Kalinowski,M.Muhlleitner,M.Spira  |
#              |  Ref.:    Comput.Phys.Commun.108(1998)56           |
#              |           [hep-ph/9704448]                         |
#              |                                                    |
#              |                                                    |
#              |  If not stated otherwise all DRbar couplings and   |
#              |  soft SUSY breaking masses are given at the scale  |
#              |  Q=  0.50007544E+04
#              |                                                    |
#              ------------------------------------------------------
#
#
BLOCK DCINFO  # Decay Program information
     1   SDECAY/HDECAY # decay calculator
     2   1.3b  /3.4    # version number
#
BLOCK SPINFO  # Spectrum calculator information
     1    SOFTSUSY    # spectrum calculator                
     2    3.4.0       # version number                     
#
BLOCK MODSEL  # Model selection
     1     0   #  nonUniversal                                     
#
BLOCK SMINPUTS  # Standard Model inputs
         1     1.25778332E+02   # alpha_em^-1(M_Z)^MSbar
         2     1.16570000E-05   # G_F [GeV^-2]
         3     1.17200002E-01   # alpha_S(M_Z)^MSbar
         4     9.11876000E+01   # M_Z pole mass
         5     4.25000000E+00   # mb(mb)^MSbar
         6     1.72500000E+02   # mt pole mass
         7     1.77682000E+00   # mtau pole mass
#
BLOCK MINPAR  # Input parameters - minimal models
         3     1.00000000E+01   # tanb                
#
BLOCK EXTPAR  # Input parameters - non-minimal models
         0    -1.00000000E+00   # Set                 
         1     6.00000000E+01   # M_1(MX)             
         2     3.00000000E+03   # M_2(MX)             
         3     2.04381500E+03   # M_3(MX)             
        11     5.00000000E+03   # At(MX)              
        12     5.00000000E+03   # Ab(MX)              
        13     0.00000000E+00   # Atau(MX)            
        23    -6.67975000E+02   # mu(MX)              
        26     3.00000000E+03   # mA(pole)            
        31     5.00000000E+03   # meL(MX)             
        32     5.00000000E+03   # mmuL(MX)            
        33     5.00000000E+03   # mtauL(MX)           
        34     5.00000000E+03   # meR(MX)             
        35     5.00000000E+03   # mmuR(MX)            
        36     5.00000000E+03   # mtauR(MX)           
        41     5.00000000E+03   # mqL1(MX)            
        42     5.00000000E+03   # mqL2(MX)            
        43     5.00000000E+03   # mqL3(MX)            
        44     5.00000000E+03   # muR(MX)             
        45     5.00000000E+03   # mcR(MX)             
        46     5.00000000E+03   # mtR(MX)             
        47     5.00000000E+03   # mdR(MX)             
        48     5.00000000E+03   # msR(MX)             
        49     5.00000000E+03   # mbR(MX)             
#
BLOCK MASS  # Mass Spectrum
# PDG code           mass       particle
        24     8.00943158E+01   # W+
        25     1.24805556E+02   # h
        35     3.00008374E+03   # H
        36     2.99999873E+03   # A
        37     3.00137839E+03   # H+
         5     4.87878001E+00   # b-quark pole mass calculated from mb(mb)_Msbar
   1000001     5.07811024E+03   # ~d_L
   2000001     5.06031094E+03   # ~d_R
   1000002     5.07763818E+03   # ~u_L
   2000002     5.06001762E+03   # ~u_R
   1000003     5.07811024E+03   # ~s_L
   2000003     5.06031094E+03   # ~s_R
   1000004     5.07763818E+03   # ~c_L
   2000004     5.06001762E+03   # ~c_R
   1000005     5.02382960E+03   # ~b_1
   2000005     5.05863614E+03   # ~b_2
   1000006     4.91543490E+03   # ~t_1
   2000006     5.06753656E+03   # ~t_2
   1000011     5.01908856E+03   # ~e_L
   2000011     5.00593512E+03   # ~e_R
   1000012     5.01813927E+03   # ~nu_eL
   1000013     5.01908856E+03   # ~mu_L
   2000013     5.00593512E+03   # ~mu_R
   1000014     5.01813927E+03   # ~nu_muL
   1000015     5.00471951E+03   # ~tau_1
   2000015     5.01867017E+03   # ~tau_2
   1000016     5.01758978E+03   # ~nu_tauL
   1000021     2.40000086E+03   # ~g
   1000022     6.02748984E+01   # ~chi_10
   1000023     6.99990040E+02   # ~chi_20
   1000025    -7.02215219E+02   # ~chi_30
   1000035     3.07419116E+03   # ~chi_40
   1000024     7.00000613E+02   # ~chi_1+
   1000037     3.07435871E+03   # ~chi_2+
#
BLOCK NMIX  # Neutralino Mixing Matrix
  1  1     9.97979520E-01   # N_11
  1  2     2.19047719E-04   # N_12
  1  3    -6.35259624E-02   # N_13
  1  4     1.13232447E-03   # N_14
  2  1     4.41395677E-02   # N_21
  2  2     2.05652319E-02   # N_22
  2  3     7.06086420E-01   # N_23
  2  4     7.06449388E-01   # N_24
  3  1    -4.56992798E-02   # N_31
  3  2     1.61068762E-02   # N_32
  3  3    -7.05263432E-01   # N_33
  3  4     7.07287520E-01   # N_34
  4  1    -3.90406172E-04   # N_41
  4  2     9.99658738E-01   # N_42
  4  3    -3.14839938E-03   # N_43
  4  4    -2.59295849E-02   # N_44
#
BLOCK UMIX  # Chargino Mixing Matrix U
  1  1     4.46151180E-03   # U_11
  1  2     9.99990047E-01   # U_12
  2  1    -9.99990047E-01   # U_21
  2  2     4.46151180E-03   # U_22
#
BLOCK VMIX  # Chargino Mixing Matrix V
  1  1     3.66964460E-02   # V_11
  1  2    -9.99326459E-01   # V_12
  2  1    -9.99326459E-01   # V_21
  2  2    -3.66964460E-02   # V_22
#
BLOCK STOPMIX  # Stop Mixing Matrix
  1  1    -5.03381795E-01   # cos(theta_t)
  1  2     8.64064100E-01   # sin(theta_t)
  2  1    -8.64064100E-01   # -sin(theta_t)
  2  2    -5.03381795E-01   # cos(theta_t)
#
BLOCK SBOTMIX  # Sbottom Mixing Matrix
  1  1     9.98200560E-01   # cos(theta_b)
  1  2    -5.99636725E-02   # sin(theta_b)
  2  1     5.99636725E-02   # -sin(theta_b)
  2  2     9.98200560E-01   # cos(theta_b)
#
BLOCK STAUMIX  # Stau Mixing Matrix
  1  1    -7.99449244E-02   # cos(theta_tau)
  1  2     9.96799282E-01   # sin(theta_tau)
  2  1    -9.96799282E-01   # -sin(theta_tau)
  2  2    -7.99449244E-02   # cos(theta_tau)
#
BLOCK ALPHA  # Higgs mixing
          -1.05487074E-01   # Mixing angle in the neutral Higgs boson sector
#
BLOCK HMIX Q=  5.00075437E+03  # DRbar Higgs Parameters
         1    -6.80241355E+02   # mu(Q)MSSM           
         2     9.46892721E+00   # tan                 
         3     2.41790452E+02   # higgs               
         4     8.61024763E+06   # mA^2(Q)MSSM         
#
BLOCK GAUGE Q=  5.00075437E+03  # The gauge couplings
     1     3.70871623E-01   # gprime(Q) DRbar
     2     6.32929902E-01   # g(Q) DRbar
     3     9.95819602E-01   # g3(Q) DRbar
#
BLOCK AU Q=  5.00075437E+03  # The trilinear couplings
  1  1     5.00000002E+03   # A_u(Q) DRbar
  2  2     5.00000002E+03   # A_c(Q) DRbar
  3  3     5.00000002E+03   # A_t(Q) DRbar
#
BLOCK AD Q=  5.00075437E+03  # The trilinear couplings
  1  1     5.00000001E+03   # A_d(Q) DRbar
  2  2     5.00000001E+03   # A_s(Q) DRbar
  3  3     5.00000001E+03   # A_b(Q) DRbar
#
BLOCK AE Q=  5.00075437E+03  # The trilinear couplings
  1  1     0.00000000E+00   # A_e(Q) DRbar
  2  2     2.33275803E-07   # A_mu(Q) DRbar
  3  3     2.33146667E-07   # A_tau(Q) DRbar
#
BLOCK Yu Q=  5.00075437E+03  # The Yukawa couplings
  1  1     0.00000000E+00   # y_u(Q) DRbar
  2  2     0.00000000E+00   # y_c(Q) DRbar
  3  3     8.21058220E-01   # y_t(Q) DRbar
#
BLOCK Yd Q=  5.00075437E+03  # The Yukawa couplings
  1  1     0.00000000E+00   # y_d(Q) DRbar
  2  2     0.00000000E+00   # y_s(Q) DRbar
  3  3     1.30524439E-01   # y_b(Q) DRbar
#
BLOCK Ye Q=  5.00075437E+03  # The Yukawa couplings
  1  1     0.00000000E+00   # y_e(Q) DRbar
  2  2     0.00000000E+00   # y_mu(Q) DRbar
  3  3     9.70131672E-02   # y_tau(Q) DRbar
#
BLOCK MSOFT Q=  5.00075437E+03  # The soft SUSY breaking masses at the scale Q
         1     6.00000000E+01   # M_1(Q)              
         2     3.00000000E+03   # M_2(Q)              
         3     2.04381500E+03   # M_3(Q)              
        21     8.25207065E+06   # mH1^2(Q)            
        22     1.10646618E+05   # mH2^2(Q)            
        31     5.00000000E+03   # meL(Q)              
        32     5.00000000E+03   # mmuL(Q)             
        33     5.00000000E+03   # mtauL(Q)            
        34     5.00000000E+03   # meR(Q)              
        35     5.00000000E+03   # mmuR(Q)             
        36     5.00000000E+03   # mtauR(Q)            
        41     5.00000000E+03   # mqL1(Q)             
        42     5.00000000E+03   # mqL2(Q)             
        43     4.99999999E+03   # mqL3(Q)             
        44     5.00000000E+03   # muR(Q)              
        45     5.00000000E+03   # mcR(Q)              
        46     4.99999999E+03   # mtR(Q)              
        47     5.00000000E+03   # mdR(Q)              
        48     5.00000000E+03   # msR(Q)              
        49     5.00000000E+03   # mbR(Q)              
#
#
#
#                             =================
#                             |The decay table|
#                             =================
#
# - The QCD corrections to the decays gluino -> squark  + quark
#                                     squark -> gaugino + quark_prime
#                                     squark -> squark_prime + Higgs
#                                     squark -> gluino  + quark
#   are included.
#
# - The multi-body decays for the inos, stops and sbottoms are included.
#
# - The loop induced decays for the gluino, neutralinos and stops
#   are included.
#
# - The SUSY decays of the top quark are included.
#
#
#         PDG            Width
DECAY         6     1.40386918E+00   # top decays
#          BR         NDA      ID1       ID2
     1.00000000E+00    2           5        24   # BR(t ->  b    W+)
#
#         PDG            Width
DECAY   1000021     4.34143697E-03   # gluino decays
#          BR         NDA      ID1       ID2
     1.04531086E-06    2     1000022        21   # BR(~g -> ~chi_10 g)
     5.23746565E-03    2     1000023        21   # BR(~g -> ~chi_20 g)
     5.11995309E-03    2     1000025        21   # BR(~g -> ~chi_30 g)
#           BR         NDA      ID1       ID2       ID3
     1.39873089E-02    3     1000022         1        -1   # BR(~g -> ~chi_10 d  db)
     2.33935351E-05    3     1000023         1        -1   # BR(~g -> ~chi_20 d  db)
     2.40433240E-05    3     1000025         1        -1   # BR(~g -> ~chi_30 d  db)
     4.77006036E-02    3     1000022         2        -2   # BR(~g -> ~chi_10 u  ub)
     1.08404124E-04    3     1000023         2        -2   # BR(~g -> ~chi_20 u  ub)
     3.40805981E-05    3     1000025         2        -2   # BR(~g -> ~chi_30 u  ub)
     1.39873089E-02    3     1000022         3        -3   # BR(~g -> ~chi_10 s  sb)
     2.33935351E-05    3     1000023         3        -3   # BR(~g -> ~chi_20 s  sb)
     2.40433240E-05    3     1000025         3        -3   # BR(~g -> ~chi_30 s  sb)
     4.77006036E-02    3     1000022         4        -4   # BR(~g -> ~chi_10 c  cb)
     1.08404124E-04    3     1000023         4        -4   # BR(~g -> ~chi_20 c  cb)
     3.40805981E-05    3     1000025         4        -4   # BR(~g -> ~chi_30 c  cb)
     1.42355605E-02    3     1000022         5        -5   # BR(~g -> ~chi_10 b  bb)
     5.14423423E-03    3     1000023         5        -5   # BR(~g -> ~chi_20 b  bb)
     5.10680255E-03    3     1000025         5        -5   # BR(~g -> ~chi_30 b  bb)
     4.82120106E-02    3     1000022         6        -6   # BR(~g -> ~chi_10 t  tb)
     1.97700474E-01    3     1000023         6        -6   # BR(~g -> ~chi_20 t  tb)
     1.84592461E-01    3     1000025         6        -6   # BR(~g -> ~chi_30 t  tb)
     5.77823910E-05    3     1000024         1        -2   # BR(~g -> ~chi_1+ d  ub)
     5.77823910E-05    3    -1000024         2        -1   # BR(~g -> ~chi_1- u  db)
     5.77823910E-05    3     1000024         3        -4   # BR(~g -> ~chi_1+ s  cb)
     5.77823910E-05    3    -1000024         4        -3   # BR(~g -> ~chi_1- c  sb)
     2.05331598E-01    3     1000024         5        -6   # BR(~g -> ~chi_1+ b  tb)
     2.05331598E-01    3    -1000024         6        -5   # BR(~g -> ~chi_1- t  bb)
#
#         PDG            Width
DECAY   1000006     3.09000239E+02   # stop1 decays
#          BR         NDA      ID1       ID2
     2.87113381E-02    2     1000022         6   # BR(~t_1 -> ~chi_10 t )
     1.03325604E-01    2     1000023         6   # BR(~t_1 -> ~chi_20 t )
     9.87674018E-02    2     1000025         6   # BR(~t_1 -> ~chi_30 t )
     6.55736046E-03    2     1000035         6   # BR(~t_1 -> ~chi_40 t )
     1.51311367E-01    2     1000024         5   # BR(~t_1 -> ~chi_1+ b )
     1.30698212E-02    2     1000037         5   # BR(~t_1 -> ~chi_2+ b )
     5.98257107E-01    2     1000021         6   # BR(~t_1 -> ~g      t )
#
#         PDG            Width
DECAY   2000006     3.16215941E+02   # stop2 decays
#          BR         NDA      ID1       ID2
     1.08311598E-02    2     1000022         6   # BR(~t_2 -> ~chi_10 t )
     1.02369791E-01    2     1000023         6   # BR(~t_2 -> ~chi_20 t )
     1.07331179E-01    2     1000025         6   # BR(~t_2 -> ~chi_30 t )
     1.78394683E-02    2     1000035         6   # BR(~t_2 -> ~chi_40 t )
     5.95507623E-02    2     1000024         5   # BR(~t_2 -> ~chi_1+ b )
     3.55132045E-02    2     1000037         5   # BR(~t_2 -> ~chi_2+ b )
     6.62751879E-01    2     1000021         6   # BR(~t_2 -> ~g      t )
     8.79699769E-04    2     1000006        25   # BR(~t_2 -> ~t_1    h )
     2.93285589E-03    2     1000006        23   # BR(~t_2 -> ~t_1    Z )
#
#         PDG            Width
DECAY   1000005     2.90731759E+02   # sbottom1 decays
#          BR         NDA      ID1       ID2
     2.65270294E-03    2     1000022         5   # BR(~b_1 -> ~chi_10 b )
     2.81420828E-03    2     1000023         5   # BR(~b_1 -> ~chi_20 b )
     2.78029557E-03    2     1000025         5   # BR(~b_1 -> ~chi_30 b )
     2.61321862E-02    2     1000035         5   # BR(~b_1 -> ~chi_40 b )
     2.22036361E-01    2    -1000024         6   # BR(~b_1 -> ~chi_1- t )
     5.24783043E-02    2    -1000037         6   # BR(~b_1 -> ~chi_2- t )
     6.89233634E-01    2     1000021         5   # BR(~b_1 -> ~g      b )
     1.87230701E-03    2     1000006       -24   # BR(~b_1 -> ~t_1    W-)
#
#         PDG            Width
DECAY   2000005     2.09747062E+02   # sbottom2 decays
#          BR         NDA      ID1       ID2
     1.39880601E-02    2     1000022         5   # BR(~b_2 -> ~chi_10 b )
     3.96731041E-03    2     1000023         5   # BR(~b_2 -> ~chi_20 b )
     4.03954959E-03    2     1000025         5   # BR(~b_2 -> ~chi_30 b )
     1.24937455E-04    2     1000035         5   # BR(~b_2 -> ~chi_40 b )
     8.88560783E-03    2    -1000024         6   # BR(~b_2 -> ~chi_1- t )
     2.50901116E-04    2    -1000037         6   # BR(~b_2 -> ~chi_2- t )
     9.68703878E-01    2     1000021         5   # BR(~b_2 -> ~g      b )
     3.97554607E-05    2     1000006       -24   # BR(~b_2 -> ~t_1    W-)
#
#         PDG            Width
DECAY   1000002     2.29225035E+02   # sup_L decays
#          BR         NDA      ID1       ID2
     3.24650154E-03    2     1000022         2   # BR(~u_L -> ~chi_10 u)
     7.00206169E-05    2     1000023         2   # BR(~u_L -> ~chi_20 u)
     4.23751616E-06    2     1000025         2   # BR(~u_L -> ~chi_30 u)
     3.44495929E-02    2     1000035         2   # BR(~u_L -> ~chi_40 u)
     2.21379418E-04    2     1000024         1   # BR(~u_L -> ~chi_1+ d)
     6.88552791E-02    2     1000037         1   # BR(~u_L -> ~chi_2+ d)
     8.93152989E-01    2     1000021         2   # BR(~u_L -> ~g      u)
#
#         PDG            Width
DECAY   2000002     2.15088853E+02   # sup_R decays
#          BR         NDA      ID1       ID2
     5.50386520E-02    2     1000022         2   # BR(~u_R -> ~chi_10 u)
     1.03783008E-04    2     1000023         2   # BR(~u_R -> ~chi_20 u)
     1.11219992E-04    2     1000025         2   # BR(~u_R -> ~chi_30 u)
     3.37937878E-09    2     1000035         2   # BR(~u_R -> ~chi_40 u)
     9.44746342E-01    2     1000021         2   # BR(~u_R -> ~g      u)
#
#         PDG            Width
DECAY   1000001     2.29240830E+02   # sdown_L decays
#          BR         NDA      ID1       ID2
     3.23202430E-03    2     1000022         1   # BR(~d_L -> ~chi_10 d)
     1.17264220E-05    2     1000023         1   # BR(~d_L -> ~chi_20 d)
     5.14979091E-05    2     1000025         1   # BR(~d_L -> ~chi_30 d)
     3.44683025E-02    2     1000035         1   # BR(~d_L -> ~chi_40 d)
     3.27240792E-06    2    -1000024         2   # BR(~d_L -> ~chi_1- u)
     6.89631565E-02    2    -1000037         2   # BR(~d_L -> ~chi_2- u)
     8.93270020E-01    2     1000021         1   # BR(~d_L -> ~g      d)
#
#         PDG            Width
DECAY   2000001     2.06201150E+02   # sdown_R decays
#          BR         NDA      ID1       ID2
     1.43535802E-02    2     1000022         1   # BR(~d_R -> ~chi_10 d)
     2.70657808E-05    2     1000023         1   # BR(~d_R -> ~chi_20 d)
     2.90052877E-05    2     1000025         1   # BR(~d_R -> ~chi_30 d)
     8.81429142E-10    2     1000035         1   # BR(~d_R -> ~chi_40 d)
     9.85590348E-01    2     1000021         1   # BR(~d_R -> ~g      d)
#
#         PDG            Width
DECAY   1000004     2.29225035E+02   # scharm_L decays
#          BR         NDA      ID1       ID2
     3.24650154E-03    2     1000022         4   # BR(~c_L -> ~chi_10 c)
     7.00206169E-05    2     1000023         4   # BR(~c_L -> ~chi_20 c)
     4.23751616E-06    2     1000025         4   # BR(~c_L -> ~chi_30 c)
     3.44495929E-02    2     1000035         4   # BR(~c_L -> ~chi_40 c)
     2.21379418E-04    2     1000024         3   # BR(~c_L -> ~chi_1+ s)
     6.88552791E-02    2     1000037         3   # BR(~c_L -> ~chi_2+ s)
     8.93152989E-01    2     1000021         4   # BR(~c_L -> ~g      c)
#
#         PDG            Width
DECAY   2000004     2.15088853E+02   # scharm_R decays
#          BR         NDA      ID1       ID2
     5.50386520E-02    2     1000022         4   # BR(~c_R -> ~chi_10 c)
     1.03783008E-04    2     1000023         4   # BR(~c_R -> ~chi_20 c)
     1.11219992E-04    2     1000025         4   # BR(~c_R -> ~chi_30 c)
     3.37937878E-09    2     1000035         4   # BR(~c_R -> ~chi_40 c)
     9.44746342E-01    2     1000021         4   # BR(~c_R -> ~g      c)
#
#         PDG            Width
DECAY   1000003     2.29240830E+02   # sstrange_L decays
#          BR         NDA      ID1       ID2
     3.23202430E-03    2     1000022         3   # BR(~s_L -> ~chi_10 s)
     1.17264220E-05    2     1000023         3   # BR(~s_L -> ~chi_20 s)
     5.14979091E-05    2     1000025         3   # BR(~s_L -> ~chi_30 s)
     3.44683025E-02    2     1000035         3   # BR(~s_L -> ~chi_40 s)
     3.27240792E-06    2    -1000024         4   # BR(~s_L -> ~chi_1- c)
     6.89631565E-02    2    -1000037         4   # BR(~s_L -> ~chi_2- c)
     8.93270020E-01    2     1000021         3   # BR(~s_L -> ~g      s)
#
#         PDG            Width
DECAY   2000003     2.06201150E+02   # sstrange_R decays
#          BR         NDA      ID1       ID2
     1.43535802E-02    2     1000022         3   # BR(~s_R -> ~chi_10 s)
     2.70657808E-05    2     1000023         3   # BR(~s_R -> ~chi_20 s)
     2.90052877E-05    2     1000025         3   # BR(~s_R -> ~chi_30 s)
     8.81429142E-10    2     1000035         3   # BR(~s_R -> ~chi_40 s)
     9.85590348E-01    2     1000021         3   # BR(~s_R -> ~g      s)
#
#         PDG            Width
DECAY   1000011     3.03017940E+01   # selectron_L decays
#          BR         NDA      ID1       ID2
     2.25812072E-01    2     1000022        11   # BR(~e_L -> ~chi_10 e-)
     1.36801300E-03    2     1000023        11   # BR(~e_L -> ~chi_20 e-)
     7.22459385E-05    2     1000025        11   # BR(~e_L -> ~chi_30 e-)
     2.57404238E-01    2     1000035        11   # BR(~e_L -> ~chi_40 e-)
     2.52638991E-05    2    -1000024        12   # BR(~e_L -> ~chi_1- nu_e)
     5.15318167E-01    2    -1000037        12   # BR(~e_L -> ~chi_2- nu_e)
#
#         PDG            Width
DECAY   2000011     2.73841311E+01   # selectron_R decays
#          BR         NDA      ID1       ID2
     9.96118312E-01    2     1000022        11   # BR(~e_R -> ~chi_10 e-)
     1.87369113E-03    2     1000023        11   # BR(~e_R -> ~chi_20 e-)
     2.00793777E-03    2     1000025        11   # BR(~e_R -> ~chi_30 e-)
     5.91590930E-08    2     1000035        11   # BR(~e_R -> ~chi_40 e-)
#
#         PDG            Width
DECAY   1000013     3.03017940E+01   # smuon_L decays
#          BR         NDA      ID1       ID2
     2.25812072E-01    2     1000022        13   # BR(~mu_L -> ~chi_10 mu-)
     1.36801300E-03    2     1000023        13   # BR(~mu_L -> ~chi_20 mu-)
     7.22459385E-05    2     1000025        13   # BR(~mu_L -> ~chi_30 mu-)
     2.57404238E-01    2     1000035        13   # BR(~mu_L -> ~chi_40 mu-)
     2.52638991E-05    2    -1000024        14   # BR(~mu_L -> ~chi_1- nu_mu)
     5.15318167E-01    2    -1000037        14   # BR(~mu_L -> ~chi_2- nu_mu)
#
#         PDG            Width
DECAY   2000013     2.73841311E+01   # smuon_R decays
#          BR         NDA      ID1       ID2
     9.96118312E-01    2     1000022        13   # BR(~mu_R -> ~chi_10 mu-)
     1.87369113E-03    2     1000023        13   # BR(~mu_R -> ~chi_20 mu-)
     2.00793777E-03    2     1000025        13   # BR(~mu_R -> ~chi_30 mu-)
     5.91590930E-08    2     1000035        13   # BR(~mu_R -> ~chi_40 mu-)
#
#         PDG            Width
DECAY   1000015     2.91950748E+01   # stau_1 decays
#          BR         NDA      ID1       ID2
     9.30631487E-01    2     1000022        15   # BR(~tau_1 -> ~chi_10  tau-)
     1.70512842E-02    2     1000023        15   # BR(~tau_1 -> ~chi_20  tau-)
     1.65286563E-02    2     1000025        15   # BR(~tau_1 -> ~chi_30  tau-)
     1.66224110E-03    2     1000035        15   # BR(~tau_1 -> ~chi_40  tau-)
     3.07987520E-02    2    -1000024        16   # BR(~tau_1 -> ~chi_1-  nu_tau)
     3.32757919E-03    2    -1000037        16   # BR(~tau_1 -> ~chi_2-  nu_tau)
#
#         PDG            Width
DECAY   2000015     3.11810038E+01   # stau_2 decays
#          BR         NDA      ID1       ID2
     2.22928991E-01    2     1000022        15   # BR(~tau_2 -> ~chi_10  tau-)
     1.58575434E-02    2     1000023        15   # BR(~tau_2 -> ~chi_20  tau-)
     1.51337774E-02    2     1000025        15   # BR(~tau_2 -> ~chi_30  tau-)
     2.48503948E-01    2     1000035        15   # BR(~tau_2 -> ~chi_40  tau-)
     7.51565905E-05    2    -1000024        16   # BR(~tau_2 -> ~chi_1-  nu_tau)
     4.97500583E-01    2    -1000037        16   # BR(~tau_2 -> ~chi_2-  nu_tau)
#
#         PDG            Width
DECAY   1000012     3.03048870E+01   # snu_eL decays
#          BR         NDA      ID1       ID2
     2.25408305E-01    2     1000022        12   # BR(~nu_eL -> ~chi_10 nu_e)
     1.78125994E-05    2     1000023        12   # BR(~nu_eL -> ~chi_20 nu_e)
     1.16646412E-03    2     1000025        12   # BR(~nu_eL -> ~chi_30 nu_e)
     2.57447932E-01    2     1000035        12   # BR(~nu_eL -> ~chi_40 nu_e)
     1.70864288E-03    2     1000024        11   # BR(~nu_eL -> ~chi_1+ e-)
     5.14250844E-01    2     1000037        11   # BR(~nu_eL -> ~chi_2+ e-)
#
#         PDG            Width
DECAY   1000014     3.03048870E+01   # snu_muL decays
#          BR         NDA      ID1       ID2
     2.25408305E-01    2     1000022        14   # BR(~nu_muL -> ~chi_10 nu_mu)
     1.78125994E-05    2     1000023        14   # BR(~nu_muL -> ~chi_20 nu_mu)
     1.16646412E-03    2     1000025        14   # BR(~nu_muL -> ~chi_30 nu_mu)
     2.57447932E-01    2     1000035        14   # BR(~nu_muL -> ~chi_40 nu_mu)
     1.70864288E-03    2     1000024        13   # BR(~nu_muL -> ~chi_1+ mu-)
     5.14250844E-01    2     1000037        13   # BR(~nu_muL -> ~chi_2+ mu-)
#
#         PDG            Width
DECAY   1000016     3.11986850E+01   # snu_tauL decays
#          BR         NDA      ID1       ID2
     2.18926689E-01    2     1000022        16   # BR(~nu_tauL -> ~chi_10 nu_tau)
     1.73002487E-05    2     1000023        16   # BR(~nu_tauL -> ~chi_20 nu_tau)
     1.13291260E-03    2     1000025        16   # BR(~nu_tauL -> ~chi_30 nu_tau)
     2.49979229E-01    2     1000035        16   # BR(~nu_tauL -> ~chi_40 nu_tau)
     3.06123029E-02    2     1000024        15   # BR(~nu_tauL -> ~chi_1+ tau-)
     4.99331566E-01    2     1000037        15   # BR(~nu_tauL -> ~chi_2+ tau-)
#
#         PDG            Width
DECAY   1000024     4.20407452E-01   # chargino1+ decays
#          BR         NDA      ID1       ID2
     1.00000000E+00    2     1000022        24   # BR(~chi_1+ -> ~chi_10  W+)
#
#         PDG            Width
DECAY   1000037     2.14592324E+01   # chargino2+ decays
#          BR         NDA      ID1       ID2
     2.53432705E-01    2     1000024        23   # BR(~chi_2+ -> ~chi_1+  Z )
     1.77982891E-04    2     1000022        24   # BR(~chi_2+ -> ~chi_10  W+)
     2.44564349E-01    2     1000023        24   # BR(~chi_2+ -> ~chi_20  W+)
     2.44272149E-01    2     1000025        24   # BR(~chi_2+ -> ~chi_30  W+)
     2.57550249E-01    2     1000024        25   # BR(~chi_2+ -> ~chi_1+  h )
     2.56465690E-06    2     1000022        37   # BR(~chi_2+ -> ~chi_10  H+)
#
#         PDG            Width
DECAY   1000022     0.00000000E+00   # neutralino1 decays
#
#         PDG            Width
DECAY   1000023     4.34143692E-01   # neutralino2 decays
#          BR         NDA      ID1       ID2
     5.22418455E-01    2     1000022        23   # BR(~chi_20 -> ~chi_10   Z )
     4.77581545E-01    2     1000022        25   # BR(~chi_20 -> ~chi_10   h )
#
#         PDG            Width
DECAY   1000025     4.32014379E-01   # neutralino3 decays
#          BR         NDA      ID1       ID2
     4.83899820E-01    2     1000022        23   # BR(~chi_30 -> ~chi_10   Z )
     5.16100180E-01    2     1000022        25   # BR(~chi_30 -> ~chi_10   h )
#
#         PDG            Width
DECAY   1000035     2.14743223E+01   # neutralino4 decays
#          BR         NDA      ID1       ID2
     2.28861202E-05    2     1000022        23   # BR(~chi_40 -> ~chi_10   Z )
     9.62858086E-02    2     1000023        23   # BR(~chi_40 -> ~chi_20   Z )
     1.56538461E-01    2     1000025        23   # BR(~chi_40 -> ~chi_30   Z )
     2.45015283E-01    2     1000024       -24   # BR(~chi_40 -> ~chi_1+   W-)
     2.45015283E-01    2    -1000024        24   # BR(~chi_40 -> ~chi_1-   W+)
     1.52151362E-04    2     1000022        25   # BR(~chi_40 -> ~chi_10   h )
     2.45063559E-06    2     1000022        35   # BR(~chi_40 -> ~chi_10   H )
     2.79183131E-07    2     1000022        36   # BR(~chi_40 -> ~chi_10   A )
     1.60396566E-01    2     1000023        25   # BR(~chi_40 -> ~chi_20   h )
     9.65708301E-02    2     1000025        25   # BR(~chi_40 -> ~chi_30   h )
#
#         PDG            Width
DECAY        25     4.06681882E-03   # h decays
#          BR         NDA      ID1       ID2
     6.08085534E-01    2           5        -5   # BR(h -> b       bb     )
     6.37977059E-02    2         -15        15   # BR(h -> tau+    tau-   )
     2.25866934E-04    2         -13        13   # BR(h -> mu+     mu-    )
     4.78800153E-04    2           3        -3   # BR(h -> s       sb     )
     2.07461172E-02    2           4        -4   # BR(h -> c       cb     )
     6.71461241E-02    2          21        21   # BR(h -> g       g      )
     2.30899606E-03    2          22        22   # BR(h -> gam     gam    )
     1.49171432E-03    2          22        23   # BR(h -> Z       gam    )
     2.10539314E-01    2          24       -24   # BR(h -> W+      W-     )
     2.50991362E-02    2          23        23   # BR(h -> Z       Z      )
     8.06911456E-05    2     1000022   1000022   # BR(h -> ~chi_10 ~chi_10)
#
#         PDG            Width
DECAY        35     8.47981272E+00   # H decays
#          BR         NDA      ID1       ID2
     3.78092630E-01    2           5        -5   # BR(H -> b       bb     )
     6.56858614E-02    2         -15        15   # BR(H -> tau+    tau-   )
     2.32270423E-04    2         -13        13   # BR(H -> mu+     mu-    )
     2.84727897E-04    2           3        -3   # BR(H -> s       sb     )
     1.59338575E-06    2           4        -4   # BR(H -> c       cb     )
     1.59191859E-01    2           6        -6   # BR(H -> t       tb     )
     5.29300013E-05    2          21        21   # BR(H -> g       g      )
     1.84880760E-07    2          22        22   # BR(H -> gam     gam    )
     9.39778133E-08    2          23        22   # BR(H -> Z       gam    )
     7.49717787E-05    2          24       -24   # BR(H -> W+      W-     )
     3.74384382E-05    2          23        23   # BR(H -> Z       Z      )
     2.74177784E-04    2          25        25   # BR(H -> h       h      )
     2.70209418E-24    2          36        36   # BR(H -> A       A      )
     6.79035206E-19    2          23        36   # BR(H -> Z       A      )
     2.81415296E-03    2     1000024  -1000024   # BR(H -> ~chi_1+ ~chi_1-)
     3.48073527E-03    2     1000022   1000022   # BR(H -> ~chi_10 ~chi_10)
     1.48446056E-05    2     1000023   1000023   # BR(H -> ~chi_20 ~chi_20)
     1.35566915E-03    2     1000025   1000025   # BR(H -> ~chi_30 ~chi_30)
     2.33783541E-01    2     1000022   1000023   # BR(H -> ~chi_10 ~chi_20)
     1.53101958E-01    2     1000022   1000025   # BR(H -> ~chi_10 ~chi_30)
     1.52036088E-03    2     1000023   1000025   # BR(H -> ~chi_20 ~chi_30)
#
#         PDG            Width
DECAY        36     8.48982207E+00   # A decays
#          BR         NDA      ID1       ID2
     3.77775253E-01    2           5        -5   # BR(A -> b       bb     )
     6.56103775E-02    2         -15        15   # BR(A -> tau+    tau-   )
     2.32003182E-04    2         -13        13   # BR(A -> mu+     mu-    )
     2.84608222E-04    2           3        -3   # BR(A -> s       sb     )
     1.59793398E-06    2           4        -4   # BR(A -> c       cb     )
     1.59558176E-01    2           6        -6   # BR(A -> t       tb     )
     1.57884978E-04    2          21        21   # BR(A -> g       g      )
     5.99933484E-07    2          22        22   # BR(A -> gam     gam    )
     1.91178121E-07    2          23        22   # BR(A -> Z       gam    )
     7.45999212E-05    2          23        25   # BR(A -> Z       h      )
     3.41340591E-03    2     1000024  -1000024   # BR(A -> ~chi_1+ ~chi_1-)
     3.50870708E-03    2     1000022   1000022   # BR(A -> ~chi_10 ~chi_10)
     1.23956303E-05    2     1000023   1000023   # BR(A -> ~chi_20 ~chi_20)
     2.65475899E-03    2     1000025   1000025   # BR(A -> ~chi_30 ~chi_30)
     1.55726618E-01    2     1000022   1000023   # BR(A -> ~chi_10 ~chi_20)
     2.30159347E-01    2     1000022   1000025   # BR(A -> ~chi_10 ~chi_30)
     8.29476608E-04    2     1000023   1000025   # BR(A -> ~chi_20 ~chi_30)
#
#         PDG            Width
DECAY        37     8.44671408E+00   # H+ decays
#          BR         NDA      ID1       ID2
     6.07575079E-04    2           4        -5   # BR(H+ -> c       bb     )
     6.59755488E-02    2         -15        16   # BR(H+ -> tau+    nu_tau )
     2.33294455E-04    2         -13        14   # BR(H+ -> mu+     nu_mu  )
     3.88846025E-06    2           2        -5   # BR(H+ -> u       bb     )
     1.36889341E-05    2           2        -3   # BR(H+ -> u       sb     )
     2.83088596E-04    2           4        -3   # BR(H+ -> c       sb     )
     5.36784242E-01    2           6        -5   # BR(H+ -> t       bb     )
     7.51325052E-05    2          24        25   # BR(H+ -> W+      h      )
     7.77665261E-13    2          24        36   # BR(H+ -> W+      A      )
     3.94100386E-01    2     1000024   1000022   # BR(H+ -> ~chi_1+ ~chi_10)
     1.86871493E-03    2     1000024   1000023   # BR(H+ -> ~chi_1+ ~chi_20)
     5.44397506E-05    2     1000024   1000025   # BR(H+ -> ~chi_1+ ~chi_30)
