#
#                              ======================
#                              | THE SUSYHIT OUTPUT |
#                              ======================
#
#
#              ------------------------------------------------------
#              |     This is the output of the SUSY-HIT package     |
#              |  created by A.Djouadi, M.Muehlleitner and M.Spira. |
#              |  In case of problems with SUSY-HIT email to        |
#              |           margarete.muehlleitner@kit.edu           |
#              |           michael.spira@psi.ch                     |
#              |           abdelhak.djouadi@cern.ch                 |
#              ------------------------------------------------------
#
#              ------------------------------------------------------
#              |  SUSY Les Houches Accord - MSSM Spectrum + Decays  |
#              |              based on the decay programs           |
#              |                                                    |
#              |                     SDECAY 1.5a                    |
#              |                                                    |
#              |  Authors: M.Muhlleitner, A.Djouadi and Y.Mambrini  |
#              |  Ref.:    Comput.Phys.Commun.168(2005)46           |
#              |           [hep-ph/0311167]                         |
#              |                                                    |
#              |                     HDECAY 3.4                     |
#              |                                                    |
#              |  By: A.Djouadi,J.Kalinowski,M.Muhlleitner,M.Spira  |
#              |  Ref.:    Comput.Phys.Commun.108(1998)56           |
#              |           [hep-ph/9704448]                         |
#              |                                                    |
#              |                                                    |
#              |  If not stated otherwise all DRbar couplings and   |
#              |  soft SUSY breaking masses are given at the scale  |
#              |  Q=  0.91187600E+02
#              |                                                    |
#              ------------------------------------------------------
#
#
BLOCK DCINFO  # Decay Program information
     1   SDECAY/HDECAY # decay calculator
     2   1.5a /3.4    # version number
#
BLOCK SPINFO  # Spectrum calculator information
     1   SuSpect     # RGE +Spectrum calculator            
     2   2.43         # version number                     
#
BLOCK MODSEL  # Model selection
     1     2   # GMSB                                              
#
BLOCK SMINPUTS  # Standard Model inputs
         1     1.27932904E+02   # alpha_em^-1(M_Z)^MSbar
         2     1.16639000E-05   # G_F [GeV^-2]
         3     1.17200000E-01   # alpha_S(M_Z)^MSbar
         4     9.11870000E+01   # M_Z pole mass
         5     4.25000000E+00   # mb(mb)^MSbar
         6     1.72900000E+02   # mt pole mass
         7     1.77700000E+00   # mtau pole mass
#
BLOCK MINPAR  # Input parameters - minimal models
#
BLOCK EXTPAR  # Input parameters - non-minimal models
         0     9.11876000E+01   # EWSB                
         1     8.48000000E+02   # M_1                 
         2     3.00000000E+03   # M_2                 
         3     3.00000000E+03   # M_3                 
        11     0.00000000E+00   # A_t                 
        12     0.00000000E+00   # A_b                 
        13     0.00000000E+00   # A_tau               
        14     0.00000000E+00   # A_u                 
        15     0.00000000E+00   # A_d                 
        16     0.00000000E+00   # A_e                 
        23     8.50000000E+02   # mu(EWSB)            
        25     1.50000000E+00   # tanbeta(in)         
        26     2.00000000E+03   # MA_pole             
        31     5.00000000E+03   # M_eL                
        32     5.00000000E+03   # M_muL               
        33     5.00000000E+03   # M_tauL              
        34     5.00000000E+03   # M_eR                
        35     5.00000000E+03   # M_muR               
        36     5.00000000E+03   # M_tauR              
        41     5.00000000E+03   # M_q1L               
        42     5.00000000E+03   # M_q2L               
        43     5.00000000E+03   # M_q3L               
        44     5.00000000E+03   # M_uR                
        45     5.00000000E+03   # M_cR                
        46     5.00000000E+03   # M_tR                
        47     5.00000000E+03   # M_dR                
        48     5.00000000E+03   # M_sR                
        49     5.00000000E+03   # M_bR                
#
BLOCK MASS  # Mass Spectrum
# PDG code           mass       particle
        24     8.05400784E+01   # W+
        25     1.25000000E+02   # h
        35     2.00403767E+03   # H
        36     2.00000000E+03   # A
        37     2.00148803E+03   # H+
         5     4.87877839E+00   # b-quark pole mass calculated from mb(mb)_Msbar
   1000001     5.00013297E+03   # ~d_L
   2000001     5.00002535E+03   # ~d_R
   1000002     4.99989238E+03   # ~u_L
   2000002     4.99994930E+03   # ~u_R
   1000003     5.00013297E+03   # ~s_L
   2000003     5.00002535E+03   # ~s_R
   1000004     4.99989238E+03   # ~c_L
   2000004     4.99994930E+03   # ~c_R
   1000005     4.99973313E+03   # ~b_1
   2000005     5.00042660E+03   # ~b_2
   1000006     4.99360991E+03   # ~t_1
   2000006     5.01084569E+03   # ~t_2
   1000011     5.00008227E+03   # ~e_L
   2000011     5.00007605E+03   # ~e_R
   1000012     4.99984168E+03   # ~nu_eL
   1000013     5.00008227E+03   # ~mu_L
   2000013     5.00007605E+03   # ~mu_R
   1000014     4.99984168E+03   # ~nu_muL
   1000015     4.99985276E+03   # ~tau_1
   2000015     5.00030618E+03   # ~tau_2
   1000016     4.99984168E+03   # ~nu_tauL
   1000021     3.00000000E+03   # ~g
   1000022     8.04052316E+02   # ~chi_10
   1000023    -8.50107441E+02   # ~chi_20
   1000025     8.91197674E+02   # ~chi_30
   1000035     3.00285745E+03   # ~chi_40
   1000024     8.47268596E+02   # ~chi_1+
   1000037     3.00285638E+03   # ~chi_2+
   1000039     1.00000000E-09   # ~gravitino
#
BLOCK NMIX  # Neutralino Mixing Matrix
  1  1     7.03691429E-01   # N_11
  1  2    -2.50490990E-02   # N_12
  1  3     5.04872796E-01   # N_13
  1  4    -4.99293877E-01   # N_14
  2  1     5.14341161E-03   # N_21
  2  2    -4.03496189E-03   # N_22
  2  3    -7.06868207E-01   # N_23
  2  4    -7.07315065E-01   # N_24
  3  1     7.10486709E-01   # N_31
  3  2     2.58866759E-02   # N_32
  3  3    -4.94903124E-01   # N_33
  3  4     4.99609262E-01   # N_34
  4  1     7.45039026E-04   # N_41
  4  2    -9.99342855E-01   # N_42
  4  3    -2.26206842E-02   # N_43
  4  4     2.83126796E-02   # N_44
#
BLOCK UMIX  # Chargino Mixing Matrix U
  1  1    -3.19752419E-02   # U_11
  1  2     9.99488661E-01   # U_12
  2  1     9.99488661E-01   # U_21
  2  2     3.19752419E-02   # U_22
#
BLOCK VMIX  # Chargino Mixing Matrix V
  1  1    -4.00274139E-02   # V_11
  1  2     9.99198582E-01   # V_12
  2  1     9.99198582E-01   # V_21
  2  2     4.00274139E-02   # V_22
#
BLOCK STOPMIX  # Stop Mixing Matrix
  1  1     7.08272911E-01   # cos(theta_t)
  1  2     7.05938725E-01   # sin(theta_t)
  2  1    -7.05938725E-01   # -sin(theta_t)
  2  2     7.08272911E-01   # cos(theta_t)
#
BLOCK SBOTMIX  # Sbottom Mixing Matrix
  1  1     6.49928518E-01   # cos(theta_b)
  1  2     7.59995343E-01   # sin(theta_b)
  2  1    -7.59995343E-01   # -sin(theta_b)
  2  2     6.49928518E-01   # cos(theta_b)
#
BLOCK STAUMIX  # Stau Mixing Matrix
  1  1     7.02237382E-01   # cos(theta_tau)
  1  2     7.11942876E-01   # sin(theta_tau)
  2  1    -7.11942876E-01   # -sin(theta_tau)
  2  2     7.02237382E-01   # cos(theta_tau)
#
BLOCK ALPHA  # Higgs mixing
          -5.90205181E-01   # Mixing angle in the neutral Higgs boson sector
#
BLOCK HMIX Q=  9.11876000E+01  # DRbar Higgs Parameters
         1     8.50000000E+02   # mu(Q)               
         2     1.49999979E+00   # tanbeta(Q)          
         3     2.52037967E+02   # vev(Q)              
         4     3.54692863E+06   # MA^2(Q)             
#
BLOCK GAUGE Q=  9.11876000E+01  # The gauge couplings
     1     3.52850698E-01   # gprime(Q) DRbar
     2     6.27605615E-01   # g(Q) DRbar
     3     1.07402737E+00   # g3(Q) DRbar
#
BLOCK AU Q=  9.11876000E+01  # The trilinear couplings
  1  1     0.00000000E+00   # A_u(Q) DRbar
  2  2     0.00000000E+00   # A_c(Q) DRbar
  3  3     0.00000000E+00   # A_t(Q) DRbar
#
BLOCK AD Q=  9.11876000E+01  # The trilinear couplings
  1  1     0.00000000E+00   # A_d(Q) DRbar
  2  2     0.00000000E+00   # A_s(Q) DRbar
  3  3     0.00000000E+00   # A_b(Q) DRbar
#
BLOCK AE Q=  9.11876000E+01  # The trilinear couplings
  1  1     0.00000000E+00   # A_e(Q) DRbar
  2  2     0.00000000E+00   # A_mu(Q) DRbar
  3  3     0.00000000E+00   # A_tau(Q) DRbar
#
BLOCK Yu Q=  9.11876000E+01  # The Yukawa couplings
  1  1     0.00000000E+00   # y_u(Q) DRbar
  2  2     0.00000000E+00   # y_c(Q) DRbar
  3  3     1.02603905E+00   # y_t(Q) DRbar
#
BLOCK Yd Q=  9.11876000E+01  # The Yukawa couplings
  1  1     0.00000000E+00   # y_d(Q) DRbar
  2  2     0.00000000E+00   # y_s(Q) DRbar
  3  3     2.71765333E-02   # y_b(Q) DRbar
#
BLOCK Ye Q=  9.11876000E+01  # The Yukawa couplings
  1  1     0.00000000E+00   # y_e(Q) DRbar
  2  2     0.00000000E+00   # y_mu(Q) DRbar
  3  3     1.79852482E-02   # y_tau(Q) DRbar
#
BLOCK MSOFT Q=  9.11876000E+01  # The soft SUSY breaking masses at the scale Q
         1     8.48000000E+02   # M_1                 
         2     3.00000000E+03   # M_2                 
         3     3.00000000E+03   # M_3                 
        14     0.00000000E+00   # A_u                 
        15     0.00000000E+00   # A_d                 
        16     0.00000000E+00   # A_e                 
        21     2.24460692E+06   # M^2_Hd              
        22    -5.89338410E+06   # M^2_Hu              
        31     5.00000000E+03   # M_eL                
        32     5.00000000E+03   # M_muL               
        33     5.00000000E+03   # M_tauL              
        34     5.00000000E+03   # M_eR                
        35     5.00000000E+03   # M_muR               
        36     5.00000000E+03   # M_tauR              
        41     5.00000000E+03   # M_q1L               
        42     5.00000000E+03   # M_q2L               
        43     5.00000000E+03   # M_q3L               
        44     5.00000000E+03   # M_uR                
        45     5.00000000E+03   # M_cR                
        46     5.00000000E+03   # M_tR                
        47     5.00000000E+03   # M_dR                
        48     5.00000000E+03   # M_sR                
        49     5.00000000E+03   # M_bR                
#
#
#
#                             =================
#                             |The decay table|
#                             =================
#
# - The QCD corrections to the decays gluino -> squark  + quark
#                                     squark -> gaugino + quark_prime
#                                     squark -> squark_prime + Higgs
#                                     squark -> gluino  + quark
#   are included.
#
# - The multi-body decays for the inos, stops and sbottoms are included.
#
# - The loop induced decays for the gluino, neutralinos and stops
#   are included.
#
# - The SUSY decays of the top quark are included.
#
# - Possible decays of the NLSP in GMSB models are included.
#
#
#         PDG            Width
DECAY         6     1.37240977E+00   # top decays
#          BR         NDA      ID1       ID2
     1.00000000E+00    2           5        24   # BR(t ->  b    W+)
#
#         PDG            Width
DECAY   1000021     2.56393356E-02   # gluino decays
#          BR         NDA      ID1       ID2
     2.05165484E-03    2     1000022        21   # BR(~g -> ~chi_10 g)
     4.01111688E-03    2     1000023        21   # BR(~g -> ~chi_20 g)
     1.93776106E-03    2     1000025        21   # BR(~g -> ~chi_30 g)
#          BR         NDA      ID1       ID2
     0.00000000E+00    2     1000039        21   # BR(~g -> ~G      g)
#           BR         NDA      ID1       ID2       ID3
     3.91454875E-03    3     1000022         1        -1   # BR(~g -> ~chi_10 d  db)
     5.72042205E-07    3     1000023         1        -1   # BR(~g -> ~chi_20 d  db)
     3.12671596E-03    3     1000025         1        -1   # BR(~g -> ~chi_30 d  db)
     1.20399884E-02    3     1000022         2        -2   # BR(~g -> ~chi_10 u  ub)
     4.84293286E-07    3     1000023         2        -2   # BR(~g -> ~chi_20 u  ub)
     1.17215898E-02    3     1000025         2        -2   # BR(~g -> ~chi_30 u  ub)
     3.91454875E-03    3     1000022         3        -3   # BR(~g -> ~chi_10 s  sb)
     5.72042205E-07    3     1000023         3        -3   # BR(~g -> ~chi_20 s  sb)
     3.12671596E-03    3     1000025         3        -3   # BR(~g -> ~chi_30 s  sb)
     1.20399884E-02    3     1000022         4        -4   # BR(~g -> ~chi_10 c  cb)
     4.84293286E-07    3     1000023         4        -4   # BR(~g -> ~chi_20 c  cb)
     1.17215898E-02    3     1000025         4        -4   # BR(~g -> ~chi_30 c  cb)
     3.99335564E-03    3     1000022         5        -5   # BR(~g -> ~chi_10 b  bb)
     1.67583639E-04    3     1000023         5        -5   # BR(~g -> ~chi_20 b  bb)
     3.21306697E-03    3     1000025         5        -5   # BR(~g -> ~chi_30 b  bb)
     1.15582525E-01    3     1000022         6        -6   # BR(~g -> ~chi_10 t  tb)
     2.15659870E-01    3     1000023         6        -6   # BR(~g -> ~chi_20 t  tb)
     1.26010930E-01    3     1000025         6        -6   # BR(~g -> ~chi_30 t  tb)
     1.03785464E-04    3     1000024         1        -2   # BR(~g -> ~chi_1+ d  ub)
     1.03785464E-04    3    -1000024         2        -1   # BR(~g -> ~chi_1- u  db)
     1.03785464E-04    3     1000024         3        -4   # BR(~g -> ~chi_1+ s  cb)
     1.03785464E-04    3    -1000024         4        -3   # BR(~g -> ~chi_1- c  sb)
     2.27218830E-01    3     1000024         5        -6   # BR(~g -> ~chi_1+ b  tb)
     2.27218830E-01    3    -1000024         6        -5   # BR(~g -> ~chi_1- t  bb)
#
#         PDG            Width
DECAY   1000006     2.36669010E+02   # stop1 decays
#          BR         NDA      ID1       ID2
     1.12534665E-01    2     1000022         6   # BR(~t_1 -> ~chi_10 t )
     1.44494177E-01    2     1000023         6   # BR(~t_1 -> ~chi_20 t )
     5.42281943E-02    2     1000025         6   # BR(~t_1 -> ~chi_30 t )
     1.47252262E-02    2     1000035         6   # BR(~t_1 -> ~chi_40 t )
     1.49492623E-01    2     1000024         5   # BR(~t_1 -> ~chi_1+ b )
     2.92848683E-02    2     1000037         5   # BR(~t_1 -> ~chi_2+ b )
     4.95240246E-01    2     1000021         6   # BR(~t_1 -> ~g      t )
#
#         PDG            Width
DECAY   2000006     2.22941558E+02   # stop2 decays
#          BR         NDA      ID1       ID2
     5.43960073E-02    2     1000022         6   # BR(~t_2 -> ~chi_10 t )
     1.48552441E-01    2     1000023         6   # BR(~t_2 -> ~chi_20 t )
     1.17127689E-01    2     1000025         6   # BR(~t_2 -> ~chi_30 t )
     1.93801349E-02    2     1000035         6   # BR(~t_2 -> ~chi_40 t )
     1.43550097E-01    2     1000024         5   # BR(~t_2 -> ~chi_1+ b )
     3.85840680E-02    2     1000037         5   # BR(~t_2 -> ~chi_2+ b )
     4.78409562E-01    2     1000021         6   # BR(~t_2 -> ~g      t )
#
#         PDG            Width
DECAY   1000005     1.42573075E+02   # sbottom1 decays
#          BR         NDA      ID1       ID2
     8.19508795E-03    2     1000022         5   # BR(~b_1 -> ~chi_10 b )
     1.36579514E-04    2     1000023         5   # BR(~b_1 -> ~chi_20 b )
     5.19580306E-03    2     1000025         5   # BR(~b_1 -> ~chi_30 b )
     1.83999316E-02    2     1000035         5   # BR(~b_1 -> ~chi_40 b )
     1.44674757E-01    2    -1000024         6   # BR(~b_1 -> ~chi_1- t )
     3.69711162E-02    2    -1000037         6   # BR(~b_1 -> ~chi_2- t )
     7.86426725E-01    2     1000021         5   # BR(~b_1 -> ~g      b )
#
#         PDG            Width
DECAY   2000005     1.75219266E+02   # sbottom2 decays
#          BR         NDA      ID1       ID2
     3.03927301E-03    2     1000022         5   # BR(~b_2 -> ~chi_10 b )
     1.61145516E-04    2     1000023         5   # BR(~b_2 -> ~chi_20 b )
     4.17890395E-03    2     1000025         5   # BR(~b_2 -> ~chi_30 b )
     2.91722006E-02    2     1000035         5   # BR(~b_2 -> ~chi_40 b )
     2.65888101E-01    2    -1000024         6   # BR(~b_2 -> ~chi_1- t )
     5.86527393E-02    2    -1000037         6   # BR(~b_2 -> ~chi_2- t )
     6.38907637E-01    2     1000021         5   # BR(~b_2 -> ~g      b )
#
#         PDG            Width
DECAY   1000002     1.35915001E+02   # sup_L decays
#          BR         NDA      ID1       ID2
     1.49468820E-03    2     1000022         2   # BR(~u_L -> ~chi_10 u)
     1.22776032E-06    2     1000023         2   # BR(~u_L -> ~chi_20 u)
     3.27359518E-03    2     1000025         2   # BR(~u_L -> ~chi_30 u)
     5.68665513E-02    2     1000035         2   # BR(~u_L -> ~chi_40 u)
     4.17302608E-04    2     1000024         1   # BR(~u_L -> ~chi_1+ d)
     1.13732135E-01    2     1000037         1   # BR(~u_L -> ~chi_2+ d)
     8.24214500E-01    2     1000021         2   # BR(~u_L -> ~g      u)
#
#         PDG            Width
DECAY   2000002     1.21971099E+02   # sup_R decays
#          BR         NDA      ID1       ID2
     4.06122627E-02    2     1000022         2   # BR(~u_R -> ~chi_10 u)
     2.15646447E-06    2     1000023         2   # BR(~u_R -> ~chi_20 u)
     4.09117572E-02    2     1000025         2   # BR(~u_R -> ~chi_30 u)
     1.97979201E-08    2     1000035         2   # BR(~u_R -> ~chi_40 u)
     9.18473804E-01    2     1000021         2   # BR(~u_R -> ~g      u)
#
#         PDG            Width
DECAY   1000001     1.35921912E+02   # sdown_L decays
#          BR         NDA      ID1       ID2
     3.22534511E-03    2     1000022         1   # BR(~d_L -> ~chi_10 d)
     3.25299041E-06    2     1000023         1   # BR(~d_L -> ~chi_20 d)
     1.48913164E-03    2     1000025         1   # BR(~d_L -> ~chi_30 d)
     5.69043302E-02    2     1000035         1   # BR(~d_L -> ~chi_40 d)
     2.66296531E-04    2    -1000024         2   # BR(~d_L -> ~chi_1- u)
     1.13810159E-01    2    -1000037         2   # BR(~d_L -> ~chi_2- u)
     8.24301485E-01    2     1000021         1   # BR(~d_L -> ~g      d)
#
#         PDG            Width
DECAY   2000001     1.14518800E+02   # sdown_R decays
#          BR         NDA      ID1       ID2
     1.08139614E-02    2     1000022         1   # BR(~d_R -> ~chi_10 d)
     5.74209028E-07    2     1000023         1   # BR(~d_R -> ~chi_20 d)
     1.08937128E-02    2     1000025         1   # BR(~d_R -> ~chi_30 d)
     5.27182703E-09    2     1000035         1   # BR(~d_R -> ~chi_40 d)
     9.78291746E-01    2     1000021         1   # BR(~d_R -> ~g      d)
#
#         PDG            Width
DECAY   1000004     1.35915001E+02   # scharm_L decays
#          BR         NDA      ID1       ID2
     1.49468820E-03    2     1000022         4   # BR(~c_L -> ~chi_10 c)
     1.22776032E-06    2     1000023         4   # BR(~c_L -> ~chi_20 c)
     3.27359518E-03    2     1000025         4   # BR(~c_L -> ~chi_30 c)
     5.68665513E-02    2     1000035         4   # BR(~c_L -> ~chi_40 c)
     4.17302608E-04    2     1000024         3   # BR(~c_L -> ~chi_1+ s)
     1.13732135E-01    2     1000037         3   # BR(~c_L -> ~chi_2+ s)
     8.24214500E-01    2     1000021         4   # BR(~c_L -> ~g      c)
#
#         PDG            Width
DECAY   2000004     1.21971099E+02   # scharm_R decays
#          BR         NDA      ID1       ID2
     4.06122627E-02    2     1000022         4   # BR(~c_R -> ~chi_10 c)
     2.15646447E-06    2     1000023         4   # BR(~c_R -> ~chi_20 c)
     4.09117572E-02    2     1000025         4   # BR(~c_R -> ~chi_30 c)
     1.97979201E-08    2     1000035         4   # BR(~c_R -> ~chi_40 c)
     9.18473804E-01    2     1000021         4   # BR(~c_R -> ~g      c)
#
#         PDG            Width
DECAY   1000003     1.35921912E+02   # sstrange_L decays
#          BR         NDA      ID1       ID2
     3.22534511E-03    2     1000022         3   # BR(~s_L -> ~chi_10 s)
     3.25299041E-06    2     1000023         3   # BR(~s_L -> ~chi_20 s)
     1.48913164E-03    2     1000025         3   # BR(~s_L -> ~chi_30 s)
     5.69043302E-02    2     1000035         3   # BR(~s_L -> ~chi_40 s)
     2.66296531E-04    2    -1000024         4   # BR(~s_L -> ~chi_1- c)
     1.13810159E-01    2    -1000037         4   # BR(~s_L -> ~chi_2- c)
     8.24301485E-01    2     1000021         3   # BR(~s_L -> ~g      s)
#
#         PDG            Width
DECAY   2000003     1.14518800E+02   # sstrange_R decays
#          BR         NDA      ID1       ID2
     1.08139614E-02    2     1000022         3   # BR(~s_R -> ~chi_10 s)
     5.74209028E-07    2     1000023         3   # BR(~s_R -> ~chi_20 s)
     1.08937128E-02    2     1000025         3   # BR(~s_R -> ~chi_30 s)
     5.27182703E-09    2     1000035         3   # BR(~s_R -> ~chi_40 s)
     9.78291746E-01    2     1000021         3   # BR(~s_R -> ~g      s)
#
#         PDG            Width
DECAY   1000011     2.99022103E+01   # selectron_L decays
#          BR         NDA      ID1       ID2
     8.53790376E-02    2     1000022        11   # BR(~e_L -> ~chi_10 e-)
     8.07514193E-07    2     1000023        11   # BR(~e_L -> ~chi_20 e-)
     1.11113694E-01    2     1000025        11   # BR(~e_L -> ~chi_30 e-)
     2.67212596E-01    2     1000035        11   # BR(~e_L -> ~chi_40 e-)
     1.26386277E-03    2    -1000024        12   # BR(~e_L -> ~chi_1- nu_e)
     5.35030002E-01    2    -1000037        12   # BR(~e_L -> ~chi_2- nu_e)
#
#         PDG            Width
DECAY   2000011     2.33615800E+01   # selectron_R decays
#          BR         NDA      ID1       ID2
     4.98223804E-01    2     1000022        11   # BR(~e_R -> ~chi_10 e-)
     2.64509468E-05    2     1000023        11   # BR(~e_R -> ~chi_20 e-)
     5.01749505E-01    2     1000025        11   # BR(~e_R -> ~chi_30 e-)
     2.40556848E-07    2     1000035        11   # BR(~e_R -> ~chi_40 e-)
#
#         PDG            Width
DECAY   1000013     2.99022103E+01   # smuon_L decays
#          BR         NDA      ID1       ID2
     8.53790376E-02    2     1000022        13   # BR(~mu_L -> ~chi_10 mu-)
     8.07514193E-07    2     1000023        13   # BR(~mu_L -> ~chi_20 mu-)
     1.11113694E-01    2     1000025        13   # BR(~mu_L -> ~chi_30 mu-)
     2.67212596E-01    2     1000035        13   # BR(~mu_L -> ~chi_40 mu-)
     1.26386277E-03    2    -1000024        14   # BR(~mu_L -> ~chi_1- nu_mu)
     5.35030002E-01    2    -1000037        14   # BR(~mu_L -> ~chi_2- nu_mu)
#
#         PDG            Width
DECAY   2000013     2.33615800E+01   # smuon_R decays
#          BR         NDA      ID1       ID2
     4.98223804E-01    2     1000022        13   # BR(~mu_R -> ~chi_10 mu-)
     2.64509468E-05    2     1000023        13   # BR(~mu_R -> ~chi_20 mu-)
     5.01749505E-01    2     1000025        13   # BR(~mu_R -> ~chi_30 mu-)
     2.40556848E-07    2     1000035        13   # BR(~mu_R -> ~chi_40 mu-)
#
#         PDG            Width
DECAY   1000015     2.66658507E+01   # stau_1 decays
#          BR         NDA      ID1       ID2
     2.74754185E-01    2     1000022        15   # BR(~tau_1 -> ~chi_10  tau-)
     4.43330613E-04    2     1000023        15   # BR(~tau_1 -> ~chi_20  tau-)
     2.79383281E-01    2     1000025        15   # BR(~tau_1 -> ~chi_30  tau-)
     1.47468406E-01    2     1000035        15   # BR(~tau_1 -> ~chi_40  tau-)
     2.54457810E-03    2    -1000024        16   # BR(~tau_1 -> ~chi_1-  nu_tau)
     2.95271318E-01    2    -1000037        16   # BR(~tau_1 -> ~chi_2-  nu_tau)
     1.34901581E-04    2     1000039        15   # BR(~tau_1 -> ~G       tau-)
#
#         PDG            Width
DECAY   2000015     2.66925563E+01   # stau_2 decays
#          BR         NDA      ID1       ID2
     2.57797443E-01    2     1000022        15   # BR(~tau_2 -> ~chi_10  tau-)
     7.17148458E-04    2     1000023        15   # BR(~tau_2 -> ~chi_20  tau-)
     2.85062131E-01    2     1000025        15   # BR(~tau_2 -> ~chi_30  tau-)
     1.52023825E-01    2     1000035        15   # BR(~tau_2 -> ~chi_40  tau-)
     9.73159806E-06    2    -1000024        16   # BR(~tau_2 -> ~chi_1-  nu_tau)
     3.04389722E-01    2    -1000037        16   # BR(~tau_2 -> ~chi_2-  nu_tau)
#
#         PDG            Width
DECAY   1000012     2.99018531E+01   # snu_eL decays
#          BR         NDA      ID1       ID2
     1.10019544E-01    2     1000022        12   # BR(~nu_eL -> ~chi_10 nu_e)
     2.96415899E-05    2     1000023        12   # BR(~nu_eL -> ~chi_20 nu_e)
     8.57060208E-02    2     1000025        12   # BR(~nu_eL -> ~chi_30 nu_e)
     2.67622235E-01    2     1000035        12   # BR(~nu_eL -> ~chi_40 nu_e)
     1.98047392E-03    2     1000024        11   # BR(~nu_eL -> ~chi_1+ e-)
     5.34642084E-01    2     1000037        11   # BR(~nu_eL -> ~chi_2+ e-)
#
#         PDG            Width
DECAY   1000014     2.99018531E+01   # snu_muL decays
#          BR         NDA      ID1       ID2
     1.10019544E-01    2     1000022        14   # BR(~nu_muL -> ~chi_10 nu_mu)
     2.96415899E-05    2     1000023        14   # BR(~nu_muL -> ~chi_20 nu_mu)
     8.57060208E-02    2     1000025        14   # BR(~nu_muL -> ~chi_30 nu_mu)
     2.67622235E-01    2     1000035        14   # BR(~nu_muL -> ~chi_40 nu_mu)
     1.98047392E-03    2     1000024        13   # BR(~nu_muL -> ~chi_1+ mu-)
     5.34642084E-01    2     1000037        13   # BR(~nu_muL -> ~chi_2+ mu-)
#
#         PDG            Width
DECAY   1000016     2.99321883E+01   # snu_tauL decays
#          BR         NDA      ID1       ID2
     1.09908043E-01    2     1000022        16   # BR(~nu_tauL -> ~chi_10 nu_tau)
     2.96115492E-05    2     1000023        16   # BR(~nu_tauL -> ~chi_20 nu_tau)
     8.56191607E-02    2     1000025        16   # BR(~nu_tauL -> ~chi_30 nu_tau)
     2.67351009E-01    2     1000035        16   # BR(~nu_tauL -> ~chi_40 nu_tau)
     2.99115967E-03    2     1000024        15   # BR(~nu_tauL -> ~chi_1+ tau-)
     5.34101016E-01    2     1000037        15   # BR(~nu_tauL -> ~chi_2+ tau-)
#
#         PDG            Width
DECAY   1000024     9.48408252E-05   # chargino1+ decays
#          BR         NDA      ID1       ID2
     2.56203003E-03    2     1000039        24   # BR(~chi_1+ -> ~G       W+)
#           BR         NDA      ID1       ID2       ID3
     3.33377265E-01    3     1000022         2        -1   # BR(~chi_1+ -> ~chi_10 u    db)
     3.31613724E-01    3     1000022         4        -3   # BR(~chi_1+ -> ~chi_10 c    sb)
     1.11125891E-01    3     1000022       -11        12   # BR(~chi_1+ -> ~chi_10 e+   nu_e)
     1.11122586E-01    3     1000022       -13        14   # BR(~chi_1+ -> ~chi_10 mu+  nu_mu)
     1.10198503E-01    3     1000022       -15        16   # BR(~chi_1+ -> ~chi_10 tau+ nu_tau)
#
#         PDG            Width
DECAY   1000037     3.46307125E+01   # chargino2+ decays
#          BR         NDA      ID1       ID2
     2.47269533E-01    2     1000024        23   # BR(~chi_2+ -> ~chi_1+  Z )
     1.14807175E-01    2     1000022        24   # BR(~chi_2+ -> ~chi_10  W+)
     2.40869180E-01    2     1000023        24   # BR(~chi_2+ -> ~chi_20  W+)
     1.26267549E-01    2     1000025        24   # BR(~chi_2+ -> ~chi_30  W+)
     2.48280920E-01    2     1000024        25   # BR(~chi_2+ -> ~chi_1+  h )
     5.51352237E-03    2     1000024        35   # BR(~chi_2+ -> ~chi_1+  H )
     5.71860449E-03    2     1000024        36   # BR(~chi_2+ -> ~chi_1+  A )
     3.68874649E-03    2     1000022        37   # BR(~chi_2+ -> ~chi_10  H+)
     5.55486724E-03    2     1000023        37   # BR(~chi_2+ -> ~chi_20  H+)
     2.02181189E-03    2     1000025        37   # BR(~chi_2+ -> ~chi_30  H+)
     8.08961644E-06    2     1000039        24   # BR(~chi_2+ -> ~G       W+)
     4.64864126E-10    2     1000039        37   # BR(~chi_2+ -> ~G       H+)
#
#         PDG            Width
DECAY   1000022    1.0E-05    # neutralino1 decays
#          BR         NDA      ID1       ID2
     4.97173465E-01    2     1000039        22   # BR(~chi_10 -> ~G        gam)
     4.91650517E-01    2     1000039        23   # BR(~chi_10 -> ~G        Z)
     1.11760184E-02    2     1000039        25   # BR(~chi_10 -> ~G        h)
#
#         PDG            Width
DECAY   1000023     1.05512345E-04   # neutralino2 decays
#          BR         NDA      ID1       ID2
     3.42999084E-04    2     1000022        22   # BR(~chi_20 -> ~chi_10 gam)
#          BR         NDA      ID1       ID2
     3.04234605E-08    2     1000039        22   # BR(~chi_20 -> ~G        gam)
     8.93958991E-05    2     1000039        23   # BR(~chi_20 -> ~G        Z)
     2.13615994E-03    2     1000039        25   # BR(~chi_20 -> ~G        h)
#           BR         NDA      ID1       ID2       ID3
     1.18648939E-01    3     1000022        -2         2   # BR(~chi_20 -> ~chi_10 ub      u)
     1.53616981E-01    3     1000022        -1         1   # BR(~chi_20 -> ~chi_10 db      d)
     1.17791963E-01    3     1000022        -4         4   # BR(~chi_20 -> ~chi_10 cb      c)
     1.53593570E-01    3     1000022        -3         3   # BR(~chi_20 -> ~chi_10 sb      s)
     1.38791175E-01    3     1000022        -5         5   # BR(~chi_20 -> ~chi_10 bb      b)
     3.50763517E-02    3     1000022       -11        11   # BR(~chi_20 -> ~chi_10 e+      e-)
     3.50750207E-02    3     1000022       -13        13   # BR(~chi_20 -> ~chi_10 mu+     mu-)
     3.47004674E-02    3     1000022       -15        15   # BR(~chi_20 -> ~chi_10 tau+    tau-)
     7.00447897E-02    3     1000022       -12        12   # BR(~chi_20 -> ~chi_10 nu_eb   nu_e)
     7.00447897E-02    3     1000022       -14        14   # BR(~chi_20 -> ~chi_10 nu_mub  nu_mu)
     7.00447897E-02    3     1000022       -16        16   # BR(~chi_20 -> ~chi_10 nu_taub nu_tau)
     6.45767122E-07    3     1000024        -2         1   # BR(~chi_20 -> ~chi_1+ ub      d)
     6.45767122E-07    3    -1000024        -1         2   # BR(~chi_20 -> ~chi_1- db      u)
     1.86617366E-07    3     1000024        -4         3   # BR(~chi_20 -> ~chi_1+ cb      s)
     1.86617366E-07    3    -1000024        -3         4   # BR(~chi_20 -> ~chi_1- sb      c)
     2.15255723E-07    3     1000024       -12        11   # BR(~chi_20 -> ~chi_1+ nu_eb   e-)
     2.15255723E-07    3    -1000024        12       -11   # BR(~chi_20 -> ~chi_1- nu_e    e+)
     2.13776496E-07    3     1000024       -14        13   # BR(~chi_20 -> ~chi_1+ nu_mub  mu-)
     2.13776496E-07    3    -1000024        14       -13   # BR(~chi_20 -> ~chi_1- nu_mu   mu+)
     2.77960829E-08    3     1000024       -16        15   # BR(~chi_20 -> ~chi_1+ nu_taub tau-)
     2.77960829E-08    3    -1000024        16       -15   # BR(~chi_20 -> ~chi_1- nu_tau  tau+)
#
#         PDG            Width
DECAY   1000025     2.60867780E-04   # neutralino3 decays
#          BR         NDA      ID1       ID2
     3.15666552E-04    2     1000022        22   # BR(~chi_30 -> ~chi_10 gam)
     3.82141457E-04    2     1000023        22   # BR(~chi_30 -> ~chi_20 gam)
#          BR         NDA      ID1       ID2
     9.91005095E-04    2     1000039        22   # BR(~chi_30 -> ~G        gam)
     8.18860314E-04    2     1000039        23   # BR(~chi_30 -> ~G        Z)
     2.23475808E-05    2     1000039        25   # BR(~chi_30 -> ~G        h)
#           BR         NDA      ID1       ID2       ID3
     7.79182460E-06    3     1000022        -2         2   # BR(~chi_30 -> ~chi_10 ub      u)
     9.26645819E-06    3     1000022        -1         1   # BR(~chi_30 -> ~chi_10 db      d)
     8.41044204E-06    3     1000022        -4         4   # BR(~chi_30 -> ~chi_10 cb      c)
     9.27807218E-06    3     1000022        -3         3   # BR(~chi_30 -> ~chi_10 sb      s)
     1.13740622E-05    3     1000022        -5         5   # BR(~chi_30 -> ~chi_10 bb      b)
     1.61529347E-06    3     1000022       -11        11   # BR(~chi_30 -> ~chi_10 e+      e-)
     1.61527493E-06    3     1000022       -13        13   # BR(~chi_30 -> ~chi_10 mu+     mu-)
     1.95494509E-06    3     1000022       -15        15   # BR(~chi_30 -> ~chi_10 tau+    tau-)
     4.53809941E-06    3     1000022       -12        12   # BR(~chi_30 -> ~chi_10 nu_eb   nu_e)
     4.53809941E-06    3     1000022       -14        14   # BR(~chi_30 -> ~chi_10 nu_mub  nu_mu)
     4.53809941E-06    3     1000022       -16        16   # BR(~chi_30 -> ~chi_10 nu_taub nu_tau)
     2.59832400E-02    3     1000023        -2         2   # BR(~chi_30 -> ~chi_20 ub      u)
     3.36410532E-02    3     1000023        -1         1   # BR(~chi_30 -> ~chi_20 db      d)
     2.57570989E-02    3     1000023        -4         4   # BR(~chi_30 -> ~chi_20 cb      c)
     3.36347148E-02    3     1000023        -3         3   # BR(~chi_30 -> ~chi_20 sb      s)
     2.96550997E-02    3     1000023        -5         5   # BR(~chi_30 -> ~chi_20 bb      b)
     7.68150998E-03    3     1000023       -11        11   # BR(~chi_30 -> ~chi_20 e+      e-)
     7.68116532E-03    3     1000023       -13        13   # BR(~chi_30 -> ~chi_20 mu+     mu-)
     7.58400665E-03    3     1000023       -15        15   # BR(~chi_30 -> ~chi_20 tau+    tau-)
     1.53392471E-02    3     1000023       -12        12   # BR(~chi_30 -> ~chi_20 nu_eb   nu_e)
     1.53392471E-02    3     1000023       -14        14   # BR(~chi_30 -> ~chi_20 nu_mub  nu_mu)
     1.53392471E-02    3     1000023       -16        16   # BR(~chi_30 -> ~chi_20 nu_taub nu_tau)
     1.30301189E-01    3     1000024        -2         1   # BR(~chi_30 -> ~chi_1+ ub      d)
     1.30301189E-01    3    -1000024        -1         2   # BR(~chi_30 -> ~chi_1- db      u)
     1.29634457E-01    3     1000024        -4         3   # BR(~chi_30 -> ~chi_1+ cb      s)
     1.29634457E-01    3    -1000024        -3         4   # BR(~chi_30 -> ~chi_1- sb      c)
     4.34336566E-02    3     1000024       -12        11   # BR(~chi_30 -> ~chi_1+ nu_eb   e-)
     4.34336566E-02    3    -1000024        12       -11   # BR(~chi_30 -> ~chi_1- nu_e    e+)
     4.34324071E-02    3     1000024       -14        13   # BR(~chi_30 -> ~chi_1+ nu_mub  mu-)
     4.34324071E-02    3    -1000024        14       -13   # BR(~chi_30 -> ~chi_1- nu_mu   mu+)
     4.30830053E-02    3     1000024       -16        15   # BR(~chi_30 -> ~chi_1+ nu_taub tau-)
     4.30830053E-02    3    -1000024        16       -15   # BR(~chi_30 -> ~chi_1- nu_tau  tau+)
#
#         PDG            Width
DECAY   1000035     3.46311117E+01   # neutralino4 decays
#          BR         NDA      ID1       ID2
     1.43284583E-03    2     1000022        23   # BR(~chi_40 -> ~chi_10   Z )
     2.44307208E-01    2     1000023        23   # BR(~chi_40 -> ~chi_20   Z )
     1.60336608E-03    2     1000025        23   # BR(~chi_40 -> ~chi_30   Z )
     2.40779339E-01    2     1000024       -24   # BR(~chi_40 -> ~chi_1+   W-)
     2.40779339E-01    2    -1000024        24   # BR(~chi_40 -> ~chi_1-   W+)
     1.16965306E-01    2     1000022        25   # BR(~chi_40 -> ~chi_10   h )
     1.26122916E-03    2     1000022        35   # BR(~chi_40 -> ~chi_10   H )
     2.40298733E-03    2     1000022        36   # BR(~chi_40 -> ~chi_10   A )
     3.00444781E-03    2     1000023        25   # BR(~chi_40 -> ~chi_20   h )
     3.21373794E-03    2     1000023        35   # BR(~chi_40 -> ~chi_20   H )
     2.28286794E-03    2     1000023        36   # BR(~chi_40 -> ~chi_20   A )
     1.28622838E-01    2     1000025        25   # BR(~chi_40 -> ~chi_30   h )
     9.32454392E-04    2     1000025        35   # BR(~chi_40 -> ~chi_30   H )
     1.06902204E-03    2     1000025        36   # BR(~chi_40 -> ~chi_30   A )
     5.66746185E-03    2     1000024       -37   # BR(~chi_40 -> ~chi_1+   H-)
     5.66746185E-03    2    -1000024        37   # BR(~chi_40 -> ~chi_1-   H+)
     1.94173439E-06    2     1000039        22   # BR(~chi_40 -> ~G        gam)
     6.14706716E-06    2     1000039        23   # BR(~chi_40 -> ~G        Z)
     4.81825289E-10    2     1000039        25   # BR(~chi_40 -> ~G        h)
     4.58374127E-10    2     1000039        35   # BR(~chi_40 -> ~G        H)
     3.77785000E-12    2     1000039        36   # BR(~chi_40 -> ~G        A)
#
#         PDG            Width
DECAY        25     4.08542409E-03   # h decays
#          BR         NDA      ID1       ID2
     6.17705667E-01    2           5        -5   # BR(h -> b       bb     )
     6.37532911E-02    2         -15        15   # BR(h -> tau+    tau-   )
     2.25663170E-04    2         -13        13   # BR(h -> mu+     mu-    )
     4.78200539E-04    2           3        -3   # BR(h -> s       sb     )
     2.06303246E-02    2           4        -4   # BR(h -> c       cb     )
     6.69876196E-02    2          21        21   # BR(h -> g       g      )
     2.30559443E-03    2          22        22   # BR(h -> gam     gam    )
     1.53754573E-03    2          22        23   # BR(h -> Z       gam    )
     2.00757297E-01    2          24       -24   # BR(h -> W+      W-     )
     2.56187967E-02    2          23        23   # BR(h -> Z       Z      )
#
#         PDG            Width
DECAY        35     3.90631222E+01   # H decays
#          BR         NDA      ID1       ID2
     1.42330302E-03    2           5        -5   # BR(H -> b       bb     )
     2.38525396E-04    2         -15        15   # BR(H -> tau+    tau-   )
     8.43276079E-07    2         -13        13   # BR(H -> mu+     mu-    )
     1.07969933E-06    2           3        -3   # BR(H -> s       sb     )
     9.74411713E-06    2           4        -4   # BR(H -> c       cb     )
     9.64136057E-01    2           6        -6   # BR(H -> t       tb     )
     7.72107007E-04    2          21        21   # BR(H -> g       g      )
     2.62881125E-06    2          22        22   # BR(H -> gam     gam    )
     1.12253977E-06    2          23        22   # BR(H -> Z       gam    )
     3.24838237E-04    2          24       -24   # BR(H -> W+      W-     )
     1.61976087E-04    2          23        23   # BR(H -> Z       Z      )
     8.75704348E-04    2          25        25   # BR(H -> h       h      )
     7.36800425E-24    2          36        36   # BR(H -> A       A      )
     2.96424768E-11    2          23        36   # BR(H -> Z       A      )
     7.25160625E-12    2          24       -37   # BR(H -> W+      H-     )
     7.25160625E-12    2         -24        37   # BR(H -> W-      H+     )
     1.58831574E-05    2     1000024  -1000024   # BR(H -> ~chi_1+ ~chi_1-)
     2.95736241E-04    2     1000022   1000022   # BR(H -> ~chi_10 ~chi_10)
     2.85409101E-06    2     1000023   1000023   # BR(H -> ~chi_20 ~chi_20)
     9.12787970E-05    2     1000025   1000025   # BR(H -> ~chi_30 ~chi_30)
     1.87473267E-02    2     1000022   1000023   # BR(H -> ~chi_10 ~chi_20)
     3.66852093E-07    2     1000022   1000025   # BR(H -> ~chi_10 ~chi_30)
     1.28986249E-02    2     1000023   1000025   # BR(H -> ~chi_20 ~chi_30)
#
#         PDG            Width
DECAY        36     3.95136570E+01   # A decays
#          BR         NDA      ID1       ID2
     1.42580416E-03    2           5        -5   # BR(A -> b       bb     )
     2.36025139E-04    2         -15        15   # BR(A -> tau+    tau-   )
     8.34434130E-07    2         -13        13   # BR(A -> mu+     mu-    )
     1.10008093E-06    2           3        -3   # BR(A -> s       sb     )
     9.64021692E-06    2           4        -4   # BR(A -> c       cb     )
     9.64814749E-01    2           6        -6   # BR(A -> t       tb     )
     9.13215489E-04    2          21        21   # BR(A -> g       g      )
     2.90150515E-06    2          22        22   # BR(A -> gam     gam    )
     1.30860947E-06    2          23        22   # BR(A -> Z       gam    )
     3.16537569E-04    2          23        25   # BR(A -> Z       h      )
     5.95661994E-04    2     1000024  -1000024   # BR(A -> ~chi_1+ ~chi_1-)
     1.97849548E-02    2     1000022   1000022   # BR(A -> ~chi_10 ~chi_10)
     3.98287402E-07    2     1000023   1000023   # BR(A -> ~chi_20 ~chi_20)
     1.14518338E-02    2     1000025   1000025   # BR(A -> ~chi_30 ~chi_30)
     2.05774358E-04    2     1000022   1000023   # BR(A -> ~chi_10 ~chi_20)
     1.00924018E-04    2     1000022   1000025   # BR(A -> ~chi_10 ~chi_30)
     1.38336791E-04    2     1000023   1000025   # BR(A -> ~chi_20 ~chi_30)
#
#         PDG            Width
DECAY        37     3.86910773E+01   # H+ decays
#          BR         NDA      ID1       ID2
     2.28691618E-06    2           4        -5   # BR(H+ -> c       bb     )
     2.41222419E-04    2         -15        16   # BR(H+ -> tau+    nu_tau )
     8.52808389E-07    2         -13        14   # BR(H+ -> mu+     nu_mu  )
     1.45395894E-08    2           2        -5   # BR(H+ -> u       bb     )
     5.28146217E-08    2           2        -3   # BR(H+ -> u       sb     )
     1.05235137E-05    2           4        -3   # BR(H+ -> c       sb     )
     9.67264746E-01    2           6        -5   # BR(H+ -> t       bb     )
     3.24448069E-04    2          24        25   # BR(H+ -> W+      h      )
     2.47974373E-13    2          24        36   # BR(H+ -> W+      A      )
     1.68647541E-02    2     1000024   1000022   # BR(H+ -> ~chi_1+ ~chi_10)
     1.41690290E-04    2     1000024   1000023   # BR(H+ -> ~chi_1+ ~chi_20)
     1.51494080E-02    2     1000024   1000025   # BR(H+ -> ~chi_1+ ~chi_30)
