#
#                              ======================
#                              | THE SUSYHIT OUTPUT |
#                              ======================
#
#
#              ------------------------------------------------------
#              |     This is the output of the SUSY-HIT package     |
#              |  created by A.Djouadi, M.Muehlleitner and M.Spira. |
#              |  In case of problems with SUSY-HIT email to        |
#              |           margarete.muehlleitner@cern.ch           |
#              |           michael.spira@psi.ch                     |
#              |           abdelhak.djouadi@cern.ch                 |
#              ------------------------------------------------------
#
#              ------------------------------------------------------
#              |  SUSY Les Houches Accord - MSSM Spectrum + Decays  |
#              |              based on the decay programs           |
#              |                                                    |
#              |                     SDECAY 1.3b                    |
#              |                                                    |
#              |  Authors: M.Muhlleitner, A.Djouadi and Y.Mambrini  |
#              |  Ref.:    Comput.Phys.Commun.168(2005)46           |
#              |           [hep-ph/0311167]                         |
#              |                                                    |
#              |                     HDECAY 3.4                     |
#              |                                                    |
#              |  By: A.Djouadi,J.Kalinowski,M.Muhlleitner,M.Spira  |
#              |  Ref.:    Comput.Phys.Commun.108(1998)56           |
#              |           [hep-ph/9704448]                         |
#              |                                                    |
#              |                                                    |
#              |  If not stated otherwise all DRbar couplings and   |
#              |  soft SUSY breaking masses are given at the scale  |
#              |  Q=  0.50007493E+04
#              |                                                    |
#              ------------------------------------------------------
#
#
BLOCK DCINFO  # Decay Program information
     1   SDECAY/HDECAY # decay calculator
     2   1.3b  /3.4    # version number
#
BLOCK SPINFO  # Spectrum calculator information
     1    SOFTSUSY    # spectrum calculator                
     2    3.4.0       # version number                     
#
BLOCK MODSEL  # Model selection
     1     0   #  nonUniversal                                     
#
BLOCK SMINPUTS  # Standard Model inputs
         1     1.25778332E+02   # alpha_em^-1(M_Z)^MSbar
         2     1.16570000E-05   # G_F [GeV^-2]
         3     1.17200002E-01   # alpha_S(M_Z)^MSbar
         4     9.11876000E+01   # M_Z pole mass
         5     4.25000000E+00   # mb(mb)^MSbar
         6     1.72500000E+02   # mt pole mass
         7     1.77682000E+00   # mtau pole mass
#
BLOCK MINPAR  # Input parameters - minimal models
         3     1.00000000E+01   # tanb                
#
BLOCK EXTPAR  # Input parameters - non-minimal models
         0    -1.00000000E+00   # Set                 
         1     6.00000000E+01   # M_1(MX)             
         2     3.00000000E+03   # M_2(MX)             
         3     8.59141000E+02   # M_3(MX)             
        11     5.00000000E+03   # At(MX)              
        12     5.00000000E+03   # Ab(MX)              
        13     0.00000000E+00   # Atau(MX)            
        23    -4.75090000E+02   # mu(MX)              
        26     3.00000000E+03   # mA(pole)            
        31     5.00000000E+03   # meL(MX)             
        32     5.00000000E+03   # mmuL(MX)            
        33     5.00000000E+03   # mtauL(MX)           
        34     5.00000000E+03   # meR(MX)             
        35     5.00000000E+03   # mmuR(MX)            
        36     5.00000000E+03   # mtauR(MX)           
        41     5.00000000E+03   # mqL1(MX)            
        42     5.00000000E+03   # mqL2(MX)            
        43     5.00000000E+03   # mqL3(MX)            
        44     5.00000000E+03   # muR(MX)             
        45     5.00000000E+03   # mcR(MX)             
        46     5.00000000E+03   # mtR(MX)             
        47     5.00000000E+03   # mdR(MX)             
        48     5.00000000E+03   # msR(MX)             
        49     5.00000000E+03   # mbR(MX)             
#
BLOCK MASS  # Mass Spectrum
# PDG code           mass       particle
        24     8.00906485E+01   # W+
        25     1.24377855E+02   # h
        35     3.00008530E+03   # H
        36     2.99999943E+03   # A
        37     3.00142876E+03   # H+
         5     4.87878001E+00   # b-quark pole mass calculated from mb(mb)_Msbar
   1000001     5.06424890E+03   # ~d_L
   2000001     5.04637517E+03   # ~d_R
   1000002     5.06377137E+03   # ~u_L
   2000002     5.04607382E+03   # ~u_R
   1000003     5.06424890E+03   # ~s_L
   2000003     5.04637517E+03   # ~s_R
   1000004     5.06377137E+03   # ~c_L
   2000004     5.04607382E+03   # ~c_R
   1000005     5.01064418E+03   # ~b_1
   2000005     5.04465363E+03   # ~b_2
   1000006     4.90113305E+03   # ~t_1
   2000006     5.05554315E+03   # ~t_2
   1000011     5.01911157E+03   # ~e_L
   2000011     5.00594429E+03   # ~e_R
   1000012     5.01816077E+03   # ~nu_eL
   1000013     5.01911157E+03   # ~mu_L
   2000013     5.00594429E+03   # ~mu_R
   1000014     5.01816077E+03   # ~nu_muL
   1000015     5.00477456E+03   # ~tau_1
   2000015     5.01863571E+03   # ~tau_2
   1000016     5.01760895E+03   # ~nu_tauL
   1000021     1.10000001E+03   # ~g
   1000022     6.02020682E+01   # ~chi_10
   1000023     5.00511839E+02   # ~chi_20
   1000025    -5.02709769E+02   # ~chi_30
   1000035     3.07418871E+03   # ~chi_40
   1000024     5.00000586E+02   # ~chi_1+
   1000037     3.07435649E+03   # ~chi_2+
#
BLOCK NMIX  # Neutralino Mixing Matrix
  1  1     9.96027751E-01   # N_11
  1  2     2.24854160E-04   # N_12
  1  3    -8.90300026E-02   # N_13
  1  4    -1.52549456E-03   # N_14
  2  1     6.40683706E-02   # N_21
  2  2     1.90120350E-02   # N_22
  2  3     7.04713401E-01   # N_23
  2  4     7.06337603E-01   # N_24
  3  1    -6.18369709E-02   # N_31
  3  2     1.70177818E-02   # N_32
  3  3    -7.03882605E-01   # N_33
  3  4     7.07414915E-01   # N_34
  4  1    -3.89829942E-04   # N_41
  4  2     9.99674391E-01   # N_42
  4  3    -1.39995232E-03   # N_43
  4  4    -2.54754999E-02   # N_44
#
BLOCK UMIX  # Chargino Mixing Matrix U
  1  1     1.98508609E-03   # U_11
  1  2     9.99998030E-01   # U_12
  2  1    -9.99998030E-01   # U_21
  2  2     1.98508609E-03   # U_22
#
BLOCK VMIX  # Chargino Mixing Matrix V
  1  1     3.60480854E-02   # V_11
  1  2    -9.99350057E-01   # V_12
  2  1    -9.99350057E-01   # V_21
  2  2    -3.60480854E-02   # V_22
#
BLOCK STOPMIX  # Stop Mixing Matrix
  1  1    -5.07047040E-01   # cos(theta_t)
  1  2     8.61918383E-01   # sin(theta_t)
  2  1    -8.61918383E-01   # -sin(theta_t)
  2  2    -5.07047040E-01   # cos(theta_t)
#
BLOCK SBOTMIX  # Sbottom Mixing Matrix
  1  1     9.98716195E-01   # cos(theta_b)
  1  2    -5.06553240E-02   # sin(theta_b)
  2  1     5.06553240E-02   # -sin(theta_b)
  2  2     9.98716195E-01   # cos(theta_b)
#
BLOCK STAUMIX  # Stau Mixing Matrix
  1  1    -5.69277115E-02   # cos(theta_tau)
  1  2     9.98378303E-01   # sin(theta_tau)
  2  1    -9.98378303E-01   # -sin(theta_tau)
  2  2    -5.69277115E-02   # cos(theta_tau)
#
BLOCK ALPHA  # Higgs mixing
          -1.05442235E-01   # Mixing angle in the neutral Higgs boson sector
#
BLOCK HMIX Q=  5.00074930E+03  # DRbar Higgs Parameters
         1    -4.83561575E+02   # mu(Q)MSSM           
         2     9.47305520E+00   # tan                 
         3     2.41807894E+02   # higgs               
         4     8.67498692E+06   # mA^2(Q)MSSM         
#
BLOCK GAUGE Q=  5.00074930E+03  # The gauge couplings
     1     3.70973127E-01   # gprime(Q) DRbar
     2     6.33373941E-01   # g(Q) DRbar
     3     1.00724716E+00   # g3(Q) DRbar
#
BLOCK AU Q=  5.00074930E+03  # The trilinear couplings
  1  1     5.00000001E+03   # A_u(Q) DRbar
  2  2     5.00000001E+03   # A_c(Q) DRbar
  3  3     5.00000001E+03   # A_t(Q) DRbar
#
BLOCK AD Q=  5.00074930E+03  # The trilinear couplings
  1  1     5.00000000E+03   # A_d(Q) DRbar
  2  2     5.00000000E+03   # A_s(Q) DRbar
  3  3     5.00000001E+03   # A_b(Q) DRbar
#
BLOCK AE Q=  5.00074930E+03  # The trilinear couplings
  1  1     0.00000000E+00   # A_e(Q) DRbar
  2  2     3.25355641E-08   # A_mu(Q) DRbar
  3  3     3.16157430E-08   # A_tau(Q) DRbar
#
BLOCK Yu Q=  5.00074930E+03  # The Yukawa couplings
  1  1     0.00000000E+00   # y_u(Q) DRbar
  2  2     0.00000000E+00   # y_c(Q) DRbar
  3  3     8.15382493E-01   # y_t(Q) DRbar
#
BLOCK Yd Q=  5.00074930E+03  # The Yukawa couplings
  1  1     0.00000000E+00   # y_d(Q) DRbar
  2  2     0.00000000E+00   # y_s(Q) DRbar
  3  3     1.29199688E-01   # y_b(Q) DRbar
#
BLOCK Ye Q=  5.00074930E+03  # The Yukawa couplings
  1  1     0.00000000E+00   # y_e(Q) DRbar
  2  2     0.00000000E+00   # y_mu(Q) DRbar
  3  3     9.71556706E-02   # y_tau(Q) DRbar
#
BLOCK MSOFT Q=  5.00074930E+03  # The soft SUSY breaking masses at the scale Q
         1     6.00000000E+01   # M_1(Q)              
         2     3.00000000E+03   # M_2(Q)              
         3     8.59141000E+02   # M_3(Q)              
        21     8.48972315E+06   # mH1^2(Q)            
        22     3.37696185E+05   # mH2^2(Q)            
        31     5.00000000E+03   # meL(Q)              
        32     5.00000000E+03   # mmuL(Q)             
        33     5.00000000E+03   # mtauL(Q)            
        34     5.00000000E+03   # meR(Q)              
        35     5.00000000E+03   # mmuR(Q)             
        36     5.00000000E+03   # mtauR(Q)            
        41     5.00000000E+03   # mqL1(Q)             
        42     5.00000000E+03   # mqL2(Q)             
        43     5.00000000E+03   # mqL3(Q)             
        44     5.00000000E+03   # muR(Q)              
        45     5.00000000E+03   # mcR(Q)              
        46     5.00000000E+03   # mtR(Q)              
        47     5.00000000E+03   # mdR(Q)              
        48     5.00000000E+03   # msR(Q)              
        49     5.00000000E+03   # mbR(Q)              
#
#
#
#                             =================
#                             |The decay table|
#                             =================
#
# - The QCD corrections to the decays gluino -> squark  + quark
#                                     squark -> gaugino + quark_prime
#                                     squark -> squark_prime + Higgs
#                                     squark -> gluino  + quark
#   are included.
#
# - The multi-body decays for the inos, stops and sbottoms are included.
#
# - The loop induced decays for the gluino, neutralinos and stops
#   are included.
#
# - The SUSY decays of the top quark are included.
#
#
#         PDG            Width
DECAY         6     1.40600040E+00   # top decays
#          BR         NDA      ID1       ID2
     1.00000000E+00    2           5        24   # BR(t ->  b    W+)
#
#         PDG            Width
DECAY   1000021     3.04364423E-05   # gluino decays
#          BR         NDA      ID1       ID2
     1.53346017E-06    2     1000022        21   # BR(~g -> ~chi_10 g)
     4.08325736E-02    2     1000023        21   # BR(~g -> ~chi_20 g)
     3.95653194E-02    2     1000025        21   # BR(~g -> ~chi_30 g)
#           BR         NDA      ID1       ID2       ID3
     3.67583215E-02    3     1000022         1        -1   # BR(~g -> ~chi_10 d  db)
     3.93380219E-05    3     1000023         1        -1   # BR(~g -> ~chi_20 d  db)
     3.23020228E-05    3     1000025         1        -1   # BR(~g -> ~chi_30 d  db)
     1.25337106E-01    3     1000022         2        -2   # BR(~g -> ~chi_10 u  ub)
     2.05289913E-04    3     1000023         2        -2   # BR(~g -> ~chi_20 u  ub)
     5.37225022E-05    3     1000025         2        -2   # BR(~g -> ~chi_30 u  ub)
     3.67583215E-02    3     1000022         3        -3   # BR(~g -> ~chi_10 s  sb)
     3.93380219E-05    3     1000023         3        -3   # BR(~g -> ~chi_20 s  sb)
     3.23020228E-05    3     1000025         3        -3   # BR(~g -> ~chi_30 s  sb)
     1.25337106E-01    3     1000022         4        -4   # BR(~g -> ~chi_10 c  cb)
     2.05289913E-04    3     1000023         4        -4   # BR(~g -> ~chi_20 c  cb)
     5.37225022E-05    3     1000025         4        -4   # BR(~g -> ~chi_30 c  cb)
     3.76331383E-02    3     1000022         5        -5   # BR(~g -> ~chi_10 b  bb)
     5.18742544E-03    3     1000023         5        -5   # BR(~g -> ~chi_20 b  bb)
     5.08911149E-03    3     1000025         5        -5   # BR(~g -> ~chi_30 b  bb)
     8.84976905E-02    3     1000022         6        -6   # BR(~g -> ~chi_10 t  tb)
     1.03703469E-01    3     1000023         6        -6   # BR(~g -> ~chi_20 t  tb)
     6.30747196E-02    3     1000025         6        -6   # BR(~g -> ~chi_30 t  tb)
     5.54267614E-05    3     1000024         1        -2   # BR(~g -> ~chi_1+ d  ub)
     5.54267614E-05    3    -1000024         2        -1   # BR(~g -> ~chi_1- u  db)
     5.54267614E-05    3     1000024         3        -4   # BR(~g -> ~chi_1+ s  cb)
     5.54267614E-05    3    -1000024         4        -3   # BR(~g -> ~chi_1- c  sb)
     1.45670576E-01    3     1000024         5        -6   # BR(~g -> ~chi_1+ b  tb)
     1.45670576E-01    3    -1000024         6        -5   # BR(~g -> ~chi_1- t  bb)
#
#         PDG            Width
DECAY   1000006     4.16957390E+02   # stop1 decays
#          BR         NDA      ID1       ID2
     2.09114789E-02    2     1000022         6   # BR(~t_1 -> ~chi_10 t )
     7.81766390E-02    2     1000023         6   # BR(~t_1 -> ~chi_20 t )
     7.38790556E-02    2     1000025         6   # BR(~t_1 -> ~chi_30 t )
     4.97800943E-03    2     1000035         6   # BR(~t_1 -> ~chi_40 t )
     1.12199391E-01    2     1000024         5   # BR(~t_1 -> ~chi_1+ b )
     9.92379008E-03    2     1000037         5   # BR(~t_1 -> ~chi_2+ b )
     6.99931636E-01    2     1000021         6   # BR(~t_1 -> ~g      t )
#
#         PDG            Width
DECAY   2000006     4.16302712E+02   # stop2 decays
#          BR         NDA      ID1       ID2
     8.60358415E-03    2     1000022         6   # BR(~t_2 -> ~chi_10 t )
     7.80580070E-02    2     1000023         6   # BR(~t_2 -> ~chi_20 t )
     8.28760484E-02    2     1000025         6   # BR(~t_2 -> ~chi_30 t )
     1.32654272E-02    2     1000035         6   # BR(~t_2 -> ~chi_40 t )
     4.71894746E-02    2     1000024         5   # BR(~t_2 -> ~chi_1+ b )
     2.64140741E-02    2     1000037         5   # BR(~t_2 -> ~chi_2+ b )
     7.40570213E-01    2     1000021         6   # BR(~t_2 -> ~g      t )
     6.87085522E-04    2     1000006        25   # BR(~t_2 -> ~t_1    h )
     2.33608601E-03    2     1000006        23   # BR(~t_2 -> ~t_1    Z )
#
#         PDG            Width
DECAY   1000005     3.93781120E+02   # sbottom1 decays
#          BR         NDA      ID1       ID2
     1.98273906E-03    2     1000022         5   # BR(~b_1 -> ~chi_10 b )
     2.06363244E-03    2     1000023         5   # BR(~b_1 -> ~chi_20 b )
     2.06276928E-03    2     1000025         5   # BR(~b_1 -> ~chi_30 b )
     1.91528602E-02    2     1000035         5   # BR(~b_1 -> ~chi_40 b )
     1.66030114E-01    2    -1000024         6   # BR(~b_1 -> ~chi_1- t )
     3.84531329E-02    2    -1000037         6   # BR(~b_1 -> ~chi_2- t )
     7.68817512E-01    2     1000021         5   # BR(~b_1 -> ~g      b )
     1.43724029E-03    2     1000006       -24   # BR(~b_1 -> ~t_1    W-)
#
#         PDG            Width
DECAY   2000005     3.11470828E+02   # sbottom2 decays
#          BR         NDA      ID1       ID2
     9.42650195E-03    2     1000022         5   # BR(~b_2 -> ~chi_10 b )
     2.71002928E-03    2     1000023         5   # BR(~b_2 -> ~chi_20 b )
     2.74469789E-03    2     1000025         5   # BR(~b_2 -> ~chi_30 b )
     6.17124997E-05    2     1000035         5   # BR(~b_2 -> ~chi_40 b )
     5.84434094E-03    2    -1000024         6   # BR(~b_2 -> ~chi_1- t )
     1.23903352E-04    2    -1000037         6   # BR(~b_2 -> ~chi_2- t )
     9.79070051E-01    2     1000021         5   # BR(~b_2 -> ~g      b )
     1.87633861E-05    2     1000006       -24   # BR(~b_2 -> ~t_1    W-)
#
#         PDG            Width
DECAY   1000002     3.30541075E+02   # sup_L decays
#          BR         NDA      ID1       ID2
     2.25064707E-03    2     1000022         2   # BR(~u_L -> ~chi_10 u)
     5.78822707E-05    2     1000023         2   # BR(~u_L -> ~chi_20 u)
     1.42431862E-06    2     1000025         2   # BR(~u_L -> ~chi_30 u)
     2.36920493E-02    2     1000035         2   # BR(~u_L -> ~chi_40 u)
     1.51415620E-04    2     1000024         1   # BR(~u_L -> ~chi_1+ d)
     4.73545650E-02    2     1000037         1   # BR(~u_L -> ~chi_2+ d)
     9.26492016E-01    2     1000021         2   # BR(~u_L -> ~g      u)
#
#         PDG            Width
DECAY   2000002     3.16887542E+02   # sup_R decays
#          BR         NDA      ID1       ID2
     3.73437574E-02    2     1000022         2   # BR(~u_R -> ~chi_10 u)
     1.51573873E-04    2     1000023         2   # BR(~u_R -> ~chi_20 u)
     1.41174963E-04    2     1000025         2   # BR(~u_R -> ~chi_30 u)
     2.26566290E-09    2     1000035         2   # BR(~u_R -> ~chi_40 u)
     9.62363492E-01    2     1000021         2   # BR(~u_R -> ~g      u)
#
#         PDG            Width
DECAY   1000001     3.30549975E+02   # sdown_L decays
#          BR         NDA      ID1       ID2
     2.24041315E-03    2     1000022         1   # BR(~d_L -> ~chi_10 d)
     2.46428469E-06    2     1000023         1   # BR(~d_L -> ~chi_20 d)
     4.92969947E-05    2     1000025         1   # BR(~d_L -> ~chi_30 d)
     2.37060492E-02    2     1000035         1   # BR(~d_L -> ~chi_40 d)
     4.59193708E-07    2    -1000024         2   # BR(~d_L -> ~chi_1- u)
     4.74295682E-02    2    -1000037         2   # BR(~d_L -> ~chi_2- u)
     9.26571749E-01    2     1000021         1   # BR(~d_L -> ~g      d)
#
#         PDG            Width
DECAY   2000001     3.07964662E+02   # sdown_R decays
#          BR         NDA      ID1       ID2
     9.60701192E-03    2     1000022         1   # BR(~d_R -> ~chi_10 d)
     3.89938090E-05    2     1000023         1   # BR(~d_R -> ~chi_20 d)
     3.63185921E-05    2     1000025         1   # BR(~d_R -> ~chi_30 d)
     5.82943378E-10    2     1000035         1   # BR(~d_R -> ~chi_40 d)
     9.90317675E-01    2     1000021         1   # BR(~d_R -> ~g      d)
#
#         PDG            Width
DECAY   1000004     3.30541075E+02   # scharm_L decays
#          BR         NDA      ID1       ID2
     2.25064707E-03    2     1000022         4   # BR(~c_L -> ~chi_10 c)
     5.78822707E-05    2     1000023         4   # BR(~c_L -> ~chi_20 c)
     1.42431862E-06    2     1000025         4   # BR(~c_L -> ~chi_30 c)
     2.36920493E-02    2     1000035         4   # BR(~c_L -> ~chi_40 c)
     1.51415620E-04    2     1000024         3   # BR(~c_L -> ~chi_1+ s)
     4.73545650E-02    2     1000037         3   # BR(~c_L -> ~chi_2+ s)
     9.26492016E-01    2     1000021         4   # BR(~c_L -> ~g      c)
#
#         PDG            Width
DECAY   2000004     3.16887542E+02   # scharm_R decays
#          BR         NDA      ID1       ID2
     3.73437574E-02    2     1000022         4   # BR(~c_R -> ~chi_10 c)
     1.51573873E-04    2     1000023         4   # BR(~c_R -> ~chi_20 c)
     1.41174963E-04    2     1000025         4   # BR(~c_R -> ~chi_30 c)
     2.26566290E-09    2     1000035         4   # BR(~c_R -> ~chi_40 c)
     9.62363492E-01    2     1000021         4   # BR(~c_R -> ~g      c)
#
#         PDG            Width
DECAY   1000003     3.30549975E+02   # sstrange_L decays
#          BR         NDA      ID1       ID2
     2.24041315E-03    2     1000022         3   # BR(~s_L -> ~chi_10 s)
     2.46428469E-06    2     1000023         3   # BR(~s_L -> ~chi_20 s)
     4.92969947E-05    2     1000025         3   # BR(~s_L -> ~chi_30 s)
     2.37060492E-02    2     1000035         3   # BR(~s_L -> ~chi_40 s)
     4.59193708E-07    2    -1000024         4   # BR(~s_L -> ~chi_1- c)
     4.74295682E-02    2    -1000037         4   # BR(~s_L -> ~chi_2- c)
     9.26571749E-01    2     1000021         3   # BR(~s_L -> ~g      s)
#
#         PDG            Width
DECAY   2000003     3.07964662E+02   # sstrange_R decays
#          BR         NDA      ID1       ID2
     9.60701192E-03    2     1000022         3   # BR(~s_R -> ~chi_10 s)
     3.89938090E-05    2     1000023         3   # BR(~s_R -> ~chi_20 s)
     3.63185921E-05    2     1000025         3   # BR(~s_R -> ~chi_30 s)
     5.82943378E-10    2     1000035         3   # BR(~s_R -> ~chi_40 s)
     9.90317675E-01    2     1000021         3   # BR(~s_R -> ~g      s)
#
#         PDG            Width
DECAY   1000011     3.03384827E+01   # selectron_L decays
#          BR         NDA      ID1       ID2
     2.24786728E-01    2     1000022        11   # BR(~e_L -> ~chi_10 e-)
     2.06845357E-03    2     1000023        11   # BR(~e_L -> ~chi_20 e-)
     2.38523375E-04    2     1000025        11   # BR(~e_L -> ~chi_30 e-)
     2.57466613E-01    2     1000035        11   # BR(~e_L -> ~chi_40 e-)
     5.10010676E-06    2    -1000024        12   # BR(~e_L -> ~chi_1- nu_e)
     5.15434582E-01    2    -1000037        12   # BR(~e_L -> ~chi_2- nu_e)
#
#         PDG            Width
DECAY   2000011     2.73991799E+01   # selectron_R decays
#          BR         NDA      ID1       ID2
     9.92226304E-01    2     1000022        11   # BR(~e_R -> ~chi_10 e-)
     4.02489107E-03    2     1000023        11   # BR(~e_R -> ~chi_20 e-)
     3.74874574E-03    2     1000025        11   # BR(~e_R -> ~chi_30 e-)
     5.89849475E-08    2     1000035        11   # BR(~e_R -> ~chi_40 e-)
#
#         PDG            Width
DECAY   1000013     3.03384827E+01   # smuon_L decays
#          BR         NDA      ID1       ID2
     2.24786728E-01    2     1000022        13   # BR(~mu_L -> ~chi_10 mu-)
     2.06845357E-03    2     1000023        13   # BR(~mu_L -> ~chi_20 mu-)
     2.38523375E-04    2     1000025        13   # BR(~mu_L -> ~chi_30 mu-)
     2.57466613E-01    2     1000035        13   # BR(~mu_L -> ~chi_40 mu-)
     5.10010676E-06    2    -1000024        14   # BR(~mu_L -> ~chi_1- nu_mu)
     5.15434582E-01    2    -1000037        14   # BR(~mu_L -> ~chi_2- nu_mu)
#
#         PDG            Width
DECAY   2000013     2.73991799E+01   # smuon_R decays
#          BR         NDA      ID1       ID2
     9.92226304E-01    2     1000022        13   # BR(~mu_R -> ~chi_10 mu-)
     4.02489107E-03    2     1000023        13   # BR(~mu_R -> ~chi_20 mu-)
     3.74874574E-03    2     1000025        13   # BR(~mu_R -> ~chi_30 mu-)
     5.89849475E-08    2     1000035        13   # BR(~mu_R -> ~chi_40 mu-)
#
#         PDG            Width
DECAY   1000015     2.92426055E+01   # stau_1 decays
#          BR         NDA      ID1       ID2
     9.28329758E-01    2     1000022        15   # BR(~tau_1 -> ~chi_10  tau-)
     1.91919542E-02    2     1000023        15   # BR(~tau_1 -> ~chi_20  tau-)
     1.84872336E-02    2     1000025        15   # BR(~tau_1 -> ~chi_30  tau-)
     8.48195555E-04    2     1000035        15   # BR(~tau_1 -> ~chi_40  tau-)
     3.14449758E-02    2    -1000024        16   # BR(~tau_1 -> ~chi_1-  nu_tau)
     1.69788318E-03    2    -1000037        16   # BR(~tau_1 -> ~chi_2-  nu_tau)
#
#         PDG            Width
DECAY   2000015     3.12461187E+01   # stau_2 decays
#          BR         NDA      ID1       ID2
     2.19774941E-01    2     1000022        15   # BR(~tau_2 -> ~chi_10  tau-)
     1.68983687E-02    2     1000023        15   # BR(~tau_2 -> ~chi_20  tau-)
     1.54670222E-02    2     1000025        15   # BR(~tau_2 -> ~chi_30  tau-)
     2.49105607E-01    2     1000035        15   # BR(~tau_2 -> ~chi_40  tau-)
     5.72590919E-05    2    -1000024        16   # BR(~tau_2 -> ~chi_1-  nu_tau)
     4.98696801E-01    2    -1000037        16   # BR(~tau_2 -> ~chi_2-  nu_tau)
#
#         PDG            Width
DECAY   1000012     3.03416800E+01   # snu_eL decays
#          BR         NDA      ID1       ID2
     2.24374247E-01    2     1000022        12   # BR(~nu_eL -> ~chi_10 nu_e)
     2.21724971E-04    2     1000023        12   # BR(~nu_eL -> ~chi_20 nu_e)
     1.83307413E-03    2     1000025        12   # BR(~nu_eL -> ~chi_30 nu_e)
     2.57508750E-01    2     1000035        12   # BR(~nu_eL -> ~chi_40 nu_e)
     1.68133261E-03    2     1000024        11   # BR(~nu_eL -> ~chi_1+ e-)
     5.14380872E-01    2     1000037        11   # BR(~nu_eL -> ~chi_2+ e-)
#
#         PDG            Width
DECAY   1000014     3.03416800E+01   # snu_muL decays
#          BR         NDA      ID1       ID2
     2.24374247E-01    2     1000022        14   # BR(~nu_muL -> ~chi_10 nu_mu)
     2.21724971E-04    2     1000023        14   # BR(~nu_muL -> ~chi_20 nu_mu)
     1.83307413E-03    2     1000025        14   # BR(~nu_muL -> ~chi_30 nu_mu)
     2.57508750E-01    2     1000035        14   # BR(~nu_muL -> ~chi_40 nu_mu)
     1.68133261E-03    2     1000024        13   # BR(~nu_muL -> ~chi_1+ mu-)
     5.14380872E-01    2     1000037        13   # BR(~nu_muL -> ~chi_2+ mu-)
#
#         PDG            Width
DECAY   1000016     3.12557888E+01   # snu_tauL decays
#          BR         NDA      ID1       ID2
     2.17788218E-01    2     1000022        16   # BR(~nu_tauL -> ~chi_10 nu_tau)
     2.15215768E-04    2     1000023        16   # BR(~nu_tauL -> ~chi_20 nu_tau)
     1.77926032E-03    2     1000025        16   # BR(~nu_tauL -> ~chi_30 nu_tau)
     2.49884089E-01    2     1000035        16   # BR(~nu_tauL -> ~chi_40 nu_tau)
     3.11833260E-02    2     1000024        15   # BR(~nu_tauL -> ~chi_1+ tau-)
     4.99149891E-01    2     1000037        15   # BR(~nu_tauL -> ~chi_2+ tau-)
#
#         PDG            Width
DECAY   1000024     2.94260921E-01   # chargino1+ decays
#          BR         NDA      ID1       ID2
     1.00000000E+00    2     1000022        24   # BR(~chi_1+ -> ~chi_10  W+)
#
#         PDG            Width
DECAY   1000037     2.21758074E+01   # chargino2+ decays
#          BR         NDA      ID1       ID2
     2.53578537E-01    2     1000024        23   # BR(~chi_2+ -> ~chi_1+  Z )
     1.56200898E-04    2     1000022        24   # BR(~chi_2+ -> ~chi_10  W+)
     2.45005232E-01    2     1000023        24   # BR(~chi_2+ -> ~chi_20  W+)
     2.44412346E-01    2     1000025        24   # BR(~chi_2+ -> ~chi_30  W+)
     2.56842500E-01    2     1000024        25   # BR(~chi_2+ -> ~chi_1+  h )
     5.18392021E-06    2     1000022        37   # BR(~chi_2+ -> ~chi_10  H+)
#
#         PDG            Width
DECAY   1000022     0.00000000E+00   # neutralino1 decays
#
#         PDG            Width
DECAY   1000023     2.97629360E-01   # neutralino2 decays
#          BR         NDA      ID1       ID2
     5.04203298E-01    2     1000022        23   # BR(~chi_20 -> ~chi_10   Z )
     4.95796702E-01    2     1000022        25   # BR(~chi_20 -> ~chi_10   h )
#
#         PDG            Width
DECAY   1000025     2.90553129E-01   # neutralino3 decays
#          BR         NDA      ID1       ID2
     5.33574991E-01    2     1000022        23   # BR(~chi_30 -> ~chi_10   Z )
     4.66425009E-01    2     1000022        25   # BR(~chi_30 -> ~chi_10   h )
#
#         PDG            Width
DECAY   1000035     2.21867705E+01   # neutralino4 decays
#          BR         NDA      ID1       ID2
     3.10153187E-06    2     1000022        23   # BR(~chi_40 -> ~chi_10   Z )
     1.12718109E-01    2     1000023        23   # BR(~chi_40 -> ~chi_20   Z )
     1.40421421E-01    2     1000025        23   # BR(~chi_40 -> ~chi_30   Z )
     2.45189114E-01    2     1000024       -24   # BR(~chi_40 -> ~chi_1+   W-)
     2.45189114E-01    2    -1000024        24   # BR(~chi_40 -> ~chi_1-   W+)
     1.45486584E-04    2     1000022        25   # BR(~chi_40 -> ~chi_10   h )
     4.98616943E-06    2     1000022        35   # BR(~chi_40 -> ~chi_10   H )
     5.44550306E-07    2     1000022        36   # BR(~chi_40 -> ~chi_10   A )
     1.43383818E-01    2     1000023        25   # BR(~chi_40 -> ~chi_20   h )
     1.12944305E-01    2     1000025        25   # BR(~chi_40 -> ~chi_30   h )
#
#         PDG            Width
DECAY        25     4.03177154E-03   # h decays
#          BR         NDA      ID1       ID2
     6.16656842E-01    2           5        -5   # BR(h -> b       bb     )
     6.41321741E-02    2         -15        15   # BR(h -> tau+    tau-   )
     2.27052969E-04    2         -13        13   # BR(h -> mu+     mu-    )
     4.81636358E-04    2           3        -3   # BR(h -> s       sb     )
     2.08687320E-02    2           4        -4   # BR(h -> c       cb     )
     6.70493453E-02    2          21        21   # BR(h -> g       g      )
     2.29546262E-03    2          22        22   # BR(h -> gam     gam    )
     1.44730740E-03    2          22        23   # BR(h -> Z       gam    )
     2.02779613E-01    2          24       -24   # BR(h -> W+      W-     )
     2.39876959E-02    2          23        23   # BR(h -> Z       Z      )
     7.41390678E-05    2     1000022   1000022   # BR(h -> ~chi_10 ~chi_10)
#
#         PDG            Width
DECAY        35     8.66600866E+00   # H decays
#          BR         NDA      ID1       ID2
     3.68712396E-01    2           5        -5   # BR(H -> b       bb     )
     6.43306287E-02    2         -15        15   # BR(H -> tau+    tau-   )
     2.27478213E-04    2         -13        13   # BR(H -> mu+     mu-    )
     2.78853432E-04    2           3        -3   # BR(H -> s       sb     )
     1.55781606E-06    2           4        -4   # BR(H -> c       cb     )
     1.55638167E-01    2           6        -6   # BR(H -> t       tb     )
     5.17418659E-05    2          21        21   # BR(H -> g       g      )
     1.48812804E-07    2          22        22   # BR(H -> gam     gam    )
     9.17589639E-08    2          23        22   # BR(H -> Z       gam    )
     7.37297114E-05    2          24       -24   # BR(H -> W+      W-     )
     3.68181763E-05    2          23        23   # BR(H -> Z       Z      )
     2.69168795E-04    2          25        25   # BR(H -> h       h      )
     2.14666830E-23    2          36        36   # BR(H -> A       A      )
     7.22622002E-19    2          23        36   # BR(H -> Z       A      )
     3.17406012E-03    2     1000024  -1000024   # BR(H -> ~chi_1+ ~chi_1-)
     6.71511970E-03    2     1000022   1000022   # BR(H -> ~chi_10 ~chi_10)
     3.68986150E-04    2     1000023   1000023   # BR(H -> ~chi_20 ~chi_20)
     2.44841450E-03    2     1000025   1000025   # BR(H -> ~chi_30 ~chi_30)
     2.39452463E-01    2     1000022   1000023   # BR(H -> ~chi_10 ~chi_20)
     1.54896541E-01    2     1000022   1000025   # BR(H -> ~chi_10 ~chi_30)
     3.32363539E-03    2     1000023   1000025   # BR(H -> ~chi_20 ~chi_30)
#
#         PDG            Width
DECAY        36     8.67307799E+00   # A decays
#          BR         NDA      ID1       ID2
     3.68537792E-01    2           5        -5   # BR(A -> b       bb     )
     6.42801016E-02    2         -15        15   # BR(A -> tau+    tau-   )
     2.27299227E-04    2         -13        13   # BR(A -> mu+     mu-    )
     2.78837564E-04    2           3        -3   # BR(A -> s       sb     )
     1.56280818E-06    2           4        -4   # BR(A -> c       cb     )
     1.56050767E-01    2           6        -6   # BR(A -> t       tb     )
     1.54470295E-04    2          21        21   # BR(A -> g       g      )
     5.93162176E-07    2          22        22   # BR(A -> gam     gam    )
     1.86860916E-07    2          23        22   # BR(A -> Z       gam    )
     7.33932698E-05    2          23        25   # BR(A -> Z       h      )
     3.48591207E-03    2     1000024  -1000024   # BR(A -> ~chi_1+ ~chi_1-)
     6.67214941E-03    2     1000022   1000022   # BR(A -> ~chi_10 ~chi_10)
     2.71155800E-04    2     1000023   1000023   # BR(A -> ~chi_20 ~chi_20)
     4.22225618E-03    2     1000025   1000025   # BR(A -> ~chi_30 ~chi_30)
     1.58297375E-01    2     1000022   1000023   # BR(A -> ~chi_10 ~chi_20)
     2.35083369E-01    2     1000022   1000025   # BR(A -> ~chi_10 ~chi_30)
     2.36277815E-03    2     1000023   1000025   # BR(A -> ~chi_20 ~chi_30)
#
#         PDG            Width
DECAY        37     8.60405973E+00   # H+ decays
#          BR         NDA      ID1       ID2
     5.89631234E-04    2           4        -5   # BR(H+ -> c       bb     )
     6.48266019E-02    2         -15        16   # BR(H+ -> tau+    nu_tau )
     2.29231693E-04    2         -13        14   # BR(H+ -> mu+     nu_mu  )
     3.77362008E-06    2           2        -5   # BR(H+ -> u       bb     )
     1.34505157E-05    2           2        -3   # BR(H+ -> u       sb     )
     2.78155440E-04    2           4        -3   # BR(H+ -> c       sb     )
     5.22571060E-01    2           6        -5   # BR(H+ -> t       bb     )
     7.41355487E-05    2          24        25   # BR(H+ -> W+      h      )
     9.11115245E-13    2          24        36   # BR(H+ -> W+      A      )
     4.07611260E-01    2     1000024   1000022   # BR(H+ -> ~chi_1+ ~chi_10)
     3.47238874E-03    2     1000024   1000023   # BR(H+ -> ~chi_1+ ~chi_20)
     3.30311563E-04    2     1000024   1000025   # BR(H+ -> ~chi_1+ ~chi_30)
