#
#                              ======================
#                              | THE SUSYHIT OUTPUT |
#                              ======================
#
#
#              ------------------------------------------------------
#              |     This is the output of the SUSY-HIT package     |
#              |  created by A.Djouadi, M.Muehlleitner and M.Spira. |
#              |  In case of problems with SUSY-HIT email to        |
#              |           margarete.muehlleitner@kit.edu           |
#              |           michael.spira@psi.ch                     |
#              |           abdelhak.djouadi@cern.ch                 |
#              ------------------------------------------------------
#
#              ------------------------------------------------------
#              |  SUSY Les Houches Accord - MSSM Spectrum + Decays  |
#              |              based on the decay programs           |
#              |                                                    |
#              |                     SDECAY 1.5                     |
#              |                                                    |
#              |  Authors: M.Muhlleitner, A.Djouadi and Y.Mambrini  |
#              |  Ref.:    Comput.Phys.Commun.168(2005)46           |
#              |           [hep-ph/0311167]                         |
#              |                                                    |
#              |                     HDECAY 3.4                     |
#              |                                                    |
#              |  By: A.Djouadi,J.Kalinowski,M.Muhlleitner,M.Spira  |
#              |  Ref.:    Comput.Phys.Commun.108(1998)56           |
#              |           [hep-ph/9704448]                         |
#              |                                                    |
#              |                                                    |
#              |  If not stated otherwise all DRbar couplings and   |
#              |  soft SUSY breaking masses are given at the scale  |
#              |  Q=  0.91187600E+02
#              |                                                    |
#              ------------------------------------------------------
#
#
BLOCK DCINFO  # Decay Program information
     1   SDECAY/HDECAY # decay calculator
     2   1.5  /3.4    # version number
#
BLOCK SPINFO  # Spectrum calculator information
     1   SuSpect     # RGE +Spectrum calculator            
     2   2.43         # version number                     
#
BLOCK MODSEL  # Model selection
     1     2   # GMSB                                              
#
BLOCK SMINPUTS  # Standard Model inputs
         1     1.27932904E+02   # alpha_em^-1(M_Z)^MSbar
         2     1.16639000E-05   # G_F [GeV^-2]
         3     1.17200000E-01   # alpha_S(M_Z)^MSbar
         4     9.11870000E+01   # M_Z pole mass
         5     4.25000000E+00   # mb(mb)^MSbar
         6     1.72900000E+02   # mt pole mass
         7     1.77700000E+00   # mtau pole mass
#
BLOCK MINPAR  # Input parameters - minimal models
#
BLOCK EXTPAR  # Input parameters - non-minimal models
         0     9.11876000E+01   # EWSB                
         1     2.87000000E+02   # M_1                 
         2     3.00000000E+03   # M_2                 
         3     1.70000000E+03   # M_3                 
        11     0.00000000E+00   # A_t                 
        12     0.00000000E+00   # A_b                 
        13     0.00000000E+00   # A_tau               
        14     0.00000000E+00   # A_u                 
        15     0.00000000E+00   # A_d                 
        16     0.00000000E+00   # A_e                 
        23     2.50000000E+02   # mu(EWSB)            
        25     1.50000000E+00   # tanbeta(in)         
        26     2.00000000E+03   # MA_pole             
        31     5.00000000E+03   # M_eL                
        32     5.00000000E+03   # M_muL               
        33     5.00000000E+03   # M_tauL              
        34     5.00000000E+03   # M_eR                
        35     5.00000000E+03   # M_muR               
        36     5.00000000E+03   # M_tauR              
        41     5.00000000E+03   # M_q1L               
        42     5.00000000E+03   # M_q2L               
        43     5.00000000E+03   # M_q3L               
        44     5.00000000E+03   # M_uR                
        45     5.00000000E+03   # M_cR                
        46     5.00000000E+03   # M_tR                
        47     5.00000000E+03   # M_dR                
        48     5.00000000E+03   # M_sR                
        49     5.00000000E+03   # M_bR                
#
BLOCK MASS  # Mass Spectrum
# PDG code           mass       particle
        24     8.05375317E+01   # W+
        25     1.26000000E+02   # h
        35     2.00416949E+03   # H
        36     2.00000000E+03   # A
        37     2.00208301E+03   # H+
         5     4.87877839E+00   # b-quark pole mass calculated from mb(mb)_Msbar
   1000001     4.97172790E+03   # ~d_L
   2000001     4.97161779E+03   # ~d_R
   1000002     4.97148183E+03   # ~u_L
   2000002     4.97154025E+03   # ~u_R
   1000003     4.97172790E+03   # ~s_L
   2000003     4.97161779E+03   # ~s_R
   1000004     4.97148183E+03   # ~c_L
   2000004     4.97154025E+03   # ~c_R
   1000005     4.97155687E+03   # ~b_1
   2000005     4.97179029E+03   # ~b_2
   1000006     5.10288173E+03   # ~t_1
   2000006     5.40253406E+03   # ~t_2
   1000011     5.00008259E+03   # ~e_L
   2000011     5.00007599E+03   # ~e_R
   1000012     4.99984142E+03   # ~nu_eL
   1000013     5.00008259E+03   # ~mu_L
   2000013     5.00007599E+03   # ~mu_R
   1000014     4.99984142E+03   # ~nu_muL
   1000015     5.00001288E+03   # ~tau_1
   2000015     5.00014633E+03   # ~tau_2
   1000016     4.99984142E+03   # ~nu_tauL
   1000021     1.79544827E+03   # ~g
   1000022     2.38935053E+02   # ~chi_10
   1000023    -2.70421544E+02   # ~chi_20
   1000025     3.33145183E+02   # ~chi_30
   1000035     3.12901952E+03   # ~chi_40
   1000024     2.68178252E+02   # ~chi_1+
   1000037     3.12901909E+03   # ~chi_2+
   1000039     1.00000000E-09   # ~gravitino
#
BLOCK NMIX  # Neutralino Mixing Matrix
  1  1     5.56392317E-01   # N_11
  1  2    -2.22765278E-02   # N_12
  1  3     5.94509875E-01   # N_13
  1  4    -5.80077024E-01   # N_14
  2  1     1.53221076E-02   # N_21
  2  2    -4.61398026E-03   # N_22
  2  3    -7.05672922E-01   # N_23
  2  4    -7.08357023E-01   # N_24
  3  1     8.30778331E-01   # N_31
  3  2     1.55253119E-02   # N_32
  3  3    -3.85134519E-01   # N_33
  3  4     4.01544184E-01   # N_34
  4  1     4.33072198E-04   # N_41
  4  2    -9.99620644E-01   # N_42
  4  3    -1.59730478E-02   # N_43
  4  4     2.24330561E-02   # N_44
#
BLOCK UMIX  # Chargino Mixing Matrix U
  1  1    -2.25816566E-02   # U_11
  1  2     9.99745002E-01   # U_12
  2  1     9.99745002E-01   # U_21
  2  2     2.25816566E-02   # U_22
#
BLOCK VMIX  # Chargino Mixing Matrix V
  1  1    -3.17209405E-02   # V_11
  1  2     9.99496764E-01   # V_12
  2  1     9.99496764E-01   # V_21
  2  2     3.17209405E-02   # V_22
#
BLOCK STOPMIX  # Stop Mixing Matrix
  1  1     9.99794725E-01   # cos(theta_t)
  1  2    -2.02609936E-02   # sin(theta_t)
  2  1     2.02609936E-02   # -sin(theta_t)
  2  2     9.99794725E-01   # cos(theta_t)
#
BLOCK SBOTMIX  # Sbottom Mixing Matrix
  1  1     5.13939820E-01   # cos(theta_b)
  1  2     8.57826242E-01   # sin(theta_b)
  2  1    -8.57826242E-01   # -sin(theta_b)
  2  2     5.13939820E-01   # cos(theta_b)
#
BLOCK STAUMIX  # Stau Mixing Matrix
  1  1     6.89410070E-01   # cos(theta_tau)
  1  2     7.24371283E-01   # sin(theta_tau)
  2  1    -7.24371283E-01   # -sin(theta_tau)
  2  2     6.89410070E-01   # cos(theta_tau)
#
BLOCK ALPHA  # Higgs mixing
          -5.90209047E-01   # Mixing angle in the neutral Higgs boson sector
#
BLOCK HMIX Q=  9.11876000E+01  # DRbar Higgs Parameters
         1     2.50000000E+02   # mu(Q)               
         2     1.49999979E+00   # tanbeta(Q)          
         3     2.51795171E+02   # vev(Q)              
         4     3.84114217E+06   # MA^2(Q)             
#
BLOCK GAUGE Q=  9.11876000E+01  # The gauge couplings
     1     3.53061993E-01   # gprime(Q) DRbar
     2     6.28967147E-01   # g(Q) DRbar
     3     1.08305249E+00   # g3(Q) DRbar
#
BLOCK AU Q=  9.11876000E+01  # The trilinear couplings
  1  1     0.00000000E+00   # A_u(Q) DRbar
  2  2     0.00000000E+00   # A_c(Q) DRbar
  3  3     0.00000000E+00   # A_t(Q) DRbar
#
BLOCK AD Q=  9.11876000E+01  # The trilinear couplings
  1  1     0.00000000E+00   # A_d(Q) DRbar
  2  2     0.00000000E+00   # A_s(Q) DRbar
  3  3     0.00000000E+00   # A_b(Q) DRbar
#
BLOCK AE Q=  9.11876000E+01  # The trilinear couplings
  1  1     0.00000000E+00   # A_e(Q) DRbar
  2  2     0.00000000E+00   # A_mu(Q) DRbar
  3  3     0.00000000E+00   # A_tau(Q) DRbar
#
BLOCK Yu Q=  9.11876000E+01  # The Yukawa couplings
  1  1     0.00000000E+00   # y_u(Q) DRbar
  2  2     0.00000000E+00   # y_c(Q) DRbar
  3  3     1.02694353E+00   # y_t(Q) DRbar
#
BLOCK Yd Q=  9.11876000E+01  # The Yukawa couplings
  1  1     0.00000000E+00   # y_d(Q) DRbar
  2  2     0.00000000E+00   # y_s(Q) DRbar
  3  3     2.72325892E-02   # y_b(Q) DRbar
#
BLOCK Ye Q=  9.11876000E+01  # The Yukawa couplings
  1  1     0.00000000E+00   # y_e(Q) DRbar
  2  2     0.00000000E+00   # y_mu(Q) DRbar
  3  3     1.79955040E-02   # y_tau(Q) DRbar
#
BLOCK MSOFT Q=  9.11876000E+01  # The soft SUSY breaking masses at the scale Q
         1     2.87000000E+02   # M_1                 
         2     3.00000000E+03   # M_2                 
         3     1.70000000E+03   # M_3                 
        14     0.00000000E+00   # A_u                 
        15     0.00000000E+00   # A_d                 
        16     0.00000000E+00   # A_e                 
        21     2.99427011E+06   # M^2_Hd              
        22    -5.51087098E+06   # M^2_Hu              
        31     5.00000000E+03   # M_eL                
        32     5.00000000E+03   # M_muL               
        33     5.00000000E+03   # M_tauL              
        34     5.00000000E+03   # M_eR                
        35     5.00000000E+03   # M_muR               
        36     5.00000000E+03   # M_tauR              
        41     5.00000000E+03   # M_q1L               
        42     5.00000000E+03   # M_q2L               
        43     5.00000000E+03   # M_q3L               
        44     5.00000000E+03   # M_uR                
        45     5.00000000E+03   # M_cR                
        46     5.00000000E+03   # M_tR                
        47     5.00000000E+03   # M_dR                
        48     5.00000000E+03   # M_sR                
        49     5.00000000E+03   # M_bR                
#
#
#
#                             =================
#                             |The decay table|
#                             =================
#
# - The QCD corrections to the decays gluino -> squark  + quark
#                                     squark -> gaugino + quark_prime
#                                     squark -> squark_prime + Higgs
#                                     squark -> gluino  + quark
#   are included.
#
# - The multi-body decays for the inos, stops and sbottoms are included.
#
# - The loop induced decays for the gluino, neutralinos and stops
#   are included.
#
# - The SUSY decays of the top quark are included.
#
# - Possible decays of the NLSP in GMSB models are included.
#
#
#         PDG            Width
DECAY         6     1.37847996E+00   # top decays
#          BR         NDA      ID1       ID2
     1.00000000E+00    2           5        24   # BR(t ->  b    W+)
#
#         PDG            Width
DECAY   1000021     1.86442507E-03   # gluino decays
#          BR         NDA      ID1       ID2
     6.89719427E-03    2     1000022        21   # BR(~g -> ~chi_10 g)
     1.00110924E-02    2     1000023        21   # BR(~g -> ~chi_20 g)
     2.95215683E-03    2     1000025        21   # BR(~g -> ~chi_30 g)
#          BR         NDA      ID1       ID2
     1.15214186E-02    2     1000039        21   # BR(~g -> ~G      g)
#           BR         NDA      ID1       ID2       ID3
     2.81111317E-03    3     1000022         1        -1   # BR(~g -> ~chi_10 d  db)
     2.56979523E-06    3     1000023         1        -1   # BR(~g -> ~chi_20 d  db)
     5.12673185E-03    3     1000025         1        -1   # BR(~g -> ~chi_30 d  db)
     8.53511139E-03    3     1000022         2        -2   # BR(~g -> ~chi_10 u  ub)
     3.89278186E-06    3     1000023         2        -2   # BR(~g -> ~chi_20 u  ub)
     1.83436622E-02    3     1000025         2        -2   # BR(~g -> ~chi_30 u  ub)
     2.81111317E-03    3     1000022         3        -3   # BR(~g -> ~chi_10 s  sb)
     2.56979523E-06    3     1000023         3        -3   # BR(~g -> ~chi_20 s  sb)
     5.12673185E-03    3     1000025         3        -3   # BR(~g -> ~chi_30 s  sb)
     8.53511139E-03    3     1000022         4        -4   # BR(~g -> ~chi_10 c  cb)
     3.89278186E-06    3     1000023         4        -4   # BR(~g -> ~chi_20 c  cb)
     1.83436622E-02    3     1000025         4        -4   # BR(~g -> ~chi_30 c  cb)
     2.94805943E-03    3     1000022         5        -5   # BR(~g -> ~chi_10 b  bb)
     2.14366062E-04    3     1000023         5        -5   # BR(~g -> ~chi_20 b  bb)
     5.19888291E-03    3     1000025         5        -5   # BR(~g -> ~chi_30 b  bb)
     1.36916444E-01    3     1000022         6        -6   # BR(~g -> ~chi_10 t  tb)
     2.00012274E-01    3     1000023         6        -6   # BR(~g -> ~chi_20 t  tb)
     8.38582228E-02    3     1000025         6        -6   # BR(~g -> ~chi_30 t  tb)
     6.99007534E-05    3     1000024         1        -2   # BR(~g -> ~chi_1+ d  ub)
     6.99007534E-05    3    -1000024         2        -1   # BR(~g -> ~chi_1- u  db)
     6.99007534E-05    3     1000024         3        -4   # BR(~g -> ~chi_1+ s  cb)
     6.99007534E-05    3    -1000024         4        -3   # BR(~g -> ~chi_1- c  sb)
     2.34772062E-01    3     1000024         5        -6   # BR(~g -> ~chi_1+ b  tb)
     2.34772062E-01    3    -1000024         6        -5   # BR(~g -> ~chi_1- t  bb)
#
#         PDG            Width
DECAY   1000006     3.06045018E+02   # stop1 decays
#          BR         NDA      ID1       ID2
     7.89087885E-02    2     1000022         6   # BR(~t_1 -> ~chi_10 t )
     1.19760893E-01    2     1000023         6   # BR(~t_1 -> ~chi_20 t )
     4.21574260E-02    2     1000025         6   # BR(~t_1 -> ~chi_30 t )
     2.48731491E-02    2     1000035         6   # BR(~t_1 -> ~chi_40 t )
     1.78295090E-04    2     1000024         5   # BR(~t_1 -> ~chi_1+ b )
     4.95914477E-02    2     1000037         5   # BR(~t_1 -> ~chi_2+ b )
     6.65799520E-01    2     1000021         6   # BR(~t_1 -> ~g      t )
     4.97802574E-03    2     1000005        24   # BR(~t_1 -> ~b_1    W+)
     1.37524553E-02    2     2000005        24   # BR(~t_1 -> ~b_2    W+)
#
#         PDG            Width
DECAY   2000006     3.86802434E+02   # stop2 decays
#          BR         NDA      ID1       ID2
     7.84635695E-02    2     1000022         6   # BR(~t_2 -> ~chi_10 t )
     1.00937025E-01    2     1000023         6   # BR(~t_2 -> ~chi_20 t )
     5.11195044E-02    2     1000025         6   # BR(~t_2 -> ~chi_30 t )
    -1.73205079E-05    2     1000035         6   # BR(~t_2 -> ~chi_40 t )
     2.01385232E-01    2     1000024         5   # BR(~t_2 -> ~chi_1+ b )
    -3.46666003E-05    2     1000037         5   # BR(~t_2 -> ~chi_2+ b )
     5.67764146E-01    2     1000021         6   # BR(~t_2 -> ~g      t )
    -3.95151357E-05    2     1000006        25   # BR(~t_2 -> ~t_1    h )
     6.03080204E-05    2     1000006        23   # BR(~t_2 -> ~t_1    Z )
     9.55967699E-05    2     1000005        24   # BR(~t_2 -> ~b_1    W+)
     2.66120575E-04    2     2000005        24   # BR(~t_2 -> ~b_2    W+)
#
#         PDG            Width
DECAY   1000005     1.77749770E+02   # sbottom1 decays
#          BR         NDA      ID1       ID2
     5.48530123E-03    2     1000022         5   # BR(~b_1 -> ~chi_10 b )
     1.24272321E-04    2     1000023         5   # BR(~b_1 -> ~chi_20 b )
     1.08683729E-02    2     1000025         5   # BR(~b_1 -> ~chi_30 b )
    -4.89634185E-03    2     1000035         5   # BR(~b_1 -> ~chi_40 b )
    -1.13506862E-01    2    -1000024         6   # BR(~b_1 -> ~chi_1- t )
    -9.83949472E-03    2    -1000037         6   # BR(~b_1 -> ~chi_2- t )
     1.11176475E+00    2     1000021         5   # BR(~b_1 -> ~g      b )
#
#         PDG            Width
DECAY   2000005     3.12962190E+02   # sbottom2 decays
#          BR         NDA      ID1       ID2
     5.58492818E-04    2     1000022         5   # BR(~b_2 -> ~chi_10 b )
     9.54101167E-05    2     1000023         5   # BR(~b_2 -> ~chi_20 b )
     8.20315039E-04    2     1000025         5   # BR(~b_2 -> ~chi_30 b )
     2.48816058E-02    2     1000035         5   # BR(~b_2 -> ~chi_40 b )
     2.92167877E-01    2    -1000024         6   # BR(~b_2 -> ~chi_1- t )
     4.99234977E-02    2    -1000037         6   # BR(~b_2 -> ~chi_2- t )
     6.31552802E-01    2     1000021         5   # BR(~b_2 -> ~g      b )
#
#         PDG            Width
DECAY   1000002     2.19070196E+02   # sup_L decays
#          BR         NDA      ID1       ID2
     5.73994581E-04    2     1000022         2   # BR(~u_L -> ~chi_10 u)
     2.61297251E-07    2     1000023         2   # BR(~u_L -> ~chi_20 u)
     2.49525255E-03    2     1000025         2   # BR(~u_L -> ~chi_30 u)
     3.15548945E-02    2     1000035         2   # BR(~u_L -> ~chi_40 u)
     1.72304684E-04    2     1000024         1   # BR(~u_L -> ~chi_1+ d)
     6.31044010E-02    2     1000037         1   # BR(~u_L -> ~chi_2+ d)
     9.02098891E-01    2     1000021         2   # BR(~u_L -> ~g      u)
#
#         PDG            Width
DECAY   2000002     2.08115592E+02   # sup_R decays
#          BR         NDA      ID1       ID2
     1.56473141E-02    2     1000022         2   # BR(~u_R -> ~chi_10 u)
     1.18516508E-05    2     1000023         2   # BR(~u_R -> ~chi_20 u)
     3.47402040E-02    2     1000025         2   # BR(~u_R -> ~chi_30 u)
     3.49307462E-09    2     1000035         2   # BR(~u_R -> ~chi_40 u)
     9.49600627E-01    2     1000021         2   # BR(~u_R -> ~g      u)
#
#         PDG            Width
DECAY   1000001     2.19074742E+02   # sdown_L decays
#          BR         NDA      ID1       ID2
     1.36920629E-03    2     1000022         1   # BR(~d_L -> ~chi_10 d)
     4.79135914E-06    2     1000023         1   # BR(~d_L -> ~chi_20 d)
     1.67127507E-03    2     1000025         1   # BR(~d_L -> ~chi_30 d)
     3.15700989E-02    2     1000035         1   # BR(~d_L -> ~chi_40 d)
     8.73231753E-05    2    -1000024         2   # BR(~d_L -> ~chi_1- u)
     6.31456932E-02    2    -1000037         2   # BR(~d_L -> ~chi_2- u)
     9.02151612E-01    2     1000021         1   # BR(~d_L -> ~g      d)
#
#         PDG            Width
DECAY   2000001     2.00253894E+02   # sdown_R decays
#          BR         NDA      ID1       ID2
     4.06546629E-03    2     1000022         1   # BR(~d_R -> ~chi_10 d)
     3.07928173E-06    2     1000023         1   # BR(~d_R -> ~chi_20 d)
     9.02615907E-03    2     1000025         1   # BR(~d_R -> ~chi_30 d)
     9.07602976E-10    2     1000035         1   # BR(~d_R -> ~chi_40 d)
     9.86905294E-01    2     1000021         1   # BR(~d_R -> ~g      d)
#
#         PDG            Width
DECAY   1000004     2.19070196E+02   # scharm_L decays
#          BR         NDA      ID1       ID2
     5.73994581E-04    2     1000022         4   # BR(~c_L -> ~chi_10 c)
     2.61297251E-07    2     1000023         4   # BR(~c_L -> ~chi_20 c)
     2.49525255E-03    2     1000025         4   # BR(~c_L -> ~chi_30 c)
     3.15548945E-02    2     1000035         4   # BR(~c_L -> ~chi_40 c)
     1.72304684E-04    2     1000024         3   # BR(~c_L -> ~chi_1+ s)
     6.31044010E-02    2     1000037         3   # BR(~c_L -> ~chi_2+ s)
     9.02098891E-01    2     1000021         4   # BR(~c_L -> ~g      c)
#
#         PDG            Width
DECAY   2000004     2.08115592E+02   # scharm_R decays
#          BR         NDA      ID1       ID2
     1.56473141E-02    2     1000022         4   # BR(~c_R -> ~chi_10 c)
     1.18516508E-05    2     1000023         4   # BR(~c_R -> ~chi_20 c)
     3.47402040E-02    2     1000025         4   # BR(~c_R -> ~chi_30 c)
     3.49307462E-09    2     1000035         4   # BR(~c_R -> ~chi_40 c)
     9.49600627E-01    2     1000021         4   # BR(~c_R -> ~g      c)
#
#         PDG            Width
DECAY   1000003     2.19074742E+02   # sstrange_L decays
#          BR         NDA      ID1       ID2
     1.36920629E-03    2     1000022         3   # BR(~s_L -> ~chi_10 s)
     4.79135914E-06    2     1000023         3   # BR(~s_L -> ~chi_20 s)
     1.67127507E-03    2     1000025         3   # BR(~s_L -> ~chi_30 s)
     3.15700989E-02    2     1000035         3   # BR(~s_L -> ~chi_40 s)
     8.73231753E-05    2    -1000024         4   # BR(~s_L -> ~chi_1- c)
     6.31456932E-02    2    -1000037         4   # BR(~s_L -> ~chi_2- c)
     9.02151612E-01    2     1000021         3   # BR(~s_L -> ~g      s)
#
#         PDG            Width
DECAY   2000003     2.00253894E+02   # sstrange_R decays
#          BR         NDA      ID1       ID2
     4.06546629E-03    2     1000022         3   # BR(~s_R -> ~chi_10 s)
     3.07928173E-06    2     1000023         3   # BR(~s_R -> ~chi_20 s)
     9.02615907E-03    2     1000025         3   # BR(~s_R -> ~chi_30 s)
     9.07602976E-10    2     1000035         3   # BR(~s_R -> ~chi_40 s)
     9.86905294E-01    2     1000021         3   # BR(~s_R -> ~g      s)
#
#         PDG            Width
DECAY   1000011     2.80275536E+01   # selectron_L decays
#          BR         NDA      ID1       ID2
     5.87892439E-02    2     1000022        11   # BR(~e_L -> ~chi_10 e-)
     1.10934952E-05    2     1000023        11   # BR(~e_L -> ~chi_20 e-)
     1.61564349E-01    2     1000025        11   # BR(~e_L -> ~chi_30 e-)
     2.59513845E-01    2     1000035        11   # BR(~e_L -> ~chi_40 e-)
     7.11848199E-04    2    -1000024        12   # BR(~e_L -> ~chi_1- nu_e)
     5.19409621E-01    2    -1000037        12   # BR(~e_L -> ~chi_2- nu_e)
#
#         PDG            Width
DECAY   2000011     2.46125678E+01   # selectron_R decays
#          BR         NDA      ID1       ID2
     3.10497629E-01    2     1000022        11   # BR(~e_R -> ~chi_10 e-)
     2.35165931E-04    2     1000023        11   # BR(~e_R -> ~chi_20 e-)
     6.89267135E-01    2     1000025        11   # BR(~e_R -> ~chi_30 e-)
     6.99445995E-08    2     1000035        11   # BR(~e_R -> ~chi_40 e-)
#
#         PDG            Width
DECAY   1000013     2.80275536E+01   # smuon_L decays
#          BR         NDA      ID1       ID2
     5.87892439E-02    2     1000022        13   # BR(~mu_L -> ~chi_10 mu-)
     1.10934952E-05    2     1000023        13   # BR(~mu_L -> ~chi_20 mu-)
     1.61564349E-01    2     1000025        13   # BR(~mu_L -> ~chi_30 mu-)
     2.59513845E-01    2     1000035        13   # BR(~mu_L -> ~chi_40 mu-)
     7.11848199E-04    2    -1000024        14   # BR(~mu_L -> ~chi_1- nu_mu)
     5.19409621E-01    2    -1000037        14   # BR(~mu_L -> ~chi_2- nu_mu)
#
#         PDG            Width
DECAY   2000013     2.46125678E+01   # smuon_R decays
#          BR         NDA      ID1       ID2
     3.10497629E-01    2     1000022        13   # BR(~mu_R -> ~chi_10 mu-)
     2.35165931E-04    2     1000023        13   # BR(~mu_R -> ~chi_20 mu-)
     6.89267135E-01    2     1000025        13   # BR(~mu_R -> ~chi_30 mu-)
     6.99445995E-08    2     1000035        13   # BR(~mu_R -> ~chi_40 mu-)
#
#         PDG            Width
DECAY   1000015     2.63122780E+01   # stau_1 decays
#          BR         NDA      ID1       ID2
     1.88577800E-01    2     1000022        15   # BR(~tau_1 -> ~chi_10  tau-)
     4.46970758E-04    2     1000023        15   # BR(~tau_1 -> ~chi_20  tau-)
     4.15090240E-01    2     1000025        15   # BR(~tau_1 -> ~chi_30  tau-)
     1.31198920E-01    2     1000035        15   # BR(~tau_1 -> ~chi_40  tau-)
     1.95802981E-03    2    -1000024        16   # BR(~tau_1 -> ~chi_1-  nu_tau)
     2.62591303E-01    2    -1000037        16   # BR(~tau_1 -> ~chi_2-  nu_tau)
     1.36736221E-04    2     1000039        15   # BR(~tau_1 -> ~G       tau-)
#
#         PDG            Width
DECAY   2000015     2.64275025E+01   # stau_2 decays
#          BR         NDA      ID1       ID2
     1.64624015E-01    2     1000022        15   # BR(~tau_2 -> ~chi_10  tau-)
     9.92645137E-04    2     1000023        15   # BR(~tau_2 -> ~chi_20  tau-)
     4.00355730E-01    2     1000025        15   # BR(~tau_2 -> ~chi_30  tau-)
     1.44599647E-01    2     1000035        15   # BR(~tau_2 -> ~chi_40  tau-)
     1.67373728E-05    2    -1000024        16   # BR(~tau_2 -> ~chi_1-  nu_tau)
     2.89411225E-01    2    -1000037        16   # BR(~tau_2 -> ~chi_2-  nu_tau)
#
#         PDG            Width
DECAY   1000012     2.80261602E+01   # snu_eL decays
#          BR         NDA      ID1       ID2
     7.82372815E-02    2     1000022        12   # BR(~nu_eL -> ~chi_10 nu_e)
     1.21878600E-04    2     1000023        12   # BR(~nu_eL -> ~chi_20 nu_e)
     1.41413647E-01    2     1000025        12   # BR(~nu_eL -> ~chi_30 nu_e)
     2.59734536E-01    2     1000035        12   # BR(~nu_eL -> ~chi_40 nu_e)
     1.40465059E-03    2     1000024        11   # BR(~nu_eL -> ~chi_1+ e-)
     5.19088006E-01    2     1000037        11   # BR(~nu_eL -> ~chi_2+ e-)
#
#         PDG            Width
DECAY   1000014     2.80261602E+01   # snu_muL decays
#          BR         NDA      ID1       ID2
     7.82372815E-02    2     1000022        14   # BR(~nu_muL -> ~chi_10 nu_mu)
     1.21878600E-04    2     1000023        14   # BR(~nu_muL -> ~chi_20 nu_mu)
     1.41413647E-01    2     1000025        14   # BR(~nu_muL -> ~chi_30 nu_mu)
     2.59734536E-01    2     1000035        14   # BR(~nu_muL -> ~chi_40 nu_mu)
     1.40465059E-03    2     1000024        13   # BR(~nu_muL -> ~chi_1+ mu-)
     5.19088006E-01    2     1000037        13   # BR(~nu_muL -> ~chi_2+ mu-)
#
#         PDG            Width
DECAY   1000016     2.80581777E+01   # snu_tauL decays
#          BR         NDA      ID1       ID2
     7.81480040E-02    2     1000022        16   # BR(~nu_tauL -> ~chi_10 nu_tau)
     1.21739523E-04    2     1000023        16   # BR(~nu_tauL -> ~chi_20 nu_tau)
     1.41252279E-01    2     1000025        16   # BR(~nu_tauL -> ~chi_30 nu_tau)
     2.59438150E-01    2     1000035        16   # BR(~nu_tauL -> ~chi_40 nu_tau)
     2.54380657E-03    2     1000024        15   # BR(~nu_tauL -> ~chi_1+ tau-)
     5.18496021E-01    2     1000037        15   # BR(~nu_tauL -> ~chi_2+ tau-)
#
#         PDG            Width
DECAY   1000024     1.52151120E-05   # chargino1+ decays
#          BR         NDA      ID1       ID2
     3.64600355E-05    2     1000039        24   # BR(~chi_1+ -> ~G       W+)
#           BR         NDA      ID1       ID2       ID3
     3.33996706E-01    3     1000022         2        -1   # BR(~chi_1+ -> ~chi_10 u    db)
     3.33996706E-01    3     1000022         4        -3   # BR(~chi_1+ -> ~chi_10 c    sb)
     1.11332334E-01    3     1000022       -11        12   # BR(~chi_1+ -> ~chi_10 e+   nu_e)
     1.11332334E-01    3     1000022       -13        14   # BR(~chi_1+ -> ~chi_10 mu+  nu_mu)
     1.09305459E-01    3     1000022       -15        16   # BR(~chi_1+ -> ~chi_10 tau+ nu_tau)
#
#         PDG            Width
DECAY   1000037     3.41065720E+01   # chargino2+ decays
#          BR         NDA      ID1       ID2
     2.06994742E-01    2     1000024        23   # BR(~chi_2+ -> ~chi_1+  Z )
     1.33243220E-01    2     1000022        24   # BR(~chi_2+ -> ~chi_10  W+)
     2.02063482E-01    2     1000023        24   # BR(~chi_2+ -> ~chi_20  W+)
     6.85465252E-02    2     1000025        24   # BR(~chi_2+ -> ~chi_30  W+)
     2.07665529E-01    2     1000024        25   # BR(~chi_2+ -> ~chi_1+  h )
     4.52669659E-02    2     1000024        35   # BR(~chi_2+ -> ~chi_1+  H )
     4.55011080E-02    2     1000024        36   # BR(~chi_2+ -> ~chi_1+  A )
     3.25229245E-02    2     1000022        37   # BR(~chi_2+ -> ~chi_10  H+)
     4.51933551E-02    2     1000023        37   # BR(~chi_2+ -> ~chi_20  H+)
     1.29920530E-02    2     1000025        37   # BR(~chi_2+ -> ~chi_30  H+)
     1.00955085E-05    2     1000039        24   # BR(~chi_2+ -> ~G       W+)
     4.08134565E-10    2     1000039        37   # BR(~chi_2+ -> ~G       H+)
#
#         PDG            Width
DECAY   1000022     4.02758518E-10   # neutralino1 decays
#          BR         NDA      ID1       ID2
     5.00727305E-01    2     1000039        22   # BR(~chi_10 -> ~G        gam)
     4.92372766E-01    2     1000039        23   # BR(~chi_10 -> ~G        Z)
     6.89992890E-03    2     1000039        25   # BR(~chi_10 -> ~G        h)
#
#         PDG            Width
DECAY   1000023     1.77543036E-05   # neutralino2 decays
#          BR         NDA      ID1       ID2
     2.18956420E-03    2     1000022        22   # BR(~chi_20 -> ~chi_10 gam)
#          BR         NDA      ID1       ID2
     1.15593128E-08    2     1000039        22   # BR(~chi_20 -> ~G        gam)
     1.14135964E-06    2     1000039        23   # BR(~chi_20 -> ~G        Z)
     1.69608151E-05    2     1000039        25   # BR(~chi_20 -> ~G        h)
#           BR         NDA      ID1       ID2       ID3
     1.20448884E-01    3     1000022        -2         2   # BR(~chi_20 -> ~chi_10 ub      u)
     1.55906137E-01    3     1000022        -1         1   # BR(~chi_20 -> ~chi_10 db      d)
     1.20448884E-01    3     1000022        -4         4   # BR(~chi_20 -> ~chi_10 cb      c)
     1.55906137E-01    3     1000022        -3         3   # BR(~chi_20 -> ~chi_10 sb      s)
     1.25921479E-01    3     1000022        -5         5   # BR(~chi_20 -> ~chi_10 bb      b)
     3.55802415E-02    3     1000022       -11        11   # BR(~chi_20 -> ~chi_10 e+      e-)
     3.55802415E-02    3     1000022       -13        13   # BR(~chi_20 -> ~chi_10 mu+     mu-)
     3.48793061E-02    3     1000022       -15        15   # BR(~chi_20 -> ~chi_10 tau+    tau-)
     7.10382268E-02    3     1000022       -12        12   # BR(~chi_20 -> ~chi_10 nu_eb   nu_e)
     7.10382268E-02    3     1000022       -14        14   # BR(~chi_20 -> ~chi_10 nu_mub  nu_mu)
     7.10382268E-02    3     1000022       -16        16   # BR(~chi_20 -> ~chi_10 nu_taub nu_tau)
     1.18419859E-06    3     1000024        -2         1   # BR(~chi_20 -> ~chi_1+ ub      d)
     1.18419859E-06    3    -1000024        -1         2   # BR(~chi_20 -> ~chi_1- db      u)
     1.18419859E-06    3     1000024        -4         3   # BR(~chi_20 -> ~chi_1+ cb      s)
     1.18419859E-06    3    -1000024        -3         4   # BR(~chi_20 -> ~chi_1- sb      c)
     3.94732928E-07    3     1000024       -12        11   # BR(~chi_20 -> ~chi_1+ nu_eb   e-)
     3.94732928E-07    3    -1000024        12       -11   # BR(~chi_20 -> ~chi_1- nu_e    e+)
     3.94732928E-07    3     1000024       -14        13   # BR(~chi_20 -> ~chi_1+ nu_mub  mu-)
     3.94732928E-07    3    -1000024        14       -13   # BR(~chi_20 -> ~chi_1- nu_mu   mu+)
     8.18661099E-09    3     1000024       -16        15   # BR(~chi_20 -> ~chi_1+ nu_taub tau-)
     8.18661099E-09    3    -1000024        16       -15   # BR(~chi_20 -> ~chi_1- nu_tau  tau+)
#
#         PDG            Width
DECAY   1000025     1.43579508E-05   # neutralino3 decays
#          BR         NDA      ID1       ID2
     9.99749075E-01    2     1000022        23   # BR(~chi_30 -> ~chi_10   Z )
     1.76290479E-04    2     1000039        22   # BR(~chi_30 -> ~G        gam)
     7.33721165E-05    2     1000039        23   # BR(~chi_30 -> ~G        Z)
     1.26191623E-06    2     1000039        25   # BR(~chi_30 -> ~G        h)
#
#         PDG            Width
DECAY   1000035     3.41069442E+01   # neutralino4 decays
#          BR         NDA      ID1       ID2
     3.39807858E-03    2     1000022        23   # BR(~chi_40 -> ~chi_10   Z )
     2.01543235E-01    2     1000023        23   # BR(~chi_40 -> ~chi_20   Z )
     2.20458293E-03    2     1000025        23   # BR(~chi_40 -> ~chi_30   Z )
     2.01744299E-01    2     1000024       -24   # BR(~chi_40 -> ~chi_1+   W-)
     2.01744299E-01    2    -1000024        24   # BR(~chi_40 -> ~chi_1-   W+)
     1.33811808E-01    2     1000022        25   # BR(~chi_40 -> ~chi_10   h )
     2.26870505E-03    2     1000022        35   # BR(~chi_40 -> ~chi_10   H )
     3.02291322E-02    2     1000022        36   # BR(~chi_40 -> ~chi_10   A )
     5.68849216E-03    2     1000023        25   # BR(~chi_40 -> ~chi_20   h )
     4.20885614E-02    2     1000023        35   # BR(~chi_40 -> ~chi_20   H )
     3.02337055E-03    2     1000023        36   # BR(~chi_40 -> ~chi_20   A )
     6.83807354E-02    2     1000025        25   # BR(~chi_40 -> ~chi_30   h )
     7.74657384E-04    2     1000025        35   # BR(~chi_40 -> ~chi_30   H )
     1.22107799E-02    2     1000025        36   # BR(~chi_40 -> ~chi_30   A )
     4.54395843E-02    2     1000024       -37   # BR(~chi_40 -> ~chi_1+   H-)
     4.54395843E-02    2    -1000024        37   # BR(~chi_40 -> ~chi_1-   H+)
     2.42029433E-06    2     1000039        22   # BR(~chi_40 -> ~G        gam)
     7.67439958E-06    2     1000039        23   # BR(~chi_40 -> ~G        Z)
     4.77964621E-10    2     1000039        25   # BR(~chi_40 -> ~G        h)
     4.06213456E-10    2     1000039        35   # BR(~chi_40 -> ~G        H)
     4.44165597E-13    2     1000039        36   # BR(~chi_40 -> ~G        A)
#
#         PDG            Width
DECAY        25     4.21706553E-03   # h decays
#          BR         NDA      ID1       ID2
     6.01633739E-01    2           5        -5   # BR(h -> b       bb     )
     6.22591637E-02    2         -15        15   # BR(h -> tau+    tau-   )
     2.20370296E-04    2         -13        13   # BR(h -> mu+     mu-    )
     4.66260762E-04    2           3        -3   # BR(h -> s       sb     )
     2.01148183E-02    2           4        -4   # BR(h -> c       cb     )
     6.64283210E-02    2          21        21   # BR(h -> g       g      )
     2.31873944E-03    2          22        22   # BR(h -> gam     gam    )
     1.62693218E-03    2          22        23   # BR(h -> Z       gam    )
     2.16842094E-01    2          24       -24   # BR(h -> W+      W-     )
     2.80895617E-02    2          23        23   # BR(h -> Z       Z      )
#
#         PDG            Width
DECAY        35     4.01154536E+01   # H decays
#          BR         NDA      ID1       ID2
     1.39003001E-03    2           5        -5   # BR(H -> b       bb     )
     2.32282337E-04    2         -15        15   # BR(H -> tau+    tau-   )
     8.21204540E-07    2         -13        13   # BR(H -> mu+     mu-    )
     1.05143004E-06    2           3        -3   # BR(H -> s       sb     )
     9.48915114E-06    2           4        -4   # BR(H -> c       cb     )
     9.38911757E-01    2           6        -6   # BR(H -> t       tb     )
     7.51943629E-04    2          21        21   # BR(H -> g       g      )
     2.63840237E-06    2          22        22   # BR(H -> gam     gam    )
     1.09241325E-06    2          23        22   # BR(H -> Z       gam    )
     3.17491552E-04    2          24       -24   # BR(H -> W+      W-     )
     1.58312724E-04    2          23        23   # BR(H -> Z       Z      )
     8.53013010E-04    2          25        25   # BR(H -> h       h      )
     8.49064833E-24    2          36        36   # BR(H -> A       A      )
     3.38918949E-11    2          23        36   # BR(H -> Z       A      )
     2.59199820E-12    2          24       -37   # BR(H -> W+      H-     )
     2.59199820E-12    2         -24        37   # BR(H -> W-      H+     )
     7.23226811E-05    2     1000024  -1000024   # BR(H -> ~chi_1+ ~chi_1-)
     1.15134864E-03    2     1000022   1000022   # BR(H -> ~chi_10 ~chi_10)
     5.93507336E-05    2     1000023   1000023   # BR(H -> ~chi_20 ~chi_20)
     6.01991445E-04    2     1000025   1000025   # BR(H -> ~chi_30 ~chi_30)
     1.96766449E-02    2     1000022   1000023   # BR(H -> ~chi_10 ~chi_20)
     3.32425316E-04    2     1000022   1000025   # BR(H -> ~chi_10 ~chi_30)
     3.54759935E-02    2     1000023   1000025   # BR(H -> ~chi_20 ~chi_30)
#
#         PDG            Width
DECAY        36     4.05622113E+01   # A decays
#          BR         NDA      ID1       ID2
     1.39290642E-03    2           5        -5   # BR(A -> b       bb     )
     2.29923766E-04    2         -15        15   # BR(A -> tau+    tau-   )
     8.12863573E-07    2         -13        13   # BR(A -> mu+     mu-    )
     1.07164327E-06    2           3        -3   # BR(A -> s       sb     )
     9.39101229E-06    2           4        -4   # BR(A -> c       cb     )
     9.39873785E-01    2           6        -6   # BR(A -> t       tb     )
     8.89608393E-04    2          21        21   # BR(A -> g       g      )
     2.66245703E-06    2          22        22   # BR(A -> gam     gam    )
     1.27397251E-06    2          23        22   # BR(A -> Z       gam    )
     3.09379501E-04    2          23        25   # BR(A -> Z       h      )
     6.12194711E-04    2     1000024  -1000024   # BR(A -> ~chi_1+ ~chi_1-)
     2.74281043E-02    2     1000022   1000022   # BR(A -> ~chi_10 ~chi_10)
     2.47856207E-06    2     1000023   1000023   # BR(A -> ~chi_20 ~chi_20)
     2.11554432E-02    2     1000025   1000025   # BR(A -> ~chi_30 ~chi_30)
     4.99476679E-04    2     1000022   1000023   # BR(A -> ~chi_10 ~chi_20)
     6.13224187E-03    2     1000022   1000025   # BR(A -> ~chi_10 ~chi_30)
     1.45924587E-03    2     1000023   1000025   # BR(A -> ~chi_20 ~chi_30)
#
#         PDG            Width
DECAY        37     3.97574450E+01   # H+ decays
#          BR         NDA      ID1       ID2
     2.23493783E-06    2           4        -5   # BR(H+ -> c       bb     )
     2.34822175E-04    2         -15        16   # BR(H+ -> tau+    nu_tau )
     8.30181215E-07    2         -13        14   # BR(H+ -> mu+     nu_mu  )
     1.42094966E-08    2           2        -5   # BR(H+ -> u       bb     )
     5.14112470E-08    2           2        -3   # BR(H+ -> u       sb     )
     1.02438847E-05    2           4        -3   # BR(H+ -> c       sb     )
     9.41573228E-01    2           6        -5   # BR(H+ -> t       bb     )
     3.17080991E-04    2          24        25   # BR(H+ -> W+      h      )
     1.29683746E-12    2          24        36   # BR(H+ -> W+      A      )
     1.79093950E-02    2     1000024   1000022   # BR(H+ -> ~chi_1+ ~chi_10)
     1.30729874E-04    2     1000024   1000023   # BR(H+ -> ~chi_1+ ~chi_20)
     3.98213691E-02    2     1000024   1000025   # BR(H+ -> ~chi_1+ ~chi_30)
