#
#                              ======================
#                              | THE SUSYHIT OUTPUT |
#                              ======================
#
#
#              ------------------------------------------------------
#              |     This is the output of the SUSY-HIT package     |
#              |  created by A.Djouadi, M.Muehlleitner and M.Spira. |
#              |  In case of problems with SUSY-HIT email to        |
#              |           margarete.muehlleitner@kit.edu           |
#              |           michael.spira@psi.ch                     |
#              |           abdelhak.djouadi@cern.ch                 |
#              ------------------------------------------------------
#
#              ------------------------------------------------------
#              |  SUSY Les Houches Accord - MSSM Spectrum + Decays  |
#              |              based on the decay programs           |
#              |                                                    |
#              |                     SDECAY 1.5                     |
#              |                                                    |
#              |  Authors: M.Muhlleitner, A.Djouadi and Y.Mambrini  |
#              |  Ref.:    Comput.Phys.Commun.168(2005)46           |
#              |           [hep-ph/0311167]                         |
#              |                                                    |
#              |                     HDECAY 3.4                     |
#              |                                                    |
#              |  By: A.Djouadi,J.Kalinowski,M.Muhlleitner,M.Spira  |
#              |  Ref.:    Comput.Phys.Commun.108(1998)56           |
#              |           [hep-ph/9704448]                         |
#              |                                                    |
#              |                                                    |
#              |  If not stated otherwise all DRbar couplings and   |
#              |  soft SUSY breaking masses are given at the scale  |
#              |  Q=  0.91187600E+02
#              |                                                    |
#              ------------------------------------------------------
#
#
BLOCK DCINFO  # Decay Program information
     1   SDECAY/HDECAY # decay calculator
     2   1.5  /3.4    # version number
#
BLOCK SPINFO  # Spectrum calculator information
     1   SuSpect     # RGE +Spectrum calculator            
     2   2.43         # version number                     
#
BLOCK MODSEL  # Model selection
     1     2   # GMSB                                              
#
BLOCK SMINPUTS  # Standard Model inputs
         1     1.27932904E+02   # alpha_em^-1(M_Z)^MSbar
         2     1.16639000E-05   # G_F [GeV^-2]
         3     1.17200000E-01   # alpha_S(M_Z)^MSbar
         4     9.11870000E+01   # M_Z pole mass
         5     4.25000000E+00   # mb(mb)^MSbar
         6     1.72900000E+02   # mt pole mass
         7     1.77700000E+00   # mtau pole mass
#
BLOCK MINPAR  # Input parameters - minimal models
#
BLOCK EXTPAR  # Input parameters - non-minimal models
         0     9.11876000E+01   # EWSB                
         1     4.63000000E+02   # M_1                 
         2     3.00000000E+03   # M_2                 
         3     1.10000000E+03   # M_3                 
        11     0.00000000E+00   # A_t                 
        12     0.00000000E+00   # A_b                 
        13     0.00000000E+00   # A_tau               
        14     0.00000000E+00   # A_u                 
        15     0.00000000E+00   # A_d                 
        16     0.00000000E+00   # A_e                 
        23     4.50000000E+02   # mu(EWSB)            
        25     1.50000000E+00   # tanbeta(in)         
        26     2.00000000E+03   # MA_pole             
        31     5.00000000E+03   # M_eL                
        32     5.00000000E+03   # M_muL               
        33     5.00000000E+03   # M_tauL              
        34     5.00000000E+03   # M_eR                
        35     5.00000000E+03   # M_muR               
        36     5.00000000E+03   # M_tauR              
        41     5.00000000E+03   # M_q1L               
        42     5.00000000E+03   # M_q2L               
        43     5.00000000E+03   # M_q3L               
        44     5.00000000E+03   # M_uR                
        45     5.00000000E+03   # M_cR                
        46     5.00000000E+03   # M_tR                
        47     5.00000000E+03   # M_dR                
        48     5.00000000E+03   # M_sR                
        49     5.00000000E+03   # M_bR                
#
BLOCK MASS  # Mass Spectrum
# PDG code           mass       particle
        24     8.05385993E+01   # W+
        25     1.26000000E+02   # h
        35     2.00418993E+03   # H
        36     2.00000000E+03   # A
        37     2.00203631E+03   # H+
         5     4.87877839E+00   # b-quark pole mass calculated from mb(mb)_Msbar
   1000001     5.01677097E+03   # ~d_L
   2000001     5.01666165E+03   # ~d_R
   1000002     5.01652663E+03   # ~u_L
   2000002     5.01658454E+03   # ~u_R
   1000003     5.01677097E+03   # ~s_L
   2000003     5.01666165E+03   # ~s_R
   1000004     5.01652663E+03   # ~c_L
   2000004     5.01658454E+03   # ~c_R
   1000005     5.01652498E+03   # ~b_1
   2000005     5.01690910E+03   # ~b_2
   1000006     5.14520477E+03   # ~t_1
   2000006     5.44201205E+03   # ~t_2
   1000011     5.00008241E+03   # ~e_L
   2000011     5.00007600E+03   # ~e_R
   1000012     4.99984158E+03   # ~nu_eL
   1000013     5.00008241E+03   # ~mu_L
   2000013     5.00007600E+03   # ~mu_R
   1000014     4.99984158E+03   # ~nu_muL
   1000015     4.99995950E+03   # ~tau_1
   2000015     5.00019955E+03   # ~tau_2
   1000016     4.99984158E+03   # ~nu_tauL
   1000021     1.24136418E+03   # ~g
   1000022     4.42335353E+02   # ~chi_10
   1000023    -4.84137407E+02   # ~chi_20
   1000025     5.29909883E+02   # ~chi_30
   1000035     3.12901580E+03   # ~chi_40
   1000024     4.81782547E+02   # ~chi_1+
   1000037     3.12901524E+03   # ~chi_2+
   1000039     1.52142857E-08   # ~gravitino
#
BLOCK NMIX  # Neutralino Mixing Matrix
  1  1     6.70555036E-01   # N_11
  1  2    -2.13959709E-02   # N_12
  1  3     5.29050514E-01   # N_13
  1  4    -5.19618812E-01   # N_14
  2  1     8.97832367E-03   # N_21
  2  2    -4.31376574E-03   # N_22
  2  3    -7.06541182E-01   # N_23
  2  4    -7.07601822E-01   # N_24
  3  1     7.41805288E-01   # N_31
  3  2     2.00651472E-02   # N_32
  3  3    -4.69671903E-01   # N_33
  3  4     4.78257889E-01   # N_34
  4  1     4.98745160E-04   # N_41
  4  2    -9.99560400E-01   # N_42
  4  3    -1.77035146E-02   # N_43
  4  4     2.37769448E-02   # N_44
#
BLOCK UMIX  # Chargino Mixing Matrix U
  1  1    -2.50275811E-02   # U_11
  1  2     9.99686761E-01   # U_12
  2  1     9.99686761E-01   # U_21
  2  2     2.50275811E-02   # U_22
#
BLOCK VMIX  # Chargino Mixing Matrix V
  1  1    -3.36197191E-02   # V_11
  1  2     9.99434697E-01   # V_12
  2  1     9.99434697E-01   # V_21
  2  2     3.36197191E-02   # V_22
#
BLOCK STOPMIX  # Stop Mixing Matrix
  1  1     9.99952704E-01   # cos(theta_t)
  1  2    -9.72572687E-03   # sin(theta_t)
  2  1     9.72572687E-03   # -sin(theta_t)
  2  2     9.99952704E-01   # cos(theta_t)
#
BLOCK SBOTMIX  # Sbottom Mixing Matrix
  1  1     5.98082802E-01   # cos(theta_b)
  1  2     8.01434315E-01   # sin(theta_b)
  2  1    -8.01434315E-01   # -sin(theta_b)
  2  2     5.98082802E-01   # cos(theta_b)
#
BLOCK STAUMIX  # Stau Mixing Matrix
  1  1     6.97597797E-01   # cos(theta_tau)
  1  2     7.16489577E-01   # sin(theta_tau)
  2  1    -7.16489577E-01   # -sin(theta_tau)
  2  2     6.97597797E-01   # cos(theta_tau)
#
BLOCK ALPHA  # Higgs mixing
          -5.90199645E-01   # Mixing angle in the neutral Higgs boson sector
#
BLOCK HMIX Q=  9.11876000E+01  # DRbar Higgs Parameters
         1     4.50000000E+02   # mu(Q)               
         2     1.49999979E+00   # tanbeta(Q)          
         3     2.51885696E+02   # vev(Q)              
         4     3.77429481E+06   # MA^2(Q)             
#
BLOCK GAUGE Q=  9.11876000E+01  # The gauge couplings
     1     3.52960452E-01   # gprime(Q) DRbar
     2     6.28304989E-01   # g(Q) DRbar
     3     1.09013012E+00   # g3(Q) DRbar
#
BLOCK AU Q=  9.11876000E+01  # The trilinear couplings
  1  1     0.00000000E+00   # A_u(Q) DRbar
  2  2     0.00000000E+00   # A_c(Q) DRbar
  3  3     0.00000000E+00   # A_t(Q) DRbar
#
BLOCK AD Q=  9.11876000E+01  # The trilinear couplings
  1  1     0.00000000E+00   # A_d(Q) DRbar
  2  2     0.00000000E+00   # A_s(Q) DRbar
  3  3     0.00000000E+00   # A_b(Q) DRbar
#
BLOCK AE Q=  9.11876000E+01  # The trilinear couplings
  1  1     0.00000000E+00   # A_e(Q) DRbar
  2  2     0.00000000E+00   # A_mu(Q) DRbar
  3  3     0.00000000E+00   # A_tau(Q) DRbar
#
BLOCK Yu Q=  9.11876000E+01  # The Yukawa couplings
  1  1     0.00000000E+00   # y_u(Q) DRbar
  2  2     0.00000000E+00   # y_c(Q) DRbar
  3  3     1.02572394E+00   # y_t(Q) DRbar
#
BLOCK Yd Q=  9.11876000E+01  # The Yukawa couplings
  1  1     0.00000000E+00   # y_d(Q) DRbar
  2  2     0.00000000E+00   # y_s(Q) DRbar
  3  3     2.72123861E-02   # y_b(Q) DRbar
#
BLOCK Ye Q=  9.11876000E+01  # The Yukawa couplings
  1  1     0.00000000E+00   # y_e(Q) DRbar
  2  2     0.00000000E+00   # y_mu(Q) DRbar
  3  3     1.79917089E-02   # y_tau(Q) DRbar
#
BLOCK MSOFT Q=  9.11876000E+01  # The soft SUSY breaking masses at the scale Q
         1     4.63000000E+02   # M_1                 
         2     3.00000000E+03   # M_2                 
         3     1.10000000E+03   # M_3                 
        14     0.00000000E+00   # A_u                 
        15     0.00000000E+00   # A_d                 
        16     0.00000000E+00   # A_e                 
        21     2.83471511E+06   # M^2_Hd              
        22    -5.68252804E+06   # M^2_Hu              
        31     5.00000000E+03   # M_eL                
        32     5.00000000E+03   # M_muL               
        33     5.00000000E+03   # M_tauL              
        34     5.00000000E+03   # M_eR                
        35     5.00000000E+03   # M_muR               
        36     5.00000000E+03   # M_tauR              
        41     5.00000000E+03   # M_q1L               
        42     5.00000000E+03   # M_q2L               
        43     5.00000000E+03   # M_q3L               
        44     5.00000000E+03   # M_uR                
        45     5.00000000E+03   # M_cR                
        46     5.00000000E+03   # M_tR                
        47     5.00000000E+03   # M_dR                
        48     5.00000000E+03   # M_sR                
        49     5.00000000E+03   # M_bR                
#
#
#
#                             =================
#                             |The decay table|
#                             =================
#
# - The QCD corrections to the decays gluino -> squark  + quark
#                                     squark -> gaugino + quark_prime
#                                     squark -> squark_prime + Higgs
#                                     squark -> gluino  + quark
#   are included.
#
# - The multi-body decays for the inos, stops and sbottoms are included.
#
# - The loop induced decays for the gluino, neutralinos and stops
#   are included.
#
# - The SUSY decays of the top quark are included.
#
# - Possible decays of the NLSP in GMSB models are included.
#
#
#         PDG            Width
DECAY         6     1.37553340E+00   # top decays
#          BR         NDA      ID1       ID2
     1.00000000E+00    2           5        24   # BR(t ->  b    W+)
#
#         PDG            Width
DECAY   1000021     8.94788527E-05   # gluino decays
#          BR         NDA      ID1       ID2
     2.52841601E-02    2     1000022        21   # BR(~g -> ~chi_10 g)
     4.27646585E-02    2     1000023        21   # BR(~g -> ~chi_20 g)
     1.71577265E-02    2     1000025        21   # BR(~g -> ~chi_30 g)
#          BR         NDA      ID1       ID2
     1.63854703E-04    2     1000039        21   # BR(~g -> ~G      g)
#           BR         NDA      ID1       ID2       ID3
     6.44527957E-03    3     1000022         1        -1   # BR(~g -> ~chi_10 d  db)
     1.26934714E-06    3     1000023         1        -1   # BR(~g -> ~chi_20 d  db)
     4.78335303E-03    3     1000025         1        -1   # BR(~g -> ~chi_30 d  db)
     2.00322663E-02    3     1000022         2        -2   # BR(~g -> ~chi_10 u  ub)
     1.40142684E-06    3     1000023         2        -2   # BR(~g -> ~chi_20 u  ub)
     1.74991640E-02    3     1000025         2        -2   # BR(~g -> ~chi_30 u  ub)
     6.44527957E-03    3     1000022         3        -3   # BR(~g -> ~chi_10 s  sb)
     1.26934714E-06    3     1000023         3        -3   # BR(~g -> ~chi_20 s  sb)
     4.78335303E-03    3     1000025         3        -3   # BR(~g -> ~chi_30 s  sb)
     2.00322663E-02    3     1000022         4        -4   # BR(~g -> ~chi_10 c  cb)
     1.40142684E-06    3     1000023         4        -4   # BR(~g -> ~chi_20 c  cb)
     1.74991640E-02    3     1000025         4        -4   # BR(~g -> ~chi_30 c  cb)
     6.56367123E-03    3     1000022         5        -5   # BR(~g -> ~chi_10 b  bb)
     2.58298693E-04    3     1000023         5        -5   # BR(~g -> ~chi_20 b  bb)
     4.90635160E-03    3     1000025         5        -5   # BR(~g -> ~chi_30 b  bb)
     1.06460147E-01    3     1000022         6        -6   # BR(~g -> ~chi_10 t  tb)
     1.41215088E-01    3     1000023         6        -6   # BR(~g -> ~chi_20 t  tb)
     8.35210900E-02    3     1000025         6        -6   # BR(~g -> ~chi_30 t  tb)
     1.12870095E-04    3     1000024         1        -2   # BR(~g -> ~chi_1+ d  ub)
     1.12870095E-04    3    -1000024         2        -1   # BR(~g -> ~chi_1- u  db)
     1.12870095E-04    3     1000024         3        -4   # BR(~g -> ~chi_1+ s  cb)
     1.12870095E-04    3    -1000024         4        -3   # BR(~g -> ~chi_1- c  sb)
     2.36864003E-01    3     1000024         5        -6   # BR(~g -> ~chi_1+ b  tb)
     2.36864003E-01    3    -1000024         6        -5   # BR(~g -> ~chi_1- t  bb)
#
#         PDG            Width
DECAY   1000006     3.36198115E+02   # stop1 decays
#          BR         NDA      ID1       ID2
     5.78710839E-02    2     1000022         6   # BR(~t_1 -> ~chi_10 t )
     1.07966382E-01    2     1000023         6   # BR(~t_1 -> ~chi_20 t )
     5.16975381E-02    2     1000025         6   # BR(~t_1 -> ~chi_30 t )
     2.32090511E-02    2     1000035         6   # BR(~t_1 -> ~chi_40 t )
     1.00564971E-04    2     1000024         5   # BR(~t_1 -> ~chi_1+ b )
     4.62444709E-02    2     1000037         5   # BR(~t_1 -> ~chi_2+ b )
     6.97703195E-01    2     1000021         6   # BR(~t_1 -> ~g      t )
     5.49099360E-03    2     1000005        24   # BR(~t_1 -> ~b_1    W+)
     9.71672002E-03    2     2000005        24   # BR(~t_1 -> ~b_2    W+)
#
#         PDG            Width
DECAY   2000006     4.13983835E+02   # stop2 decays
#          BR         NDA      ID1       ID2
     6.36628794E-02    2     1000022         6   # BR(~t_2 -> ~chi_10 t )
     9.32422426E-02    2     1000023         6   # BR(~t_2 -> ~chi_20 t )
     5.67499787E-02    2     1000025         6   # BR(~t_2 -> ~chi_30 t )
    -1.20471629E-06    2     1000035         6   # BR(~t_2 -> ~chi_40 t )
     1.86552490E-01    2     1000024         5   # BR(~t_2 -> ~chi_1+ b )
    -2.21022536E-06    2     1000037         5   # BR(~t_2 -> ~chi_2+ b )
     5.99745666E-01    2     1000021         6   # BR(~t_2 -> ~g      t )
    -3.46777990E-05    2     1000006        25   # BR(~t_2 -> ~t_1    h )
     1.23628848E-05    2     1000006        23   # BR(~t_2 -> ~t_1    Z )
     2.59449056E-05    2     1000005        24   # BR(~t_2 -> ~b_1    W+)
     4.65279578E-05    2     2000005        24   # BR(~t_2 -> ~b_2    W+)
#
#         PDG            Width
DECAY   1000005     2.49289195E+02   # sbottom1 decays
#          BR         NDA      ID1       ID2
     4.79798477E-03    2     1000022         5   # BR(~b_1 -> ~chi_10 b )
     7.90022581E-05    2     1000023         5   # BR(~b_1 -> ~chi_20 b )
     4.07407154E-03    2     1000025         5   # BR(~b_1 -> ~chi_30 b )
     6.63731586E-03    2     1000035         5   # BR(~b_1 -> ~chi_40 b )
     5.19772320E-02    2    -1000024         6   # BR(~b_1 -> ~chi_1- t )
     1.33191656E-02    2    -1000037         6   # BR(~b_1 -> ~chi_2- t )
     9.19115228E-01    2     1000021         5   # BR(~b_1 -> ~g      b )
#
#         PDG            Width
DECAY   2000005     3.04437893E+02   # sbottom2 decays
#          BR         NDA      ID1       ID2
     1.37708467E-03    2     1000022         5   # BR(~b_2 -> ~chi_10 b )
     1.02641676E-04    2     1000023         5   # BR(~b_2 -> ~chi_20 b )
     2.32095679E-03    2     1000025         5   # BR(~b_2 -> ~chi_30 b )
     1.79522560E-02    2     1000035         5   # BR(~b_2 -> ~chi_40 b )
     1.89741568E-01    2    -1000024         6   # BR(~b_2 -> ~chi_1- t )
     3.60411317E-02    2    -1000037         6   # BR(~b_2 -> ~chi_2- t )
     7.52464361E-01    2     1000021         5   # BR(~b_2 -> ~g      b )
#
#         PDG            Width
DECAY   1000002     2.51154716E+02   # sup_L decays
#          BR         NDA      ID1       ID2
     8.09953797E-04    2     1000022         2   # BR(~u_L -> ~chi_10 u)
     5.15693184E-07    2     1000023         2   # BR(~u_L -> ~chi_20 u)
     1.87361482E-03    2     1000025         2   # BR(~u_L -> ~chi_30 u)
     2.83323701E-02    2     1000035         2   # BR(~u_L -> ~chi_40 u)
     1.68245213E-04    2     1000024         1   # BR(~u_L -> ~chi_1+ d)
     5.66611023E-02    2     1000037         1   # BR(~u_L -> ~chi_2+ d)
     9.12154198E-01    2     1000021         2   # BR(~u_L -> ~g      u)
#
#         PDG            Width
DECAY   2000002     2.39573679E+02   # sup_R decays
#          BR         NDA      ID1       ID2
     1.97400194E-02    2     1000022         2   # BR(~u_R -> ~chi_10 u)
     3.52803138E-06    2     1000023         2   # BR(~u_R -> ~chi_20 u)
     2.39946263E-02    2     1000025         2   # BR(~u_R -> ~chi_30 u)
     4.14965353E-09    2     1000035         2   # BR(~u_R -> ~chi_40 u)
     9.56261822E-01    2     1000021         2   # BR(~u_R -> ~g      u)
#
#         PDG            Width
DECAY   1000001     2.51157900E+02   # sdown_L decays
#          BR         NDA      ID1       ID2
     1.61214220E-03    2     1000022         1   # BR(~d_L -> ~chi_10 d)
     2.67449349E-06    2     1000023         1   # BR(~d_L -> ~chi_20 d)
     1.04711355E-03    2     1000025         1   # BR(~d_L -> ~chi_30 d)
     2.83474706E-02    2     1000035         1   # BR(~d_L -> ~chi_40 d)
     9.32414070E-05    2    -1000024         2   # BR(~d_L -> ~chi_1- u)
     5.66987065E-02    2    -1000037         2   # BR(~d_L -> ~chi_2- u)
     9.12198651E-01    2     1000021         1   # BR(~d_L -> ~g      d)
#
#         PDG            Width
DECAY   2000001     2.31719274E+02   # sdown_R decays
#          BR         NDA      ID1       ID2
     5.10236398E-03    2     1000022         1   # BR(~d_R -> ~chi_10 d)
     9.11919161E-07    2     1000023         1   # BR(~d_R -> ~chi_20 d)
     6.20208825E-03    2     1000025         1   # BR(~d_R -> ~chi_30 d)
     1.07263591E-09    2     1000035         1   # BR(~d_R -> ~chi_40 d)
     9.88694635E-01    2     1000021         1   # BR(~d_R -> ~g      d)
#
#         PDG            Width
DECAY   1000004     2.51154716E+02   # scharm_L decays
#          BR         NDA      ID1       ID2
     8.09953797E-04    2     1000022         4   # BR(~c_L -> ~chi_10 c)
     5.15693184E-07    2     1000023         4   # BR(~c_L -> ~chi_20 c)
     1.87361482E-03    2     1000025         4   # BR(~c_L -> ~chi_30 c)
     2.83323701E-02    2     1000035         4   # BR(~c_L -> ~chi_40 c)
     1.68245213E-04    2     1000024         3   # BR(~c_L -> ~chi_1+ s)
     5.66611023E-02    2     1000037         3   # BR(~c_L -> ~chi_2+ s)
     9.12154198E-01    2     1000021         4   # BR(~c_L -> ~g      c)
#
#         PDG            Width
DECAY   2000004     2.39573679E+02   # scharm_R decays
#          BR         NDA      ID1       ID2
     1.97400194E-02    2     1000022         4   # BR(~c_R -> ~chi_10 c)
     3.52803138E-06    2     1000023         4   # BR(~c_R -> ~chi_20 c)
     2.39946263E-02    2     1000025         4   # BR(~c_R -> ~chi_30 c)
     4.14965353E-09    2     1000035         4   # BR(~c_R -> ~chi_40 c)
     9.56261822E-01    2     1000021         4   # BR(~c_R -> ~g      c)
#
#         PDG            Width
DECAY   1000003     2.51157900E+02   # sstrange_L decays
#          BR         NDA      ID1       ID2
     1.61214220E-03    2     1000022         3   # BR(~s_L -> ~chi_10 s)
     2.67449349E-06    2     1000023         3   # BR(~s_L -> ~chi_20 s)
     1.04711355E-03    2     1000025         3   # BR(~s_L -> ~chi_30 s)
     2.83474706E-02    2     1000035         3   # BR(~s_L -> ~chi_40 s)
     9.32414070E-05    2    -1000024         4   # BR(~s_L -> ~chi_1- c)
     5.66987065E-02    2    -1000037         4   # BR(~s_L -> ~chi_2- c)
     9.12198651E-01    2     1000021         3   # BR(~s_L -> ~g      s)
#
#         PDG            Width
DECAY   2000003     2.31719274E+02   # sstrange_R decays
#          BR         NDA      ID1       ID2
     5.10236398E-03    2     1000022         3   # BR(~s_R -> ~chi_10 s)
     9.11919161E-07    2     1000023         3   # BR(~s_R -> ~chi_20 s)
     6.20208825E-03    2     1000025         3   # BR(~s_R -> ~chi_30 s)
     1.07263591E-09    2     1000035         3   # BR(~s_R -> ~chi_40 s)
     9.88694635E-01    2     1000021         3   # BR(~s_R -> ~g      s)
#
#         PDG            Width
DECAY   1000011     2.79086718E+01   # selectron_L decays
#          BR         NDA      ID1       ID2
     8.74264767E-02    2     1000022        11   # BR(~e_L -> ~chi_10 e-)
     3.67863262E-07    2     1000023        11   # BR(~e_L -> ~chi_20 e-)
     1.31221800E-01    2     1000025        11   # BR(~e_L -> ~chi_30 e-)
     2.60020944E-01    2     1000035        11   # BR(~e_L -> ~chi_40 e-)
     8.65057598E-04    2    -1000024        12   # BR(~e_L -> ~chi_1- nu_e)
     5.20465354E-01    2    -1000037        12   # BR(~e_L -> ~chi_2- nu_e)
#
#         PDG            Width
DECAY   2000011     2.43065482E+01   # selectron_R decays
#          BR         NDA      ID1       ID2
     4.51346345E-01    2     1000022        11   # BR(~e_R -> ~chi_10 e-)
     8.06630039E-05    2     1000023        11   # BR(~e_R -> ~chi_20 e-)
     5.48572898E-01    2     1000025        11   # BR(~e_R -> ~chi_30 e-)
     9.38806513E-08    2     1000035        11   # BR(~e_R -> ~chi_40 e-)
#
#         PDG            Width
DECAY   1000013     2.79086718E+01   # smuon_L decays
#          BR         NDA      ID1       ID2
     8.74264767E-02    2     1000022        13   # BR(~mu_L -> ~chi_10 mu-)
     3.67863262E-07    2     1000023        13   # BR(~mu_L -> ~chi_20 mu-)
     1.31221800E-01    2     1000025        13   # BR(~mu_L -> ~chi_30 mu-)
     2.60020944E-01    2     1000035        13   # BR(~mu_L -> ~chi_40 mu-)
     8.65057598E-04    2    -1000024        14   # BR(~mu_L -> ~chi_1- nu_mu)
     5.20465354E-01    2    -1000037        14   # BR(~mu_L -> ~chi_2- nu_mu)
#
#         PDG            Width
DECAY   2000013     2.43065482E+01   # smuon_R decays
#          BR         NDA      ID1       ID2
     4.51346345E-01    2     1000022        13   # BR(~mu_R -> ~chi_10 mu-)
     8.06630039E-05    2     1000023        13   # BR(~mu_R -> ~chi_20 mu-)
     5.48572898E-01    2     1000025        13   # BR(~mu_R -> ~chi_30 mu-)
     9.38806513E-08    2     1000035        13   # BR(~mu_R -> ~chi_40 mu-)
#
#         PDG            Width
DECAY   1000015     2.61337195E+01   # stau_1 decays
#          BR         NDA      ID1       ID2
     2.67588001E-01    2     1000022        15   # BR(~tau_1 -> ~chi_10  tau-)
     4.44983638E-04    2     1000023        15   # BR(~tau_1 -> ~chi_20  tau-)
     3.24858646E-01    2     1000025        15   # BR(~tau_1 -> ~chi_30  tau-)
     1.34920467E-01    2     1000035        15   # BR(~tau_1 -> ~chi_40  tau-)
     2.12621693E-03    2    -1000024        16   # BR(~tau_1 -> ~chi_1-  nu_tau)
     2.70061091E-01    2    -1000037        16   # BR(~tau_1 -> ~chi_2-  nu_tau)
     5.94722650E-07    2     1000039        15   # BR(~tau_1 -> ~G       tau-)
#
#         PDG            Width
DECAY   2000015     2.61762998E+01   # stau_2 decays
#          BR         NDA      ID1       ID2
     2.45843426E-01    2     1000022        15   # BR(~tau_2 -> ~chi_10  tau-)
     8.36237491E-04    2     1000023        15   # BR(~tau_2 -> ~chi_20  tau-)
     3.25496341E-01    2     1000025        15   # BR(~tau_2 -> ~chi_30  tau-)
     1.42528951E-01    2     1000035        15   # BR(~tau_2 -> ~chi_40  tau-)
     6.11388417E-06    2    -1000024        16   # BR(~tau_2 -> ~chi_1-  nu_tau)
     2.85288931E-01    2    -1000037        16   # BR(~tau_2 -> ~chi_2-  nu_tau)
#
#         PDG            Width
DECAY   1000012     2.79076268E+01   # snu_eL decays
#          BR         NDA      ID1       ID2
     1.09752456E-01    2     1000022        12   # BR(~nu_eL -> ~chi_10 nu_e)
     6.04519368E-05    2     1000023        12   # BR(~nu_eL -> ~chi_20 nu_e)
     1.08215737E-01    2     1000025        12   # BR(~nu_eL -> ~chi_30 nu_e)
     2.60277570E-01    2     1000035        12   # BR(~nu_eL -> ~chi_40 nu_e)
     1.56095359E-03    2     1000024        11   # BR(~nu_eL -> ~chi_1+ e-)
     5.20132831E-01    2     1000037        11   # BR(~nu_eL -> ~chi_2+ e-)
#
#         PDG            Width
DECAY   1000014     2.79076268E+01   # snu_muL decays
#          BR         NDA      ID1       ID2
     1.09752456E-01    2     1000022        14   # BR(~nu_muL -> ~chi_10 nu_mu)
     6.04519368E-05    2     1000023        14   # BR(~nu_muL -> ~chi_20 nu_mu)
     1.08215737E-01    2     1000025        14   # BR(~nu_muL -> ~chi_30 nu_mu)
     2.60277570E-01    2     1000035        14   # BR(~nu_muL -> ~chi_40 nu_mu)
     1.56095359E-03    2     1000024        13   # BR(~nu_muL -> ~chi_1+ mu-)
     5.20132831E-01    2     1000037        13   # BR(~nu_muL -> ~chi_2+ mu-)
#
#         PDG            Width
DECAY   1000016     2.79392176E+01   # snu_tauL decays
#          BR         NDA      ID1       ID2
     1.09628359E-01    2     1000022        16   # BR(~nu_tauL -> ~chi_10 nu_tau)
     6.03835838E-05    2     1000023        16   # BR(~nu_tauL -> ~chi_20 nu_tau)
     1.08093377E-01    2     1000025        16   # BR(~nu_tauL -> ~chi_30 nu_tau)
     2.59983274E-01    2     1000035        16   # BR(~nu_tauL -> ~chi_40 nu_tau)
     2.68943050E-03    2     1000024        15   # BR(~nu_tauL -> ~chi_1+ tau-)
     5.19545175E-01    2     1000037        15   # BR(~nu_tauL -> ~chi_2+ tau-)
#
#         PDG            Width
DECAY   1000024     6.05319253E-05   # chargino1+ decays
#          BR         NDA      ID1       ID2
     9.56657816E-07    2     1000039        24   # BR(~chi_1+ -> ~G       W+)
#           BR         NDA      ID1       ID2       ID3
     3.33705002E-01    3     1000022         2        -1   # BR(~chi_1+ -> ~chi_10 u    db)
     3.33705002E-01    3     1000022         4        -3   # BR(~chi_1+ -> ~chi_10 c    sb)
     1.11235128E-01    3     1000022       -11        12   # BR(~chi_1+ -> ~chi_10 e+   nu_e)
     1.11235128E-01    3     1000022       -13        14   # BR(~chi_1+ -> ~chi_10 mu+  nu_mu)
     1.10118784E-01    3     1000022       -15        16   # BR(~chi_1+ -> ~chi_10 tau+ nu_tau)
#
#         PDG            Width
DECAY   1000037     3.50043282E+01   # chargino2+ decays
#          BR         NDA      ID1       ID2
     2.21823042E-01    2     1000024        23   # BR(~chi_2+ -> ~chi_1+  Z )
     1.12740646E-01    2     1000022        24   # BR(~chi_2+ -> ~chi_10  W+)
     2.16295902E-01    2     1000023        24   # BR(~chi_2+ -> ~chi_20  W+)
     1.03546802E-01    2     1000025        24   # BR(~chi_2+ -> ~chi_30  W+)
     2.22784163E-01    2     1000024        25   # BR(~chi_2+ -> ~chi_1+  h )
     3.05912687E-02    2     1000024        35   # BR(~chi_2+ -> ~chi_1+  H )
     3.08320367E-02    2     1000024        36   # BR(~chi_2+ -> ~chi_1+  A )
     1.80104545E-02    2     1000022        37   # BR(~chi_2+ -> ~chi_10  H+)
     3.05940677E-02    2     1000023        37   # BR(~chi_2+ -> ~chi_20  H+)
     1.27815741E-02    2     1000025        37   # BR(~chi_2+ -> ~chi_30  H+)
     4.24931392E-08    2     1000039        24   # BR(~chi_2+ -> ~G       W+)
     2.02621723E-12    2     1000039        37   # BR(~chi_2+ -> ~G       H+)
#
#         PDG            Width
DECAY   1000022     5.55053513E-11   # neutralino1 decays
#          BR         NDA      ID1       ID2
     5.00204290E-01    2     1000039        22   # BR(~chi_10 -> ~G        gam)
     4.89602478E-01    2     1000039        23   # BR(~chi_10 -> ~G        Z)
     1.01932318E-02    2     1000039        25   # BR(~chi_10 -> ~G        h)
#
#         PDG            Width
DECAY   1000023     6.53923209E-05   # neutralino2 decays
#          BR         NDA      ID1       ID2
     8.03920781E-04    2     1000022        22   # BR(~chi_20 -> ~chi_10 gam)
#          BR         NDA      ID1       ID2
     6.60734473E-11    2     1000039        22   # BR(~chi_20 -> ~G        gam)
     3.40366262E-08    2     1000039        23   # BR(~chi_20 -> ~G        Z)
     7.35464231E-07    2     1000039        25   # BR(~chi_20 -> ~G        h)
#           BR         NDA      ID1       ID2       ID3
     1.19125844E-01    3     1000022        -2         2   # BR(~chi_20 -> ~chi_10 ub      u)
     1.54213595E-01    3     1000022        -1         1   # BR(~chi_20 -> ~chi_10 db      d)
     1.19125844E-01    3     1000022        -4         4   # BR(~chi_20 -> ~chi_10 cb      c)
     1.54213595E-01    3     1000022        -3         3   # BR(~chi_20 -> ~chi_10 sb      s)
     1.36468254E-01    3     1000022        -5         5   # BR(~chi_20 -> ~chi_10 bb      b)
     3.52030066E-02    3     1000022       -11        11   # BR(~chi_20 -> ~chi_10 e+      e-)
     3.52030066E-02    3     1000022       -13        13   # BR(~chi_20 -> ~chi_10 mu+     mu-)
     3.47659622E-02    3     1000022       -15        15   # BR(~chi_20 -> ~chi_10 tau+    tau-)
     7.02913348E-02    3     1000022       -12        12   # BR(~chi_20 -> ~chi_10 nu_eb   nu_e)
     7.02913348E-02    3     1000022       -14        14   # BR(~chi_20 -> ~chi_10 nu_mub  nu_mu)
     7.02913348E-02    3     1000022       -16        16   # BR(~chi_20 -> ~chi_10 nu_taub nu_tau)
     4.10217195E-07    3     1000024        -2         1   # BR(~chi_20 -> ~chi_1+ ub      d)
     4.10217195E-07    3    -1000024        -1         2   # BR(~chi_20 -> ~chi_1- db      u)
     4.10217195E-07    3     1000024        -4         3   # BR(~chi_20 -> ~chi_1+ cb      s)
     4.10217195E-07    3    -1000024        -3         4   # BR(~chi_20 -> ~chi_1- sb      c)
     1.36739079E-07    3     1000024       -12        11   # BR(~chi_20 -> ~chi_1+ nu_eb   e-)
     1.36739079E-07    3    -1000024        12       -11   # BR(~chi_20 -> ~chi_1- nu_e    e+)
     1.36739079E-07    3     1000024       -14        13   # BR(~chi_20 -> ~chi_1+ nu_mub  mu-)
     1.36739079E-07    3    -1000024        14       -13   # BR(~chi_20 -> ~chi_1- nu_mu   mu+)
     4.82991510E-09    3     1000024       -16        15   # BR(~chi_20 -> ~chi_1+ nu_taub tau-)
     4.82991510E-09    3    -1000024        16       -15   # BR(~chi_20 -> ~chi_1- nu_tau  tau+)
#
#         PDG            Width
DECAY   1000025     3.75054124E-04   # neutralino3 decays
#          BR         NDA      ID1       ID2
     2.16888335E-04    2     1000022        22   # BR(~chi_30 -> ~chi_10 gam)
     5.20395290E-04    2     1000023        22   # BR(~chi_30 -> ~chi_20 gam)
#          BR         NDA      ID1       ID2
     2.38869545E-07    2     1000039        22   # BR(~chi_30 -> ~G        gam)
     1.65276909E-07    2     1000039        23   # BR(~chi_30 -> ~G        Z)
     4.05813942E-09    2     1000039        25   # BR(~chi_30 -> ~G        h)
#           BR         NDA      ID1       ID2       ID3
     3.70563447E-08    3     1000022        -2         2   # BR(~chi_30 -> ~chi_10 ub      u)
     4.65554036E-08    3     1000022        -1         1   # BR(~chi_30 -> ~chi_10 db      d)
     3.70563447E-08    3     1000022        -4         4   # BR(~chi_30 -> ~chi_10 cb      c)
     4.65554036E-08    3     1000022        -3         3   # BR(~chi_30 -> ~chi_10 sb      s)
     1.05050263E-06    3     1000022        -5         5   # BR(~chi_30 -> ~chi_10 bb      b)
     9.56018285E-08    3     1000022       -11        11   # BR(~chi_30 -> ~chi_10 e+      e-)
     9.56018285E-08    3     1000022       -13        13   # BR(~chi_30 -> ~chi_10 mu+     mu-)
     2.46237026E-07    3     1000022       -15        15   # BR(~chi_30 -> ~chi_10 tau+    tau-)
     8.30065729E-09    3     1000022       -12        12   # BR(~chi_30 -> ~chi_10 nu_eb   nu_e)
     8.30065729E-09    3     1000022       -14        14   # BR(~chi_30 -> ~chi_10 nu_mub  nu_mu)
     8.30065729E-09    3     1000022       -16        16   # BR(~chi_30 -> ~chi_10 nu_taub nu_tau)
     2.75038065E-02    3     1000023        -2         2   # BR(~chi_30 -> ~chi_20 ub      u)
     3.56050042E-02    3     1000023        -1         1   # BR(~chi_30 -> ~chi_20 db      d)
     2.75038065E-02    3     1000023        -4         4   # BR(~chi_30 -> ~chi_20 cb      c)
     3.56050042E-02    3     1000023        -3         3   # BR(~chi_30 -> ~chi_20 sb      s)
     3.21253690E-02    3     1000023        -5         5   # BR(~chi_30 -> ~chi_20 bb      b)
     8.12778417E-03    3     1000023       -11        11   # BR(~chi_30 -> ~chi_20 e+      e-)
     8.12778417E-03    3     1000023       -13        13   # BR(~chi_30 -> ~chi_20 mu+     mu-)
     8.03961691E-03    3     1000023       -15        15   # BR(~chi_30 -> ~chi_20 tau+    tau-)
     1.62288354E-02    3     1000023       -12        12   # BR(~chi_30 -> ~chi_20 nu_eb   nu_e)
     1.62288354E-02    3     1000023       -14        14   # BR(~chi_30 -> ~chi_20 nu_mub  nu_mu)
     1.62288354E-02    3     1000023       -16        16   # BR(~chi_30 -> ~chi_20 nu_taub nu_tau)
     1.28084846E-01    3     1000024        -2         1   # BR(~chi_30 -> ~chi_1+ ub      d)
     1.28084846E-01    3    -1000024        -1         2   # BR(~chi_30 -> ~chi_1- db      u)
     1.28084846E-01    3     1000024        -4         3   # BR(~chi_30 -> ~chi_1+ cb      s)
     1.28084846E-01    3    -1000024        -3         4   # BR(~chi_30 -> ~chi_1- sb      c)
     4.26948642E-02    3     1000024       -12        11   # BR(~chi_30 -> ~chi_1+ nu_eb   e-)
     4.26948642E-02    3    -1000024        12       -11   # BR(~chi_30 -> ~chi_1- nu_e    e+)
     4.26948642E-02    3     1000024       -14        13   # BR(~chi_30 -> ~chi_1+ nu_mub  mu-)
     4.26948642E-02    3    -1000024        14       -13   # BR(~chi_30 -> ~chi_1- nu_mu   mu+)
     4.24085529E-02    3     1000024       -16        15   # BR(~chi_30 -> ~chi_1+ nu_taub tau-)
     4.24085529E-02    3    -1000024        16       -15   # BR(~chi_30 -> ~chi_1- nu_tau  tau+)
#
#         PDG            Width
DECAY   1000035     3.50047234E+01   # neutralino4 decays
#          BR         NDA      ID1       ID2
     2.28772674E-03    2     1000022        23   # BR(~chi_40 -> ~chi_10   Z )
     2.17339255E-01    2     1000023        23   # BR(~chi_40 -> ~chi_20   Z )
     2.32990339E-03    2     1000025        23   # BR(~chi_40 -> ~chi_30   Z )
     2.16107567E-01    2     1000024       -24   # BR(~chi_40 -> ~chi_1+   W-)
     2.16107567E-01    2    -1000024        24   # BR(~chi_40 -> ~chi_1-   W+)
     1.13966693E-01    2     1000022        25   # BR(~chi_40 -> ~chi_10   h )
     1.89763975E-03    2     1000022        35   # BR(~chi_40 -> ~chi_10   H )
     1.60874501E-02    2     1000022        36   # BR(~chi_40 -> ~chi_10   A )
     4.60596105E-03    2     1000023        25   # BR(~chi_40 -> ~chi_20   h )
     2.72123952E-02    2     1000023        35   # BR(~chi_40 -> ~chi_20   H )
     3.30333875E-03    2     1000023        36   # BR(~chi_40 -> ~chi_20   A )
     1.04447308E-01    2     1000025        25   # BR(~chi_40 -> ~chi_30   h )
     1.34981020E-03    2     1000025        35   # BR(~chi_40 -> ~chi_30   H )
     1.14162693E-02    2     1000025        36   # BR(~chi_40 -> ~chi_30   A )
     3.07705366E-02    2     1000024       -37   # BR(~chi_40 -> ~chi_1+   H-)
     3.07705366E-02    2    -1000024        37   # BR(~chi_40 -> ~chi_1-   H+)
     1.01961230E-08    2     1000039        22   # BR(~chi_40 -> ~G        gam)
     3.22933905E-08    2     1000039        23   # BR(~chi_40 -> ~G        Z)
     2.07587618E-12    2     1000039        25   # BR(~chi_40 -> ~G        h)
     2.01227168E-12    2     1000039        35   # BR(~chi_40 -> ~G        H)
     6.19329655E-15    2     1000039        36   # BR(~chi_40 -> ~G        A)
#
#         PDG            Width
DECAY        25     4.21710308E-03   # h decays
#          BR         NDA      ID1       ID2
     6.01678410E-01    2           5        -5   # BR(h -> b       bb     )
     6.22568616E-02    2         -15        15   # BR(h -> tau+    tau-   )
     2.20362148E-04    2         -13        13   # BR(h -> mu+     mu-    )
     4.66243768E-04    2           3        -3   # BR(h -> s       sb     )
     2.01148925E-02    2           4        -4   # BR(h -> c       cb     )
     6.64275033E-02    2          21        21   # BR(h -> g       g      )
     2.31273373E-03    2          22        22   # BR(h -> gam     gam    )
     1.62697777E-03    2          22        23   # BR(h -> Z       gam    )
     2.16806703E-01    2          24       -24   # BR(h -> W+      W-     )
     2.80893127E-02    2          23        23   # BR(h -> Z       Z      )
#
#         PDG            Width
DECAY        35     3.99020237E+01   # H decays
#          BR         NDA      ID1       ID2
     1.39718390E-03    2           5        -5   # BR(H -> b       bb     )
     2.33530103E-04    2         -15        15   # BR(H -> tau+    tau-   )
     8.25615858E-07    2         -13        13   # BR(H -> mu+     mu-    )
     1.05707683E-06    2           3        -3   # BR(H -> s       sb     )
     9.53972319E-06    2           4        -4   # BR(H -> c       cb     )
     9.43916184E-01    2           6        -6   # BR(H -> t       tb     )
     7.55956047E-04    2          21        21   # BR(H -> g       g      )
     2.63735662E-06    2          22        22   # BR(H -> gam     gam    )
     1.09855820E-06    2          23        22   # BR(H -> Z       gam    )
     3.16484916E-04    2          24       -24   # BR(H -> W+      W-     )
     1.57810829E-04    2          23        23   # BR(H -> Z       Z      )
     8.57432469E-04    2          25        25   # BR(H -> h       h      )
     8.73327556E-24    2          36        36   # BR(H -> A       A      )
     3.49172725E-11    2          23        36   # BR(H -> Z       A      )
     3.05291593E-12    2          24       -37   # BR(H -> W+      H-     )
     3.05291593E-12    2         -24        37   # BR(H -> W-      H+     )
     5.65328925E-05    2     1000024  -1000024   # BR(H -> ~chi_1+ ~chi_1-)
     9.95195003E-04    2     1000022   1000022   # BR(H -> ~chi_10 ~chi_10)
     2.27704015E-05    2     1000023   1000023   # BR(H -> ~chi_20 ~chi_20)
     5.62248686E-04    2     1000025   1000025   # BR(H -> ~chi_30 ~chi_30)
     2.57761660E-02    2     1000022   1000023   # BR(H -> ~chi_10 ~chi_20)
     1.25846473E-05    2     1000022   1000025   # BR(H -> ~chi_10 ~chi_30)
     2.49247616E-02    2     1000023   1000025   # BR(H -> ~chi_20 ~chi_30)
#
#         PDG            Width
DECAY        36     4.03526479E+01   # A decays
#          BR         NDA      ID1       ID2
     1.39983195E-03    2           5        -5   # BR(A -> b       bb     )
     2.31117829E-04    2         -15        15   # BR(A -> tau+    tau-   )
     8.17085016E-07    2         -13        13   # BR(A -> mu+     mu-    )
     1.07720863E-06    2           3        -3   # BR(A -> s       sb     )
     9.43978262E-06    2           4        -4   # BR(A -> c       cb     )
     9.44754830E-01    2           6        -6   # BR(A -> t       tb     )
     8.94228395E-04    2          21        21   # BR(A -> g       g      )
     2.66894063E-06    2          22        22   # BR(A -> gam     gam    )
     1.28092938E-06    2          23        22   # BR(A -> Z       gam    )
     3.08341453E-04    2          23        25   # BR(A -> Z       h      )
     6.47345400E-04    2     1000024  -1000024   # BR(A -> ~chi_1+ ~chi_1-)
     2.86074822E-02    2     1000022   1000022   # BR(A -> ~chi_10 ~chi_10)
     1.16222356E-06    2     1000023   1000023   # BR(A -> ~chi_20 ~chi_20)
     2.15242012E-02    2     1000025   1000025   # BR(A -> ~chi_30 ~chi_30)
     6.61592009E-04    2     1000022   1000023   # BR(A -> ~chi_10 ~chi_20)
     1.11826646E-04    2     1000022   1000025   # BR(A -> ~chi_10 ~chi_30)
     8.42756435E-04    2     1000023   1000025   # BR(A -> ~chi_20 ~chi_30)
#
#         PDG            Width
DECAY        37     3.95434654E+01   # H+ decays
#          BR         NDA      ID1       ID2
     2.24624484E-06    2           4        -5   # BR(H+ -> c       bb     )
     2.36087350E-04    2         -15        16   # BR(H+ -> tau+    nu_tau )
     8.34654064E-07    2         -13        14   # BR(H+ -> mu+     nu_mu  )
     1.42813542E-08    2           2        -5   # BR(H+ -> u       bb     )
     5.16884037E-08    2           2        -3   # BR(H+ -> u       sb     )
     1.02991093E-05    2           4        -3   # BR(H+ -> c       sb     )
     9.46648377E-01    2           6        -5   # BR(H+ -> t       bb     )
     3.16063215E-04    2          24        25   # BR(H+ -> W+      h      )
     1.16412582E-12    2          24        36   # BR(H+ -> W+      A      )
     2.39110775E-02    2     1000024   1000022   # BR(H+ -> ~chi_1+ ~chi_10)
     1.46285297E-04    2     1000024   1000023   # BR(H+ -> ~chi_1+ ~chi_20)
     2.87286635E-02    2     1000024   1000025   # BR(H+ -> ~chi_1+ ~chi_30)
