#
#                              ======================
#                              | THE SUSYHIT OUTPUT |
#                              ======================
#
#
#              ------------------------------------------------------
#              |     This is the output of the SUSY-HIT package     |
#              |  created by A.Djouadi, M.Muehlleitner and M.Spira. |
#              |  In case of problems with SUSY-HIT email to        |
#              |           margarete.muehlleitner@cern.ch           |
#              |           michael.spira@psi.ch                     |
#              |           abdelhak.djouadi@cern.ch                 |
#              ------------------------------------------------------
#
#              ------------------------------------------------------
#              |  SUSY Les Houches Accord - MSSM Spectrum + Decays  |
#              |              based on the decay programs           |
#              |                                                    |
#              |                     SDECAY 1.3b                    |
#              |                                                    |
#              |  Authors: M.Muhlleitner, A.Djouadi and Y.Mambrini  |
#              |  Ref.:    Comput.Phys.Commun.168(2005)46           |
#              |           [hep-ph/0311167]                         |
#              |                                                    |
#              |                     HDECAY 3.4                     |
#              |                                                    |
#              |  By: A.Djouadi,J.Kalinowski,M.Muhlleitner,M.Spira  |
#              |  Ref.:    Comput.Phys.Commun.108(1998)56           |
#              |           [hep-ph/9704448]                         |
#              |                                                    |
#              |                                                    |
#              |  If not stated otherwise all DRbar couplings and   |
#              |  soft SUSY breaking masses are given at the scale  |
#              |  Q=  0.91187600E+02
#              |                                                    |
#              ------------------------------------------------------
#
#
BLOCK DCINFO  # Decay Program information
     1   SDECAY/HDECAY # decay calculator
     2   1.3b  /3.4    # version number
#
BLOCK SPINFO  # Spectrum calculator information
     1   SuSpect     # RGE +Spectrum calculator            
     2   2.41         # version number                     
#
BLOCK MODSEL  # Model selection
     1     0   # #general MSSM low scale                           
#
BLOCK SMINPUTS  # Standard Model inputs
         1     1.27934000E+02   # alpha_em^-1(M_Z)^MSbar
         2     1.16639000E-05   # G_F [GeV^-2]
         3     1.17200000E-01   # alpha_S(M_Z)^MSbar
         4     9.11870000E+01   # M_Z pole mass
         5     4.25000000E+00   # mb(mb)^MSbar
         6     1.72500000E+02   # mt pole mass
         7     1.77700000E+00   # mtau pole mass
#
BLOCK MINPAR  # Input parameters - minimal models
#
BLOCK EXTPAR  # Input parameters - non-minimal models
         0     9.11876000E+01   # EWSB                
         1     5.00000000E+02   # M_1                 
         2     1.00000000E+05   # M_2                 
         3     1.00000000E+05   # M_3                 
        11     0.00000000E+00   # A_t                 
        12     0.00000000E+00   # A_b                 
        13     0.00000000E+00   # A_tau               
        14     0.00000000E+00   # A_u                 
        15     0.00000000E+00   # A_d                 
        16     0.00000000E+00   # A_e                 
        23     3.50000000E+03   # mu(EWSB)            
        25     1.50000000E+00   # tanbeta(in)         
        26     2.00000000E+03   # MA_pole             
        31     1.00000000E+05   # M_eL                
        32     1.00000000E+05   # M_muL               
        33     1.00000000E+05   # M_tauL              
        34     1.00000000E+05   # M_eR                
        35     1.00000000E+05   # M_muR               
        36     1.00000000E+05   # M_tauR              
        41     1.80000000E+03   # M_q1L               
        42     1.80000000E+03   # M_q2L               
        43     1.80000000E+03   # M_q3L               
        44     1.00000000E+05   # M_uR                
        45     1.00000000E+05   # M_cR                
        46     1.00000000E+05   # M_tR                
        47     1.80000000E+03   # M_dR                
        48     1.80000000E+03   # M_sR                
        49     1.80000000E+03   # M_bR                
#
BLOCK MASS  # Mass Spectrum
# PDG code           mass       particle
        24     8.05838189E+01   # W+
        25     1.25000000E+02   # h
        35     2.00403903E+03   # H
        36     2.00000000E+03   # A
        37     2.02369180E+03   # H+
         5     4.87877839E+00   # b-quark pole mass calculated from mb(mb)_Msbar
   1000001     1.80036857E+03   # ~d_L
   2000001     1.80007107E+03   # ~d_R
   1000002     1.79970244E+03   # ~u_L
   2000002     9.99999974E+04   # ~u_R
   1000003     1.80036857E+03   # ~s_L
   2000003     1.80007107E+03   # ~s_R
   1000004     1.79970244E+03   # ~c_L
   2000004     9.99999974E+04   # ~c_R
   1000005     1.79644407E+03   # ~b_1
   2000005     1.80399139E+03   # ~b_2
   1000006     1.80573376E+03   # ~t_1
   2000006     1.00000106E+05   # ~t_2
   1000011     1.00000004E+05   # ~e_L
   2000011     1.00000004E+05   # ~e_R
   1000012     9.99999921E+04   # ~nu_eL
   1000013     1.00000004E+05   # ~mu_L
   2000013     1.00000004E+05   # ~mu_R
   1000014     9.99999921E+04   # ~nu_muL
   1000015     9.99999574E+04   # ~tau_1
   2000015     1.00000051E+05   # ~tau_2
   1000016     9.99999921E+04   # ~nu_tauL
   1000021     1.00000000E+05   # ~g
   1000022     4.99379639E+02   # ~chi_10
   1000023    -3.50002151E+03   # ~chi_20
   1000025     3.50057742E+03   # ~chi_30
   1000035     1.00000064E+05   # ~chi_40
   1000024     3.49994019E+03   # ~chi_1+
   1000037     1.00000064E+05   # ~chi_2+
   1000039     1.00000000E-09   # ~gravitino
#
BLOCK NMIX  # Neutralino Mixing Matrix
  1  1     9.99891046E-01   # N_11
  1  2    -1.10189046E-05   # N_12
  1  3     1.18711694E-02   # N_13
  1  4    -8.77336797E-03   # N_14
  2  1     2.19048304E-03   # N_21
  2  2    -1.49633530E-04   # N_22
  2  3    -7.07094213E-01   # N_23
  2  4    -7.07115940E-01   # N_24
  3  1     1.45978943E-02   # N_31
  3  2     8.02301267E-04   # N_32
  3  3    -7.07019544E-01   # N_33
  3  4     7.07042871E-01   # N_34
  4  1     3.66436175E-07   # N_41
  4  2    -9.99999667E-01   # N_42
  4  3    -4.61568634E-04   # N_43
  4  4     6.73166543E-04   # N_44
#
BLOCK UMIX  # Chargino Mixing Matrix U
  1  1    -6.52756417E-04   # U_11
  1  2     9.99999787E-01   # U_12
  2  1     9.99999787E-01   # U_21
  2  2     6.52756417E-04   # U_22
#
BLOCK VMIX  # Chargino Mixing Matrix V
  1  1    -9.52001167E-04   # V_11
  1  2     9.99999547E-01   # V_12
  2  1     9.99999547E-01   # V_21
  2  2     9.52001167E-04   # V_22
#
BLOCK STOPMIX  # Stop Mixing Matrix
  1  1     9.99999999E-01   # cos(theta_t)
  1  2     4.47213589E-05   # sin(theta_t)
  2  1    -4.47213589E-05   # -sin(theta_t)
  2  2     9.99999999E-01   # cos(theta_t)
#
BLOCK SBOTMIX  # Sbottom Mixing Matrix
  1  1     6.93030246E-01   # cos(theta_b)
  1  2     7.20908509E-01   # sin(theta_b)
  2  1    -7.20908509E-01   # -sin(theta_b)
  2  2     6.93030246E-01   # cos(theta_b)
#
BLOCK STAUMIX  # Stau Mixing Matrix
  1  1     7.06201377E-01   # cos(theta_tau)
  1  2     7.08011028E-01   # sin(theta_tau)
  2  1    -7.08011028E-01   # -sin(theta_tau)
  2  2     7.06201377E-01   # cos(theta_tau)
#
BLOCK ALPHA  # Higgs mixing
          -5.90323370E-01   # Mixing angle in the neutral Higgs boson sector
#
BLOCK HMIX Q=  9.11876000E+01  # DRbar Higgs Parameters
         1     3.50000000E+03   # mu(Q)               
         2     1.49999982E+00   # tanbeta(Q)          
         3     2.54865053E+02   # vev(Q)              
         4    -6.81357067E+07   # MA^2(Q)             
#
BLOCK GAUGE Q=  9.11876000E+01  # The gauge couplings
     1     3.50571333E-01   # gprime(Q) DRbar
     2     6.19645843E-01   # g(Q) DRbar
     3     1.02325589E+00   # g3(Q) DRbar
#
BLOCK AU Q=  9.11876000E+01  # The trilinear couplings
  1  1     0.00000000E+00   # A_u(Q) DRbar
  2  2     0.00000000E+00   # A_c(Q) DRbar
  3  3     0.00000000E+00   # A_t(Q) DRbar
#
BLOCK AD Q=  9.11876000E+01  # The trilinear couplings
  1  1     0.00000000E+00   # A_d(Q) DRbar
  2  2     0.00000000E+00   # A_s(Q) DRbar
  3  3     0.00000000E+00   # A_b(Q) DRbar
#
BLOCK AE Q=  9.11876000E+01  # The trilinear couplings
  1  1     0.00000000E+00   # A_e(Q) DRbar
  2  2     0.00000000E+00   # A_mu(Q) DRbar
  3  3     0.00000000E+00   # A_tau(Q) DRbar
#
BLOCK Yu Q=  9.11876000E+01  # The Yukawa couplings
  1  1     0.00000000E+00   # y_u(Q) DRbar
  2  2     0.00000000E+00   # y_c(Q) DRbar
  3  3     9.83691074E-01   # y_t(Q) DRbar
#
BLOCK Yd Q=  9.11876000E+01  # The Yukawa couplings
  1  1     0.00000000E+00   # y_d(Q) DRbar
  2  2     0.00000000E+00   # y_s(Q) DRbar
  3  3     2.58682504E-02   # y_b(Q) DRbar
#
BLOCK Ye Q=  9.11876000E+01  # The Yukawa couplings
  1  1     0.00000000E+00   # y_e(Q) DRbar
  2  2     0.00000000E+00   # y_mu(Q) DRbar
  3  3     1.77404083E-02   # y_tau(Q) DRbar
#
BLOCK MSOFT Q=  9.11876000E+01  # The soft SUSY breaking masses at the scale Q
         1     5.00000000E+02   # M_1                 
         2     1.00000000E+05   # M_2                 
         3     1.00000000E+05   # M_3                 
        14     0.00000000E+00   # A_u                 
        15     0.00000000E+00   # A_d                 
        16     0.00000000E+00   # A_e                 
        21     6.30786877E+08   # M^2_Hd              
        22    -1.15028582E+09   # M^2_Hu              
        31     1.00000000E+05   # M_eL                
        32     1.00000000E+05   # M_muL               
        33     1.00000000E+05   # M_tauL              
        34     1.00000000E+05   # M_eR                
        35     1.00000000E+05   # M_muR               
        36     1.00000000E+05   # M_tauR              
        41     1.80000000E+03   # M_q1L               
        42     1.80000000E+03   # M_q2L               
        43     1.80000000E+03   # M_q3L               
        44     1.00000000E+05   # M_uR                
        45     1.00000000E+05   # M_cR                
        46     1.00000000E+05   # M_tR                
        47     1.80000000E+03   # M_dR                
        48     1.80000000E+03   # M_sR                
        49     1.80000000E+03   # M_bR                
#
#
#
#                             =================
#                             |The decay table|
#                             =================
#
# - The QCD corrections to the decays gluino -> squark  + quark
#                                     squark -> gaugino + quark_prime
#                                     squark -> squark_prime + Higgs
#                                     squark -> gluino  + quark
#   are included.
#
# - The multi-body decays for the inos, stops and sbottoms are included.
#
# - The loop induced decays for the gluino, neutralinos and stops
#   are included.
#
# - The SUSY decays of the top quark are included.
#
# - Possible decays of the NLSP in GMSB models are included.
#
#
#         PDG            Width
DECAY         6     1.32519445E+00   # top decays
#          BR         NDA      ID1       ID2
     1.00000000E+00    2           5        24   # BR(t ->  b    W+)
#
#         PDG            Width
DECAY   1000021     1.E-04   # gluino decays (OJ Mods)
#          BR         NDA      ID1       ID2
    -9.56395525E-03    2     1000001        -1   # BR(~g -> ~d_L  db)
    -9.56395525E-03    2    -1000001         1   # BR(~g -> ~d_L* d )
    -9.56395730E-03    2     2000001        -1   # BR(~g -> ~d_R  db)
    -9.56395730E-03    2    -2000001         1   # BR(~g -> ~d_R* d )
    -9.56395984E-03    2     1000002        -2   # BR(~g -> ~u_L  ub)
    -9.56395984E-03    2    -1000002         2   # BR(~g -> ~u_L* u )
    -2.58777073E-17    2     2000002        -2   # BR(~g -> ~u_R  ub)
    -2.58777073E-17    2    -2000002         2   # BR(~g -> ~u_R* u )
    -9.56395525E-03    2     1000003        -3   # BR(~g -> ~s_L  sb)
    -9.56395525E-03    2    -1000003         3   # BR(~g -> ~s_L* s )
    -9.56395730E-03    2     2000003        -3   # BR(~g -> ~s_R  sb)
    -9.56395730E-03    2    -2000003         3   # BR(~g -> ~s_R* s )
    -9.56395984E-03    2     1000004        -4   # BR(~g -> ~c_L  cb)
    -9.56395984E-03    2    -1000004         4   # BR(~g -> ~c_L* c )
    -2.58777073E-17    2     2000004        -4   # BR(~g -> ~c_R  cb)
    -2.58777073E-17    2    -2000004         4   # BR(~g -> ~c_R* c )
     3.49305809E-01    2     1000005        -5   # BR(~g -> ~b_1  bb)
     3.49305809E-01    2    -1000005         5   # BR(~g -> ~b_1* b )
     3.51695971E-01    2     2000005        -5   # BR(~g -> ~b_2  bb)
     3.51695971E-01    2    -2000005         5   # BR(~g -> ~b_2* b )
    -9.41272792E-03    2     1000006        -6   # BR(~g -> ~t_1  tb)
    -9.41272792E-03    2    -1000006         6   # BR(~g -> ~t_1* t )
    -2.68410615E-01    2     1000039        21   # BR(~g -> ~G g)
#
#         PDG            Width
DECAY   1000006     2.46715277E-01   # stop1 decays
#          BR         NDA      ID1       ID2
     1.00000000E+00    2     1000022         6   # BR(~t_1 -> ~chi_10 t )
#
#         PDG            Width
DECAY   2000006    -2.86178430E+04   # stop2 decays
#          BR         NDA      ID1       ID2
    -7.28226589E-03    2     1000022         6   # BR(~t_2 -> ~chi_10 t )
    -1.75048038E-02    2     1000023         6   # BR(~t_2 -> ~chi_20 t )
    -1.75024204E-02    2     1000025         6   # BR(~t_2 -> ~chi_30 t )
     1.04169307E+00    2     1000024         5   # BR(~t_2 -> ~chi_1+ b )
     4.74088472E-04    2     1000006        25   # BR(~t_2 -> ~t_1    h )
    -4.96558054E-04    2     1000006        35   # BR(~t_2 -> ~t_1    H )
    -4.95680741E-04    2     1000006        36   # BR(~t_2 -> ~t_1    A )
    -4.66970082E-04    2     1000005        37   # BR(~t_2 -> ~b_1    H+)
    -5.24377871E-04    2     2000005        37   # BR(~t_2 -> ~b_2    H+)
     3.37451470E-04    2     1000006        23   # BR(~t_2 -> ~t_1    Z )
     8.49395089E-04    2     1000005        24   # BR(~t_2 -> ~b_1    W+)
     9.19068253E-04    2     2000005        24   # BR(~t_2 -> ~b_2    W+)
#
#         PDG            Width
DECAY   1000005    -6.66973629E+00   # sbottom1 decays
#          BR         NDA      ID1       ID2
     1.00000000E+00    2     1000022         5   # BR(~b_1 -> ~chi_10 b )
#
#         PDG            Width
DECAY   2000005    -6.78623285E+00   # sbottom2 decays
#          BR         NDA      ID1       ID2
     1.00000000E+00    2     1000022         5   # BR(~b_2 -> ~chi_10 b )
#
#         PDG            Width
DECAY   1000002     2.49988565E-01   # sup_L decays
#          BR         NDA      ID1       ID2
     1.00000000E+00    2     1000022         2   # BR(~u_L -> ~chi_10 u)
#
#         PDG            Width
DECAY   2000002     2.08400890E+02   # sup_R decays
#          BR         NDA      ID1       ID2
     9.99782350E-01    2     1000022         2   # BR(~u_R -> ~chi_10 u)
     4.79278037E-06    2     1000023         2   # BR(~u_R -> ~chi_20 u)
     2.12857008E-04    2     1000025         2   # BR(~u_R -> ~chi_30 u)
#
#         PDG            Width
DECAY   1000001     2.50164562E-01   # sdown_L decays
#          BR         NDA      ID1       ID2
     1.00000000E+00    2     1000022         1   # BR(~d_L -> ~chi_10 d)
#
#         PDG            Width
DECAY   2000001     1.00033133E+00   # sdown_R decays
#          BR         NDA      ID1       ID2
     1.00000000E+00    2     1000022         1   # BR(~d_R -> ~chi_10 d)
#
#         PDG            Width
DECAY   1000004     2.49988565E-01   # scharm_L decays
#          BR         NDA      ID1       ID2
     1.00000000E+00    2     1000022         4   # BR(~c_L -> ~chi_10 c)
#
#         PDG            Width
DECAY   2000004     2.08400890E+02   # scharm_R decays
#          BR         NDA      ID1       ID2
     9.99782350E-01    2     1000022         4   # BR(~c_R -> ~chi_10 c)
     4.79278037E-06    2     1000023         4   # BR(~c_R -> ~chi_20 c)
     2.12857008E-04    2     1000025         4   # BR(~c_R -> ~chi_30 c)
#
#         PDG            Width
DECAY   1000003     2.50164562E-01   # sstrange_L decays
#          BR         NDA      ID1       ID2
     1.00000000E+00    2     1000022         3   # BR(~s_L -> ~chi_10 s)
#
#         PDG            Width
DECAY   2000003     1.00033133E+00   # sstrange_R decays
#          BR         NDA      ID1       ID2
     1.00000000E+00    2     1000022         3   # BR(~s_R -> ~chi_10 s)
#
#         PDG            Width
DECAY   1000011     1.22245718E+02   # selectron_L decays
#          BR         NDA      ID1       ID2
     9.99737749E-01    2     1000022        11   # BR(~e_L -> ~chi_10 e-)
     3.70056192E-06    2     1000023        11   # BR(~e_L -> ~chi_20 e-)
     2.55894942E-04    2     1000025        11   # BR(~e_L -> ~chi_30 e-)
     2.65595830E-06    2    -1000024        12   # BR(~e_L -> ~chi_1- nu_e)
#
#         PDG            Width
DECAY   2000011     4.88979970E+02   # selectron_R decays
#          BR         NDA      ID1       ID2
     9.99782626E-01    2     1000022        11   # BR(~e_R -> ~chi_10 e-)
     4.78670862E-06    2     1000023        11   # BR(~e_R -> ~chi_20 e-)
     2.12587288E-04    2     1000025        11   # BR(~e_R -> ~chi_30 e-)
#
#         PDG            Width
DECAY   1000013     1.22245718E+02   # smuon_L decays
#          BR         NDA      ID1       ID2
     9.99737749E-01    2     1000022        13   # BR(~mu_L -> ~chi_10 mu-)
     3.70056192E-06    2     1000023        13   # BR(~mu_L -> ~chi_20 mu-)
     2.55894942E-04    2     1000025        13   # BR(~mu_L -> ~chi_30 mu-)
     2.65595830E-06    2    -1000024        14   # BR(~mu_L -> ~chi_1- nu_mu)
#
#         PDG            Width
DECAY   2000013     4.88979970E+02   # smuon_R decays
#          BR         NDA      ID1       ID2
     9.99782626E-01    2     1000022        13   # BR(~mu_R -> ~chi_10 mu-)
     4.78670862E-06    2     1000023        13   # BR(~mu_R -> ~chi_20 mu-)
     2.12587288E-04    2     1000025        13   # BR(~mu_R -> ~chi_30 mu-)
#
#         PDG            Width
DECAY   1000015     1.18199612E+04   # stau_1 decays
#          BR         NDA      ID1       ID2
     2.58982819E-02    2     1000022        15   # BR(~tau_1 -> ~chi_10  tau-)
     2.52565461E-05    2     1000023        15   # BR(~tau_1 -> ~chi_20  tau-)
     2.52622851E-05    2     1000025        15   # BR(~tau_1 -> ~chi_30  tau-)
     2.77069128E-05    2    -1000024        16   # BR(~tau_1 -> ~chi_1-  nu_tau)
     9.74023492E-01    2     1000039        15   # BR(~tau_1 -> ~G       tau-)
#
#         PDG            Width
DECAY   2000015     3.06058136E+02   # stau_2 decays
#          BR         NDA      ID1       ID2
     9.96447379E-01    2     1000022        15   # BR(~tau_2 -> ~chi_10  tau-)
     1.07439069E-03    2     1000023        15   # BR(~tau_2 -> ~chi_20  tau-)
     1.50646574E-03    2     1000025        15   # BR(~tau_2 -> ~chi_30  tau-)
     9.71764687E-04    2    -1000024        16   # BR(~tau_2 -> ~chi_1-  nu_tau)
#
#         PDG            Width
DECAY   1000012     1.22245776E+02   # snu_eL decays
#          BR         NDA      ID1       ID2
     9.99815049E-01    2     1000022        12   # BR(~nu_eL -> ~chi_10 nu_e)
     6.01236001E-06    2     1000023        12   # BR(~nu_eL -> ~chi_20 nu_e)
     1.73289311E-04    2     1000025        12   # BR(~nu_eL -> ~chi_30 nu_e)
     5.64928720E-06    2     1000024        11   # BR(~nu_eL -> ~chi_1+ e-)
#
#         PDG            Width
DECAY   1000014     1.22245776E+02   # snu_muL decays
#          BR         NDA      ID1       ID2
     9.99815049E-01    2     1000022        14   # BR(~nu_muL -> ~chi_10 nu_mu)
     6.01236001E-06    2     1000023        14   # BR(~nu_muL -> ~chi_20 nu_mu)
     1.73289311E-04    2     1000025        14   # BR(~nu_muL -> ~chi_30 nu_mu)
     5.64928720E-06    2     1000024        13   # BR(~nu_muL -> ~chi_1+ mu-)
#
#         PDG            Width
DECAY   1000016     1.22870362E+02   # snu_tauL decays
#          BR         NDA      ID1       ID2
     9.94732694E-01    2     1000022        16   # BR(~nu_tauL -> ~chi_10 nu_tau)
     5.98179741E-06    2     1000023        16   # BR(~nu_tauL -> ~chi_20 nu_tau)
     1.72408430E-04    2     1000025        16   # BR(~nu_tauL -> ~chi_30 nu_tau)
     5.08891582E-03    2     1000024        15   # BR(~nu_tauL -> ~chi_1+ tau-)
#
#         PDG            Width
DECAY   1000024     4.92674104E+01   # chargino1+ decays
#          BR         NDA      ID1       ID2
     4.77057861E-07    2     1000002        -1   # BR(~chi_1+ -> ~u_L     db)
     2.24171051E-07    2    -1000001         2   # BR(~chi_1+ -> ~d_L*    u )
     4.77057861E-07    2     1000004        -3   # BR(~chi_1+ -> ~c_L     sb)
     2.24171051E-07    2    -1000003         4   # BR(~chi_1+ -> ~s_L*    c )
    -9.74277233E-03    2     1000006        -5   # BR(~chi_1+ -> ~t_1     bb)
     9.64488023E-02    2    -1000005         6   # BR(~chi_1+ -> ~b_1*    t )
     8.49438155E-01    2    -2000005         6   # BR(~chi_1+ -> ~b_2*    t )
     5.24006873E-02    2     1000022        24   # BR(~chi_1+ -> ~chi_10  W+)
     1.14463962E-02    2     1000022        37   # BR(~chi_1+ -> ~chi_10  H+)
     6.12367861E-06    2     1000039        24   # BR(~chi_1+ -> ~G       W+)
     1.20489185E-06    2     1000039        37   # BR(~chi_1+ -> ~G       H+)
#
#         PDG            Width
DECAY   1000037    -9.90387521E+03   # chargino2+ decays
#          BR         NDA      ID1       ID2
     6.82725874E-01    2     1000002        -1   # BR(~chi_2+ -> ~u_L     db)
     6.82726063E-01    2    -1000001         2   # BR(~chi_2+ -> ~d_L*    u )
     6.82725874E-01    2     1000004        -3   # BR(~chi_2+ -> ~c_L     sb)
     6.82726063E-01    2    -1000003         4   # BR(~chi_2+ -> ~s_L*    c )
    -1.06209144E+01    2     1000006        -5   # BR(~chi_2+ -> ~t_1     bb)
     1.50089915E-01    2    -1000005         6   # BR(~chi_2+ -> ~b_1*    t )
     6.47186593E-01    2    -2000005         6   # BR(~chi_2+ -> ~b_2*    t )
     4.90825494E-13    2     1000012       -11   # BR(~chi_2+ -> ~nu_eL   e+  )
     4.90825494E-13    2     1000014       -13   # BR(~chi_2+ -> ~nu_muL  mu+ )
     3.41800027E-13    2    -1000011        12   # BR(~chi_2+ -> ~e_L+    nu_e)
     3.41800027E-13    2    -1000013        14   # BR(~chi_2+ -> ~mu_L+   nu_mu)
     5.38052489E-13    2    -1000015        16   # BR(~chi_2+ -> ~tau_1+  nu_tau)
     8.04364204E-15    2    -2000015        16   # BR(~chi_2+ -> ~tau_2+  nu_tau)
     1.25061505E-01    2     1000024        23   # BR(~chi_2+ -> ~chi_1+  Z )
     2.07707657E-05    2     1000022        24   # BR(~chi_2+ -> ~chi_10  W+)
     1.21309415E-01    2     1000023        24   # BR(~chi_2+ -> ~chi_20  W+)
     1.21287334E-01    2     1000025        24   # BR(~chi_2+ -> ~chi_30  W+)
     1.26353771E-01    2     1000024        25   # BR(~chi_2+ -> ~chi_1+  h )
     1.10914497E-01    2     1000024        35   # BR(~chi_2+ -> ~chi_1+  H )
     1.10929341E-01    2     1000024        36   # BR(~chi_2+ -> ~chi_1+  A )
     2.70589614E-05    2     1000022        37   # BR(~chi_2+ -> ~chi_10  H+)
     1.10925290E-01    2     1000023        37   # BR(~chi_2+ -> ~chi_20  H+)
     1.10902245E-01    2     1000025        37   # BR(~chi_2+ -> ~chi_30  H+)
     7.15500073E+00    2     1000039        24   # BR(~chi_2+ -> ~G       W+)
     2.04959161E-06    2     1000039        37   # BR(~chi_2+ -> ~G       H+)
#
#         PDG            Width
DECAY   1000022     1.E-08   # neutralino1 decays (OJ Mods)
#          BR         NDA      ID1       ID2
     7.81488882E-01    2     1000039        22   # BR(~chi_10 -> ~G        gam)
     2.18510933E-01    2     1000039        23   # BR(~chi_10 -> ~G        Z)
     1.84558613E-07    2     1000039        25   # BR(~chi_10 -> ~G        h)
#
#         PDG            Width
DECAY   1000023     1.E-08   # neutralino2 decays (OJ Mods)
#          BR         NDA      ID1       ID2
     5.34585860E-02    2     1000022        23   # BR(~chi_20 -> ~chi_10   Z )
     1.18557129E-03    2     1000022        25   # BR(~chi_20 -> ~chi_10   h )
     1.08627496E-02    2     1000022        35   # BR(~chi_20 -> ~chi_10   H )
     1.04590063E-03    2     1000022        36   # BR(~chi_20 -> ~chi_10   A )
     2.15065670E-08    2     1000002        -2   # BR(~chi_20 -> ~u_L      ub)
     2.15065670E-08    2    -1000002         2   # BR(~chi_20 -> ~u_L*     u )
     9.80668329E-08    2     1000001        -1   # BR(~chi_20 -> ~d_L      db)
     9.80668329E-08    2    -1000001         1   # BR(~chi_20 -> ~d_L*     d )
     2.11435924E-07    2     2000001        -1   # BR(~chi_20 -> ~d_R      db)
     2.11435924E-07    2    -2000001         1   # BR(~chi_20 -> ~d_R*     d )
     2.15065670E-08    2     1000004        -4   # BR(~chi_20 -> ~c_L      cb)
     2.15065670E-08    2    -1000004         4   # BR(~chi_20 -> ~c_L*     c )
     9.80668329E-08    2     1000003        -3   # BR(~chi_20 -> ~s_L      sb)
     9.80668329E-08    2    -1000003         3   # BR(~chi_20 -> ~s_L*     s )
     2.11435924E-07    2     2000003        -3   # BR(~chi_20 -> ~s_R      sb)
     2.11435924E-07    2    -2000003         3   # BR(~chi_20 -> ~s_R*     s )
     4.77558240E-01    2     1000006        -6   # BR(~chi_20 -> ~t_1      tb)
     4.77558240E-01    2    -1000006         6   # BR(~chi_20 -> ~t_1*     t )
    -5.25887207E-03    2     1000005        -5   # BR(~chi_20 -> ~b_1      bb)
    -5.25887207E-03    2    -1000005         5   # BR(~chi_20 -> ~b_1*     b )
    -5.58007130E-03    2     2000005        -5   # BR(~chi_20 -> ~b_2      bb)
    -5.58007130E-03    2    -2000005         5   # BR(~chi_20 -> ~b_2*     b )
     4.17233503E-11    2     1000039        22   # BR(~chi_20 -> ~G        gam)
     2.38259696E-07    2     1000039        23   # BR(~chi_20 -> ~G        Z)
     5.94643743E-06    2     1000039        25   # BR(~chi_20 -> ~G        h)
     4.76207243E-08    2     1000039        35   # BR(~chi_20 -> ~G        H)
     1.22842826E-06    2     1000039        36   # BR(~chi_20 -> ~G        A)
#
#         PDG            Width
DECAY   1000025     4.87276007E+01   # neutralino3 decays
#          BR         NDA      ID1       ID2
     1.20419443E-03    2     1000022        23   # BR(~chi_30 -> ~chi_10   Z )
     5.38902459E-02    2     1000022        25   # BR(~chi_30 -> ~chi_10   h )
     1.01705375E-03    2     1000022        35   # BR(~chi_30 -> ~chi_10   H )
     1.09049068E-02    2     1000022        36   # BR(~chi_30 -> ~chi_10   A )
     3.91433090E-06    2     1000002        -2   # BR(~chi_30 -> ~u_L      ub)
     3.91433090E-06    2    -1000002         2   # BR(~chi_30 -> ~u_L*     u )
     1.17779481E-06    2     1000001        -1   # BR(~chi_30 -> ~d_L      db)
     1.17779481E-06    2    -1000001         1   # BR(~chi_30 -> ~d_L*     d )
     9.38553460E-06    2     2000001        -1   # BR(~chi_30 -> ~d_R      db)
     9.38553460E-06    2    -2000001         1   # BR(~chi_30 -> ~d_R*     d )
     3.91433090E-06    2     1000004        -4   # BR(~chi_30 -> ~c_L      cb)
     3.91433090E-06    2    -1000004         4   # BR(~chi_30 -> ~c_L*     c )
     1.17779481E-06    2     1000003        -3   # BR(~chi_30 -> ~s_L      sb)
     1.17779481E-06    2    -1000003         3   # BR(~chi_30 -> ~s_L*     s )
     9.38553460E-06    2     2000003        -3   # BR(~chi_30 -> ~s_R      sb)
     9.38553460E-06    2    -2000003         3   # BR(~chi_30 -> ~s_R*     s )
     4.77374037E-01    2     1000006        -6   # BR(~chi_30 -> ~t_1      tb)
     4.77374037E-01    2    -1000006         6   # BR(~chi_30 -> ~t_1*     t )
    -4.59909996E-03    2     1000005        -5   # BR(~chi_30 -> ~b_1      bb)
    -4.59909996E-03    2    -1000005         5   # BR(~chi_30 -> ~b_1*     b )
    -6.31175804E-03    2     2000005        -5   # BR(~chi_30 -> ~b_2      bb)
    -6.31175804E-03    2    -2000005         5   # BR(~chi_30 -> ~b_2*     b )
     2.13148237E-09    2     1000039        22   # BR(~chi_30 -> ~G        gam)
     5.95404562E-06    2     1000039        23   # BR(~chi_30 -> ~G        Z)
     2.32127283E-07    2     1000039        25   # BR(~chi_30 -> ~G        h)
     1.22036714E-06    2     1000039        35   # BR(~chi_30 -> ~G        H)
     4.91459536E-08    2     1000039        36   # BR(~chi_30 -> ~G        A)
#
#         PDG            Width
DECAY   1000035    -9.90395575E+03   # neutralino4 decays
#          BR         NDA      ID1       ID2
     3.42850069E-08    2     1000022        23   # BR(~chi_40 -> ~chi_10   Z )
     1.20865248E-01    2     1000023        23   # BR(~chi_40 -> ~chi_20   Z )
     4.20260336E-03    2     1000025        23   # BR(~chi_40 -> ~chi_30   Z )
     1.21314745E-01    2     1000024       -24   # BR(~chi_40 -> ~chi_1+   W-)
     1.21314745E-01    2    -1000024        24   # BR(~chi_40 -> ~chi_1-   W+)
     2.16358040E-05    2     1000022        25   # BR(~chi_40 -> ~chi_10   h )
     2.96291279E-06    2     1000022        35   # BR(~chi_40 -> ~chi_10   H )
     2.40606198E-05    2     1000022        36   # BR(~chi_40 -> ~chi_10   A )
     4.14829638E-03    2     1000023        25   # BR(~chi_40 -> ~chi_20   h )
     1.06151138E-01    2     1000023        35   # BR(~chi_40 -> ~chi_20   H )
     4.87951319E-03    2     1000023        36   # BR(~chi_40 -> ~chi_20   A )
     1.22190315E-01    2     1000025        25   # BR(~chi_40 -> ~chi_30   h )
     4.76583184E-03    2     1000025        35   # BR(~chi_40 -> ~chi_30   H )
     1.06031338E-01    2     1000025        36   # BR(~chi_40 -> ~chi_30   A )
     1.10932939E-01    2     1000024       -37   # BR(~chi_40 -> ~chi_1+   H-)
     1.10932939E-01    2    -1000024        37   # BR(~chi_40 -> ~chi_1-   H+)
     3.26930739E-01    2     1000002        -2   # BR(~chi_40 -> ~u_L      ub)
     3.26930739E-01    2    -1000002         2   # BR(~chi_40 -> ~u_L*     u )
     5.12606108E-21    2     2000002        -2   # BR(~chi_40 -> ~u_R      ub)
     5.12606108E-21    2    -2000002         2   # BR(~chi_40 -> ~u_R*     u )
     3.26930862E-01    2     1000001        -1   # BR(~chi_40 -> ~d_L      db)
     3.26930862E-01    2    -1000001         1   # BR(~chi_40 -> ~d_L*     d )
     6.24505133E-15    2     2000001        -1   # BR(~chi_40 -> ~d_R      db)
     6.24505133E-15    2    -2000001         1   # BR(~chi_40 -> ~d_R*     d )
     3.26930739E-01    2     1000004        -4   # BR(~chi_40 -> ~c_L      cb)
     3.26930739E-01    2    -1000004         4   # BR(~chi_40 -> ~c_L*     c )
     5.12606108E-21    2     2000004        -4   # BR(~chi_40 -> ~c_R      cb)
     5.12606108E-21    2    -2000004         4   # BR(~chi_40 -> ~c_R*     c )
     3.26930862E-01    2     1000003        -3   # BR(~chi_40 -> ~s_L      sb)
     3.26930862E-01    2    -1000003         3   # BR(~chi_40 -> ~s_L*     s )
     6.24505133E-15    2     2000003        -3   # BR(~chi_40 -> ~s_R      sb)
     6.24505133E-15    2    -2000003         3   # BR(~chi_40 -> ~s_R*     s )
     3.98658661E-01    2     1000006        -6   # BR(~chi_40 -> ~t_1      tb)
     3.98658661E-01    2    -1000006         6   # BR(~chi_40 -> ~t_1*     t )
    -2.66698117E+00    2     1000005        -5   # BR(~chi_40 -> ~b_1      bb)
    -2.66698117E+00    2    -1000005         5   # BR(~chi_40 -> ~b_1*     b )
    -2.64376823E+00    2     2000005        -5   # BR(~chi_40 -> ~b_2      bb)
    -2.64376823E+00    2    -2000005         5   # BR(~chi_40 -> ~b_2*     b )
     1.70908487E-13    2     1000011       -11   # BR(~chi_40 -> ~e_L-     e+)
     1.70908487E-13    2    -1000011        11   # BR(~chi_40 -> ~e_L+     e-)
     2.93823476E-26    2     2000011       -11   # BR(~chi_40 -> ~e_R-     e+)
     2.93823476E-26    2    -2000011        11   # BR(~chi_40 -> ~e_R+     e-)
     1.70908487E-13    2     1000013       -13   # BR(~chi_40 -> ~mu_L-    mu+)
     1.70908487E-13    2    -1000013        13   # BR(~chi_40 -> ~mu_L+    mu-)
     2.93823476E-26    2     2000013       -13   # BR(~chi_40 -> ~mu_R-    mu+)
     2.93823476E-26    2    -2000013        13   # BR(~chi_40 -> ~mu_R+    mu-)
     2.45425237E-13    2     1000012       -12   # BR(~chi_40 -> ~nu_eL    nu_eb)
     2.45425237E-13    2    -1000012        12   # BR(~chi_40 -> ~nu_eL*   nu_e )
     2.45425237E-13    2     1000014       -14   # BR(~chi_40 -> ~nu_muL   nu_mub)
     2.45425237E-13    2    -1000014        14   # BR(~chi_40 -> ~nu_muL*  nu_mu )
     2.45425237E-13    2     1000016       -16   # BR(~chi_40 -> ~nu_tau1  nu_taub)
     2.45425237E-13    2    -1000016        16   # BR(~chi_40 -> ~nu_tau1* nu_tau )
     1.73498444E+00    2     1000039        22   # BR(~chi_40 -> ~G        gam)
     5.42037524E+00    2     1000039        23   # BR(~chi_40 -> ~G        Z)
     3.26984091E-07    2     1000039        25   # BR(~chi_40 -> ~G        h)
     2.05316502E-06    2     1000039        35   # BR(~chi_40 -> ~G        H)
     4.04583348E-10    2     1000039        36   # BR(~chi_40 -> ~G        A)
#
#
#
#
