# SUSY Les Houches Accord 2 - MSSM spectrum + Decays
# SPheno v3.1.12 
# W. Porod, Comput. Phys. Commun. 153 (2003) 275-315, hep-ph/0301101
# in case of problems send email to porod@physik.uni-wuerzburg.de
# Created: 12.11.2012,  11:43
Block SPINFO         # Program information
     1   SPheno      # spectrum calculator
     2   v3.1.12     # version number
#
Block SPhenoINFO     # SPheno specific information
    1      2         # using 2-loop RGEs
    2      1         # using running masses for boundary conditions at mZ
Block MODSEL  # Model selection
    1    2    # mGMSB model
Block MINPAR  # Input parameters
    1    8.00000000E+04  # Lambda, scale of SUSY breaking
    2    2.50000000E+05  # M_M, messenger mass scale
    3    1.50000000E+01  # tanb at m_Z   
    4    1.00000000E+00  # Sign(mu)
    5    3.00000000E+00  # N_5 number of effective five-plets
    6    1.00000000E+00  # c_grav, Gravitino mass factor
Block gauge Q=  2.50000000E+05  # (GMSB scale)
   1    4.94084934E-01  # g'(Q)^DRbar
   2    6.50946886E-01  # g(Q)^DRbar
   3    9.45237973E-01  # g3(Q)^DRbar
Block SMINPUTS  # SM parameters
         1     1.27932480E+02  # alpha_em^-1(MZ)^MSbar
         2     1.16639000E-05  # G_mu [GeV^-2]
         3     1.17200000E-01  # alpha_s(MZ)^MSbar
         4     9.11876000E+01  # m_Z(pole)
         5     4.20000000E+00  # m_b(m_b), MSbar
         6     1.72500000E+02  # m_t(pole)
         7     1.77700000E+00  # m_tau(pole)
         8     0.00000000E+00  # m_nu_3
        11     5.10998910E-04  # m_e(pole)
        12     0.00000000E+00  # m_nu_1
        13     1.05658000E-01  # m_muon(pole)
        14     0.00000000E+00  # m_nu_2
        21     5.00000000E-03  # m_d(2 GeV), MSbar
        22     3.00000000E-03  # m_u(2 GeV), MSbar
        23     1.05000000E-01  # m_s(2 GeV), MSbar
        24     1.27000000E+00  # m_c(m_c), MSbar
Block gauge Q=  1.56283654E+03  # (SUSY scale)
   1    3.64027299E-01  # g'(Q)^DRbar
   2    6.40643630E-01  # g(Q)^DRbar
   3    1.03552026E+00  # g3(Q)^DRbar
Block Yu Q=  1.56283654E+03  # (SUSY scale)
  1  1     8.48067536E-06   # Y_u(Q)^DRbar
  2  2     3.59015291E-03   # Y_c(Q)^DRbar
  3  3     8.50279045E-01   # Y_t(Q)^DRbar
Block Yd Q=  1.56283654E+03  # (SUSY scale)
  1  1     1.94029735E-04   # Y_d(Q)^DRbar
  2  2     4.07462384E-03   # Y_s(Q)^DRbar
  3  3     1.93000261E-01   # Y_b(Q)^DRbar
Block Ye Q=  1.56283654E+03  # (SUSY scale)
  1  1     4.33740646E-05   # Y_e(Q)^DRbar
  2  2     8.96835916E-03   # Y_mu(Q)^DRbar
  3  3     1.50878488E-01   # Y_tau(Q)^DRbar
Block Au Q=  1.56283654E+03  # (SUSY scale)
  1  1    -5.22111279E+02   # A_u(Q)^DRbar
  2  2    -5.22110468E+02   # A_c(Q)^DRbar
  3  3    -4.90252545E+02   # A_t(Q)^DRbar
Block Ad Q=  1.56283654E+03  # (SUSY scale)
  1  1    -5.56944918E+02   # A_d(Q)^DRbar
  2  2    -5.56943983E+02   # A_s(Q)^DRbar
  3  3    -5.45066682E+02   # A_b(Q)^DRbar
Block Ae Q=  1.56283654E+03  # (SUSY scale)
  1  1    -5.82180698E+01   # A_e(Q)^DRbar
  2  2    -5.82175708E+01   # A_mu(Q)^DRbar
  3  3    -5.80768731E+01   # A_tau(Q)^DRbar
Block MSOFT Q=  1.56283654E+03  # soft SUSY breaking masses at Q
   1    3.39196035E+02  # M_1
   2    6.27984583E+02  # M_2
   3    1.64886674E+03  # M_3
  21    2.24093386E+05  # M^2_(H,d)
  22   -2.93732975E+05  # M^2_(H,u)
  31    5.03427665E+02  # M_(L,11)
  32    5.03425121E+02  # M_(L,22)
  33    5.02707727E+02  # M_(L,33)
  34    2.42204971E+02  # M_(E,11)
  35    2.42194218E+02  # M_(E,22)
  36    2.39143127E+02  # M_(E,33)
  41    1.62296624E+03  # M_(Q,11)
  42    1.62296408E+03  # M_(Q,22)
  43    1.56813913E+03  # M_(Q,33)
  44    1.55857729E+03  # M_(U,11)
  45    1.55857534E+03  # M_(U,22)
  46    1.44614343E+03  # M_(U,33)
  47    1.55240047E+03  # M_(D,11)
  48    1.55239788E+03  # M_(D,22)
  49    1.54661936E+03  # M_(D,33)
Block MASS  # Mass spectrum
#   PDG code      mass          particle
         6     1.72500000E+02  # m_t(pole)
        23     9.11876000E+01  # m_Z(pole)
        24     8.03134861E+01  # W+
        15     1.77700000E+00  # m_tau(pole)
        25     1.16496549E+02  # h0
        35     7.61510610E+02  # H0
        36     7.61327135E+02  # A0
        37     7.65977692E+02  # H+
   1000001     1.69117547E+03  # ~d_L
   2000001     1.61738142E+03  # ~d_R
   1000002     1.68936491E+03  # ~u_L
   2000002     1.62264227E+03  # ~u_R
   1000003     1.69117311E+03  # ~s_L
   2000003     1.61737803E+03  # ~s_R
   1000004     1.68936269E+03  # ~c_L
   2000004     1.62263985E+03  # ~c_R
   1000005     1.60785408E+03  # ~b_1
   2000005     1.62784256E+03  # ~b_2
   1000006     1.49164965E+03  # ~t_1
   2000006     1.63741934E+03  # ~t_2
   1000011     5.15272656E+02  # ~e_L-
   2000011     2.54642892E+02  # ~e_R-
   1000012     5.08754878E+02  # ~nu_eL
   1000013     5.15273356E+02  # ~mu_L-
   2000013     2.54621248E+02  # ~mu_R-
   1000014     5.08751295E+02  # ~nu_muL
   1000015     2.48475036E+02  # ~tau_1-
   2000015     5.15459219E+02  # ~tau_2-
   1000016     5.07742678E+02  # ~nu_tauL
   1000021     1.74298515E+03  # ~g
   1000022     3.28373813E+02  # ~chi_10
   1000023     5.57596524E+02  # ~chi_20
   1000025    -5.96602030E+02  # ~chi_30
   1000035     6.83323006E+02  # ~chi_40
   1000024     5.56061353E+02  # ~chi_1+
   1000037     6.83180271E+02  # ~chi_2+
   1000039     4.80000000E-09  # ~G
# Higgs mixing
Block alpha # Effective Higgs mixing angle
          -7.19401666E-02   # alpha
Block Hmix Q=  1.56283654E+03  # Higgs mixing parameters
   1    5.87227725E+02  # mu
   2    1.44079106E+01  # tan[beta](Q)
   3    2.43796030E+02  # v(Q)
   4    5.14771879E+05  # m^2_A(Q)
Block stopmix # stop mixing matrix
   1  1     2.08423118E-01   # Re[R_st(1,1)]
   1  2     9.78038754E-01   # Re[R_st(1,2)]
   2  1    -9.78038754E-01   # Re[R_st(2,1)]
   2  2     2.08423118E-01   # Re[R_st(2,2)]
Block sbotmix # sbottom mixing matrix
   1  1     3.59470033E-01   # Re[R_sb(1,1)]
   1  2     9.33156630E-01   # Re[R_sb(1,2)]
   2  1    -9.33156630E-01   # Re[R_sb(2,1)]
   2  2     3.59470033E-01   # Re[R_sb(2,2)]
Block staumix # stau mixing matrix
   1  1     7.70856313E-02   # Re[R_sta(1,1)]
   1  2     9.97024476E-01   # Re[R_sta(1,2)]
   2  1    -9.97024476E-01   # Re[R_sta(2,1)]
   2  2     7.70856313E-02   # Re[R_sta(2,2)]
Block Nmix # neutralino mixing matrix
   1  1    -9.90809791E-01   # Re[N(1,1)]
   1  2     1.91353243E-02   # Re[N(1,2)]
   1  3    -1.14713144E-01   # Re[N(1,3)]
   1  4     6.90701925E-02   # Re[N(1,4)]
   2  1     1.18918147E-01   # Re[N(2,1)]
   2  2     5.61803969E-01   # Re[N(2,2)]
   2  3    -5.94537616E-01   # Re[N(2,3)]
   2  4     5.62814177E-01   # Re[N(2,4)]
   3  1     3.13236325E-02   # Re[N(3,1)]
   3  2    -4.21634117E-02   # Re[N(3,2)]
   3  3    -7.04020858E-01   # Re[N(3,3)]
   3  4    -7.08234219E-01   # Re[N(3,4)]
   4  1    -5.63317143E-02   # Re[N(4,1)]
   4  2     8.25973599E-01   # Re[N(4,2)]
   4  3     3.71107194E-01   # Re[N(4,3)]
   4  4    -4.20563672E-01   # Re[N(4,4)]
Block Umix # chargino mixing matrix
   1  1    -5.22527457E-01   # Re[U(1,1)]
   1  2     8.52622458E-01   # Re[U(1,2)]
   2  1     8.52622458E-01   # Re[U(2,1)]
   2  2     5.22527457E-01   # Re[U(2,2)]
Block Vmix # chargino mixing matrix
   1  1    -5.92311124E-01   # Re[V(1,1)]
   1  2     8.05709335E-01   # Re[V(1,2)]
   2  1     8.05709335E-01   # Re[V(2,1)]
   2  2     5.92311124E-01   # Re[V(2,2)]
DECAY   2000011     1.04778715E-10   # ~e^-_R
#    BR                NDA      ID1      ID2
     5.08223655E-01    2     1000039        11   # BR(~e^-_R -> ~G e^-)
#    BR                NDA      ID1      ID2       ID3
     1.27687090E-01    3     1000015        11       -15   # BR(~e^-_R -> ~tau^-_1 e^- tau^+)
     3.64089255E-01    3    -1000015        11        15   # BR(~e^-_R -> ~tau^+_1 e^- tau^-)
DECAY   1000011     2.19450443E-01   # ~e^-_L
#    BR                NDA      ID1      ID2
     9.99999918E-01    2     1000022        11   # BR(~e^-_L -> chi^0_1 e^-)
     3.55156507E-08    2     2000011        23   # BR(~e^-_L -> ~e^-_R Z)
     3.84085994E-08    2     2000011        25   # BR(~e^-_L -> ~e^-_R h^0)
     8.23226177E-09    2     1000039        11   # BR(~e^-_L -> ~G e^-)
DECAY   2000013     1.03895061E-10   # ~mu^-_R
#    BR                NDA      ID1      ID2
     5.12328089E-01    2     1000039        13   # BR(~mu^-_R -> ~G mu^-)
#    BR                NDA      ID1      ID2       ID3
     1.26589059E-01    3     1000015        13       -15   # BR(~mu^-_R -> ~tau^-_1 mu^- tau^+)
     3.61082852E-01    3    -1000015        13        15   # BR(~mu^-_R -> ~tau^+_1 mu^- tau^-)
DECAY   1000013     2.20154309E-01   # ~mu^-_L
#    BR                NDA      ID1      ID2
     9.96849508E-01    2     1000022        13   # BR(~mu^-_L -> chi^0_1 mu^-)
     1.51367220E-03    2     2000013        23   # BR(~mu^-_L -> ~mu^-_R Z)
     1.63681131E-03    2     2000013        25   # BR(~mu^-_L -> ~mu^-_R h^0)
     8.20599642E-09    2     1000039        13   # BR(~mu^-_L -> ~G mu^-)
DECAY   1000015     4.70972029E-11   # ~tau^-_1
#    BR                NDA      ID1      ID2
     1.00000000E+00    2     1000039        15   # BR(~tau^-_1 -> ~G tau^-)
DECAY   2000015     4.20513595E-01   # ~tau^-_2
#    BR                NDA      ID1      ID2
     5.28583491E-01    2     1000022        15   # BR(~tau^-_2 -> chi^0_1 tau^-)
     2.29624429E-01    2     1000015        23   # BR(~tau^-_2 -> ~tau^-_1 Z)
     2.41792077E-01    2     1000015        25   # BR(~tau^-_2 -> ~tau^-_1 h^0)
     4.30369044E-09    2     1000039        15   # BR(~tau^-_2 -> ~G tau^-)
DECAY   1000012     2.39563370E-01   # ~nu_e
#    BR                NDA      ID1      ID2
     9.99999931E-01    2     1000022        12   # BR(~nu_e -> chi^0_1 nu_e)
     6.21030319E-08    2     2000011        24   # BR(~nu_e -> ~e^-_R W^+)
     7.07607895E-09    2     1000039        12   # BR(~nu_e -> ~G nu_e)
DECAY   1000014     2.40192948E-01   # ~nu_mu
#    BR                NDA      ID1      ID2
     9.97351712E-01    2     1000022        14   # BR(~nu_mu -> chi^0_1 nu_mu)
     2.64828111E-03    2     2000013        24   # BR(~nu_mu -> ~mu^-_R W^+)
     7.05728311E-09    2     1000039        14   # BR(~nu_mu -> ~G nu_mu)
DECAY   1000016     4.20725875E-01   # ~nu_tau
#    BR                NDA      ID1      ID2
     5.65037493E-01    2     1000022        16   # BR(~nu_tau -> chi^0_1 nu_tau)
     4.34962503E-01    2     1000015        24   # BR(~nu_tau -> ~tau^-_1 W^+)
     3.98923187E-09    2     1000039        16   # BR(~nu_tau -> ~G nu_tau)
DECAY   2000001     8.68227877E-01   # ~d_R
#    BR                NDA      ID1      ID2
     9.84878001E-01    2     1000022         1   # BR(~d_R -> chi^0_1 d)
     1.19832650E-02    2     1000023         1   # BR(~d_R -> chi^0_2 d)
     7.99726559E-04    2     1000025         1   # BR(~d_R -> chi^0_3 d)
     2.33720149E-03    2     1000035         1   # BR(~d_R -> chi^0_4 d)
     1.10401952E-06    2    -1000024         2   # BR(~d_R -> chi^-_1 u)
     6.75017163E-08    2    -1000037         2   # BR(~d_R -> chi^-_2 u)
     6.34013741E-07    2     1000039         1   # BR(~d_R -> ~G d)
DECAY   1000001     1.52929594E+01   # ~d_L
#    BR                NDA      ID1      ID2
     1.78796104E-02    2     1000022         1   # BR(~d_L -> chi^0_1 d)
     1.04303469E-01    2     1000023         1   # BR(~d_L -> chi^0_2 d)
     8.00634938E-04    2     1000025         1   # BR(~d_L -> chi^0_3 d)
     2.21255444E-01    2     1000035         1   # BR(~d_L -> chi^0_4 d)
     1.96110365E-01    2    -1000024         2   # BR(~d_L -> chi^-_1 u)
     4.59650432E-01    2    -1000037         2   # BR(~d_L -> chi^-_2 u)
     4.49906194E-08    2     1000039         1   # BR(~d_L -> ~G d)
DECAY   2000003     8.69096850E-01   # ~s_R
#    BR                NDA      ID1      ID2
     9.83911495E-01    2     1000022         3   # BR(~s_R -> chi^0_1 s)
     1.22050021E-02    2     1000023         3   # BR(~s_R -> chi^0_2 s)
     1.01763529E-03    2     1000025         3   # BR(~s_R -> chi^0_3 s)
     2.34911454E-03    2     1000035         3   # BR(~s_R -> chi^0_4 s)
     4.86380268E-04    2    -1000024         4   # BR(~s_R -> chi^-_1 c)
     2.97389555E-05    2    -1000037         4   # BR(~s_R -> chi^-_2 c)
     6.33373177E-07    2     1000039         3   # BR(~s_R -> ~G s)
DECAY   1000003     1.52936027E+01   # ~s_L
#    BR                NDA      ID1      ID2
     1.78784674E-02    2     1000022         3   # BR(~s_L -> chi^0_1 s)
     1.04305032E-01    2     1000023         3   # BR(~s_L -> chi^0_2 s)
     8.14930840E-04    2     1000025         3   # BR(~s_L -> chi^0_3 s)
     2.21251841E-01    2     1000035         3   # BR(~s_L -> chi^0_4 s)
     1.96105771E-01    2    -1000024         4   # BR(~s_L -> chi^-_1 c)
     4.59643913E-01    2    -1000037         4   # BR(~s_L -> chi^-_2 c)
     4.49884121E-08    2     1000039         3   # BR(~s_L -> ~G s)
DECAY   1000005     6.33169199E+00   # ~b_1
#    BR                NDA      ID1      ID2
     1.42398530E-01    2     1000022         5   # BR(~b_1 -> chi^0_1 b)
     1.50363727E-01    2     1000023         5   # BR(~b_1 -> chi^0_2 b)
     6.04654172E-02    2     1000025         5   # BR(~b_1 -> chi^0_3 b)
     1.73077921E-02    2     1000035         5   # BR(~b_1 -> chi^0_4 b)
     4.71745332E-01    2    -1000024         6   # BR(~b_1 -> chi^-_1 t)
     1.55340454E-01    2    -1000037         6   # BR(~b_1 -> chi^-_2 t)
     2.37866370E-03    2     1000006       -24   # BR(~b_1 -> ~t_1 W^-)
     8.44056806E-08    2     1000039         5   # BR(~b_1 -> ~G b)
DECAY   2000005     2.86325936E+01   # ~b_2
#    BR                NDA      ID1      ID2
     8.28322910E-03    2     1000022         5   # BR(~b_2 -> chi^0_1 b)
     4.21809964E-02    2     1000023         5   # BR(~b_2 -> chi^0_2 b)
     1.80678523E-02    2     1000025         5   # BR(~b_2 -> chi^0_3 b)
     1.14395750E-01    2     1000035         5   # BR(~b_2 -> chi^0_4 b)
     3.82264586E-01    2    -1000024         6   # BR(~b_2 -> chi^-_1 t)
     4.26984754E-01    2    -1000037         6   # BR(~b_2 -> chi^-_2 t)
     7.82281301E-03    2     1000006       -24   # BR(~b_2 -> ~t_1 W^-)
     1.98545432E-08    2     1000039         5   # BR(~b_2 -> ~G b)
DECAY   2000002     3.48621022E+00   # ~u_R
#    BR                NDA      ID1      ID2
     9.84860261E-01    2     1000022         2   # BR(~u_R -> chi^0_1 u)
     1.19967753E-02    2     1000023         2   # BR(~u_R -> chi^0_2 u)
     8.00399848E-04    2     1000025         2   # BR(~u_R -> chi^0_3 u)
     2.34240252E-03    2     1000035         2   # BR(~u_R -> chi^0_4 u)
     5.34254506E-10    2     1000024         1   # BR(~u_R -> chi^+_1 d)
     4.27183517E-11    2     1000037         1   # BR(~u_R -> chi^+_2 d)
     1.60483543E-07    2     1000039         2   # BR(~u_R -> ~G u)
DECAY   1000002     1.53778925E+01   # ~u_L
#    BR                NDA      ID1      ID2
     1.17941393E-02    2     1000022         2   # BR(~u_L -> chi^0_1 u)
     1.21586556E-01    2     1000023         2   # BR(~u_L -> chi^0_2 u)
     4.51030879E-04    2     1000025         2   # BR(~u_L -> chi^0_3 u)
     2.08553961E-01    2     1000035         2   # BR(~u_L -> chi^0_4 u)
     2.50199191E-01    2     1000024         1   # BR(~u_L -> chi^+_1 d)
     4.07415078E-01    2     1000037         1   # BR(~u_L -> chi^+_2 d)
     4.45031423E-08    2     1000039         2   # BR(~u_L -> ~G u)
DECAY   2000004     3.48688819E+00   # ~c_R
#    BR                NDA      ID1      ID2
     9.84664619E-01    2     1000022         4   # BR(~c_R -> chi^0_1 c)
     1.20395251E-02    2     1000023         4   # BR(~c_R -> chi^0_2 c)
     8.47157786E-04    2     1000025         4   # BR(~c_R -> chi^0_3 c)
     2.34515788E-03    2     1000035         4   # BR(~c_R -> chi^0_4 c)
     9.57253100E-05    2     1000024         3   # BR(~c_R -> chi^+_1 s)
     7.65423045E-06    2     1000037         3   # BR(~c_R -> chi^+_2 s)
     1.60450749E-07    2     1000039         4   # BR(~c_R -> ~G c)
DECAY   1000004     1.53785452E+01   # ~c_L
#    BR                NDA      ID1      ID2
     1.17940372E-02    2     1000022         4   # BR(~c_L -> chi^0_1 c)
     1.21583422E-01    2     1000023         4   # BR(~c_L -> chi^0_2 c)
     4.61460166E-04    2     1000025         4   # BR(~c_L -> chi^0_3 c)
     2.08551776E-01    2     1000035         4   # BR(~c_L -> chi^0_4 c)
     2.50200268E-01    2     1000024         3   # BR(~c_L -> chi^+_1 s)
     4.07408991E-01    2     1000037         3   # BR(~c_L -> chi^+_2 s)
     4.45008608E-08    2     1000039         4   # BR(~c_L -> ~G c)
DECAY   1000006     3.30771546E+01   # ~t_1
#    BR                NDA      ID1      ID2
     7.06240999E-06    2     1000022         4   # BR(~t_1 -> chi^0_1 c)
     9.38876792E-02    2     1000022         6   # BR(~t_1 -> chi^0_1 t)
     6.93904139E-05    2     1000023         4   # BR(~t_1 -> chi^0_2 c)
     1.73426871E-01    2     1000023         6   # BR(~t_1 -> chi^0_2 t)
     2.36057569E-01    2     1000025         6   # BR(~t_1 -> chi^0_3 t)
     3.93379773E-02    2     1000035         6   # BR(~t_1 -> chi^0_4 t)
     3.73951752E-01    2     1000024         5   # BR(~t_1 -> chi^+_1 b)
     8.32528065E-02    2     1000037         5   # BR(~t_1 -> chi^+_2 b)
     1.05217337E-08    2     1000039         6   # BR(~t_1 -> ~G t)
#    BR                NDA      ID1      ID2       ID3
     8.88144745E-06    3     1000022        24         5   # BR(~t_1 -> chi^0_1 W^+ b)
DECAY   2000006     3.25632920E+01   # ~t_2
#    BR                NDA      ID1      ID2
     6.86246093E-03    2     1000022         6   # BR(~t_2 -> chi^0_1 t)
     1.82301683E-01    2     1000023         6   # BR(~t_2 -> chi^0_2 t)
     2.51749429E-01    2     1000025         6   # BR(~t_2 -> chi^0_3 t)
     2.29949726E-01    2     1000035         6   # BR(~t_2 -> chi^0_4 t)
     6.09879234E-02    2     1000024         5   # BR(~t_2 -> chi^+_1 b)
     2.60603768E-01    2     1000037         5   # BR(~t_2 -> chi^+_2 b)
     4.24833287E-03    2     1000006        23   # BR(~t_2 -> ~t_1 Z)
     3.29666001E-03    2     1000006        25   # BR(~t_2 -> ~t_1 h^0)
     1.71930858E-08    2     1000039         6   # BR(~t_2 -> ~G t)
DECAY   1000024     4.12294086E-01   # chi^+_1
#    BR                NDA      ID1      ID2
     1.65949599E-08    2    -2000011        12   # BR(chi^+_1 -> ~e^+_R nu_e)
     3.00265628E-02    2    -1000011        12   # BR(chi^+_1 -> ~e^+_L nu_e)
     7.09522293E-04    2    -2000013        14   # BR(chi^+_1 -> ~mu^+_R nu_mu)
     3.00185506E-02    2    -1000013        14   # BR(chi^+_1 -> ~mu^+_L nu_mu)
     2.03964449E-01    2    -1000015        16   # BR(chi^+_1 -> ~tau^+_1 nu_tau)
     2.78540421E-02    2    -2000015        16   # BR(chi^+_1 -> ~tau^+_2 nu_tau)
     5.12682190E-02    2     1000012       -11   # BR(chi^+_1 -> ~nu_e e^+)
     5.13011637E-02    2     1000014       -13   # BR(chi^+_1 -> ~nu_mu mu^+)
     6.08734245E-02    2     1000016       -15   # BR(chi^+_1 -> ~nu_tau tau^+)
     5.43861657E-01    2     1000022        24   # BR(chi^+_1 -> chi^0_1 W^+)
#    BR                NDA      ID1      ID2       ID3
     5.54634246E-08    3     1000022        -1         2   # BR(chi^+_1 -> chi^0_1 d_bar u)
     5.58872206E-08    3     1000022        -3         4   # BR(chi^+_1 -> chi^0_1 s_bar c)
     1.03763342E-04    3     1000022        -5         6   # BR(chi^+_1 -> chi^0_1 b_bar t)
     1.64179856E-12    3     1000022       -11        12   # BR(chi^+_1 -> chi^0_1 e^+ nu_e)
     7.01729877E-08    3     1000022       -13        14   # BR(chi^+_1 -> chi^0_1 mu^+ nu_mu)
     1.84468858E-05    3     1000022       -15        16   # BR(chi^+_1 -> chi^0_1 tau^+ nu_tau)
DECAY   1000037     3.06953235E+00   # chi^+_2
#    BR                NDA      ID1      ID2
     1.77229126E-10    2    -2000011        12   # BR(chi^+_2 -> ~e^+_R nu_e)
     1.22786691E-01    2    -1000011        12   # BR(chi^+_2 -> ~e^+_L nu_e)
     7.57800983E-06    2    -2000013        14   # BR(chi^+_2 -> ~mu^+_R nu_mu)
     1.22792947E-01    2    -1000013        14   # BR(chi^+_2 -> ~mu^+_L nu_mu)
     2.22046436E-03    2    -1000015        16   # BR(chi^+_2 -> ~tau^+_1 nu_tau)
     1.24557972E-01    2    -2000015        16   # BR(chi^+_2 -> ~tau^+_2 nu_tau)
     1.17040583E-01    2     1000012       -11   # BR(chi^+_2 -> ~nu_e e^+)
     1.17052843E-01    2     1000014       -13   # BR(chi^+_2 -> ~nu_mu mu^+)
     1.20535250E-01    2     1000016       -15   # BR(chi^+_2 -> ~nu_tau tau^+)
     2.43527157E-02    2     1000022        24   # BR(chi^+_2 -> chi^0_1 W^+)
     1.29917475E-01    2     1000023        24   # BR(chi^+_2 -> chi^0_2 W^+)
     7.69096312E-03    2     1000025        24   # BR(chi^+_2 -> chi^0_3 W^+)
     9.45934129E-02    2     1000024        23   # BR(chi^+_2 -> chi^+_1 Z)
     1.63731362E-02    2     1000024        25   # BR(chi^+_2 -> chi^+_1 h^0)
#    BR                NDA      ID1      ID2       ID3
     8.84433321E-09    3     1000024         2        -2   # BR(chi^+_2 -> chi^+_1 u u_bar)
     8.82968791E-09    3     1000024         4        -4   # BR(chi^+_2 -> chi^+_1 c c_bar)
     1.01986861E-08    3     1000024         1        -1   # BR(chi^+_2 -> chi^+_1 d d_bar)
     1.02197942E-08    3     1000024         3        -3   # BR(chi^+_2 -> chi^+_1 s s_bar)
     6.76986302E-08    3     1000024         5        -5   # BR(chi^+_2 -> chi^+_1 b b_bar)
     1.55487751E-06    3     1000024        11       -11   # BR(chi^+_2 -> chi^+_1 e^- e^+)
     1.55541699E-06    3     1000024        13       -13   # BR(chi^+_2 -> chi^+_1 mu^- mu^+)
     1.65112622E-06    3     1000024        15       -15   # BR(chi^+_2 -> chi^+_1 tau^- tau^+)
     4.54666631E-06    3     1000024        12       -12   # BR(chi^+_2 -> chi^+_1 nu_e nu_bar_e)
     1.26311093E-07    3     1000022        -1         2   # BR(chi^+_2 -> chi^0_1 d_bar u)
     1.26326573E-07    3     1000022        -3         4   # BR(chi^+_2 -> chi^0_1 s_bar c)
     6.51078173E-05    3     1000022        -5         6   # BR(chi^+_2 -> chi^0_1 b_bar t)
     4.29689289E-14    3     1000022       -11        12   # BR(chi^+_2 -> chi^0_1 e^+ nu_e)
     1.83683885E-09    3     1000022       -13        14   # BR(chi^+_2 -> chi^0_1 mu^+ nu_mu)
     5.03774664E-07    3     1000022       -15        16   # BR(chi^+_2 -> chi^0_1 tau^+ nu_tau)
     4.62362497E-09    3     1000023        -1         2   # BR(chi^+_2 -> chi^0_2 d_bar u)
     4.64220241E-09    3     1000023        -3         4   # BR(chi^+_2 -> chi^0_2 s_bar c)
     8.86142584E-07    3     1000023       -11        12   # BR(chi^+_2 -> chi^0_2 e^+ nu_e)
     8.86267466E-07    3     1000023       -13        14   # BR(chi^+_2 -> chi^0_2 mu^+ nu_mu)
     8.87849360E-07    3     1000023       -15        16   # BR(chi^+_2 -> chi^0_2 tau^+ nu_tau)
     1.37292096E-11    3     1000025        -1         2   # BR(chi^+_2 -> chi^0_3 d_bar u)
     1.54906378E-11    3     1000025        -3         4   # BR(chi^+_2 -> chi^0_3 s_bar c)
     1.30401928E-09    3     1000025       -11        12   # BR(chi^+_2 -> chi^0_3 e^+ nu_e)
     1.35311502E-09    3     1000025       -13        14   # BR(chi^+_2 -> chi^0_3 mu^+ nu_mu)
     1.52700705E-08    3     1000025       -15        16   # BR(chi^+_2 -> chi^0_3 tau^+ nu_tau)
DECAY   1000022     8.50589312E-01   # chi^0_1
#    BR                NDA      ID1      ID2
     1.58786830E-01    2     2000011       -11   # BR(chi^0_1 -> ~e^-_R e^+)
     1.58786830E-01    2    -2000011        11   # BR(chi^0_1 -> ~e^+_R e^-)
     1.58867587E-01    2     2000013       -13   # BR(chi^0_1 -> ~mu^-_R mu^+)
     1.58867587E-01    2    -2000013        13   # BR(chi^0_1 -> ~mu^+_R mu^-)
     1.82345583E-01    2     1000015       -15   # BR(chi^0_1 -> ~tau^-_1 tau^+)
     1.82345583E-01    2    -1000015        15   # BR(chi^0_1 -> ~tau^+_1 tau^-)
     1.62057797E-10    2     1000039        22   # BR(chi^0_1 -> ~G photon)
     4.85770269E-11    2     1000039        23   # BR(chi^0_1 -> ~G Z)
     1.30732194E-12    2     1000039        25   # BR(chi^0_1 -> ~G h^0)
DECAY   1000023     5.22872750E-01   # chi^0_2
#    BR                NDA      ID1      ID2
     2.49034028E-02    2     2000011       -11   # BR(chi^0_2 -> ~e^-_R e^+)
     2.49034028E-02    2    -2000011        11   # BR(chi^0_2 -> ~e^+_R e^-)
     1.83920993E-02    2     1000011       -11   # BR(chi^0_2 -> ~e^-_L e^+)
     1.83920993E-02    2    -1000011        11   # BR(chi^0_2 -> ~e^+_L e^-)
     2.51767863E-02    2     2000013       -13   # BR(chi^0_2 -> ~mu^-_R mu^+)
     2.51767863E-02    2    -2000013        13   # BR(chi^0_2 -> ~mu^+_R mu^-)
     1.83968858E-02    2     1000013       -13   # BR(chi^0_2 -> ~mu^-_L mu^+)
     1.83968858E-02    2    -1000013        13   # BR(chi^0_2 -> ~mu^+_L mu^-)
     1.03876379E-01    2     1000015       -15   # BR(chi^0_2 -> ~tau^-_1 tau^+)
     1.03876379E-01    2    -1000015        15   # BR(chi^0_2 -> ~tau^+_1 tau^-)
     1.97432133E-02    2     2000015       -15   # BR(chi^0_2 -> ~tau^-_2 tau^+)
     1.97432133E-02    2    -2000015        15   # BR(chi^0_2 -> ~tau^+_2 tau^-)
     1.49207369E-02    2     1000012       -12   # BR(chi^0_2 -> ~nu_e nu_bar_e)
     1.49207369E-02    2    -1000012        12   # BR(chi^0_2 -> ~nu^*_e nu_e)
     1.49228255E-02    2     1000014       -14   # BR(chi^0_2 -> ~nu_mu nu_bar_mu)
     1.49228255E-02    2    -1000014        14   # BR(chi^0_2 -> ~nu^*_mu nu_mu)
     1.55160846E-02    2     1000016       -16   # BR(chi^0_2 -> ~nu_tau nu_bar_tau)
     1.55160846E-02    2    -1000016        16   # BR(chi^0_2 -> ~nu^*_tau nu_tau)
     3.06799222E-02    2     1000022        23   # BR(chi^0_2 -> chi^0_1 Z)
     4.57584150E-01    2     1000022        25   # BR(chi^0_2 -> chi^0_1 h^0)
     7.44038402E-10    2     1000039        22   # BR(chi^0_2 -> ~G photon)
     8.54556745E-11    2     1000039        23   # BR(chi^0_2 -> ~G Z)
     1.86746853E-09    2     1000039        25   # BR(chi^0_2 -> ~G h^0)
     1.28717104E-06    2     1000022        22   # BR(chi^0_2 -> chi^0_1 photon)
#    BR                NDA      ID1      ID2       ID3
     3.16555929E-08    3     1000022         2        -2   # BR(chi^0_2 -> chi^0_1 u u_bar)
     3.16689700E-08    3     1000022         4        -4   # BR(chi^0_2 -> chi^0_1 c c_bar)
     2.66066166E-08    3     1000022         1        -1   # BR(chi^0_2 -> chi^0_1 d d_bar)
     2.70853504E-08    3     1000022         3        -3   # BR(chi^0_2 -> chi^0_1 s s_bar)
     1.11433341E-06    3     1000022         5        -5   # BR(chi^0_2 -> chi^0_1 b b_bar)
     7.83640258E-06    3     1000022        11       -11   # BR(chi^0_2 -> chi^0_1 e^- e^+)
     7.88713916E-06    3     1000022        13       -13   # BR(chi^0_2 -> chi^0_1 mu^- mu^+)
     2.08559034E-05    3     1000022        15       -15   # BR(chi^0_2 -> chi^0_1 tau^- tau^+)
     1.13081374E-11    3     1000024         1        -2   # BR(chi^0_2 -> chi^+_1 d u_bar)
     1.13081374E-11    3    -1000024        -1         2   # BR(chi^0_2 -> chi^-_1 d_bar u)
     8.75236298E-14    3     1000024         3        -4   # BR(chi^0_2 -> chi^+_1 s c_bar)
     8.75236298E-14    3    -1000024        -3         4   # BR(chi^0_2 -> chi^-_1 s_bar c)
     3.52567585E-12    3     1000024        11       -12   # BR(chi^0_2 -> chi^+_1 e^- nu_bar_e)
     3.52567585E-12    3    -1000024       -11        12   # BR(chi^0_2 -> chi^-_1 e^+ nu_e)
     3.44396500E-12    3     1000024        13       -14   # BR(chi^0_2 -> chi^+_1 mu^- nu_bar_mu)
     3.44396500E-12    3    -1000024       -13        14   # BR(chi^0_2 -> chi^-_1 mu^+ nu_mu)
DECAY   1000025     4.56080307E-01   # chi^0_3
#    BR                NDA      ID1      ID2
     2.26311064E-03    2     2000011       -11   # BR(chi^0_3 -> ~e^-_R e^+)
     2.26311064E-03    2    -2000011        11   # BR(chi^0_3 -> ~e^+_R e^-)
     1.02314782E-04    2     1000011       -11   # BR(chi^0_3 -> ~e^-_L e^+)
     1.02314782E-04    2    -1000011        11   # BR(chi^0_3 -> ~e^+_L e^-)
     2.59710911E-03    2     2000013       -13   # BR(chi^0_3 -> ~mu^-_R mu^+)
     2.59710911E-03    2    -2000013        13   # BR(chi^0_3 -> ~mu^+_R mu^-)
     1.37299845E-04    2     1000013       -13   # BR(chi^0_3 -> ~mu^-_L mu^+)
     1.37299845E-04    2    -1000013        13   # BR(chi^0_3 -> ~mu^+_L mu^-)
     9.87669618E-02    2     1000015       -15   # BR(chi^0_3 -> ~tau^-_1 tau^+)
     9.87669618E-02    2    -1000015        15   # BR(chi^0_3 -> ~tau^+_1 tau^-)
     9.98823100E-03    2     2000015       -15   # BR(chi^0_3 -> ~tau^-_2 tau^+)
     9.98823100E-03    2    -2000015        15   # BR(chi^0_3 -> ~tau^+_2 tau^-)
     7.14533692E-04    2     1000012       -12   # BR(chi^0_3 -> ~nu_e nu_bar_e)
     7.14533692E-04    2    -1000012        12   # BR(chi^0_3 -> ~nu^*_e nu_e)
     7.14587338E-04    2     1000014       -14   # BR(chi^0_3 -> ~nu_mu nu_bar_mu)
     7.14587338E-04    2    -1000014        14   # BR(chi^0_3 -> ~nu^*_mu nu_mu)
     7.29756319E-04    2     1000016       -16   # BR(chi^0_3 -> ~nu_tau nu_bar_tau)
     7.29756319E-04    2    -1000016        16   # BR(chi^0_3 -> ~nu^*_tau nu_tau)
     7.26651193E-01    2     1000022        23   # BR(chi^0_3 -> chi^0_1 Z)
     4.07242826E-02    2     1000022        25   # BR(chi^0_3 -> chi^0_1 h^0)
     3.38015456E-13    2     1000039        22   # BR(chi^0_3 -> ~G photon)
     6.35666313E-10    2     1000039        23   # BR(chi^0_3 -> ~G Z)
     3.53966047E-09    2     1000039        25   # BR(chi^0_3 -> ~G h^0)
     1.05678420E-06    2     1000022        22   # BR(chi^0_3 -> chi^0_1 photon)
     3.28365677E-09    2     1000023        22   # BR(chi^0_3 -> chi^0_2 photon)
#    BR                NDA      ID1      ID2       ID3
     7.54035180E-10    3     1000022         2        -2   # BR(chi^0_3 -> chi^0_1 u u_bar)
     8.31172664E-10    3     1000022         4        -4   # BR(chi^0_3 -> chi^0_1 c c_bar)
     2.24673250E-10    3     1000022         1        -1   # BR(chi^0_3 -> chi^0_1 d d_bar)
     1.36548502E-09    3     1000022         3        -3   # BR(chi^0_3 -> chi^0_1 s s_bar)
     2.57760474E-06    3     1000022         5        -5   # BR(chi^0_3 -> chi^0_1 b b_bar)
     4.00977525E-07    3     1000022        11       -11   # BR(chi^0_3 -> chi^0_1 e^- e^+)
     4.95054056E-07    3     1000022        13       -13   # BR(chi^0_3 -> chi^0_1 mu^- mu^+)
     2.54730559E-05    3     1000022        15       -15   # BR(chi^0_3 -> chi^0_1 tau^- tau^+)
     1.61508300E-05    3     1000023         2        -2   # BR(chi^0_3 -> chi^0_2 u u_bar)
     1.60521827E-05    3     1000023         4        -4   # BR(chi^0_3 -> chi^0_2 c c_bar)
     2.09402895E-05    3     1000023         1        -1   # BR(chi^0_3 -> chi^0_2 d d_bar)
     2.09391475E-05    3     1000023         3        -3   # BR(chi^0_3 -> chi^0_2 s s_bar)
     1.91024706E-05    3     1000023         5        -5   # BR(chi^0_3 -> chi^0_2 b b_bar)
     4.81585689E-06    3     1000023        11       -11   # BR(chi^0_3 -> chi^0_2 e^- e^+)
     4.81554794E-06    3     1000023        13       -13   # BR(chi^0_3 -> chi^0_2 mu^- mu^+)
     4.72550799E-06    3     1000023        15       -15   # BR(chi^0_3 -> chi^0_2 tau^- tau^+)
     2.86205624E-05    3     1000023        12       -12   # BR(chi^0_3 -> chi^0_2 nu_e nu_bar_e)
     7.19923364E-05    3     1000024         1        -2   # BR(chi^0_3 -> chi^+_1 d u_bar)
     7.19923364E-05    3    -1000024        -1         2   # BR(chi^0_3 -> chi^-_1 d_bar u)
     7.16817908E-05    3     1000024         3        -4   # BR(chi^0_3 -> chi^+_1 s c_bar)
     7.16817908E-05    3    -1000024        -3         4   # BR(chi^0_3 -> chi^-_1 s_bar c)
     2.39357171E-05    3     1000024        11       -12   # BR(chi^0_3 -> chi^+_1 e^- nu_bar_e)
     2.39357171E-05    3    -1000024       -11        12   # BR(chi^0_3 -> chi^-_1 e^+ nu_e)
     2.39356512E-05    3     1000024        13       -14   # BR(chi^0_3 -> chi^+_1 mu^- nu_bar_mu)
     2.39356512E-05    3    -1000024       -13        14   # BR(chi^0_3 -> chi^-_1 mu^+ nu_mu)
     2.37240689E-05    3     1000024        15       -16   # BR(chi^0_3 -> chi^+_1 tau^- nu_bar_tau)
     2.37240689E-05    3    -1000024       -15        16   # BR(chi^0_3 -> chi^-_1 tau^+ nu_tau)
DECAY   1000035     3.18358094E+00   # chi^0_4
#    BR                NDA      ID1      ID2
     1.33152940E-03    2     2000011       -11   # BR(chi^0_4 -> ~e^-_R e^+)
     1.33152940E-03    2    -2000011        11   # BR(chi^0_4 -> ~e^+_R e^-)
     5.13967690E-02    2     1000011       -11   # BR(chi^0_4 -> ~e^-_L e^+)
     5.13967690E-02    2    -1000011        11   # BR(chi^0_4 -> ~e^+_L e^-)
     1.33444809E-03    2     2000013       -13   # BR(chi^0_4 -> ~mu^-_R mu^+)
     1.33444809E-03    2    -2000013        13   # BR(chi^0_4 -> ~mu^+_R mu^-)
     5.14037576E-02    2     1000013       -13   # BR(chi^0_4 -> ~mu^-_L mu^+)
     5.14037576E-02    2    -1000013        13   # BR(chi^0_4 -> ~mu^+_L mu^-)
     2.22898871E-03    2     1000015       -15   # BR(chi^0_4 -> ~tau^-_1 tau^+)
     2.22898871E-03    2    -1000015        15   # BR(chi^0_4 -> ~tau^+_1 tau^-)
     5.33617117E-02    2     2000015       -15   # BR(chi^0_4 -> ~tau^-_2 tau^+)
     5.33617117E-02    2    -2000015        15   # BR(chi^0_4 -> ~tau^+_2 tau^-)
     6.40626887E-02    2     1000012       -12   # BR(chi^0_4 -> ~nu_e nu_bar_e)
     6.40626887E-02    2    -1000012        12   # BR(chi^0_4 -> ~nu^*_e nu_e)
     6.40649330E-02    2     1000014       -14   # BR(chi^0_4 -> ~nu_mu nu_bar_mu)
     6.40649330E-02    2    -1000014        14   # BR(chi^0_4 -> ~nu^*_mu nu_mu)
     6.46977420E-02    2     1000016       -16   # BR(chi^0_4 -> ~nu_tau nu_bar_tau)
     6.46977420E-02    2    -1000016        16   # BR(chi^0_4 -> ~nu^*_tau nu_tau)
     1.23128422E-01    2     1000024       -24   # BR(chi^0_4 -> chi^+_1 W^-)
     1.23128422E-01    2    -1000024        24   # BR(chi^0_4 -> chi^-_1 W^+)
     2.92565520E-03    2     1000022        23   # BR(chi^0_4 -> chi^0_1 Z)
     4.38940241E-04    2     1000023        23   # BR(chi^0_4 -> chi^0_2 Z)
     2.56160060E-02    2     1000022        25   # BR(chi^0_4 -> chi^0_1 h^0)
     1.58901101E-02    2     1000023        25   # BR(chi^0_4 -> chi^0_2 h^0)
     3.00105584E-10    2     1000039        22   # BR(chi^0_4 -> ~G photon)
     2.18076775E-09    2     1000039        23   # BR(chi^0_4 -> ~G Z)
     4.62892230E-10    2     1000039        25   # BR(chi^0_4 -> ~G h^0)
     3.92247191E-07    2     1000022        22   # BR(chi^0_4 -> chi^0_1 photon)
     1.96278902E-06    2     1000023        22   # BR(chi^0_4 -> chi^0_2 photon)
     9.62797740E-07    2     1000025        22   # BR(chi^0_4 -> chi^0_3 photon)
#    BR                NDA      ID1      ID2       ID3
     5.01783310E-08    3     1000022         2        -2   # BR(chi^0_4 -> chi^0_1 u u_bar)
     5.01639000E-08    3     1000022         4        -4   # BR(chi^0_4 -> chi^0_1 c c_bar)
     1.66298611E-08    3     1000022         6        -6   # BR(chi^0_4 -> chi^0_1 t t_bar)
     7.45477404E-08    3     1000022         1        -1   # BR(chi^0_4 -> chi^0_1 d d_bar)
     7.45948150E-08    3     1000022         3        -3   # BR(chi^0_4 -> chi^0_1 s s_bar)
     1.91292047E-07    3     1000022         5        -5   # BR(chi^0_4 -> chi^0_1 b b_bar)
     1.03183698E-06    3     1000022        11       -11   # BR(chi^0_4 -> chi^0_1 e^- e^+)
     1.03263231E-06    3     1000022        13       -13   # BR(chi^0_4 -> chi^0_1 mu^- mu^+)
     1.26284831E-06    3     1000022        15       -15   # BR(chi^0_4 -> chi^0_1 tau^- tau^+)
     6.96109489E-09    3     1000023         2        -2   # BR(chi^0_4 -> chi^0_2 u u_bar)
     6.94995470E-09    3     1000023         4        -4   # BR(chi^0_4 -> chi^0_2 c c_bar)
     6.21228259E-09    3     1000023         1        -1   # BR(chi^0_4 -> chi^0_2 d d_bar)
     6.21605594E-09    3     1000023         3        -3   # BR(chi^0_4 -> chi^0_2 s s_bar)
     1.53231897E-08    3     1000023         5        -5   # BR(chi^0_4 -> chi^0_2 b b_bar)
     1.25972133E-06    3     1000023        11       -11   # BR(chi^0_4 -> chi^0_2 e^- e^+)
     1.26002126E-06    3     1000023        13       -13   # BR(chi^0_4 -> chi^0_2 mu^- mu^+)
     1.29564285E-06    3     1000023        15       -15   # BR(chi^0_4 -> chi^0_2 tau^- tau^+)
     2.38183566E-06    3     1000023        12       -12   # BR(chi^0_4 -> chi^0_2 nu_e nu_bar_e)
     1.27218017E-04    3     1000025         2        -2   # BR(chi^0_4 -> chi^0_3 u u_bar)
     1.27178937E-04    3     1000025         4        -4   # BR(chi^0_4 -> chi^0_3 c c_bar)
     1.65065516E-04    3     1000025         1        -1   # BR(chi^0_4 -> chi^0_3 d d_bar)
     1.65065418E-04    3     1000025         3        -3   # BR(chi^0_4 -> chi^0_3 s s_bar)
     1.63612192E-04    3     1000025         5        -5   # BR(chi^0_4 -> chi^0_3 b b_bar)
     3.77575317E-05    3     1000025        11       -11   # BR(chi^0_4 -> chi^0_3 e^- e^+)
     3.77565676E-05    3     1000025        13       -13   # BR(chi^0_4 -> chi^0_3 mu^- mu^+)
     3.74583651E-05    3     1000025        15       -15   # BR(chi^0_4 -> chi^0_3 tau^- tau^+)
     2.27815479E-04    3     1000025        12       -12   # BR(chi^0_4 -> chi^0_3 nu_e nu_bar_e)
     4.66968953E-09    3     1000024         1        -2   # BR(chi^0_4 -> chi^+_1 d u_bar)
     4.66968953E-09    3    -1000024        -1         2   # BR(chi^0_4 -> chi^-_1 d_bar u)
     4.68248509E-09    3     1000024         3        -4   # BR(chi^0_4 -> chi^+_1 s c_bar)
     4.68248509E-09    3    -1000024        -3         4   # BR(chi^0_4 -> chi^-_1 s_bar c)
     8.34188692E-07    3     1000024        11       -12   # BR(chi^0_4 -> chi^+_1 e^- nu_bar_e)
     8.34188692E-07    3    -1000024       -11        12   # BR(chi^0_4 -> chi^-_1 e^+ nu_e)
     8.34268540E-07    3     1000024        13       -14   # BR(chi^0_4 -> chi^+_1 mu^- nu_bar_mu)
     8.34268540E-07    3    -1000024       -13        14   # BR(chi^0_4 -> chi^-_1 mu^+ nu_mu)
     8.39607363E-07    3     1000024        15       -16   # BR(chi^0_4 -> chi^+_1 tau^- nu_bar_tau)
     8.39607363E-07    3    -1000024       -15        16   # BR(chi^0_4 -> chi^-_1 tau^+ nu_tau)
DECAY   1000021     6.28269071E+00   # ~g
#    BR                NDA      ID1      ID2
     5.25973070E-02    2     2000002        -2   # BR(~g -> ~u_R u_bar)
     5.25973070E-02    2    -2000002         2   # BR(~g -> ~u^*_R u)
     1.08600373E-02    2     1000002        -2   # BR(~g -> ~u_L u_bar)
     1.08600373E-02    2    -1000002         2   # BR(~g -> ~u^*_L u)
     5.25943502E-02    2     2000004        -4   # BR(~g -> ~c_R c_bar)
     5.25943502E-02    2    -2000004         4   # BR(~g -> ~c^*_R c)
     1.08590023E-02    2     1000004        -4   # BR(~g -> ~c_L c_bar)
     1.08590023E-02    2    -1000004         4   # BR(~g -> ~c^*_L c)
     3.16088201E-04    2     1000006        -4   # BR(~g -> ~t_1 c_bar)
     3.16088201E-04    2    -1000006         4   # BR(~g -> ~t^*_1 c)
     1.13123090E-01    2     1000006        -6   # BR(~g -> ~t_1 t_bar)
     1.13123090E-01    2    -1000006         6   # BR(~g -> ~t^*_1 t)
     5.71174778E-02    2     2000001        -1   # BR(~g -> ~d_R d_bar)
     5.71174778E-02    2    -2000001         1   # BR(~g -> ~d^*_R d)
     1.01497104E-02    2     1000001        -1   # BR(~g -> ~d_L d_bar)
     1.01497104E-02    2    -1000001         1   # BR(~g -> ~d^*_L d)
     5.71202359E-02    2     2000003        -3   # BR(~g -> ~s_R s_bar)
     5.71202359E-02    2    -2000003         3   # BR(~g -> ~s^*_R s)
     1.01506809E-02    2     1000003        -3   # BR(~g -> ~s_L s_bar)
     1.01506809E-02    2    -1000003         3   # BR(~g -> ~s^*_L s)
     6.42821909E-02    2     1000005        -5   # BR(~g -> ~b_1 b_bar)
     6.42821909E-02    2    -1000005         5   # BR(~g -> ~b^*_1 b)
     4.94902418E-02    2     2000005        -5   # BR(~g -> ~b_2 b_bar)
     4.94902418E-02    2    -2000005         5   # BR(~g -> ~b^*_2 b)
     3.14412338E-06    2     1000022        21   # BR(~g -> chi^0_1 g)
     1.80440759E-04    2     1000023        21   # BR(~g -> chi^0_2 g)
     2.39167659E-04    2     1000025        21   # BR(~g -> chi^0_3 g)
     6.12857201E-05    2     1000035        21   # BR(~g -> chi^0_4 g)
#    BR                NDA      ID1      ID2       ID3
     1.83125607E-04    3     1000022         6        -6   # BR(~g -> chi^0_1 t t_bar)
     3.73067079E-03    3     1000023         6        -6   # BR(~g -> chi^0_2 t t_bar)
     5.33514538E-03    3     1000025         6        -6   # BR(~g -> chi^0_3 t t_bar)
     6.15021759E-03    3     1000035         6        -6   # BR(~g -> chi^0_4 t t_bar)
     6.96739726E-04    3     1000024         5        -6   # BR(~g -> chi^+_1 b t_bar)
     6.96739726E-04    3    -1000024        -5         6   # BR(~g -> chi^-_1 b_bar t)
     2.70124919E-03    3     1000037         5        -6   # BR(~g -> chi^+_2 b t_bar)
     2.70124919E-03    3    -1000037        -5         6   # BR(~g -> chi^-_2 b_bar t)
DECAY        25     2.69053004E-03   # h^0
#    BR                NDA      ID1      ID2
     8.78005901E-09    2          11       -11   # BR(h^0 -> e^- e^+)
     3.75368208E-04    2          13       -13   # BR(h^0 -> mu^- mu^+)
     1.05848172E-01    2          15       -15   # BR(h^0 -> tau^- tau^+)
     7.11085964E-07    2           1        -1   # BR(h^0 -> d d_bar)
     3.13588188E-04    2           3        -3   # BR(h^0 -> s s_bar)
     6.81426166E-01    2           5        -5   # BR(h^0 -> b b_bar)
     2.44189058E-07    2           2        -2   # BR(h^0 -> u u_bar)
     4.37523515E-02    2           4        -4   # BR(h^0 -> c c_bar)
     6.51933004E-02    2          21        21   # BR(h^0 -> g g)
     2.90126141E-03    2          22        22   # BR(h^0 -> photon photon)
# writing decays into V V* as 3-body decays
#    BR                NDA      ID1      ID2       ID3
     4.64120602E-03    3          24        11        12   # BR(h^0 -> W^+ e^- nu_e)
     4.64120602E-03    3          24        13        14   # BR(h^0 -> W^+ mu^- nu_mu)
     4.64120602E-03    3          24        15        16   # BR(h^0 -> W^+ tau^- nu_tau)
     1.62442211E-02    3          24         1        -2   # BR(h^0 -> W^+ d u_bar)
     1.62442211E-02    3          24         3        -4   # BR(h^0 -> W^+ s c_bar)
     4.64120602E-03    3         -24       -11       -12   # BR(h^0 -> W^- e^+ nu_bar_e)
     4.64120602E-03    3         -24       -13       -14   # BR(h^0 -> W^- mu^+ nu_bar_mu)
     4.64120602E-03    3         -24       -15       -16   # BR(h^0 -> W^- tau^+ nu_bar_tau)
     1.62442211E-02    3         -24        -1         2   # BR(h^0 -> W^- d_bar u)
     1.62442211E-02    3         -24        -3         4   # BR(h^0 -> W^- s_bar c)
     2.57764787E-04    3          23        11       -11   # BR(h^0 -> Z e^- e^+)
     2.57764787E-04    3          23        13       -13   # BR(h^0 -> Z mu^- mu^+)
     2.20941246E-04    3          23        15       -15   # BR(h^0 -> Z tau^- tau^+)
     1.47294164E-03    3          23        12       -12   # BR(h^0 -> Z nu_e nu_bar_e)
     1.03105915E-03    3          23         1        -1   # BR(h^0 -> Z u u_bar)
     1.03105915E-03    3          23         3        -3   # BR(h^0 -> Z c c_bar)
     1.03105915E-03    3          23         5        -5   # BR(h^0 -> Z t t_bar)
     1.03105915E-03    3          23         2        -2   # BR(h^0 -> Z u u_bar)
     1.03105915E-03    3          23         4        -4   # BR(h^0 -> Z c c_bar)
DECAY        35     2.42236887E+00   # H^0
#    BR                NDA      ID1      ID2
     1.17051366E-08    2          11       -11   # BR(H^0 -> e^- e^+)
     5.00428663E-04    2          13       -13   # BR(H^0 -> mu^- mu^+)
     1.41630471E-01    2          15       -15   # BR(H^0 -> tau^- tau^+)
     7.98006012E-07    2           1        -1   # BR(H^0 -> d d_bar)
     3.51920559E-04    2           3        -3   # BR(H^0 -> s s_bar)
     7.89549002E-01    2           5        -5   # BR(H^0 -> b b_bar)
     7.91723614E-12    2           2        -2   # BR(H^0 -> u u_bar)
     1.41885949E-06    2           4        -4   # BR(H^0 -> c c_bar)
     6.29140227E-02    2           6        -6   # BR(H^0 -> t t_bar)
     4.29346657E-05    2     2000011  -2000011   # BR(H^0 -> ~e^-_R ~e^+_R)
     4.29222916E-05    2     2000013  -2000013   # BR(H^0 -> ~mu^-_R ~mu^+_R)
     3.92075938E-05    2     1000015  -1000015   # BR(H^0 -> ~tau^-_1 ~tau^+_1)
     1.35147533E-03    2     1000022   1000022   # BR(H^0 -> chi^0_1 chi^0_1)
     8.18734682E-04    2          23        23   # BR(H^0 -> Z Z)
     1.58523407E-03    2          24       -24   # BR(H^0 -> W^+ W^-)
     1.07097769E-03    2          25        25   # BR(H^0 -> h^0 h^0)
     1.00052820E-04    2          21        21   # BR(H^0 -> g g)
     3.86968038E-07    2          22        22   # BR(H^0 -> photon photon)
DECAY        36     2.43424880E+00   # A^0
#    BR                NDA      ID1      ID2
     1.16538872E-08    2          11       -11   # BR(A^0 -> e^- e^+)
     4.98237642E-04    2          13       -13   # BR(A^0 -> mu^- mu^+)
     1.41013432E-01    2          15       -15   # BR(A^0 -> tau^- tau^+)
     7.94510092E-07    2           1        -1   # BR(A^0 -> d d_bar)
     3.50378861E-04    2           3        -3   # BR(A^0 -> s s_bar)
     7.86106620E-01    2           5        -5   # BR(A^0 -> b b_bar)
     6.74592115E-12    2           2        -2   # BR(A^0 -> u u_bar)
     1.20894609E-06    2           4        -4   # BR(A^0 -> c c_bar)
     6.42601074E-02    2           6        -6   # BR(A^0 -> t t_bar)
     6.20443753E-03    2     1000022   1000022   # BR(A^0 -> chi^0_1 chi^0_1)
     1.51032876E-03    2          25        23   # BR(A^0 -> h^0 Z)
     5.41717111E-05    2          21        21   # BR(A^0 -> g g)
     2.71564215E-07    2          22        22   # BR(A^0 -> photon photon)
DECAY        37     2.00815367E+00   # H^+
#    BR                NDA      ID1      ID2
     1.42129310E-08    2         -11        12   # BR(H^+ -> e^+ nu_e)
     6.07644219E-04    2         -13        12   # BR(H^+ -> mu^+ nu_e)
     1.71978190E-01    2         -15        12   # BR(H^+ -> tau^+ nu_e)
     8.53266951E-07    2          -1         2   # BR(H^+ -> d_bar u)
     3.77583649E-04    2          -3         4   # BR(H^+ -> s_bar c)
     8.25177251E-01    2          -5         6   # BR(H^+ -> b_bar t)
     8.74287930E-13    2    -2000011   1000012   # BR(H^+ -> ~e^+_R ~nu_e)
     3.75554030E-08    2    -2000013   1000014   # BR(H^+ -> ~mu^+_R ~nu_mu)
     1.97791716E-05    2    -1000015   1000016   # BR(H^+ -> ~tau^+_1 ~nu_tau)
     1.83864739E-03    2          25        24   # BR(H^+ -> h^0 W^+)
DECAY         6     2.43000000E+00   # top
#    BR                NDA      ID1      ID2
     1.00000000E+00    2           5        24   # BR(t -> b W)
Block HiggsBoundsInputHiggsCouplingsFermions
# ScalarNormEffCoupSq PseudoSNormEffCoupSq NP IP1 IP2 IP2
    1.16762121E+00    0.00000000E+00        3  25   5   5  # h0-b-b eff. coupling^2, normalised to SM
    2.24832379E+02    0.00000000E+00        3  35   5   5  # H0-b-b eff. coupling^2, normalised to SM
    0.00000000E+00    2.25000000E+02        3  36   5   5  # A0-b-b eff. coupling^2, normalised to SM
#
    9.99255017E-01    0.00000000E+00        3  25   6   6  # h0-t-t eff. coupling^2, normalised to SM
    5.18942758E-03    0.00000000E+00        3  35   6   6  # H0-t-t eff. coupling^2, normalised to SM
    0.00000000E+00    4.44444444E-03        3  36   6   6  # A0-t-t eff. coupling^2, normalised to SM
#
    1.16762121E+00    0.00000000E+00        3  25  15  15  # h0-tau-tau eff. coupling^2, normalised to SM
    2.24832379E+02    0.00000000E+00        3  35  15  15  # H0-tau-tau eff. coupling^2, normalised to SM
    0.00000000E+00    2.25000000E+02        3  36  15  15  # A0-tau-tau eff. coupling^2, normalised to SM
#
Block HiggsBoundsInputHiggsCouplingsBosons
    9.99971142E-01        3  25  24  24  # h0-W-W eff. coupling^2, normalised to SM
    2.88581366E-05        3  35  24  24  # H0-W-W eff. coupling^2, normalised to SM
    0.00000000E+00        3  36  24  24  # A0-W-W eff. coupling^2, normalised to SM
#
    9.99971142E-01        3  25  23  23  # h0-Z-Z eff. coupling^2, normalised to SM
    2.88581366E-05        3  35  23  23  # H0-Z-Z eff. coupling^2, normalised to SM
    0.00000000E+00        3  36  23  23  # A0-Z-Z eff. coupling^2, normalised to SM
#
    1.16691233E+00        3  25  21  21  # h0-g-g eff. coupling^2, normalised to SM
    7.39349075E-03        3  35  21  21  # H0-g-g eff. coupling^2, normalised to SM
    1.07100706E-01        3  36  21  21  # A0-g-g eff. coupling^2, normalised to SM
#
    0.00000000E+00        3  25  25  23  # h0-h0-Z eff. coupling^2, normalised to SM
    0.00000000E+00        3  35  25  23  # H0-h0-Z eff. coupling^2, normalised to SM
    2.88581366E-05        3  36  25  23  # A0-h0-Z eff. coupling^2, normalised to SM
    0.00000000E+00        3  35  35  23  # H0-H0-Z eff. coupling^2, normalised to SM
    9.99971142E-01        3  36  35  23  # A0-H0-Z eff. coupling^2, normalised to SM
    0.00000000E+00        3  36  36  23  # A0-A0-Z eff. coupling^2, normalised to SM
#
    0.00000000E+00        4  25  21  21  23  # h0-g-g-Z eff. coupling^2, normalised to SM
    0.00000000E+00        4  35  21  21  23  # H0-g-g-Z eff. coupling^2, normalised to SM
    0.00000000E+00        4  36  21  21  23  # A0-g-g-Z eff. coupling^2, normalised to SM
Block SPhenoLowEnergy  # low energy observables
    1    3.24495362E-04   # BR(b -> s gamma)
    2    1.58744017E-06   # BR(b -> s mu+ mu-)
    3    3.53516820E-05   # BR(b -> s nu nu)
    4    5.16977147E-11   # BR(Bd -> mu+ mu-)
    5    3.37752367E-09   # BR(Bs -> mu+ mu-)
    6    1.08990691E-04   # BR(B_u -> tau nu)
    7    9.85508772E-01   # BR(B_u -> tau nu)/BR(B_u -> tau nu)_SM
    8    2.73365018E-01   # |Delta(M_Bd)| [ps^-1] 
    9    2.02853076E+01   # |Delta(M_Bs)| [ps^-1] 
   20    2.40317838E-14   # Delta(g-2)_electron/2
   21    5.12350962E-10   # Delta(g-2)_muon/2
   22    3.53073556E-08   # Delta(g-2)_tau/2
   23    0.00000000E+00   # electric dipole moment of the electron
   24    0.00000000E+00   # electric dipole moment of the muon
   25    0.00000000E+00   # electric dipole moment of the tau
   26    0.00000000E+00   # Br(mu -> e gamma)
   27    0.00000000E+00   # Br(tau -> e gamma)
   28    0.00000000E+00   # Br(tau -> mu gamma)
   29    0.00000000E+00   # Br(mu -> 3 e)
   30    0.00000000E+00   # Br(tau -> 3 e)
   31    0.00000000E+00   # Br(tau -> 3 mu)
   39    5.73960100E-04   # Delta(rho_parameter)
   40    0.00000000E+00   # BR(Z -> e mu)
   41    0.00000000E+00   # BR(Z -> e tau)
   42    0.00000000E+00   # BR(Z -> mu tau)
Block FWCOEF Q=  9.11876000E+01  # Wilson coefficients at scale Q
#    id        order  M        value         comment
Block FWCOEF Q=  1.60000000E+02  # Wilson coefficients at scale Q
#    id        order  M        value         comment
     0305 4422   00   0    -1.87757600E-01   # C7
     0305 4422   00   1    -2.50980467E-02   # C7
     0305 4322   00   1    -5.49343240E-04   # C7'
     0305 6421   00   0    -9.48894431E-02   # C8
     0305 6421   00   1    -3.52824685E-02   # C8
     0305 6321   00   1    -7.60056112E-04   # C8'
 03051111 4133   00   0    -8.34691505E-01   # C9 e+e-
 03051111 4133   00   1     1.96250150E-03   # C9 e+e-
 03051111 4233   00   1    -1.38019979E-05   # C9' e+e-
 03051111 4137   00   0    -3.97000227E+00   # C10 e+e-
 03051111 4137   00   1     6.27064743E-03   # C10 e+e-
 03051111 4237   00   1     3.07764632E-04   # C10' e+e-
 03051313 4133   00   0    -8.34691505E-01   # C9 mu+mu-
 03051313 4133   00   1     1.96244391E-03   # C9 mu+mu-
 03051313 4233   00   1    -1.38026655E-05   # C9' mu+mu-
 03051313 4137   00   0    -3.97000227E+00   # C10 mu+mu-
 03051313 4137   00   1     6.27058971E-03   # C10 mu+mu-
 03051313 4237   00   1     3.07765300E-04   # C10' mu+mu-
 03051212 4237   00   0     1.49014920E+00   # C11 nu_1 nu_1
 03051212 4237   00   1    -1.50382978E-03   # C11 nu_1 nu_1
 03051212 4137   00   1    -7.35507408E-05   # C11' nu_1 nu_1
 03051414 4237   00   0     1.49014920E+00   # C11 nu_2 nu_2
 03051414 4237   00   1    -1.50382970E-03   # C11 nu_2 nu_2
 03051414 4137   00   1    -7.35505832E-05   # C11' nu_2 nu_2
 03051616 4237   00   0     1.49014920E+00   # C11 nu_3 nu_3
 03051616 4237   00   1    -1.50380492E-03   # C11 nu_3 nu_3
 03051616 4137   00   1    -7.35061560E-05   # C11' nu_3 nu_3
