#
#                              ======================
#                              | THE SUSYHIT OUTPUT |
#                              ======================
#
#
#              ------------------------------------------------------
#              |     This is the output of the SUSY-HIT package     |
#              |  created by A.Djouadi, M.Muehlleitner and M.Spira. |
#              |  In case of problems with SUSY-HIT email to        |
#              |           margarete.muehlleitner@cern.ch           |
#              |           michael.spira@psi.ch                     |
#              |           abdelhak.djouadi@cern.ch                 |
#              ------------------------------------------------------
#
#              ------------------------------------------------------
#              |  SUSY Les Houches Accord - MSSM Spectrum + Decays  |
#              |              based on the decay programs           |
#              |                                                    |
#              |                     SDECAY 1.3b                    |
#              |                                                    |
#              |  Authors: M.Muhlleitner, A.Djouadi and Y.Mambrini  |
#              |  Ref.:    Comput.Phys.Commun.168(2005)46           |
#              |           [hep-ph/0311167]                         |
#              |                                                    |
#              |                     HDECAY 3.4                     |
#              |                                                    |
#              |  By: A.Djouadi,J.Kalinowski,M.Muhlleitner,M.Spira  |
#              |  Ref.:    Comput.Phys.Commun.108(1998)56           |
#              |           [hep-ph/9704448]                         |
#              |                                                    |
#              |                                                    |
#              |  If not stated otherwise all DRbar couplings and   |
#              |  soft SUSY breaking masses are given at the scale  |
#              |  Q=  0.91187600E+02
#              |                                                    |
#              ------------------------------------------------------
#
#
BLOCK DCINFO  # Decay Program information
     1   SDECAY/HDECAY # decay calculator
     2   1.3b  /3.4    # version number
#
BLOCK SPINFO  # Spectrum calculator information
     1   SuSpect     # RGE +Spectrum calculator            
     2   2.41         # version number                     
#
BLOCK MODSEL  # Model selection
     1     0   # #general MSSM low scale                           
#
BLOCK SMINPUTS  # Standard Model inputs
         1     1.27934000E+02   # alpha_em^-1(M_Z)^MSbar
         2     1.16639000E-05   # G_F [GeV^-2]
         3     1.17200000E-01   # alpha_S(M_Z)^MSbar
         4     9.11870000E+01   # M_Z pole mass
         5     4.25000000E+00   # mb(mb)^MSbar
         6     1.72500000E+02   # mt pole mass
         7     1.77700000E+00   # mtau pole mass
#
BLOCK MINPAR  # Input parameters - minimal models
#
BLOCK EXTPAR  # Input parameters - non-minimal models
         0     9.11876000E+01   # EWSB                
         1     1.00000000E+01   # M_1                 
         2     1.00000000E+05   # M_2                 
         3     2.40000000E+03   # M_3                 
        11     0.00000000E+00   # A_t                 
        12     0.00000000E+00   # A_b                 
        13     0.00000000E+00   # A_tau               
        14     0.00000000E+00   # A_u                 
        15     0.00000000E+00   # A_d                 
        16     0.00000000E+00   # A_e                 
        23     1.00000000E+05   # mu(EWSB)            
        25     1.50000000E+00   # tanbeta(in)         
        26     2.00000000E+03   # MA_pole             
        31     1.00000000E+05   # M_eL                
        32     1.00000000E+05   # M_muL               
        33     1.00000000E+05   # M_tauL              
        34     1.00000000E+05   # M_eR                
        35     1.00000000E+05   # M_muR               
        36     1.00000000E+05   # M_tauR              
        41     3.00000000E+03   # M_q1L               
        42     3.00000000E+03   # M_q2L               
        43     3.00000000E+03   # M_q3L               
        44     1.00000000E+05   # M_uR                
        45     1.00000000E+05   # M_cR                
        46     1.00000000E+05   # M_tR                
        47     3.00000000E+03   # M_dR                
        48     3.00000000E+03   # M_sR                
        49     3.00000000E+03   # M_bR                
#
BLOCK MASS  # Mass Spectrum
# PDG code           mass       particle
        24     8.06155536E+01   # W+
        25     1.25000000E+02   # h
        35     2.00963456E+03   # H
        36     2.00000000E+03   # A
        37     2.02305968E+03   # H+
         5     4.87877839E+00   # b-quark pole mass calculated from mb(mb)_Msbar
   1000001     3.00021877E+03   # ~d_L
   2000001     3.00004258E+03   # ~d_R
   1000002     2.99982380E+03   # ~u_L
   2000002     9.99999974E+04   # ~u_R
   1000003     3.00021877E+03   # ~s_L
   2000003     3.00004258E+03   # ~s_R
   1000004     2.99982380E+03   # ~c_L
   2000004     9.99999974E+04   # ~c_R
   1000005     2.95171606E+03   # ~b_1
   2000005     3.04777752E+03   # ~b_2
   1000006     3.00183495E+03   # ~t_1
   2000006     1.00000155E+05   # ~t_2
   1000011     1.00000004E+05   # ~e_L
   2000011     1.00000004E+05   # ~e_R
   1000012     9.99999922E+04   # ~nu_eL
   1000013     1.00000004E+05   # ~mu_L
   2000013     1.00000004E+05   # ~mu_R
   1000014     9.99999922E+04   # ~nu_muL
   1000015     9.99986719E+04   # ~tau_1
   2000015     1.00001336E+05   # ~tau_2
   1000016     9.99999922E+04   # ~nu_tauL
   1000021     2.40000000E+03   # ~g
   1000022     9.98160463E+00   # ~chi_10
   1000023     9.99230392E+04   # ~chi_20
   1000025    -1.00000002E+05   # ~chi_30
   1000035     1.00076981E+05   # ~chi_40
   1000024     9.99230302E+04   # ~chi_1+
   1000037     1.00076972E+05   # ~chi_2+
   1000039     1.00000000E-09   # ~gravitino
#
BLOCK NMIX  # Neutralino Mixing Matrix
  1  1     9.99999900E-01   # N_11
  1  2    -3.23507273E-07   # N_12
  1  3     3.71441520E-04   # N_13
  1  4    -2.47648255E-04   # N_14
  2  1     3.09760307E-04   # N_21
  2  2     7.07148067E-01   # N_22
  2  3    -5.00009248E-01   # N_23
  2  4     4.99932262E-01   # N_24
  3  1     8.75349647E-05   # N_31
  3  2    -7.69710110E-05   # N_32
  3  3    -7.07106742E-01   # N_33
  3  4    -7.07106811E-01   # N_34
  4  1     3.09329418E-04   # N_41
  4  2    -7.07065494E-01   # N_42
  4  3    -4.99990665E-01   # N_43
  4  4     5.00067621E-01   # N_44
#
BLOCK UMIX  # Chargino Mixing Matrix U
  1  1    -7.07052352E-01   # U_11
  1  2     7.07161206E-01   # U_12
  2  1     7.07161206E-01   # U_21
  2  2     7.07052352E-01   # U_22
#
BLOCK VMIX  # Chargino Mixing Matrix V
  1  1    -7.07161206E-01   # V_11
  1  2     7.07052352E-01   # V_12
  2  1     7.07052352E-01   # V_21
  2  2     7.07161206E-01   # V_22
#
BLOCK STOPMIX  # Stop Mixing Matrix
  1  1     9.99999516E-01   # cos(theta_t)
  1  2     9.83869791E-04   # sin(theta_t)
  2  1    -9.83869791E-04   # -sin(theta_t)
  2  2     9.99999516E-01   # cos(theta_t)
#
BLOCK SBOTMIX  # Sbottom Mixing Matrix
  1  1     7.06457941E-01   # cos(theta_b)
  1  2     7.07755027E-01   # sin(theta_b)
  2  1    -7.07755027E-01   # -sin(theta_b)
  2  2     7.06457941E-01   # cos(theta_b)
#
BLOCK STAUMIX  # Stau Mixing Matrix
  1  1     7.07083343E-01   # cos(theta_tau)
  1  2     7.07130219E-01   # sin(theta_tau)
  2  1    -7.07130219E-01   # -sin(theta_tau)
  2  2     7.07083343E-01   # cos(theta_tau)
#
BLOCK ALPHA  # Higgs mixing
          -6.32443462E-01   # Mixing angle in the neutral Higgs boson sector
#
BLOCK HMIX Q=  9.11876000E+01  # DRbar Higgs Parameters
         1     1.00000000E+05   # mu(Q)               
         2     1.49999982E+00   # tanbeta(Q)          
         3     2.55146155E+02   # vev(Q)              
         4    -2.17713333E+09   # MA^2(Q)             
#
BLOCK GAUGE Q=  9.11876000E+01  # The gauge couplings
     1     3.49880809E-01   # gprime(Q) DRbar
     2     6.15250983E-01   # g(Q) DRbar
     3     1.07194697E+00   # g3(Q) DRbar
#
BLOCK AU Q=  9.11876000E+01  # The trilinear couplings
  1  1     0.00000000E+00   # A_u(Q) DRbar
  2  2     0.00000000E+00   # A_c(Q) DRbar
  3  3     0.00000000E+00   # A_t(Q) DRbar
#
BLOCK AD Q=  9.11876000E+01  # The trilinear couplings
  1  1     0.00000000E+00   # A_d(Q) DRbar
  2  2     0.00000000E+00   # A_s(Q) DRbar
  3  3     0.00000000E+00   # A_b(Q) DRbar
#
BLOCK AE Q=  9.11876000E+01  # The trilinear couplings
  1  1     0.00000000E+00   # A_e(Q) DRbar
  2  2     0.00000000E+00   # A_mu(Q) DRbar
  3  3     0.00000000E+00   # A_tau(Q) DRbar
#
BLOCK Yu Q=  9.11876000E+01  # The Yukawa couplings
  1  1     0.00000000E+00   # y_u(Q) DRbar
  2  2     0.00000000E+00   # y_c(Q) DRbar
  3  3     9.82187906E-01   # y_t(Q) DRbar
#
BLOCK Yd Q=  9.11876000E+01  # The Yukawa couplings
  1  1     0.00000000E+00   # y_d(Q) DRbar
  2  2     0.00000000E+00   # y_s(Q) DRbar
  3  3     1.91945050E-02   # y_b(Q) DRbar
#
BLOCK Ye Q=  9.11876000E+01  # The Yukawa couplings
  1  1     0.00000000E+00   # y_e(Q) DRbar
  2  2     0.00000000E+00   # y_mu(Q) DRbar
  3  3     1.77459284E-02   # y_tau(Q) DRbar
#
BLOCK MSOFT Q=  9.11876000E+01  # The soft SUSY breaking masses at the scale Q
         1     1.00000000E+01   # M_1                 
         2     1.00000000E+05   # M_2                 
         3     2.40000000E+03   # M_3                 
        14     0.00000000E+00   # A_u                 
        15     0.00000000E+00   # A_d                 
        16     0.00000000E+00   # A_e                 
        21    -1.06431693E+10   # M^2_Hd              
        22    -1.00431839E+10   # M^2_Hu              
        31     1.00000000E+05   # M_eL                
        32     1.00000000E+05   # M_muL               
        33     1.00000000E+05   # M_tauL              
        34     1.00000000E+05   # M_eR                
        35     1.00000000E+05   # M_muR               
        36     1.00000000E+05   # M_tauR              
        41     3.00000000E+03   # M_q1L               
        42     3.00000000E+03   # M_q2L               
        43     3.00000000E+03   # M_q3L               
        44     1.00000000E+05   # M_uR                
        45     1.00000000E+05   # M_cR                
        46     1.00000000E+05   # M_tR                
        47     3.00000000E+03   # M_dR                
        48     3.00000000E+03   # M_sR                
        49     3.00000000E+03   # M_bR                
#
#
#
#                             =================
#                             |The decay table|
#                             =================
#
# - The QCD corrections to the decays gluino -> squark  + quark
#                                     squark -> gaugino + quark_prime
#                                     squark -> squark_prime + Higgs
#                                     squark -> gluino  + quark
#   are included.
#
# - The multi-body decays for the inos, stops and sbottoms are included.
#
# - The loop induced decays for the gluino, neutralinos and stops
#   are included.
#
# - The SUSY decays of the top quark are included.
#
# - Possible decays of the NLSP in GMSB models are included.
#
#
#         PDG            Width
DECAY         6     1.30517299E+00   # top decays
#          BR         NDA      ID1       ID2
     1.00000000E+00    2           5        24   # BR(t ->  b    W+)
#
#         PDG            Width
DECAY   1000021     1.E-04   # gluino decays (OJ Mods)
#          BR         NDA      ID1       ID2
     4.26136857E-02    2     1000022        21   # BR(~g -> ~chi_10 g)
#          BR         NDA      ID1       ID2
     2.92090928E-02    2     1000039        21   # BR(~g -> ~G      g)
#           BR         NDA      ID1       ID2       ID3
     2.58889185E-01    3     1000022         1        -1   # BR(~g -> ~chi_10 d  db)
     5.18042663E-02    3     1000022         2        -2   # BR(~g -> ~chi_10 u  ub)
     2.58889185E-01    3     1000022         3        -3   # BR(~g -> ~chi_10 s  sb)
     5.18042663E-02    3     1000022         4        -4   # BR(~g -> ~chi_10 c  cb)
     2.60585496E-01    3     1000022         5        -5   # BR(~g -> ~chi_10 b  bb)
     4.62048225E-02    3     1000022         6        -6   # BR(~g -> ~chi_10 t  tb)
#
#         PDG            Width
DECAY   1000006     2.63520883E+01   # stop1 decays
#          BR         NDA      ID1       ID2
     1.44955956E-02    2     1000022         6   # BR(~t_1 -> ~chi_10 t )
     9.85504404E-01    2     1000021         6   # BR(~t_1 -> ~g      t )
#
#         PDG            Width
DECAY   2000006     4.76302909E+03   # stop2 decays
#          BR         NDA      ID1       ID2
     4.40557627E-02    2     1000022         6   # BR(~t_2 -> ~chi_10 t )
     3.27088009E-07    2     1000024         5   # BR(~t_2 -> ~chi_1+ b )
     5.54322884E-01    2     1000021         6   # BR(~t_2 -> ~g      t )
     2.38089016E-02    2     1000006        25   # BR(~t_2 -> ~t_1    h )
     4.84820044E-02    2     1000006        35   # BR(~t_2 -> ~t_1    H )
     5.14508271E-02    2     1000006        36   # BR(~t_2 -> ~t_1    A )
     5.11969111E-02    2     1000005        37   # BR(~t_2 -> ~b_1    H+)
     5.17717591E-02    2     2000005        37   # BR(~t_2 -> ~b_2    H+)
     5.76978267E-02    2     1000006        23   # BR(~t_2 -> ~t_1    Z )
     5.84149652E-02    2     1000005        24   # BR(~t_2 -> ~b_1    W+)
     5.87978304E-02    2     2000005        24   # BR(~t_2 -> ~b_2    W+)
#
#         PDG            Width
DECAY   1000005     2.44669080E+01   # sbottom1 decays
#          BR         NDA      ID1       ID2
     3.86539411E-02    2     1000022         5   # BR(~b_1 -> ~chi_10 b )
     9.61346059E-01    2     1000021         5   # BR(~b_1 -> ~g      b )
#
#         PDG            Width
DECAY   2000005     3.07492060E+01   # sbottom2 decays
#          BR         NDA      ID1       ID2
     3.16289270E-02    2     1000022         5   # BR(~b_2 -> ~chi_10 b )
     9.67546427E-01    2     1000021         5   # BR(~b_2 -> ~g      b )
     8.24646174E-04    2     1000005        23   # BR(~b_2 -> ~b_1    Z )
#
#         PDG            Width
DECAY   1000002     1.49028928E+01   # sup_L decays
#          BR         NDA      ID1       ID2
     2.57454943E-02    2     1000022         2   # BR(~u_L -> ~chi_10 u)
     9.74254506E-01    2     1000021         2   # BR(~u_L -> ~g      u)
#
#         PDG            Width
DECAY   2000002     3.94168217E+03   # sup_R decays
#          BR         NDA      ID1       ID2
     5.32362786E-02    2     1000022         2   # BR(~u_R -> ~chi_10 u)
     6.44458641E-13    2     1000023         2   # BR(~u_R -> ~chi_20 u)
     9.46763721E-01    2     1000021         2   # BR(~u_R -> ~g      u)
#
#         PDG            Width
DECAY   1000001     1.49184597E+01   # sdown_L decays
#          BR         NDA      ID1       ID2
     2.57222853E-02    2     1000022         1   # BR(~d_L -> ~chi_10 d)
     9.74277715E-01    2     1000021         1   # BR(~d_L -> ~g      d)
#
#         PDG            Width
DECAY   2000001     1.60626521E+01   # sdown_R decays
#          BR         NDA      ID1       ID2
     9.55539363E-02    2     1000022         1   # BR(~d_R -> ~chi_10 d)
     9.04446064E-01    2     1000021         1   # BR(~d_R -> ~g      d)
#
#         PDG            Width
DECAY   1000004     1.49028928E+01   # scharm_L decays
#          BR         NDA      ID1       ID2
     2.57454943E-02    2     1000022         4   # BR(~c_L -> ~chi_10 c)
     9.74254506E-01    2     1000021         4   # BR(~c_L -> ~g      c)
#
#         PDG            Width
DECAY   2000004     3.94168217E+03   # scharm_R decays
#          BR         NDA      ID1       ID2
     5.32362786E-02    2     1000022         4   # BR(~c_R -> ~chi_10 c)
     6.44458641E-13    2     1000023         4   # BR(~c_R -> ~chi_20 c)
     9.46763721E-01    2     1000021         4   # BR(~c_R -> ~g      c)
#
#         PDG            Width
DECAY   1000003     1.49184597E+01   # sstrange_L decays
#          BR         NDA      ID1       ID2
     2.57222853E-02    2     1000022         3   # BR(~s_L -> ~chi_10 s)
     9.74277715E-01    2     1000021         3   # BR(~s_L -> ~g      s)
#
#         PDG            Width
DECAY   2000003     1.60626521E+01   # sstrange_R decays
#          BR         NDA      ID1       ID2
     9.55539363E-02    2     1000022         3   # BR(~s_R -> ~chi_10 s)
     9.04446064E-01    2     1000021         3   # BR(~s_R -> ~g      s)
#
#         PDG            Width
DECAY   1000011     1.21771202E+02   # selectron_L decays
#          BR         NDA      ID1       ID2
     9.99989016E-01    2     1000022        11   # BR(~e_L -> ~chi_10 e-)
     3.66274932E-06    2     1000023        11   # BR(~e_L -> ~chi_20 e-)
     3.65806226E-24    2     1000025        11   # BR(~e_L -> ~chi_30 e-)
     7.32157978E-06    2    -1000024        12   # BR(~e_L -> ~chi_1- nu_e)
#
#         PDG            Width
DECAY   2000011     4.87080010E+02   # selectron_R decays
#          BR         NDA      ID1       ID2
     1.00000000E+00    2     1000022        11   # BR(~e_R -> ~chi_10 e-)
     2.27175533E-13    2     1000023        11   # BR(~e_R -> ~chi_20 e-)
     1.22597936E-23    2     1000025        11   # BR(~e_R -> ~chi_30 e-)
#
#         PDG            Width
DECAY   1000013     1.21771202E+02   # smuon_L decays
#          BR         NDA      ID1       ID2
     9.99989016E-01    2     1000022        13   # BR(~mu_L -> ~chi_10 mu-)
     3.66274932E-06    2     1000023        13   # BR(~mu_L -> ~chi_20 mu-)
     3.65806226E-24    2     1000025        13   # BR(~mu_L -> ~chi_30 mu-)
     7.32157978E-06    2    -1000024        14   # BR(~mu_L -> ~chi_1- nu_mu)
#
#         PDG            Width
DECAY   2000013     4.87080010E+02   # smuon_R decays
#          BR         NDA      ID1       ID2
     1.00000000E+00    2     1000022        13   # BR(~mu_R -> ~chi_10 mu-)
     2.27175533E-13    2     1000023        13   # BR(~mu_R -> ~chi_20 mu-)
     1.22597936E-23    2     1000025        13   # BR(~mu_R -> ~chi_30 mu-)
#
#         PDG            Width
DECAY   1000015     1.18166168E+04   # stau_1 decays
#          BR         NDA      ID1       ID2
     2.57634008E-02    2     1000022        15   # BR(~tau_1 -> ~chi_10  tau-)
     1.92746720E-08    2     1000023        15   # BR(~tau_1 -> ~chi_20  tau-)
     3.85611201E-08    2    -1000024        16   # BR(~tau_1 -> ~chi_1-  nu_tau)
     9.74236541E-01    2     1000039        15   # BR(~tau_1 -> ~G       tau-)
#
#         PDG            Width
DECAY   2000015     3.04414290E+02   # stau_2 decays
#          BR         NDA      ID1       ID2
     9.99997856E-01    2     1000022        15   # BR(~tau_2 -> ~chi_10  tau-)
     7.14585848E-07    2     1000023        15   # BR(~tau_2 -> ~chi_20  tau-)
     1.42938711E-06    2    -1000024        16   # BR(~tau_2 -> ~chi_1-  nu_tau)
#
#         PDG            Width
DECAY   1000012     1.21771464E+02   # snu_eL decays
#          BR         NDA      ID1       ID2
     9.99989020E-01    2     1000022        12   # BR(~nu_eL -> ~chi_10 nu_e)
     3.65797257E-06    2     1000023        12   # BR(~nu_eL -> ~chi_20 nu_e)
     7.32157501E-06    2     1000024        11   # BR(~nu_eL -> ~chi_1+ e-)
#
#         PDG            Width
DECAY   1000014     1.21771464E+02   # snu_muL decays
#          BR         NDA      ID1       ID2
     9.99989020E-01    2     1000022        14   # BR(~nu_muL -> ~chi_10 nu_mu)
     3.65797257E-06    2     1000023        14   # BR(~nu_muL -> ~chi_20 nu_mu)
     7.32157501E-06    2     1000024        13   # BR(~nu_muL -> ~chi_1+ mu-)
#
#         PDG            Width
DECAY   1000016     1.21771463E+02   # snu_tauL decays
#          BR         NDA      ID1       ID2
     9.99989026E-01    2     1000022        16   # BR(~nu_tauL -> ~chi_10 nu_tau)
     3.65797259E-06    2     1000023        16   # BR(~nu_tauL -> ~chi_20 nu_tau)
     7.31596555E-06    2     1000024        15   # BR(~nu_tauL -> ~chi_1+ tau-)
#
#         PDG            Width
DECAY   1000024     3.90370764E+03   # chargino1+ decays
#          BR         NDA      ID1       ID2
     3.55569638E-02    2     1000002        -1   # BR(~chi_1+ -> ~u_L     db)
     3.55460050E-02    2    -1000001         2   # BR(~chi_1+ -> ~d_L*    u )
     3.55569638E-02    2     1000004        -3   # BR(~chi_1+ -> ~c_L     sb)
     3.55460050E-02    2    -1000003         4   # BR(~chi_1+ -> ~s_L*    c )
     3.16318043E-02    2     1000006        -5   # BR(~chi_1+ -> ~t_1     bb)
     3.87338539E-02    2    -1000005         6   # BR(~chi_1+ -> ~b_1*    t )
     3.75884185E-02    2    -2000005         6   # BR(~chi_1+ -> ~b_2*    t )
     1.87956940E-03    2     1000022        24   # BR(~chi_1+ -> ~chi_10  W+)
     1.98082424E-03    2     1000022        37   # BR(~chi_1+ -> ~chi_10  H+)
     5.59702606E-01    2     1000039        24   # BR(~chi_1+ -> ~G       W+)
     1.86276986E-01    2     1000039        37   # BR(~chi_1+ -> ~G       H+)
#
#         PDG            Width
DECAY   1000037     3.90806632E+03   # chargino2+ decays
#          BR         NDA      ID1       ID2
     3.53868903E-02    2     1000002        -1   # BR(~chi_2+ -> ~u_L     db)
     3.53977742E-02    2    -1000001         2   # BR(~chi_2+ -> ~d_L*    u )
     3.53868903E-02    2     1000004        -3   # BR(~chi_2+ -> ~c_L     sb)
     3.53977742E-02    2    -1000003         4   # BR(~chi_2+ -> ~s_L*    c )
     3.13956796E-02    2     1000006        -5   # BR(~chi_2+ -> ~t_1     bb)
     2.34182167E-07    2     2000006        -5   # BR(~chi_2+ -> ~t_2     bb)
     3.70290632E-02    2    -1000005         6   # BR(~chi_2+ -> ~b_1*    t )
     3.87912335E-02    2    -2000005         6   # BR(~chi_2+ -> ~b_2*    t )
     2.88154585E-08    2     1000012       -11   # BR(~chi_2+ -> ~nu_eL   e+  )
     2.88154585E-08    2     1000014       -13   # BR(~chi_2+ -> ~nu_muL  mu+ )
     2.87933760E-08    2     1000016       -15   # BR(~chi_2+ -> ~nu_tau1 tau+)
     2.88154991E-08    2    -1000011        12   # BR(~chi_2+ -> ~e_L+    nu_e)
     2.88154991E-08    2    -1000013        14   # BR(~chi_2+ -> ~mu_L+   nu_mu)
     1.40619841E-08    2    -1000015        16   # BR(~chi_2+ -> ~tau_1+  nu_tau)
     1.47285710E-08    2    -2000015        16   # BR(~chi_2+ -> ~tau_2+  nu_tau)
     7.37837847E-05    2     1000024        23   # BR(~chi_2+ -> ~chi_1+  Z )
     1.86605659E-03    2     1000022        24   # BR(~chi_2+ -> ~chi_10  W+)
     8.43426417E-05    2     1000023        24   # BR(~chi_2+ -> ~chi_20  W+)
     4.09137696E-13    2     1000024        25   # BR(~chi_2+ -> ~chi_1+  h )
     1.96519288E-03    2     1000022        37   # BR(~chi_2+ -> ~chi_10  H+)
     5.60658358E-01    2     1000039        24   # BR(~chi_2+ -> ~G       W+)
     1.86566554E-01    2     1000039        37   # BR(~chi_2+ -> ~G       H+)
#
#         PDG            Width
DECAY   1000022     1.E-08   # neutralino1 decays (OJ Mods)
#          BR         NDA      ID1       ID2
     1.00000000E+00    2     1000039        22   # BR(~chi_10 -> ~G        gam)
#
#         PDG            Width
DECAY   1000023     1.E-08   # neutralino2 decays (OJ Mods)
#          BR         NDA      ID1       ID2
     7.45710040E-05    2     1000022        23   # BR(~chi_20 -> ~chi_10   Z )
     1.93630910E-03    2     1000022        25   # BR(~chi_20 -> ~chi_10   h )
     4.61201839E-05    2     1000022        35   # BR(~chi_20 -> ~chi_10   H )
     1.90411129E-03    2     1000022        36   # BR(~chi_20 -> ~chi_10   A )
     1.72259411E-02    2     1000002        -2   # BR(~chi_20 -> ~u_L      ub)
     1.72259411E-02    2    -1000002         2   # BR(~chi_20 -> ~u_L*     u )
     1.72202163E-02    2     1000001        -1   # BR(~chi_20 -> ~d_L      db)
     1.72202163E-02    2    -1000001         1   # BR(~chi_20 -> ~d_L*     d )
     4.75001178E-10    2     2000001        -1   # BR(~chi_20 -> ~d_R      db)
     4.75001178E-10    2    -2000001         1   # BR(~chi_20 -> ~d_R*     d )
     1.72259411E-02    2     1000004        -4   # BR(~chi_20 -> ~c_L      cb)
     1.72259411E-02    2    -1000004         4   # BR(~chi_20 -> ~c_L*     c )
     1.72202163E-02    2     1000003        -3   # BR(~chi_20 -> ~s_L      sb)
     1.72202163E-02    2    -1000003         3   # BR(~chi_20 -> ~s_L*     s )
     4.75001178E-10    2     2000003        -3   # BR(~chi_20 -> ~s_R      sb)
     4.75001178E-10    2    -2000003         3   # BR(~chi_20 -> ~s_R*     s )
     3.81514322E-02    2     1000006        -6   # BR(~chi_20 -> ~t_1      tb)
     3.81514322E-02    2    -1000006         6   # BR(~chi_20 -> ~t_1*     t )
     8.23957177E-03    2     1000005        -5   # BR(~chi_20 -> ~b_1      bb)
     8.23957177E-03    2    -1000005         5   # BR(~chi_20 -> ~b_1*     b )
     7.56309294E-03    2     2000005        -5   # BR(~chi_20 -> ~b_2      bb)
     7.56309294E-03    2    -2000005         5   # BR(~chi_20 -> ~b_2*     b )
     9.13284656E-02    2     1000039        22   # BR(~chi_20 -> ~G        gam)
     4.61182294E-01    2     1000039        23   # BR(~chi_20 -> ~G        Z)
     4.32573484E-03    2     1000039        25   # BR(~chi_20 -> ~G        h)
     1.81914597E-01    2     1000039        35   # BR(~chi_20 -> ~G        H)
     7.16844444E-03    2     1000039        36   # BR(~chi_20 -> ~G        A)
#
#         PDG            Width
DECAY   1000025     1.49346072E+03   # neutralino3 decays
#          BR         NDA      ID1       ID2
     4.41797219E-03    2     1000022        23   # BR(~chi_30 -> ~chi_10   Z )
     1.08719263E-04    2     1000022        25   # BR(~chi_30 -> ~chi_10   h )
     4.57108869E-03    2     1000022        35   # BR(~chi_30 -> ~chi_10   H )
     1.80062185E-04    2     1000022        36   # BR(~chi_30 -> ~chi_10   A )
     1.48583711E-10    2     1000002        -2   # BR(~chi_30 -> ~u_L      ub)
     1.48583711E-10    2    -1000002         2   # BR(~chi_30 -> ~u_L*     u )
     2.73349948E-18    2     2000002        -2   # BR(~chi_30 -> ~u_R      ub)
     2.73349948E-18    2    -2000002         2   # BR(~chi_30 -> ~u_R*     u )
     3.56807557E-10    2     1000001        -1   # BR(~chi_30 -> ~d_L      db)
     3.56807557E-10    2    -1000001         1   # BR(~chi_30 -> ~d_L*     d )
     4.48881297E-11    2     2000001        -1   # BR(~chi_30 -> ~d_R      db)
     4.48881297E-11    2    -2000001         1   # BR(~chi_30 -> ~d_R*     d )
     1.48583711E-10    2     1000004        -4   # BR(~chi_30 -> ~c_L      cb)
     1.48583711E-10    2    -1000004         4   # BR(~chi_30 -> ~c_L*     c )
     2.73349948E-18    2     2000004        -4   # BR(~chi_30 -> ~c_R      cb)
     2.73349948E-18    2    -2000004         4   # BR(~chi_30 -> ~c_R*     c )
     3.56807557E-10    2     1000003        -3   # BR(~chi_30 -> ~s_L      sb)
     3.56807557E-10    2    -1000003         3   # BR(~chi_30 -> ~s_L*     s )
     4.48881297E-11    2     2000003        -3   # BR(~chi_30 -> ~s_R      sb)
     4.48881297E-11    2    -2000003         3   # BR(~chi_30 -> ~s_R*     s )
     5.27788411E-02    2     1000006        -6   # BR(~chi_30 -> ~t_1      tb)
     5.27788411E-02    2    -1000006         6   # BR(~chi_30 -> ~t_1*     t )
     1.73185471E-05    2     1000005        -5   # BR(~chi_30 -> ~b_1      bb)
     1.73185471E-05    2    -1000005         5   # BR(~chi_30 -> ~b_1*     b )
     1.76304882E-05    2     2000005        -5   # BR(~chi_30 -> ~b_2      bb)
     1.76304882E-05    2    -2000005         5   # BR(~chi_30 -> ~b_2*     b )
     8.93988906E-24    2     1000012       -12   # BR(~chi_30 -> ~nu_eL    nu_eb)
     8.93988906E-24    2    -1000012        12   # BR(~chi_30 -> ~nu_eL*   nu_e )
     8.93988906E-24    2     1000014       -14   # BR(~chi_30 -> ~nu_muL   nu_mub)
     8.93988906E-24    2    -1000014        14   # BR(~chi_30 -> ~nu_muL*  nu_mu )
     8.93988906E-24    2     1000016       -16   # BR(~chi_30 -> ~nu_tau1  nu_taub)
     8.93988906E-24    2    -1000016        16   # BR(~chi_30 -> ~nu_tau1* nu_tau )
     1.28191545E-09    2     1000039        22   # BR(~chi_30 -> ~G        gam)
     1.70344702E-02    2     1000039        23   # BR(~chi_30 -> ~G        Z)
     4.32613654E-01    2     1000039        25   # BR(~chi_30 -> ~G        h)
     1.02644906E-02    2     1000039        35   # BR(~chi_30 -> ~G        H)
     4.25181959E-01    2     1000039        36   # BR(~chi_30 -> ~G        A)
#
#         PDG            Width
DECAY   1000035     3.90884974E+03   # neutralino4 decays
#          BR         NDA      ID1       ID2
     7.43707881E-05    2     1000022        23   # BR(~chi_40 -> ~chi_10   Z )
     2.94019757E-19    2     1000023        23   # BR(~chi_40 -> ~chi_20   Z )
     8.43200464E-05    2     1000024       -24   # BR(~chi_40 -> ~chi_1+   W-)
     8.43200464E-05    2    -1000024        24   # BR(~chi_40 -> ~chi_1-   W+)
     1.92248563E-03    2     1000022        25   # BR(~chi_40 -> ~chi_10   h )
     4.55110388E-05    2     1000022        35   # BR(~chi_40 -> ~chi_10   H )
     1.88990520E-03    2     1000022        36   # BR(~chi_40 -> ~chi_10   A )
     1.23452366E-12    2     1000023        25   # BR(~chi_40 -> ~chi_20   h )
     1.71396199E-02    2     1000002        -2   # BR(~chi_40 -> ~u_L      ub)
     1.71396199E-02    2    -1000002         2   # BR(~chi_40 -> ~u_L*     u )
     4.86918806E-13    2     2000002        -2   # BR(~chi_40 -> ~u_R      ub)
     4.86918806E-13    2    -2000002         2   # BR(~chi_40 -> ~u_R*     u )
     1.71453022E-02    2     1000001        -1   # BR(~chi_40 -> ~d_L      db)
     1.71453022E-02    2    -1000001         1   # BR(~chi_40 -> ~d_L*     d )
     4.71573528E-10    2     2000001        -1   # BR(~chi_40 -> ~d_R      db)
     4.71573528E-10    2    -2000001         1   # BR(~chi_40 -> ~d_R*     d )
     1.71396199E-02    2     1000004        -4   # BR(~chi_40 -> ~c_L      cb)
     1.71396199E-02    2    -1000004         4   # BR(~chi_40 -> ~c_L*     c )
     4.86918806E-13    2     2000004        -4   # BR(~chi_40 -> ~c_R      cb)
     4.86918806E-13    2    -2000004         4   # BR(~chi_40 -> ~c_R*     c )
     1.71453022E-02    2     1000003        -3   # BR(~chi_40 -> ~s_L      sb)
     1.71453022E-02    2    -1000003         3   # BR(~chi_40 -> ~s_L*     s )
     4.71573528E-10    2     2000003        -3   # BR(~chi_40 -> ~s_R      sb)
     4.71573528E-10    2    -2000003         3   # BR(~chi_40 -> ~s_R*     s )
     3.78482662E-02    2     1000006        -6   # BR(~chi_40 -> ~t_1      tb)
     3.78482662E-02    2    -1000006         6   # BR(~chi_40 -> ~t_1*     t )
     7.47816825E-03    2     1000005        -5   # BR(~chi_40 -> ~b_1      bb)
     7.47816825E-03    2    -1000005         5   # BR(~chi_40 -> ~b_1*     b )
     8.25669560E-03    2     2000005        -5   # BR(~chi_40 -> ~b_2      bb)
     8.25669560E-03    2    -2000005         5   # BR(~chi_40 -> ~b_2*     b )
     1.43993232E-08    2     1000011       -11   # BR(~chi_40 -> ~e_L-     e+)
     1.43993232E-08    2    -1000011        11   # BR(~chi_40 -> ~e_L+     e-)
     3.56678528E-15    2     2000011       -11   # BR(~chi_40 -> ~e_R-     e+)
     3.56678528E-15    2    -2000011        11   # BR(~chi_40 -> ~e_R+     e-)
     1.43993232E-08    2     1000013       -13   # BR(~chi_40 -> ~mu_L-    mu+)
     1.43993232E-08    2    -1000013        13   # BR(~chi_40 -> ~mu_L+    mu-)
     3.56678528E-15    2     2000013       -13   # BR(~chi_40 -> ~mu_R-    mu+)
     3.56678528E-15    2    -2000013        13   # BR(~chi_40 -> ~mu_R+    mu-)
     7.02153558E-09    2     1000015       -15   # BR(~chi_40 -> ~tau_1-   tau+)
     7.02153558E-09    2    -1000015        15   # BR(~chi_40 -> ~tau_1+   tau-)
     7.35428412E-09    2     2000015       -15   # BR(~chi_40 -> ~tau_2-   tau+)
     7.35428412E-09    2    -2000015        15   # BR(~chi_40 -> ~tau_2+   tau-)
     1.44180775E-08    2     1000012       -12   # BR(~chi_40 -> ~nu_eL    nu_eb)
     1.44180775E-08    2    -1000012        12   # BR(~chi_40 -> ~nu_eL*   nu_e )
     1.44180775E-08    2     1000014       -14   # BR(~chi_40 -> ~nu_muL   nu_mub)
     1.44180775E-08    2    -1000014        14   # BR(~chi_40 -> ~nu_muL*  nu_mu )
     1.44180775E-08    2     1000016       -16   # BR(~chi_40 -> ~nu_tau1  nu_taub)
     1.44180775E-08    2    -1000016        16   # BR(~chi_40 -> ~nu_tau1* nu_tau )
     9.11809795E-02    2     1000039        22   # BR(~chi_40 -> ~G        gam)
     4.62233654E-01    2     1000039        23   # BR(~chi_40 -> ~G        Z)
     4.34275651E-03    2     1000039        25   # BR(~chi_40 -> ~G        h)
     1.82258297E-01    2     1000039        35   # BR(~chi_40 -> ~G        H)
     7.17128053E-03    2     1000039        36   # BR(~chi_40 -> ~G        A)
#
#
#
#
