# SUSY Les Houches Accord 2 - MSSM spectrum + Decays
# SPheno v3.1.12 
# W. Porod, Comput. Phys. Commun. 153 (2003) 275-315, hep-ph/0301101
# in case of problems send email to porod@physik.uni-wuerzburg.de
# Created: 09.12.2016,  15:23
Block SPINFO         # Program information
     1   SPheno      # spectrum calculator
     2   v3.1.12     # version number
#
Block SPhenoINFO     # SPheno specific information
    1      2         # using 2-loop RGEs
    2      1         # using running masses for boundary conditions at mZ
Block MODSEL  # Model selection
    1    2    # mGMSB model
Block MINPAR  # Input parameters
    1    1.60000000E+05  # Lambda, scale of SUSY breaking
    2    2.50000000E+05  # M_M, messenger mass scale
    3    1.50000000E+01  # tanb at m_Z   
    4    1.00000000E+00  # Sign(mu)
    5    3.00000000E+00  # N_5 number of effective five-plets
    6    1.00000000E+00  # c_grav, Gravitino mass factor
Block gauge Q=  2.50000000E+05  # (GMSB scale)
   1    4.92779803E-01  # g'(Q)^DRbar
   2    6.45793950E-01  # g(Q)^DRbar
   3    9.30557019E-01  # g3(Q)^DRbar
Block SMINPUTS  # SM parameters
         1     1.27932463E+02  # alpha_em^-1(MZ)^MSbar
         2     1.16639000E-05  # G_mu [GeV^-2]
         3     1.17200000E-01  # alpha_s(MZ)^MSbar
         4     9.11876000E+01  # m_Z(pole)
         5     4.20000000E+00  # m_b(m_b), MSbar
         6     1.72500000E+02  # m_t(pole)
         7     1.77700000E+00  # m_tau(pole)
         8     0.00000000E+00  # m_nu_3
        11     5.10998910E-04  # m_e(pole)
        12     0.00000000E+00  # m_nu_1
        13     1.05658000E-01  # m_muon(pole)
        14     0.00000000E+00  # m_nu_2
        21     5.00000000E-03  # m_d(2 GeV), MSbar
        22     3.00000000E-03  # m_u(2 GeV), MSbar
        23     1.05000000E-01  # m_s(2 GeV), MSbar
        24     1.27000000E+00  # m_c(m_c), MSbar
Block gauge Q=  3.00445125E+03  # (SUSY scale)
   1    3.65405257E-01  # g'(Q)^DRbar
   2    6.37049184E-01  # g(Q)^DRbar
   3    1.00402647E+00  # g3(Q)^DRbar
Block Yu Q=  3.00445125E+03  # (SUSY scale)
  1  1     8.27431950E-06   # Y_u(Q)^DRbar
  2  2     3.50279575E-03   # Y_c(Q)^DRbar
  3  3     8.32598602E-01   # Y_t(Q)^DRbar
Block Yd Q=  3.00445125E+03  # (SUSY scale)
  1  1     1.88682407E-04   # Y_d(Q)^DRbar
  2  2     3.96232951E-03   # Y_s(Q)^DRbar
  3  3     1.86907801E-01   # Y_b(Q)^DRbar
Block Ye Q=  3.00445125E+03  # (SUSY scale)
  1  1     4.31939710E-05   # Y_e(Q)^DRbar
  2  2     8.93112087E-03   # Y_mu(Q)^DRbar
  3  3     1.50248696E-01   # Y_tau(Q)^DRbar
Block Au Q=  3.00445125E+03  # (SUSY scale)
  1  1    -8.96322381E+02   # A_u(Q)^DRbar
  2  2    -8.96321201E+02   # A_c(Q)^DRbar
  3  3    -8.49420851E+02   # A_t(Q)^DRbar
Block Ad Q=  3.00445125E+03  # (SUSY scale)
  1  1    -9.47788459E+02   # A_d(Q)^DRbar
  2  2    -9.47787102E+02   # A_s(Q)^DRbar
  3  3    -9.30383804E+02   # A_b(Q)^DRbar
Block Ae Q=  3.00445125E+03  # (SUSY scale)
  1  1    -1.06340453E+02   # A_e(Q)^DRbar
  2  2    -1.06339655E+02   # A_mu(Q)^DRbar
  3  3    -1.06114503E+02   # A_tau(Q)^DRbar
Block MSOFT Q=  3.00445125E+03  # soft SUSY breaking masses at Q
   1    7.28210044E+02  # M_1
   2    1.32400980E+03  # M_2
   3    3.30196926E+03  # M_3
  21    8.91522371E+05  # M^2_(H,d)
  22   -7.71098343E+05  # M^2_(H,u)
  31    9.91756419E+02  # M_(L,11)
  32    9.91752029E+02  # M_(L,22)
  33    9.90513967E+02  # M_(L,33)
  34    4.83004595E+02  # M_(E,11)
  35    4.82986242E+02  # M_(E,22)
  36    4.77783444E+02  # M_(E,33)
  41    3.11447436E+03  # M_(Q,11)
  42    3.11447080E+03  # M_(Q,22)
  43    3.02303886E+03  # M_(Q,33)
  44    2.98398726E+03  # M_(U,11)
  45    2.98398401E+03  # M_(U,22)
  46    2.79632043E+03  # M_(U,33)
  47    2.97116249E+03  # M_(D,11)
  48    2.97115822E+03  # M_(D,22)
  49    2.96170295E+03  # M_(D,33)
Block MASS  # Mass spectrum
#   PDG code      mass          particle
         6     1.72500000E+02  # m_t(pole)
        23     9.11876000E+01  # m_Z(pole)
        24     8.03147488E+01  # W+
        15     1.77700000E+00  # m_tau(pole)
        25     1.20989190E+02  # h0
        35     1.38450765E+03  # H0
        36     1.38439888E+03  # A0
        37     1.38653317E+03  # H+
   1000001     3.24287673E+03  # ~d_L
   2000001     3.09164967E+03  # ~d_R
   1000002     3.24189302E+03  # ~u_L
   2000002     3.10370698E+03  # ~u_R
   1000003     3.24287242E+03  # ~s_L
   2000003     3.09164429E+03  # ~s_R
   1000004     3.24188878E+03  # ~c_L
   2000004     3.10370303E+03  # ~c_R
   1000005     3.07928378E+03  # ~b_1
   2000005     3.13151256E+03  # ~b_2
   1000006     2.87829782E+03  # ~t_1
   2000006     3.13612855E+03  # ~t_2
   1000011     1.01455325E+03  # ~e_L-
   2000011     5.02304933E+02  # ~e_R-
   1000012     1.01103777E+03  # ~nu_eL
   1000013     1.01454849E+03  # ~mu_L-
   2000013     5.02278410E+02  # ~mu_R-
   1000014     1.01103143E+03  # ~nu_muL
   1000015     4.94756467E+02  # ~tau_1-
   2000015     1.01320616E+03  # ~tau_2-
   1000016     1.00924559E+03  # ~nu_tauL
   1000021     3.45057360E+03  # ~g
   1000022     7.08490988E+02  # ~chi_10
   1000023     9.91717504E+02  # ~chi_20
   1000025    -9.98692410E+02  # ~chi_30
   1000035     1.36196158E+03  # ~chi_40
   1000024     9.88790702E+02  # ~chi_1+
   1000037     1.36214403E+03  # ~chi_2+
   1000039     9.60000000E-09  # ~G
# Higgs mixing
Block alpha # Effective Higgs mixing angle
          -7.06569798E-02   # alpha
Block Hmix Q=  3.00445125E+03  # Higgs mixing parameters
   1    9.83958634E+02  # mu
   2    1.43001191E+01  # tan[beta](Q)
   3    2.43452358E+02  # v(Q)
   4    1.67096977E+06  # m^2_A(Q)
Block stopmix # stop mixing matrix
   1  1     1.03406552E-01   # Re[R_st(1,1)]
   1  2     9.94639173E-01   # Re[R_st(1,2)]
   2  1    -9.94639173E-01   # Re[R_st(2,1)]
   2  2     1.03406552E-01   # Re[R_st(2,2)]
Block sbotmix # sbottom mixing matrix
   1  1     1.12510210E-01   # Re[R_sb(1,1)]
   1  2     9.93650569E-01   # Re[R_sb(1,2)]
   2  1    -9.93650569E-01   # Re[R_sb(2,1)]
   2  2     1.12510210E-01   # Re[R_sb(2,2)]
Block staumix # stau mixing matrix
   1  1     3.35302872E-02   # Re[R_sta(1,1)]
   1  2     9.99437702E-01   # Re[R_sta(1,2)]
   2  1    -9.99437702E-01   # Re[R_sta(2,1)]
   2  2     3.35302872E-02   # Re[R_sta(2,2)]
Block Nmix # neutralino mixing matrix
   1  1    -9.92753493E-01   # Re[N(1,1)]
   1  2     9.45648433E-03   # Re[N(1,2)]
   1  3    -9.59903553E-02   # Re[N(1,3)]
   1  4     7.16723712E-02   # Re[N(1,4)]
   2  1    -1.18594491E-01   # Re[N(2,1)]
   2  2    -1.59971057E-01   # Re[N(2,2)]
   2  3     6.94657152E-01   # Re[N(2,3)]
   2  4    -6.91227928E-01   # Re[N(2,4)]
   3  1    -1.69931763E-02   # Re[N(3,1)]
   3  2     2.20628084E-02   # Re[N(3,2)]
   3  3     7.06175774E-01   # Re[N(3,3)]
   3  4     7.07488686E-01   # Re[N(3,4)]
   4  1    -9.33171155E-03   # Re[N(4,1)]
   4  2     9.86829807E-01   # Re[N(4,2)]
   4  3     9.77398017E-02   # Re[N(4,3)]
   4  4    -1.28556533E-01   # Re[N(4,4)]
Block Umix # chargino mixing matrix
   1  1    -1.38307896E-01   # Re[U(1,1)]
   1  2     9.90389280E-01   # Re[U(1,2)]
   2  1     9.90389280E-01   # Re[U(2,1)]
   2  2     1.38307896E-01   # Re[U(2,2)]
Block Vmix # chargino mixing matrix
   1  1    -1.81841558E-01   # Re[V(1,1)]
   1  2     9.83327843E-01   # Re[V(1,2)]
   2  1     9.83327843E-01   # Re[V(2,1)]
   2  2     1.81841558E-01   # Re[V(2,2)]
DECAY   2000011     4.04465804E-10   # ~e^-_R
#    BR                NDA      ID1      ID2
     9.83027281E-01    2     1000039        11   # BR(~e^-_R -> ~G e^-)
#    BR                NDA      ID1      ID2       ID3
     3.36243535E-03    3     1000015        11       -15   # BR(~e^-_R -> ~tau^-_1 e^- tau^+)
     1.36102839E-02    3    -1000015        11        15   # BR(~e^-_R -> ~tau^+_1 e^- tau^-)
DECAY   1000011     3.37928845E-01   # ~e^-_L
#    BR                NDA      ID1      ID2
     9.97584228E-01    2     1000022        11   # BR(~e^-_L -> chi^0_1 e^-)
     1.24812759E-03    2     1000023        11   # BR(~e^-_L -> chi^0_2 e^-)
     1.76918099E-06    2     1000025        11   # BR(~e^-_L -> chi^0_3 e^-)
     1.16575881E-03    2    -1000024        12   # BR(~e^-_L -> chi^-_1 nu_e)
     3.82314649E-08    2     2000011        23   # BR(~e^-_L -> ~e^-_R Z)
     3.87062109E-08    2     2000011        25   # BR(~e^-_L -> ~e^-_R h^0)
     3.95511504E-08    2     1000039        11   # BR(~e^-_L -> ~G e^-)
DECAY   2000013     4.04225595E-10   # ~mu^-_R
#    BR                NDA      ID1      ID2
     9.83351606E-01    2     1000039        13   # BR(~mu^-_R -> ~G mu^-)
#    BR                NDA      ID1      ID2       ID3
     3.29771624E-03    3     1000015        13       -15   # BR(~mu^-_R -> ~tau^-_1 mu^- tau^+)
     1.33506778E-02    3    -1000015        13        15   # BR(~mu^-_R -> ~tau^+_1 mu^- tau^-)
DECAY   1000013     3.39037591E-01   # ~mu^-_L
#    BR                NDA      ID1      ID2
     9.94308986E-01    2     1000022        13   # BR(~mu^-_L -> chi^0_1 mu^-)
     1.24723753E-03    2     1000023        13   # BR(~mu^-_L -> chi^0_2 mu^-)
     4.03398714E-06    2     1000025        13   # BR(~mu^-_L -> chi^0_3 mu^-)
     1.16105584E-03    2    -1000024        14   # BR(~mu^-_L -> chi^-_1 nu_mu)
     1.62921930E-03    2     2000013        23   # BR(~mu^-_L -> ~mu^-_R Z)
     1.64942792E-03    2     2000013        25   # BR(~mu^-_L -> ~mu^-_R h^0)
     3.94208812E-08    2     1000039        13   # BR(~mu^-_L -> ~G mu^-)
DECAY   1000015     3.68591361E-10   # ~tau^-_1
#    BR                NDA      ID1      ID2
     1.00000000E+00    2     1000039        15   # BR(~tau^-_1 -> ~G tau^-)
DECAY   2000015     6.54214780E-01   # ~tau^-_2
#    BR                NDA      ID1      ID2
     5.13390056E-01    2     1000022        15   # BR(~tau^-_2 -> chi^0_1 tau^-)
     1.05007708E-03    2     1000023        15   # BR(~tau^-_2 -> chi^0_2 tau^-)
     2.75950763E-04    2     1000025        15   # BR(~tau^-_2 -> chi^0_3 tau^-)
     4.82014879E-04    2    -1000024        16   # BR(~tau^-_2 -> chi^-_1 nu_tau)
     2.41366873E-01    2     1000015        23   # BR(~tau^-_2 -> ~tau^-_1 Z)
     2.43435008E-01    2     1000015        25   # BR(~tau^-_2 -> ~tau^-_1 h^0)
     2.02942765E-08    2     1000039        15   # BR(~tau^-_2 -> ~G tau^-)
DECAY   1000012     3.54838176E-01   # ~nu_e
#    BR                NDA      ID1      ID2
     9.98412709E-01    2     1000022        12   # BR(~nu_e -> chi^0_1 nu_e)
     1.39336555E-04    2     1000023        12   # BR(~nu_e -> chi^0_2 nu_e)
     6.85680861E-06    2     1000025        12   # BR(~nu_e -> chi^0_3 nu_e)
     1.44099003E-03    2     1000024        11   # BR(~nu_e -> chi^+_1 e^-)
     7.02398924E-08    2     2000011        24   # BR(~nu_e -> ~e^-_R W^+)
     3.70183216E-08    2     1000039        12   # BR(~nu_e -> ~G nu_e)
DECAY   1000014     3.55895242E-01   # ~nu_mu
#    BR                NDA      ID1      ID2
     9.95416931E-01    2     1000022        14   # BR(~nu_mu -> chi^0_1 nu_mu)
     1.38833279E-04    2     1000023        14   # BR(~nu_mu -> chi^0_2 nu_mu)
     6.82950858E-06    2     1000025        14   # BR(~nu_mu -> chi^0_3 nu_mu)
     1.44323407E-03    2     1000024        13   # BR(~nu_mu -> chi^+_1 mu^-)
     2.99413536E-03    2     2000013        24   # BR(~nu_mu -> ~mu^-_R W^+)
     3.69072141E-08    2     1000039        14   # BR(~nu_mu -> ~G nu_mu)
DECAY   1000016     6.56603094E-01   # ~nu_tau
#    BR                NDA      ID1      ID2
     5.34912557E-01    2     1000022        16   # BR(~nu_tau -> chi^0_1 nu_tau)
     6.21969425E-05    2     1000023        16   # BR(~nu_tau -> chi^0_2 nu_tau)
     2.71734608E-06    2     1000025        16   # BR(~nu_tau -> chi^0_3 nu_tau)
     1.59861641E-03    2     1000024        15   # BR(~nu_tau -> chi^+_1 tau^-)
     4.63423892E-01    2     1000015        24   # BR(~nu_tau -> ~tau^-_1 W^+)
     1.98285762E-08    2     1000039        16   # BR(~nu_tau -> ~G nu_tau)
DECAY   2000001     1.63586300E+00   # ~d_R
#    BR                NDA      ID1      ID2
     9.87046418E-01    2     1000022         1   # BR(~d_R -> chi^0_1 d)
     1.26282800E-02    2     1000023         1   # BR(~d_R -> chi^0_2 d)
     2.58958466E-04    2     1000025         1   # BR(~d_R -> chi^0_3 d)
     6.31004199E-05    2     1000035         1   # BR(~d_R -> chi^0_4 d)
     1.09646231E-06    2    -1000024         2   # BR(~d_R -> chi^-_1 u)
     1.02271943E-10    2    -1000037         2   # BR(~d_R -> chi^-_2 u)
     2.14691380E-06    2     1000039         1   # BR(~d_R -> ~G d)
DECAY   1000001     2.71908142E+01   # ~d_L
#    BR                NDA      ID1      ID2
     1.73359213E-02    2     1000022         1   # BR(~d_L -> chi^0_1 d)
     7.45739827E-03    2     1000023         1   # BR(~d_L -> chi^0_2 d)
     2.52761086E-04    2     1000025         1   # BR(~d_L -> chi^0_3 d)
     3.19192911E-01    2     1000035         1   # BR(~d_L -> chi^0_4 d)
     1.51537616E-02    2    -1000024         2   # BR(~d_L -> chi^-_1 u)
     6.40607082E-01    2    -1000037         2   # BR(~d_L -> chi^-_2 u)
     9.93494522E-13    2     2000002       -24   # BR(~d_L -> ~u_R W^-)
     2.25538880E-10    2     2000001        23   # BR(~d_L -> ~d_R Z)
     2.38215146E-10    2     2000001        25   # BR(~d_L -> ~d_R h^0)
     1.63998604E-07    2     1000039         1   # BR(~d_L -> ~G d)
DECAY   2000003     1.63743030E+00   # ~s_R
#    BR                NDA      ID1      ID2
     9.86109220E-01    2     1000022         3   # BR(~s_R -> chi^0_1 s)
     1.28503220E-02    2     1000023         3   # BR(~s_R -> chi^0_2 s)
     4.92154099E-04    2     1000025         3   # BR(~s_R -> chi^0_3 s)
     6.30386892E-05    2     1000035         3   # BR(~s_R -> chi^0_4 s)
     4.83075013E-04    2    -1000024         4   # BR(~s_R -> chi^-_1 c)
     4.50698312E-08    2    -1000037         4   # BR(~s_R -> chi^-_2 c)
     2.14484020E-06    2     1000039         3   # BR(~s_R -> ~G s)
DECAY   1000003     2.71922069E+01   # ~s_L
#    BR                NDA      ID1      ID2
     1.73350031E-02    2     1000022         3   # BR(~s_L -> chi^0_1 s)
     7.47136469E-03    2     1000023         3   # BR(~s_L -> chi^0_2 s)
     2.68053917E-04    2     1000025         3   # BR(~s_L -> chi^0_3 s)
     3.19176274E-01    2     1000035         3   # BR(~s_L -> chi^0_4 s)
     1.51747087E-02    2    -1000024         4   # BR(~s_L -> chi^-_1 c)
     6.40574049E-01    2    -1000037         4   # BR(~s_L -> chi^-_2 c)
     1.78034607E-07    2     2000004       -24   # BR(~s_L -> ~c_R W^-)
     9.94595861E-08    2     2000003        23   # BR(~s_L -> ~s_R Z)
     1.05049472E-07    2     2000003        25   # BR(~s_L -> ~s_R h^0)
     1.63989114E-07    2     1000039         3   # BR(~s_L -> ~G s)
DECAY   1000005     5.73466057E+00   # ~b_1
#    BR                NDA      ID1      ID2
     2.90662828E-01    2     1000022         5   # BR(~b_1 -> chi^0_1 b)
     1.58943008E-01    2     1000023         5   # BR(~b_1 -> chi^0_2 b)
     1.45505403E-01    2     1000025         5   # BR(~b_1 -> chi^0_3 b)
     7.05817005E-03    2     1000035         5   # BR(~b_1 -> chi^0_4 b)
     3.80478322E-01    2    -1000024         6   # BR(~b_1 -> chi^-_1 t)
     1.66828139E-02    2    -1000037         6   # BR(~b_1 -> chi^-_2 t)
     6.68854905E-04    2     1000006       -24   # BR(~b_1 -> ~t_1 W^-)
     6.00271579E-07    2     1000039         5   # BR(~b_1 -> ~G b)
DECAY   2000005     6.17176165E+01   # ~b_2
#    BR                NDA      ID1      ID2
     6.90766713E-03    2     1000022         5   # BR(~b_2 -> chi^0_1 b)
     1.58725853E-02    2     1000023         5   # BR(~b_2 -> chi^0_2 b)
     1.46339585E-02    2     1000025         5   # BR(~b_2 -> chi^0_3 b)
     1.31400842E-01    2     1000035         5   # BR(~b_2 -> chi^0_4 b)
     5.37630938E-01    2    -1000024         6   # BR(~b_2 -> chi^-_1 t)
     2.83077669E-01    2    -1000037         6   # BR(~b_2 -> chi^-_2 t)
     1.04762798E-02    2     1000006       -24   # BR(~b_2 -> ~t_1 W^-)
     6.06692574E-08    2     1000039         5   # BR(~b_2 -> ~G b)
DECAY   2000002     6.57467343E+00   # ~u_R
#    BR                NDA      ID1      ID2
     9.87038254E-01    2     1000022         2   # BR(~u_R -> chi^0_1 u)
     1.26392489E-02    2     1000023         2   # BR(~u_R -> chi^0_2 u)
     2.58670283E-04    2     1000025         2   # BR(~u_R -> chi^0_3 u)
     6.32813612E-05    2     1000035         2   # BR(~u_R -> chi^0_4 u)
     5.30632084E-10    2     1000024         1   # BR(~u_R -> chi^+_1 d)
     4.26245345E-13    2     1000037         1   # BR(~u_R -> chi^+_2 d)
     5.44677636E-07    2     1000039         2   # BR(~u_R -> ~G u)
DECAY   1000002     2.72336231E+01   # ~u_L
#    BR                NDA      ID1      ID2
     1.41738169E-02    2     1000022         2   # BR(~u_L -> chi^0_1 u)
     1.31710157E-02    2     1000023         2   # BR(~u_L -> chi^0_2 u)
     1.39342707E-04    2     1000025         2   # BR(~u_L -> chi^0_3 u)
     3.16216494E-01    2     1000035         2   # BR(~u_L -> chi^0_4 u)
     2.61423712E-02    2     1000024         1   # BR(~u_L -> chi^+_1 d)
     6.30156795E-01    2     1000037         1   # BR(~u_L -> chi^+_2 d)
     5.09571140E-10    2     2000001        24   # BR(~u_L -> ~d_R W^+)
     3.89960799E-13    2     2000002        23   # BR(~u_L -> ~u_R Z)
     2.90972077E-13    2     2000002        25   # BR(~u_L -> ~u_R h^0)
     1.63492614E-07    2     1000039         2   # BR(~u_L -> ~G u)
DECAY   2000004     6.57590198E+00   # ~c_R
#    BR                NDA      ID1      ID2
     9.86852543E-01    2     1000022         4   # BR(~c_R -> chi^0_1 c)
     1.26829872E-02    2     1000023         4   # BR(~c_R -> chi^0_2 c)
     3.05478435E-04    2     1000025         4   # BR(~c_R -> chi^0_3 c)
     6.32932953E-05    2     1000035         4   # BR(~c_R -> chi^0_4 c)
     9.50772710E-05    2     1000024         3   # BR(~c_R -> chi^+_1 s)
     7.63732736E-08    2     1000037         3   # BR(~c_R -> chi^+_2 s)
     5.44572041E-07    2     1000039         4   # BR(~c_R -> ~G c)
DECAY   1000004     2.72350166E+01   # ~c_L
#    BR                NDA      ID1      ID2
     1.41731286E-02    2     1000022         4   # BR(~c_L -> chi^0_1 c)
     1.31811764E-02    2     1000023         4   # BR(~c_L -> chi^0_2 c)
     1.51155427E-04    2     1000025         4   # BR(~c_L -> chi^0_3 c)
     3.16200306E-01    2     1000035         4   # BR(~c_L -> chi^0_4 c)
     2.61695556E-02    2     1000024         3   # BR(~c_L -> chi^+_1 s)
     6.30124167E-01    2     1000037         3   # BR(~c_L -> chi^+_2 s)
     2.24713605E-07    2     2000003        24   # BR(~c_L -> ~s_R W^+)
     6.98811532E-08    2     2000004        23   # BR(~c_L -> ~c_R Z)
     5.21421735E-08    2     2000004        25   # BR(~c_L -> ~c_R h^0)
     1.63483078E-07    2     1000039         4   # BR(~c_L -> ~G c)
DECAY   1000006     6.72071624E+01   # ~t_1
#    BR                NDA      ID1      ID2
     1.60082316E-06    2     1000022         4   # BR(~t_1 -> chi^0_1 c)
     9.05693994E-02    2     1000022         6   # BR(~t_1 -> chi^0_1 t)
     1.44479613E-06    2     1000023         4   # BR(~t_1 -> chi^0_2 c)
     2.20822848E-01    2     1000023         6   # BR(~t_1 -> chi^0_2 t)
     2.30204063E-01    2     1000025         6   # BR(~t_1 -> chi^0_3 t)
     1.85676083E-03    2     1000035         6   # BR(~t_1 -> chi^0_4 t)
     4.52755289E-01    2     1000024         5   # BR(~t_1 -> chi^+_1 b)
     3.78171180E-03    2     1000037         5   # BR(~t_1 -> chi^+_2 b)
     3.60265351E-08    2     1000039         6   # BR(~t_1 -> ~G t)
#    BR                NDA      ID1      ID2       ID3
     6.84649602E-06    3     1000022        24         5   # BR(~t_1 -> chi^0_1 W^+ b)
DECAY   2000006     6.24207354E+01   # ~t_2
#    BR                NDA      ID1      ID2
     7.37629681E-03    2     1000022         6   # BR(~t_2 -> chi^0_1 t)
     2.66814582E-01    2     1000023         6   # BR(~t_2 -> chi^0_2 t)
     2.74692093E-01    2     1000025         6   # BR(~t_2 -> chi^0_3 t)
     1.44614742E-01    2     1000035         6   # BR(~t_2 -> chi^0_4 t)
     2.82304962E-02    2     1000024         5   # BR(~t_2 -> chi^+_1 b)
     2.68900005E-01    2     1000037         5   # BR(~t_2 -> chi^+_2 b)
     5.40722652E-03    2     1000006        23   # BR(~t_2 -> ~t_1 Z)
     3.96449863E-03    2     1000006        25   # BR(~t_2 -> ~t_1 h^0)
     5.97017203E-08    2     1000039         6   # BR(~t_2 -> ~G t)
DECAY   1000024     5.82707069E-01   # chi^+_1
#    BR                NDA      ID1      ID2
     1.76899465E-08    2    -2000011        12   # BR(chi^+_1 -> ~e^+_R nu_e)
     7.56348598E-04    2    -2000013        14   # BR(chi^+_1 -> ~mu^+_R nu_mu)
     2.18214458E-01    2    -1000015        16   # BR(chi^+_1 -> ~tau^+_1 nu_tau)
     7.80225326E-01    2     1000022        24   # BR(chi^+_1 -> chi^0_1 W^+)
#    BR                NDA      ID1      ID2       ID3
     8.74160386E-10    3     1000022        -1         2   # BR(chi^+_1 -> chi^0_1 d_bar u)
     9.70551043E-10    3     1000022        -3         4   # BR(chi^+_1 -> chi^0_1 s_bar c)
     7.88536879E-04    3     1000022        -5         6   # BR(chi^+_1 -> chi^0_1 b_bar t)
     3.95503899E-06    3     1000022       -11        12   # BR(chi^+_1 -> chi^0_1 e^+ nu_e)
     3.96669763E-06    3     1000022       -13        14   # BR(chi^+_1 -> chi^0_1 mu^+ nu_mu)
     7.38947437E-06    3     1000022       -15        16   # BR(chi^+_1 -> chi^0_1 tau^+ nu_tau)
DECAY   1000037     1.42521138E+01   # chi^+_2
#    BR                NDA      ID1      ID2
     1.49893104E-14    2    -2000011        12   # BR(chi^+_2 -> ~e^+_R nu_e)
     7.50228946E-02    2    -1000011        12   # BR(chi^+_2 -> ~e^+_L nu_e)
     6.39781332E-10    2    -2000013        14   # BR(chi^+_2 -> ~mu^+_R nu_mu)
     7.50249355E-02    2    -1000013        14   # BR(chi^+_2 -> ~mu^+_L nu_mu)
     1.06882741E-07    2    -1000015        16   # BR(chi^+_2 -> ~tau^+_1 nu_tau)
     7.56017396E-02    2    -2000015        16   # BR(chi^+_2 -> ~tau^+_2 nu_tau)
     7.52373597E-02    2     1000012       -11   # BR(chi^+_2 -> ~nu_e e^+)
     7.52398623E-02    2     1000014       -13   # BR(chi^+_2 -> ~nu_mu mu^+)
     7.59463379E-02    2     1000016       -15   # BR(chi^+_2 -> ~nu_tau tau^+)
     3.21625354E-07    2     1000022        24   # BR(chi^+_2 -> chi^0_1 W^+)
     1.38536546E-01    2     1000023        24   # BR(chi^+_2 -> chi^0_2 W^+)
     1.33609100E-01    2     1000025        24   # BR(chi^+_2 -> chi^0_3 W^+)
     1.40859212E-01    2     1000024        23   # BR(chi^+_2 -> chi^+_1 Z)
     1.33998463E-01    2     1000024        25   # BR(chi^+_2 -> chi^+_1 h^0)
#    BR                NDA      ID1      ID2       ID3
     2.42605172E-09    3     1000024         2        -2   # BR(chi^+_2 -> chi^+_1 u u_bar)
     2.42800574E-09    3     1000024         4        -4   # BR(chi^+_2 -> chi^+_1 c c_bar)
     2.00025739E-05    3     1000024         6        -6   # BR(chi^+_2 -> chi^+_1 t t_bar)
     4.14014931E-09    3     1000024         1        -1   # BR(chi^+_2 -> chi^+_1 d d_bar)
     4.26708670E-09    3     1000024         3        -3   # BR(chi^+_2 -> chi^+_1 s s_bar)
     2.93880941E-07    3     1000024         5        -5   # BR(chi^+_2 -> chi^+_1 b b_bar)
     1.70735404E-10    3     1000024        13       -13   # BR(chi^+_2 -> chi^+_1 mu^- mu^+)
     4.83101821E-08    3     1000024        15       -15   # BR(chi^+_2 -> chi^+_1 tau^- tau^+)
     5.99940571E-14    3     1000024        12       -12   # BR(chi^+_2 -> chi^+_1 nu_e nu_bar_e)
     6.76316499E-08    3     1000022        -1         2   # BR(chi^+_2 -> chi^0_1 d_bar u)
     6.76327961E-08    3     1000022        -3         4   # BR(chi^+_2 -> chi^0_1 s_bar c)
     7.62295553E-08    3     1000022        -5         6   # BR(chi^+_2 -> chi^0_1 b_bar t)
     3.87933101E-12    3     1000022       -13        14   # BR(chi^+_2 -> chi^0_1 mu^+ nu_mu)
     1.12919495E-09    3     1000022       -15        16   # BR(chi^+_2 -> chi^0_1 tau^+ nu_tau)
     1.68563561E-09    3     1000023        -1         2   # BR(chi^+_2 -> chi^0_2 d_bar u)
     1.74455732E-09    3     1000023        -3         4   # BR(chi^+_2 -> chi^0_2 s_bar c)
     4.76377675E-04    3     1000023        -5         6   # BR(chi^+_2 -> chi^0_2 b_bar t)
     8.74189206E-11    3     1000023       -13        14   # BR(chi^+_2 -> chi^0_2 mu^+ nu_mu)
     2.47327539E-08    3     1000023       -15        16   # BR(chi^+_2 -> chi^0_2 tau^+ nu_tau)
     8.18575207E-11    3     1000025        -1         2   # BR(chi^+_2 -> chi^0_3 d_bar u)
     1.32353996E-10    3     1000025        -3         4   # BR(chi^+_2 -> chi^0_3 s_bar c)
     4.26121397E-04    3     1000025        -5         6   # BR(chi^+_2 -> chi^0_3 b_bar t)
     7.72130745E-11    3     1000025       -13        14   # BR(chi^+_2 -> chi^0_3 mu^+ nu_mu)
     2.18482471E-08    3     1000025       -15        16   # BR(chi^+_2 -> chi^0_3 tau^+ nu_tau)
DECAY   1000022     2.81020912E+00   # chi^0_1
#    BR                NDA      ID1      ID2
     1.63260612E-01    2     2000011       -11   # BR(chi^0_1 -> ~e^-_R e^+)
     1.63260612E-01    2    -2000011        11   # BR(chi^0_1 -> ~e^+_R e^-)
     1.63296097E-01    2     2000013       -13   # BR(chi^0_1 -> ~mu^-_R mu^+)
     1.63296097E-01    2    -2000013        13   # BR(chi^0_1 -> ~mu^+_R mu^-)
     1.73443291E-01    2     1000015       -15   # BR(chi^0_1 -> ~tau^-_1 tau^+)
     1.73443291E-01    2    -1000015        15   # BR(chi^0_1 -> ~tau^+_1 tau^-)
     5.79349136E-10    2     1000039        22   # BR(chi^0_1 -> ~G photon)
     1.69418485E-10    2     1000039        23   # BR(chi^0_1 -> ~G Z)
     4.83467721E-12    2     1000039        25   # BR(chi^0_1 -> ~G h^0)
DECAY   1000023     7.48929563E-01   # chi^0_2
#    BR                NDA      ID1      ID2
     2.73444023E-02    2     2000011       -11   # BR(chi^0_2 -> ~e^-_R e^+)
     2.73444023E-02    2    -2000011        11   # BR(chi^0_2 -> ~e^+_R e^-)
     2.76327011E-02    2     2000013       -13   # BR(chi^0_2 -> ~mu^-_R mu^+)
     2.76327011E-02    2    -2000013        13   # BR(chi^0_2 -> ~mu^+_R mu^-)
     1.10628430E-01    2     1000015       -15   # BR(chi^0_2 -> ~tau^-_1 tau^+)
     1.10628430E-01    2    -1000015        15   # BR(chi^0_2 -> ~tau^+_1 tau^-)
     1.64853744E-02    2     1000022        23   # BR(chi^0_2 -> chi^0_1 Z)
     6.52285588E-01    2     1000022        25   # BR(chi^0_2 -> chi^0_1 h^0)
     5.30245378E-10    2     1000039        22   # BR(chi^0_2 -> ~G photon)
     1.32266804E-09    2     1000039        23   # BR(chi^0_2 -> ~G Z)
     8.68493328E-09    2     1000039        25   # BR(chi^0_2 -> ~G h^0)
     3.09010028E-07    2     1000022        22   # BR(chi^0_2 -> chi^0_1 photon)
#    BR                NDA      ID1      ID2       ID3
     2.66190970E-09    3     1000022         2        -2   # BR(chi^0_2 -> chi^0_1 u u_bar)
     2.66496783E-09    3     1000022         4        -4   # BR(chi^0_2 -> chi^0_1 c c_bar)
     4.34760407E-10    3     1000022         1        -1   # BR(chi^0_2 -> chi^0_1 d d_bar)
     5.34458437E-10    3     1000022         3        -3   # BR(chi^0_2 -> chi^0_1 s s_bar)
     2.23597189E-07    3     1000022         5        -5   # BR(chi^0_2 -> chi^0_1 b b_bar)
     4.54895987E-06    3     1000022        11       -11   # BR(chi^0_2 -> chi^0_1 e^- e^+)
     4.55594609E-06    3     1000022        13       -13   # BR(chi^0_2 -> chi^0_1 mu^- mu^+)
     6.55300839E-06    3     1000022        15       -15   # BR(chi^0_2 -> chi^0_1 tau^- tau^+)
     1.76262146E-06    3     1000022        12       -12   # BR(chi^0_2 -> chi^0_1 nu_e nu_bar_e)
     1.18198959E-10    3     1000024         1        -2   # BR(chi^0_2 -> chi^+_1 d u_bar)
     1.18198959E-10    3    -1000024        -1         2   # BR(chi^0_2 -> chi^-_1 d_bar u)
     4.70523075E-11    3     1000024         3        -4   # BR(chi^0_2 -> chi^+_1 s c_bar)
     4.70523075E-11    3    -1000024        -3         4   # BR(chi^0_2 -> chi^-_1 s_bar c)
     3.96613061E-11    3     1000024        11       -12   # BR(chi^0_2 -> chi^+_1 e^- nu_bar_e)
     3.96613061E-11    3    -1000024       -11        12   # BR(chi^0_2 -> chi^-_1 e^+ nu_e)
     3.94049519E-11    3     1000024        13       -14   # BR(chi^0_2 -> chi^+_1 mu^- nu_bar_mu)
     3.94049519E-11    3    -1000024       -13        14   # BR(chi^0_2 -> chi^-_1 mu^+ nu_mu)
     5.91334970E-12    3     1000024        15       -16   # BR(chi^0_2 -> chi^+_1 tau^- nu_bar_tau)
     5.91334970E-12    3    -1000024       -15        16   # BR(chi^0_2 -> chi^-_1 tau^+ nu_tau)
DECAY   1000025     6.13684639E-01   # chi^0_3
#    BR                NDA      ID1      ID2
     6.96618542E-04    2     2000011       -11   # BR(chi^0_3 -> ~e^-_R e^+)
     6.96618542E-04    2    -2000011        11   # BR(chi^0_3 -> ~e^+_R e^-)
     1.05302624E-03    2     2000013       -13   # BR(chi^0_3 -> ~mu^-_R mu^+)
     1.05302624E-03    2    -2000013        13   # BR(chi^0_3 -> ~mu^+_R mu^-)
     1.03580762E-01    2     1000015       -15   # BR(chi^0_3 -> ~tau^-_1 tau^+)
     1.03580762E-01    2    -1000015        15   # BR(chi^0_3 -> ~tau^+_1 tau^-)
     7.74262084E-01    2     1000022        23   # BR(chi^0_3 -> chi^0_1 Z)
     1.50722586E-02    2     1000022        25   # BR(chi^0_3 -> chi^0_1 h^0)
     2.85041699E-13    2     1000039        22   # BR(chi^0_3 -> ~G photon)
     1.83427474E-09    2     1000039        23   # BR(chi^0_3 -> ~G Z)
     8.65692854E-09    2     1000039        25   # BR(chi^0_3 -> ~G h^0)
     6.82960288E-07    2     1000022        22   # BR(chi^0_3 -> chi^0_1 photon)
     2.35004243E-10    2     1000023        22   # BR(chi^0_3 -> chi^0_2 photon)
#    BR                NDA      ID1      ID2       ID3
     2.38439709E-11    3     1000022         2        -2   # BR(chi^0_3 -> chi^0_1 u u_bar)
     3.23715242E-11    3     1000022         4        -4   # BR(chi^0_3 -> chi^0_1 c c_bar)
     6.37836549E-12    3     1000022         1        -1   # BR(chi^0_3 -> chi^0_1 d d_bar)
     1.40067470E-10    3     1000022         3        -3   # BR(chi^0_3 -> chi^0_1 s s_bar)
     2.99185513E-07    3     1000022         5        -5   # BR(chi^0_3 -> chi^0_1 b b_bar)
     2.12774040E-08    3     1000022        11       -11   # BR(chi^0_3 -> chi^0_1 e^- e^+)
     3.25821910E-08    3     1000022        13       -13   # BR(chi^0_3 -> chi^0_1 mu^- mu^+)
     3.25961596E-06    3     1000022        15       -15   # BR(chi^0_3 -> chi^0_1 tau^- tau^+)
     1.72193132E-07    3     1000022        12       -12   # BR(chi^0_3 -> chi^0_1 nu_e nu_bar_e)
     3.03070897E-09    3     1000023         2        -2   # BR(chi^0_3 -> chi^0_2 u u_bar)
     2.41023962E-09    3     1000023         4        -4   # BR(chi^0_3 -> chi^0_2 c c_bar)
     3.93622355E-09    3     1000023         1        -1   # BR(chi^0_3 -> chi^0_2 d d_bar)
     3.92902467E-09    3     1000023         3        -3   # BR(chi^0_3 -> chi^0_2 s s_bar)
     9.04834810E-10    3     1000023        11       -11   # BR(chi^0_3 -> chi^0_2 e^- e^+)
     9.03790757E-10    3     1000023        13       -13   # BR(chi^0_3 -> chi^0_2 mu^- mu^+)
     5.73742782E-10    3     1000023        15       -15   # BR(chi^0_3 -> chi^0_2 tau^- tau^+)
     5.44052292E-09    3     1000023        12       -12   # BR(chi^0_3 -> chi^0_2 nu_e nu_bar_e)
     5.99627702E-08    3     1000024         1        -2   # BR(chi^0_3 -> chi^+_1 d u_bar)
     5.99627702E-08    3    -1000024        -1         2   # BR(chi^0_3 -> chi^-_1 d_bar u)
     5.53292927E-08    3     1000024         3        -4   # BR(chi^0_3 -> chi^+_1 s c_bar)
     5.53292927E-08    3    -1000024        -3         4   # BR(chi^0_3 -> chi^-_1 s_bar c)
     2.00046047E-08    3     1000024        11       -12   # BR(chi^0_3 -> chi^+_1 e^- nu_bar_e)
     2.00046047E-08    3    -1000024       -11        12   # BR(chi^0_3 -> chi^-_1 e^+ nu_e)
     1.99929594E-08    3     1000024        13       -14   # BR(chi^0_3 -> chi^+_1 mu^- nu_bar_mu)
     1.99929594E-08    3    -1000024       -13        14   # BR(chi^0_3 -> chi^-_1 mu^+ nu_mu)
     1.70631297E-08    3     1000024        15       -16   # BR(chi^0_3 -> chi^+_1 tau^- nu_bar_tau)
     1.70631297E-08    3    -1000024       -15        16   # BR(chi^0_3 -> chi^-_1 tau^+ nu_tau)
DECAY   1000035     1.42690554E+01   # chi^0_4
#    BR                NDA      ID1      ID2
     1.64808112E-05    2     2000011       -11   # BR(chi^0_4 -> ~e^-_R e^+)
     1.64808112E-05    2    -2000011        11   # BR(chi^0_4 -> ~e^+_R e^-)
     3.67661589E-02    2     1000011       -11   # BR(chi^0_4 -> ~e^-_L e^+)
     3.67661589E-02    2    -1000011        11   # BR(chi^0_4 -> ~e^+_L e^-)
     1.64694792E-05    2     2000013       -13   # BR(chi^0_4 -> ~mu^-_R mu^+)
     1.64694792E-05    2    -2000013        13   # BR(chi^0_4 -> ~mu^+_R mu^-)
     3.67672561E-02    2     1000013       -13   # BR(chi^0_4 -> ~mu^-_L mu^+)
     3.67672561E-02    2    -1000013        13   # BR(chi^0_4 -> ~mu^+_L mu^-)
     1.34134935E-05    2     1000015       -15   # BR(chi^0_4 -> ~tau^-_1 tau^+)
     1.34134935E-05    2    -1000015        15   # BR(chi^0_4 -> ~tau^+_1 tau^-)
     3.70774863E-02    2     2000015       -15   # BR(chi^0_4 -> ~tau^-_2 tau^+)
     3.70774863E-02    2    -2000015        15   # BR(chi^0_4 -> ~tau^+_2 tau^-)
     3.82234795E-02    2     1000012       -12   # BR(chi^0_4 -> ~nu_e nu_bar_e)
     3.82234795E-02    2    -1000012        12   # BR(chi^0_4 -> ~nu^*_e nu_e)
     3.82246563E-02    2     1000014       -14   # BR(chi^0_4 -> ~nu_mu nu_bar_mu)
     3.82246563E-02    2    -1000014        14   # BR(chi^0_4 -> ~nu^*_mu nu_mu)
     3.85565895E-02    2     1000016       -16   # BR(chi^0_4 -> ~nu_tau nu_bar_tau)
     3.85565895E-02    2    -1000016        16   # BR(chi^0_4 -> ~nu^*_tau nu_tau)
     1.39670536E-01    2     1000024       -24   # BR(chi^0_4 -> chi^+_1 W^-)
     1.39670536E-01    2    -1000024        24   # BR(chi^0_4 -> chi^-_1 W^+)
     6.42668196E-07    2     1000022        23   # BR(chi^0_4 -> chi^0_1 Z)
     2.82286181E-03    2     1000023        23   # BR(chi^0_4 -> chi^0_2 Z)
     1.31290592E-01    2     1000025        23   # BR(chi^0_4 -> chi^0_3 Z)
     1.03349073E-07    2     1000022        25   # BR(chi^0_4 -> chi^0_1 h^0)
     1.32035947E-01    2     1000023        25   # BR(chi^0_4 -> chi^0_2 h^0)
     2.21686601E-03    2     1000025        25   # BR(chi^0_4 -> chi^0_3 h^0)
     9.52273101E-10    2     1000039        22   # BR(chi^0_4 -> ~G photon)
     3.51692846E-09    2     1000039        23   # BR(chi^0_4 -> ~G Z)
     7.45683273E-11    2     1000039        25   # BR(chi^0_4 -> ~G h^0)
     1.25500685E-07    2     1000022        22   # BR(chi^0_4 -> chi^0_1 photon)
     5.71661626E-07    2     1000023        22   # BR(chi^0_4 -> chi^0_2 photon)
     7.66322824E-07    2     1000025        22   # BR(chi^0_4 -> chi^0_3 photon)
#    BR                NDA      ID1      ID2       ID3
     3.03562273E-08    3     1000022         2        -2   # BR(chi^0_4 -> chi^0_1 u u_bar)
     3.03547992E-08    3     1000022         4        -4   # BR(chi^0_4 -> chi^0_1 c c_bar)
     1.21724306E-08    3     1000022         6        -6   # BR(chi^0_4 -> chi^0_1 t t_bar)
     3.72350513E-08    3     1000022         1        -1   # BR(chi^0_4 -> chi^0_1 d d_bar)
     3.72380774E-08    3     1000022         3        -3   # BR(chi^0_4 -> chi^0_1 s s_bar)
     4.99338651E-08    3     1000022         5        -5   # BR(chi^0_4 -> chi^0_1 b b_bar)
     7.57782771E-09    3     1000022        11       -11   # BR(chi^0_4 -> chi^0_1 e^- e^+)
     7.57533371E-09    3     1000022        13       -13   # BR(chi^0_4 -> chi^0_1 mu^- mu^+)
     7.03519112E-09    3     1000022        15       -15   # BR(chi^0_4 -> chi^0_1 tau^- tau^+)
     2.99905942E-09    3     1000023         2        -2   # BR(chi^0_4 -> chi^0_2 u u_bar)
     2.99853668E-09    3     1000023         4        -4   # BR(chi^0_4 -> chi^0_2 c c_bar)
     1.29477445E-06    3     1000023         6        -6   # BR(chi^0_4 -> chi^0_2 t t_bar)
     1.70468016E-09    3     1000023         1        -1   # BR(chi^0_4 -> chi^0_2 d d_bar)
     1.76401306E-09    3     1000023         3        -3   # BR(chi^0_4 -> chi^0_2 s s_bar)
     1.36709948E-07    3     1000023         5        -5   # BR(chi^0_4 -> chi^0_2 b b_bar)
     4.39711851E-12    3     1000023        11       -11   # BR(chi^0_4 -> chi^0_2 e^- e^+)
     8.25065049E-11    3     1000023        13       -13   # BR(chi^0_4 -> chi^0_2 mu^- mu^+)
     2.21461363E-08    3     1000023        15       -15   # BR(chi^0_4 -> chi^0_2 tau^- tau^+)
     1.00840836E-11    3     1000025         2        -2   # BR(chi^0_4 -> chi^0_3 u u_bar)
     1.14005748E-11    3     1000025         4        -4   # BR(chi^0_4 -> chi^0_3 c c_bar)
     7.46132715E-06    3     1000025         6        -6   # BR(chi^0_4 -> chi^0_3 t t_bar)
     1.84922450E-11    3     1000025         1        -1   # BR(chi^0_4 -> chi^0_3 d d_bar)
     7.71091945E-11    3     1000025         3        -3   # BR(chi^0_4 -> chi^0_3 s s_bar)
     1.33153960E-07    3     1000025         5        -5   # BR(chi^0_4 -> chi^0_3 b b_bar)
     2.99953139E-14    3     1000025        11       -11   # BR(chi^0_4 -> chi^0_3 e^- e^+)
     7.73378016E-11    3     1000025        13       -13   # BR(chi^0_4 -> chi^0_3 mu^- mu^+)
     2.19199444E-08    3     1000025        15       -15   # BR(chi^0_4 -> chi^0_3 tau^- tau^+)
     1.73759107E-09    3     1000024         1        -2   # BR(chi^0_4 -> chi^+_1 d u_bar)
     1.73759107E-09    3    -1000024        -1         2   # BR(chi^0_4 -> chi^-_1 d_bar u)
     1.80421438E-09    3     1000024         3        -4   # BR(chi^0_4 -> chi^+_1 s c_bar)
     1.80421438E-09    3    -1000024        -3         4   # BR(chi^0_4 -> chi^-_1 s_bar c)
     4.78554535E-04    3     1000024         5        -6   # BR(chi^0_4 -> chi^+_1 b t_bar)
     4.78554535E-04    3    -1000024        -5         6   # BR(chi^0_4 -> chi^-_1 b_bar t)
     8.95439866E-11    3     1000024        13       -14   # BR(chi^0_4 -> chi^+_1 mu^- nu_bar_mu)
     8.95439866E-11    3    -1000024       -13        14   # BR(chi^0_4 -> chi^-_1 mu^+ nu_mu)
     2.52854954E-08    3     1000024        15       -16   # BR(chi^0_4 -> chi^+_1 tau^- nu_bar_tau)
     2.52854954E-08    3    -1000024       -15        16   # BR(chi^0_4 -> chi^-_1 tau^+ nu_tau)
DECAY   1000021     2.69705919E+01   # ~g
#    BR                NDA      ID1      ID2
     4.67736414E-02    2     2000002        -2   # BR(~g -> ~u_R u_bar)
     4.67736414E-02    2    -2000002         2   # BR(~g -> ~u^*_R u)
     1.76507273E-02    2     1000002        -2   # BR(~g -> ~u_L u_bar)
     1.76507273E-02    2    -1000002         2   # BR(~g -> ~u^*_L u)
     4.67740679E-02    2     2000004        -4   # BR(~g -> ~c_R c_bar)
     4.67740679E-02    2    -2000004         4   # BR(~g -> ~c^*_R c)
     1.76513018E-02    2     1000004        -4   # BR(~g -> ~c_L c_bar)
     1.76513018E-02    2    -1000004         4   # BR(~g -> ~c^*_L c)
     3.82910587E-05    2     1000006        -4   # BR(~g -> ~t_1 c_bar)
     3.82910587E-05    2    -1000006         4   # BR(~g -> ~t^*_1 c)
     1.06426668E-01    2     1000006        -6   # BR(~g -> ~t_1 t_bar)
     1.06426668E-01    2    -1000006         6   # BR(~g -> ~t^*_1 t)
     3.67480970E-02    2     2000006        -6   # BR(~g -> ~t_2 t_bar)
     3.67480970E-02    2    -2000006         6   # BR(~g -> ~t^*_2 t)
     4.98978321E-02    2     2000001        -1   # BR(~g -> ~d_R d_bar)
     4.98978321E-02    2    -2000001         1   # BR(~g -> ~d^*_R d)
     1.74898512E-02    2     1000001        -1   # BR(~g -> ~d_L d_bar)
     1.74898512E-02    2    -1000001         1   # BR(~g -> ~d^*_L d)
     4.98992179E-02    2     2000003        -3   # BR(~g -> ~s_R s_bar)
     4.98992179E-02    2    -2000003         3   # BR(~g -> ~s^*_R s)
     1.74905672E-02    2     1000003        -3   # BR(~g -> ~s_L s_bar)
     1.74905672E-02    2    -1000003         3   # BR(~g -> ~s^*_L s)
     5.30484183E-02    2     1000005        -5   # BR(~g -> ~b_1 b_bar)
     5.30484183E-02    2    -1000005         5   # BR(~g -> ~b^*_1 b)
     4.00317770E-02    2     2000005        -5   # BR(~g -> ~b_2 b_bar)
     4.00317770E-02    2    -2000005         5   # BR(~g -> ~b^*_2 b)
     2.19365611E-06    2     1000022        21   # BR(~g -> chi^0_1 g)
     7.41833196E-05    2     1000023        21   # BR(~g -> chi^0_2 g)
     7.92356219E-05    2     1000025        21   # BR(~g -> chi^0_3 g)
     3.47124778E-06    2     1000035        21   # BR(~g -> chi^0_4 g)
DECAY        25     2.84646920E-03   # h^0
#    BR                NDA      ID1      ID2
     8.33641595E-09    2          11       -11   # BR(h^0 -> e^- e^+)
     3.56400811E-04    2          13       -13   # BR(h^0 -> mu^- mu^+)
     1.00451516E-01    2          15       -15   # BR(h^0 -> tau^- tau^+)
     6.62238805E-07    2           1        -1   # BR(h^0 -> d d_bar)
     2.92046395E-04    2           3        -3   # BR(h^0 -> s s_bar)
     6.26035043E-01    2           5        -5   # BR(h^0 -> b b_bar)
     2.34231517E-07    2           2        -2   # BR(h^0 -> u u_bar)
     4.19683093E-02    2           4        -4   # BR(h^0 -> c c_bar)
     6.24202743E-02    2          21        21   # BR(h^0 -> g g)
     3.17703563E-03    2          22        22   # BR(h^0 -> photon photon)
# writing decays into V V* as 3-body decays
#    BR                NDA      ID1      ID2       ID3
     7.53303396E-03    3          24        11        12   # BR(h^0 -> W^+ e^- nu_e)
     7.53303396E-03    3          24        13        14   # BR(h^0 -> W^+ mu^- nu_mu)
     7.53303396E-03    3          24        15        16   # BR(h^0 -> W^+ tau^- nu_tau)
     2.63656188E-02    3          24         1        -2   # BR(h^0 -> W^+ d u_bar)
     2.63656188E-02    3          24         3        -4   # BR(h^0 -> W^+ s c_bar)
     7.53303396E-03    3         -24       -11       -12   # BR(h^0 -> W^- e^+ nu_bar_e)
     7.53303396E-03    3         -24       -13       -14   # BR(h^0 -> W^- mu^+ nu_bar_mu)
     7.53303396E-03    3         -24       -15       -16   # BR(h^0 -> W^- tau^+ nu_bar_tau)
     2.63656188E-02    3         -24        -1         2   # BR(h^0 -> W^- d_bar u)
     2.63656188E-02    3         -24        -3         4   # BR(h^0 -> W^- s_bar c)
     5.12322671E-04    3          23        11       -11   # BR(h^0 -> Z e^- e^+)
     5.12322671E-04    3          23        13       -13   # BR(h^0 -> Z mu^- mu^+)
     4.39133718E-04    3          23        15       -15   # BR(h^0 -> Z tau^- tau^+)
     2.92755812E-03    3          23        12       -12   # BR(h^0 -> Z nu_e nu_bar_e)
     2.04929068E-03    3          23         1        -1   # BR(h^0 -> Z u u_bar)
     2.04929068E-03    3          23         3        -3   # BR(h^0 -> Z c c_bar)
     2.04929068E-03    3          23         5        -5   # BR(h^0 -> Z t t_bar)
     2.04929068E-03    3          23         2        -2   # BR(h^0 -> Z u u_bar)
     2.04929068E-03    3          23         4        -4   # BR(h^0 -> Z c c_bar)
DECAY        35     4.21474147E+00   # H^0
#    BR                NDA      ID1      ID2
     1.21319565E-08    2          11       -11   # BR(H^0 -> e^- e^+)
     5.18676413E-04    2          13       -13   # BR(H^0 -> mu^- mu^+)
     1.46791771E-01    2          15       -15   # BR(H^0 -> tau^- tau^+)
     7.88888509E-07    2           1        -1   # BR(H^0 -> d d_bar)
     3.47899604E-04    2           3        -3   # BR(H^0 -> s s_bar)
     7.74119549E-01    2           5        -5   # BR(H^0 -> b b_bar)
     7.59931937E-12    2           2        -2   # BR(H^0 -> u u_bar)
     1.36188398E-06    2           4        -4   # BR(H^0 -> c c_bar)
     7.27704126E-02    2           6        -6   # BR(H^0 -> t t_bar)
     1.27077595E-05    2     2000011  -2000011   # BR(H^0 -> ~e^-_R ~e^+_R)
     1.27039044E-05    2     2000013  -2000013   # BR(H^0 -> ~mu^-_R ~mu^+_R)
     1.15917045E-05    2     1000015  -1000015   # BR(H^0 -> ~tau^-_1 ~tau^+_1)
     1.74243692E-03    2          23        23   # BR(H^0 -> Z Z)
     3.29784134E-03    2          24       -24   # BR(H^0 -> W^+ W^-)
     3.40472271E-04    2          25        25   # BR(H^0 -> h^0 h^0)
     3.14713481E-05    2          21        21   # BR(H^0 -> g g)
     3.02758596E-07    2          22        22   # BR(H^0 -> photon photon)
DECAY        36     4.18528815E+00   # A^0
#    BR                NDA      ID1      ID2
     1.22232407E-08    2          11       -11   # BR(A^0 -> e^- e^+)
     5.22579088E-04    2          13       -13   # BR(A^0 -> mu^- mu^+)
     1.47897247E-01    2          15       -15   # BR(A^0 -> tau^- tau^+)
     7.94823711E-07    2           1        -1   # BR(A^0 -> d d_bar)
     3.50517012E-04    2           3        -3   # BR(A^0 -> s s_bar)
     7.79945770E-01    2           5        -5   # BR(A^0 -> b b_bar)
     6.79344331E-12    2           2        -2   # BR(A^0 -> u u_bar)
     1.21746173E-06    2           4        -4   # BR(A^0 -> c c_bar)
     6.79510216E-02    2           6        -6   # BR(A^0 -> t t_bar)
     3.29712889E-03    2          25        23   # BR(A^0 -> h^0 Z)
     3.35108778E-05    2          21        21   # BR(A^0 -> g g)
     2.01447928E-07    2          22        22   # BR(A^0 -> photon photon)
DECAY        37     3.67135995E+00   # H^+
#    BR                NDA      ID1      ID2
     1.39557694E-08    2         -11        12   # BR(H^+ -> e^+ nu_e)
     5.96649730E-04    2         -13        12   # BR(H^+ -> mu^+ nu_e)
     1.68860284E-01    2         -15        12   # BR(H^+ -> tau^+ nu_e)
     7.98905299E-07    2          -1         2   # BR(H^+ -> d_bar u)
     3.53537141E-04    2          -3         4   # BR(H^+ -> s_bar c)
     8.26514685E-01    2          -5         6   # BR(H^+ -> b_bar t)
     3.67403103E-03    2          25        24   # BR(H^+ -> h^0 W^+)
DECAY         6     2.43000000E+00   # top
#    BR                NDA      ID1      ID2
     1.00000000E+00    2           5        24   # BR(t -> b W)
Block HiggsBoundsInputHiggsCouplingsFermions
# ScalarNormEffCoupSq PseudoSNormEffCoupSq NP IP1 IP2 IP2
    1.12640802E+00    0.00000000E+00        3  25   5   5  # h0-b-b eff. coupling^2, normalised to SM
    2.24873592E+02    0.00000000E+00        3  35   5   5  # H0-b-b eff. coupling^2, normalised to SM
    0.00000000E+00    2.25000000E+02        3  36   5   5  # A0-b-b eff. coupling^2, normalised to SM
#
    9.99438187E-01    0.00000000E+00        3  25   6   6  # h0-t-t eff. coupling^2, normalised to SM
    5.00625786E-03    0.00000000E+00        3  35   6   6  # H0-t-t eff. coupling^2, normalised to SM
    0.00000000E+00    4.44444444E-03        3  36   6   6  # A0-t-t eff. coupling^2, normalised to SM
#
    1.12640802E+00    0.00000000E+00        3  25  15  15  # h0-tau-tau eff. coupling^2, normalised to SM
    2.24873592E+02    0.00000000E+00        3  35  15  15  # H0-tau-tau eff. coupling^2, normalised to SM
    0.00000000E+00    2.25000000E+02        3  36  15  15  # A0-tau-tau eff. coupling^2, normalised to SM
#
Block HiggsBoundsInputHiggsCouplingsBosons
    9.99983282E-01        3  25  24  24  # h0-W-W eff. coupling^2, normalised to SM
    1.67183232E-05        3  35  24  24  # H0-W-W eff. coupling^2, normalised to SM
    0.00000000E+00        3  36  24  24  # A0-W-W eff. coupling^2, normalised to SM
#
    9.99983282E-01        3  25  23  23  # h0-Z-Z eff. coupling^2, normalised to SM
    1.67183232E-05        3  35  23  23  # H0-Z-Z eff. coupling^2, normalised to SM
    0.00000000E+00        3  36  23  23  # A0-Z-Z eff. coupling^2, normalised to SM
#
    1.15508186E+00        3  25  21  21  # h0-g-g eff. coupling^2, normalised to SM
    3.21051328E-03        3  35  21  21  # H0-g-g eff. coupling^2, normalised to SM
    1.05957348E-01        3  36  21  21  # A0-g-g eff. coupling^2, normalised to SM
#
    0.00000000E+00        3  25  25  23  # h0-h0-Z eff. coupling^2, normalised to SM
    0.00000000E+00        3  35  25  23  # H0-h0-Z eff. coupling^2, normalised to SM
    1.67183232E-05        3  36  25  23  # A0-h0-Z eff. coupling^2, normalised to SM
    0.00000000E+00        3  35  35  23  # H0-H0-Z eff. coupling^2, normalised to SM
    9.99983282E-01        3  36  35  23  # A0-H0-Z eff. coupling^2, normalised to SM
    0.00000000E+00        3  36  36  23  # A0-A0-Z eff. coupling^2, normalised to SM
#
    0.00000000E+00        4  25  21  21  23  # h0-g-g-Z eff. coupling^2, normalised to SM
    0.00000000E+00        4  35  21  21  23  # H0-g-g-Z eff. coupling^2, normalised to SM
    0.00000000E+00        4  36  21  21  23  # A0-g-g-Z eff. coupling^2, normalised to SM
Block SPhenoLowEnergy  # low energy observables
    1    3.10754051E-04   # BR(b -> s gamma)
    2    1.59202425E-06   # BR(b -> s mu+ mu-)
    3    3.54064524E-05   # BR(b -> s nu nu)
    4    5.18036458E-11   # BR(Bd -> mu+ mu-)
    5    3.38422600E-09   # BR(Bs -> mu+ mu-)
    6    1.10112676E-04   # BR(B_u -> tau nu)
    7    9.95653915E-01   # BR(B_u -> tau nu)/BR(B_u -> tau nu)_SM
    8    2.73882082E-01   # |Delta(M_Bd)| [ps^-1] 
    9    2.03262942E+01   # |Delta(M_Bs)| [ps^-1] 
   20    5.82539994E-15   # Delta(g-2)_electron/2
   21    1.25285107E-10   # Delta(g-2)_muon/2
   22    7.62016072E-09   # Delta(g-2)_tau/2
   23    0.00000000E+00   # electric dipole moment of the electron
   24    0.00000000E+00   # electric dipole moment of the muon
   25    0.00000000E+00   # electric dipole moment of the tau
   26    0.00000000E+00   # Br(mu -> e gamma)
   27    0.00000000E+00   # Br(tau -> e gamma)
   28    0.00000000E+00   # Br(tau -> mu gamma)
   29    0.00000000E+00   # Br(mu -> 3 e)
   30    0.00000000E+00   # Br(tau -> 3 e)
   31    0.00000000E+00   # Br(tau -> 3 mu)
   39    6.51031689E-04   # Delta(rho_parameter)
   40    0.00000000E+00   # BR(Z -> e mu)
   41    0.00000000E+00   # BR(Z -> e tau)
   42    0.00000000E+00   # BR(Z -> mu tau)
Block FWCOEF Q=  9.11876000E+01  # Wilson coefficients at scale Q
#    id        order  M        value         comment
Block FWCOEF Q=  1.60000000E+02  # Wilson coefficients at scale Q
#    id        order  M        value         comment
     0305 4422   00   0    -1.87755745E-01   # C7
     0305 4422   00   1    -1.23222658E-02   # C7
     0305 4322   00   1    -2.68677373E-04   # C7'
     0305 6421   00   0    -9.48888504E-02   # C8
     0305 6421   00   1    -1.68814607E-02   # C8
     0305 6321   00   1    -3.65033554E-04   # C8'
 03051111 4133   00   0    -1.44706527E+00   # C9 e+e-
 03051111 4133   00   1     5.14496155E-04   # C9 e+e-
 03051111 4233   00   1    -4.96214604E-06   # C9' e+e-
 03051111 4137   00   0    -3.93850748E+00   # C10 e+e-
 03051111 4137   00   1     1.33633298E-03   # C10 e+e-
 03051111 4237   00   1     1.34603598E-04   # C10' e+e-
 03051313 4133   00   0    -1.44706527E+00   # C9 mu+mu-
 03051313 4133   00   1     5.14481666E-04   # C9 mu+mu-
 03051313 4233   00   1    -4.96223598E-06   # C9' mu+mu-
 03051313 4137   00   0    -3.93850748E+00   # C10 mu+mu-
 03051313 4137   00   1     1.33631846E-03   # C10 mu+mu-
 03051313 4237   00   1     1.34603688E-04   # C10' mu+mu-
 03051212 4237   00   0     1.49012281E+00   # C11 nu_1 nu_1
 03051212 4237   00   1    -3.23054621E-04   # C11 nu_1 nu_1
 03051212 4137   00   1    -3.24244829E-05   # C11' nu_1 nu_1
 03051414 4237   00   0     1.49012281E+00   # C11 nu_2 nu_2
 03051414 4237   00   1    -3.23054615E-04   # C11 nu_2 nu_2
 03051414 4137   00   1    -3.24244617E-05   # C11' nu_2 nu_2
 03051616 4237   00   0     1.49012281E+00   # C11 nu_3 nu_3
 03051616 4237   00   1    -3.23052661E-04   # C11 nu_3 nu_3
 03051616 4137   00   1    -3.24184878E-05   # C11' nu_3 nu_3
