#
#                              ======================
#                              | THE SUSYHIT OUTPUT |
#                              ======================
#
#
#              ------------------------------------------------------
#              |     This is the output of the SUSY-HIT package     |
#              |  created by A.Djouadi, M.Muehlleitner and M.Spira. |
#              |  In case of problems with SUSY-HIT email to        |
#              |           margarete.muehlleitner@cern.ch           |
#              |           michael.spira@psi.ch                     |
#              |           abdelhak.djouadi@cern.ch                 |
#              ------------------------------------------------------
#
#              ------------------------------------------------------
#              |  SUSY Les Houches Accord - MSSM Spectrum + Decays  |
#              |              based on the decay programs           |
#              |                                                    |
#              |                     SDECAY 1.3b                    |
#              |                                                    |
#              |  Authors: M.Muhlleitner, A.Djouadi and Y.Mambrini  |
#              |  Ref.:    Comput.Phys.Commun.168(2005)46           |
#              |           [hep-ph/0311167]                         |
#              |                                                    |
#              |                     HDECAY 3.4                     |
#              |                                                    |
#              |  By: A.Djouadi,J.Kalinowski,M.Muhlleitner,M.Spira  |
#              |  Ref.:    Comput.Phys.Commun.108(1998)56           |
#              |           [hep-ph/9704448]                         |
#              |                                                    |
#              |                                                    |
#              |  If not stated otherwise all DRbar couplings and   |
#              |  soft SUSY breaking masses are given at the scale  |
#              |  Q=  0.91187600E+02
#              |                                                    |
#              ------------------------------------------------------
#
#
BLOCK DCINFO  # Decay Program information
     1   SDECAY/HDECAY # decay calculator
     2   1.3b  /3.4    # version number
#
BLOCK SPINFO  # Spectrum calculator information
     1   SuSpect     # RGE +Spectrum calculator            
     2   2.41         # version number                     
#
BLOCK MODSEL  # Model selection
     1     0   # #general MSSM low scale                           
#
BLOCK SMINPUTS  # Standard Model inputs
         1     1.27934000E+02   # alpha_em^-1(M_Z)^MSbar
         2     1.16639000E-05   # G_F [GeV^-2]
         3     1.17200000E-01   # alpha_S(M_Z)^MSbar
         4     9.11870000E+01   # M_Z pole mass
         5     4.25000000E+00   # mb(mb)^MSbar
         6     1.72500000E+02   # mt pole mass
         7     1.77700000E+00   # mtau pole mass
#
BLOCK MINPAR  # Input parameters - minimal models
#
BLOCK EXTPAR  # Input parameters - non-minimal models
         0     9.11876000E+01   # EWSB                
         1     1.00000000E+01   # M_1                 
         2     1.00000000E+05   # M_2                 
         3     1.00000000E+05   # M_3                 
        11     0.00000000E+00   # A_t                 
        12     0.00000000E+00   # A_b                 
        13     0.00000000E+00   # A_tau               
        14     0.00000000E+00   # A_u                 
        15     0.00000000E+00   # A_d                 
        16     0.00000000E+00   # A_e                 
        23     3.50000000E+03   # mu(EWSB)            
        25     1.50000000E+00   # tanbeta(in)         
        26     2.00000000E+03   # MA_pole             
        31     1.00000000E+05   # M_eL                
        32     1.00000000E+05   # M_muL               
        33     1.00000000E+05   # M_tauL              
        34     1.00000000E+05   # M_eR                
        35     1.00000000E+05   # M_muR               
        36     1.00000000E+05   # M_tauR              
        41     1.60000000E+03   # M_q1L               
        42     1.60000000E+03   # M_q2L               
        43     1.60000000E+03   # M_q3L               
        44     1.00000000E+05   # M_uR                
        45     1.00000000E+05   # M_cR                
        46     1.00000000E+05   # M_tR                
        47     1.60000000E+03   # M_dR                
        48     1.60000000E+03   # M_sR                
        49     1.60000000E+03   # M_bR                
#
BLOCK MASS  # Mass Spectrum
# PDG code           mass       particle
        24     8.05829820E+01   # W+
        25     1.25000000E+02   # h
        35     2.00402175E+03   # H
        36     2.00000000E+03   # A
        37     2.02369717E+03   # H+
         5     4.87877839E+00   # b-quark pole mass calculated from mb(mb)_Msbar
   1000001     1.60041495E+03   # ~d_L
   2000001     1.60007996E+03   # ~d_R
   1000002     1.59966492E+03   # ~u_L
   2000002     9.99999974E+04   # ~u_R
   1000003     1.60041495E+03   # ~s_L
   2000003     1.60007996E+03   # ~s_R
   1000004     1.59966492E+03   # ~c_L
   2000004     9.99999974E+04   # ~c_R
   1000005     1.59600054E+03   # ~b_1
   2000005     1.60448731E+03   # ~b_2
   1000006     1.60644773E+03   # ~t_1
   2000006     1.00000106E+05   # ~t_2
   1000011     1.00000004E+05   # ~e_L
   2000011     1.00000004E+05   # ~e_R
   1000012     9.99999921E+04   # ~nu_eL
   1000013     1.00000004E+05   # ~mu_L
   2000013     1.00000004E+05   # ~mu_R
   1000014     9.99999921E+04   # ~nu_muL
   1000015     9.99999574E+04   # ~tau_1
   2000015     1.00000051E+05   # ~tau_2
   1000016     9.99999921E+04   # ~nu_tauL
   1000021     1.00000000E+05   # ~g
   1000022     9.47208047E+00   # ~chi_10
   1000023    -3.50002419E+03   # ~chi_20
   1000025     3.50048761E+03   # ~chi_30
   1000035     1.00000064E+05   # ~chi_40
   1000024     3.49994014E+03   # ~chi_1+
   1000037     1.00000064E+05   # ~chi_2+
   1000039     1.00000000E-09   # ~gravitino
#
BLOCK NMIX  # Neutralino Mixing Matrix
  1  1     9.99918137E-01   # N_11
  1  2    -9.33518087E-06   # N_12
  1  3     1.06389139E-02   # N_13
  1  4    -7.10857522E-03   # N_14
  2  1     2.49630288E-03   # N_21
  2  2    -1.49698123E-04   # N_22
  2  3    -7.07092352E-01   # N_23
  2  4    -7.07116788E-01   # N_24
  3  1     1.25493758E-02   # N_31
  3  2     8.02661675E-04   # N_32
  3  3    -7.07041021E-01   # N_33
  3  4     7.07060721E-01   # N_34
  4  1     3.64795750E-07   # N_41
  4  2    -9.99999667E-01   # N_42
  4  3    -4.61763803E-04   # N_43
  4  4     6.73451182E-04   # N_44
#
BLOCK UMIX  # Chargino Mixing Matrix U
  1  1    -6.53032427E-04   # U_11
  1  2     9.99999787E-01   # U_12
  2  1     9.99999787E-01   # U_21
  2  2     6.53032427E-04   # U_22
#
BLOCK VMIX  # Chargino Mixing Matrix V
  1  1    -9.52403709E-04   # V_11
  1  2     9.99999546E-01   # V_12
  2  1     9.99999546E-01   # V_21
  2  2     9.52403709E-04   # V_22
#
BLOCK STOPMIX  # Stop Mixing Matrix
  1  1     9.99999999E-01   # cos(theta_t)
  1  2     4.47213589E-05   # sin(theta_t)
  2  1    -4.47213589E-05   # -sin(theta_t)
  2  2     9.99999999E-01   # cos(theta_t)
#
BLOCK SBOTMIX  # Sbottom Mixing Matrix
  1  1     6.93010594E-01   # cos(theta_b)
  1  2     7.20927400E-01   # sin(theta_b)
  2  1    -7.20927400E-01   # -sin(theta_b)
  2  2     6.93010594E-01   # cos(theta_b)
#
BLOCK STAUMIX  # Stau Mixing Matrix
  1  1     7.06182217E-01   # cos(theta_tau)
  1  2     7.08030138E-01   # sin(theta_tau)
  2  1    -7.08030138E-01   # -sin(theta_tau)
  2  2     7.06182217E-01   # cos(theta_tau)
#
BLOCK ALPHA  # Higgs mixing
          -5.90304930E-01   # Mixing angle in the neutral Higgs boson sector
#
BLOCK HMIX Q=  9.11876000E+01  # DRbar Higgs Parameters
         1     3.50000000E+03   # mu(Q)               
         2     1.49999982E+00   # tanbeta(Q)          
         3     2.54856533E+02   # vev(Q)              
         4    -6.81830212E+07   # MA^2(Q)             
#
BLOCK GAUGE Q=  9.11876000E+01  # The gauge couplings
     1     3.50584166E-01   # gprime(Q) DRbar
     2     6.19928663E-01   # g(Q) DRbar
     3     1.02445324E+00   # g3(Q) DRbar
#
BLOCK AU Q=  9.11876000E+01  # The trilinear couplings
  1  1     0.00000000E+00   # A_u(Q) DRbar
  2  2     0.00000000E+00   # A_c(Q) DRbar
  3  3     0.00000000E+00   # A_t(Q) DRbar
#
BLOCK AD Q=  9.11876000E+01  # The trilinear couplings
  1  1     0.00000000E+00   # A_d(Q) DRbar
  2  2     0.00000000E+00   # A_s(Q) DRbar
  3  3     0.00000000E+00   # A_b(Q) DRbar
#
BLOCK AE Q=  9.11876000E+01  # The trilinear couplings
  1  1     0.00000000E+00   # A_e(Q) DRbar
  2  2     0.00000000E+00   # A_mu(Q) DRbar
  3  3     0.00000000E+00   # A_tau(Q) DRbar
#
BLOCK Yu Q=  9.11876000E+01  # The Yukawa couplings
  1  1     0.00000000E+00   # y_u(Q) DRbar
  2  2     0.00000000E+00   # y_c(Q) DRbar
  3  3     9.83744047E-01   # y_t(Q) DRbar
#
BLOCK Yd Q=  9.11876000E+01  # The Yukawa couplings
  1  1     0.00000000E+00   # y_d(Q) DRbar
  2  2     0.00000000E+00   # y_s(Q) DRbar
  3  3     2.58578033E-02   # y_b(Q) DRbar
#
BLOCK Ye Q=  9.11876000E+01  # The Yukawa couplings
  1  1     0.00000000E+00   # y_e(Q) DRbar
  2  2     0.00000000E+00   # y_mu(Q) DRbar
  3  3     1.77407866E-02   # y_tau(Q) DRbar
#
BLOCK MSOFT Q=  9.11876000E+01  # The soft SUSY breaking masses at the scale Q
         1     1.00000000E+01   # M_1                 
         2     1.00000000E+05   # M_2                 
         3     1.00000000E+05   # M_3                 
        14     0.00000000E+00   # A_u                 
        15     0.00000000E+00   # A_d                 
        16     0.00000000E+00   # A_e                 
        21     6.31604212E+08   # M^2_Hd              
        22    -1.14958904E+09   # M^2_Hu              
        31     1.00000000E+05   # M_eL                
        32     1.00000000E+05   # M_muL               
        33     1.00000000E+05   # M_tauL              
        34     1.00000000E+05   # M_eR                
        35     1.00000000E+05   # M_muR               
        36     1.00000000E+05   # M_tauR              
        41     1.60000000E+03   # M_q1L               
        42     1.60000000E+03   # M_q2L               
        43     1.60000000E+03   # M_q3L               
        44     1.00000000E+05   # M_uR                
        45     1.00000000E+05   # M_cR                
        46     1.00000000E+05   # M_tR                
        47     1.60000000E+03   # M_dR                
        48     1.60000000E+03   # M_sR                
        49     1.60000000E+03   # M_bR                
#
#
#
#                             =================
#                             |The decay table|
#                             =================
#
# - The QCD corrections to the decays gluino -> squark  + quark
#                                     squark -> gaugino + quark_prime
#                                     squark -> squark_prime + Higgs
#                                     squark -> gluino  + quark
#   are included.
#
# - The multi-body decays for the inos, stops and sbottoms are included.
#
# - The loop induced decays for the gluino, neutralinos and stops
#   are included.
#
# - The SUSY decays of the top quark are included.
#
# - Possible decays of the NLSP in GMSB models are included.
#
#
#         PDG            Width
DECAY         6     1.32643898E+00   # top decays
#          BR         NDA      ID1       ID2
     1.00000000E+00    2           5        24   # BR(t ->  b    W+)
#
#         PDG            Width
DECAY   1000021     1.E-04   # gluino decays (OJ Mods)
#          BR         NDA      ID1       ID2
     1.11890303E-03    2     1000001        -1   # BR(~g -> ~d_L  db)
     1.11890303E-03    2    -1000001         1   # BR(~g -> ~d_L* d )
     1.11890327E-03    2     2000001        -1   # BR(~g -> ~d_R  db)
     1.11890327E-03    2    -2000001         1   # BR(~g -> ~d_R* d )
     1.11890357E-03    2     1000002        -2   # BR(~g -> ~u_L  ub)
     1.11890357E-03    2    -1000002         2   # BR(~g -> ~u_L* u )
     3.02706419E-18    2     2000002        -2   # BR(~g -> ~u_R  ub)
     3.02706419E-18    2    -2000002         2   # BR(~g -> ~u_R* u )
     1.11890303E-03    2     1000003        -3   # BR(~g -> ~s_L  sb)
     1.11890303E-03    2    -1000003         3   # BR(~g -> ~s_L* s )
     1.11890327E-03    2     2000003        -3   # BR(~g -> ~s_R  sb)
     1.11890327E-03    2    -2000003         3   # BR(~g -> ~s_R* s )
     1.11890357E-03    2     1000004        -4   # BR(~g -> ~c_L  cb)
     1.11890357E-03    2    -1000004         4   # BR(~g -> ~c_L* c )
     3.02706419E-18    2     2000004        -4   # BR(~g -> ~c_R  cb)
     3.02706419E-18    2    -2000004         4   # BR(~g -> ~c_R* c )
     2.38449099E-01    2     1000005        -5   # BR(~g -> ~b_1  bb)
     2.38449099E-01    2    -1000005         5   # BR(~g -> ~b_1* b )
     2.38052775E-01    2     2000005        -5   # BR(~g -> ~b_2  bb)
     2.38052775E-01    2    -2000005         5   # BR(~g -> ~b_2* b )
     1.10117236E-03    2     1000006        -6   # BR(~g -> ~t_1  tb)
     1.10117236E-03    2    -1000006         6   # BR(~g -> ~t_1* t )
     3.13670680E-02    2     1000039        21   # BR(~g -> ~G g)
#
#         PDG            Width
DECAY   1000006     2.55947490E-01   # stop1 decays
#          BR         NDA      ID1       ID2
     1.00000000E+00    2     1000022         6   # BR(~t_1 -> ~chi_10 t )
#
#         PDG            Width
DECAY   2000006     1.58630233E+05   # stop2 decays
#          BR         NDA      ID1       ID2
     1.31418264E-03    2     1000022         6   # BR(~t_2 -> ~chi_10 t )
     3.15180260E-03    2     1000023         6   # BR(~t_2 -> ~chi_20 t )
     3.15145562E-03    2     1000025         6   # BR(~t_2 -> ~chi_30 t )
     9.92490913E-01    2     1000024         5   # BR(~t_2 -> ~chi_1+ b )
    -8.57480232E-05    2     1000006        25   # BR(~t_2 -> ~t_1    h )
     8.97944141E-05    2     1000006        35   # BR(~t_2 -> ~t_1    H )
     8.96369523E-05    2     1000006        36   # BR(~t_2 -> ~t_1    A )
     8.44373659E-05    2     1000005        37   # BR(~t_2 -> ~b_1    H+)
     9.48331736E-05    2     2000005        37   # BR(~t_2 -> ~b_2    H+)
    -6.11485881E-05    2     1000006        23   # BR(~t_2 -> ~t_1    Z )
    -1.53764076E-04    2     1000005        24   # BR(~t_2 -> ~b_1    W+)
    -1.66394697E-04    2     2000005        24   # BR(~t_2 -> ~b_2    W+)
#
#         PDG            Width
DECAY   1000005     4.80144851E+01   # sbottom1 decays
#          BR         NDA      ID1       ID2
     1.00000000E+00    2     1000022         5   # BR(~b_1 -> ~chi_10 b )
#
#         PDG            Width
DECAY   2000005     4.52053479E+01   # sbottom2 decays
#          BR         NDA      ID1       ID2
     1.00000000E+00    2     1000022         5   # BR(~b_2 -> ~chi_10 b )
#
#         PDG            Width
DECAY   1000002     2.58930327E-01   # sup_L decays
#          BR         NDA      ID1       ID2
     1.00000000E+00    2     1000022         2   # BR(~u_L -> ~chi_10 u)
#
#         PDG            Width
DECAY   2000002     2.08377388E+02   # sup_R decays
#          BR         NDA      ID1       ID2
     9.99836453E-01    2     1000022         2   # BR(~u_R -> ~chi_10 u)
     6.22502160E-06    2     1000023         2   # BR(~u_R -> ~chi_20 u)
     1.57322333E-04    2     1000025         2   # BR(~u_R -> ~chi_30 u)
#
#         PDG            Width
DECAY   1000001     2.59097655E-01   # sdown_L decays
#          BR         NDA      ID1       ID2
     1.00000000E+00    2     1000022         1   # BR(~d_L -> ~chi_10 d)
#
#         PDG            Width
DECAY   2000001     1.03608071E+00   # sdown_R decays
#          BR         NDA      ID1       ID2
     1.00000000E+00    2     1000022         1   # BR(~d_R -> ~chi_10 d)
#
#         PDG            Width
DECAY   1000004     2.58930327E-01   # scharm_L decays
#          BR         NDA      ID1       ID2
     1.00000000E+00    2     1000022         4   # BR(~c_L -> ~chi_10 c)
#
#         PDG            Width
DECAY   2000004     2.08377388E+02   # scharm_R decays
#          BR         NDA      ID1       ID2
     9.99836453E-01    2     1000022         4   # BR(~c_R -> ~chi_10 c)
     6.22502160E-06    2     1000023         4   # BR(~c_R -> ~chi_20 c)
     1.57322333E-04    2     1000025         4   # BR(~c_R -> ~chi_30 c)
#
#         PDG            Width
DECAY   1000003     2.59097655E-01   # sstrange_L decays
#          BR         NDA      ID1       ID2
     1.00000000E+00    2     1000022         3   # BR(~s_L -> ~chi_10 s)
#
#         PDG            Width
DECAY   2000003     1.03608071E+00   # sstrange_R decays
#          BR         NDA      ID1       ID2
     1.00000000E+00    2     1000022         3   # BR(~s_R -> ~chi_10 s)
#
#         PDG            Width
DECAY   1000011     1.22260780E+02   # selectron_L decays
#          BR         NDA      ID1       ID2
     9.99797726E-01    2     1000022        11   # BR(~e_L -> ~chi_10 e-)
     4.96779803E-06    2     1000023        11   # BR(~e_L -> ~chi_20 e-)
     1.94645639E-04    2     1000025        11   # BR(~e_L -> ~chi_30 e-)
     2.66030415E-06    2    -1000024        12   # BR(~e_L -> ~chi_1- nu_e)
#
#         PDG            Width
DECAY   2000011     4.89040211E+02   # selectron_R decays
#          BR         NDA      ID1       ID2
     9.99836683E-01    2     1000022        11   # BR(~e_R -> ~chi_10 e-)
     6.21627258E-06    2     1000023        11   # BR(~e_R -> ~chi_20 e-)
     1.57101185E-04    2     1000025        11   # BR(~e_R -> ~chi_30 e-)
#
#         PDG            Width
DECAY   1000013     1.22260780E+02   # smuon_L decays
#          BR         NDA      ID1       ID2
     9.99797726E-01    2     1000022        13   # BR(~mu_L -> ~chi_10 mu-)
     4.96779803E-06    2     1000023        13   # BR(~mu_L -> ~chi_20 mu-)
     1.94645639E-04    2     1000025        13   # BR(~mu_L -> ~chi_30 mu-)
     2.66030415E-06    2    -1000024        14   # BR(~mu_L -> ~chi_1- nu_mu)
#
#         PDG            Width
DECAY   2000013     4.89040211E+02   # smuon_R decays
#          BR         NDA      ID1       ID2
     9.99836683E-01    2     1000022        13   # BR(~mu_R -> ~chi_10 mu-)
     6.21627258E-06    2     1000023        13   # BR(~mu_R -> ~chi_20 mu-)
     1.57101185E-04    2     1000025        13   # BR(~mu_R -> ~chi_30 mu-)
#
#         PDG            Width
DECAY   1000015     1.18200088E+04   # stau_1 decays
#          BR         NDA      ID1       ID2
     2.59027212E-02    2     1000022        15   # BR(~tau_1 -> ~chi_10  tau-)
     2.51337742E-05    2     1000023        15   # BR(~tau_1 -> ~chi_20  tau-)
     2.48685446E-05    2     1000025        15   # BR(~tau_1 -> ~chi_30  tau-)
     2.77104692E-05    2    -1000024        16   # BR(~tau_1 -> ~chi_1-  nu_tau)
     9.74019566E-01    2     1000039        15   # BR(~tau_1 -> ~G       tau-)
#
#         PDG            Width
DECAY   2000015     3.06085872E+02   # stau_2 decays
#          BR         NDA      ID1       ID2
     9.96537799E-01    2     1000022        15   # BR(~tau_2 -> ~chi_10  tau-)
     1.08189806E-03    2     1000023        15   # BR(~tau_2 -> ~chi_20  tau-)
     1.40867937E-03    2     1000025        15   # BR(~tau_2 -> ~chi_30  tau-)
     9.71623873E-04    2    -1000024        16   # BR(~tau_2 -> ~chi_1-  nu_tau)
#
#         PDG            Width
DECAY   1000012     1.22260837E+02   # snu_eL decays
#          BR         NDA      ID1       ID2
     9.99863163E-01    2     1000022        12   # BR(~nu_eL -> ~chi_10 nu_e)
     7.60446464E-06    2     1000023        12   # BR(~nu_eL -> ~chi_20 nu_e)
     1.23573869E-04    2     1000025        12   # BR(~nu_eL -> ~chi_30 nu_e)
     5.65853099E-06    2     1000024        11   # BR(~nu_eL -> ~chi_1+ e-)
#
#         PDG            Width
DECAY   1000014     1.22260837E+02   # snu_muL decays
#          BR         NDA      ID1       ID2
     9.99863163E-01    2     1000022        14   # BR(~nu_muL -> ~chi_10 nu_mu)
     7.60446464E-06    2     1000023        14   # BR(~nu_muL -> ~chi_20 nu_mu)
     1.23573869E-04    2     1000025        14   # BR(~nu_muL -> ~chi_30 nu_mu)
     5.65853099E-06    2     1000024        13   # BR(~nu_muL -> ~chi_1+ mu-)
#
#         PDG            Width
DECAY   1000016     1.22885450E+02   # snu_tauL decays
#          BR         NDA      ID1       ID2
     9.94780971E-01    2     1000022        16   # BR(~nu_tauL -> ~chi_10 nu_tau)
     7.56581200E-06    2     1000023        16   # BR(~nu_tauL -> ~chi_20 nu_tau)
     1.22945757E-04    2     1000025        16   # BR(~nu_tauL -> ~chi_30 nu_tau)
     5.08851767E-03    2     1000024        15   # BR(~nu_tauL -> ~chi_1+ tau-)
#
#         PDG            Width
DECAY   1000024     5.99878879E+01   # chargino1+ decays
#          BR         NDA      ID1       ID2
     4.50653335E-07    2     1000002        -1   # BR(~chi_1+ -> ~u_L     db)
     2.11770822E-07    2    -1000001         2   # BR(~chi_1+ -> ~d_L*    u )
     4.50653335E-07    2     1000004        -3   # BR(~chi_1+ -> ~c_L     sb)
     2.11770822E-07    2    -1000003         4   # BR(~chi_1+ -> ~s_L*    c )
     6.26032701E-02    2     1000006        -5   # BR(~chi_1+ -> ~t_1     bb)
     8.41869672E-02    2    -1000005         6   # BR(~chi_1+ -> ~b_1*    t )
     8.03079235E-01    2    -2000005         6   # BR(~chi_1+ -> ~b_2*    t )
     3.44403250E-02    2     1000022        24   # BR(~chi_1+ -> ~chi_10  W+)
     1.56828592E-02    2     1000022        37   # BR(~chi_1+ -> ~chi_10  H+)
     5.02930927E-06    2     1000039        24   # BR(~chi_1+ -> ~G       W+)
     9.89555402E-07    2     1000039        37   # BR(~chi_1+ -> ~G       H+)
#
#         PDG            Width
DECAY   1000037     1.01845333E+05   # chargino2+ decays
#          BR         NDA      ID1       ID2
     9.69944478E-03    2     1000002        -1   # BR(~chi_2+ -> ~u_L     db)
     9.69944772E-03    2    -1000001         2   # BR(~chi_2+ -> ~d_L*    u )
     9.69944478E-03    2     1000004        -3   # BR(~chi_2+ -> ~c_L     sb)
     9.69944772E-03    2    -1000003         4   # BR(~chi_2+ -> ~s_L*    c )
     8.34981544E-01    2     1000006        -5   # BR(~chi_2+ -> ~t_1     bb)
     2.12053880E-03    2    -1000005         6   # BR(~chi_2+ -> ~b_1*    t )
     9.21060148E-03    2    -2000005         6   # BR(~chi_2+ -> ~b_2*    t )
     6.97344056E-15    2     1000012       -11   # BR(~chi_2+ -> ~nu_eL   e+  )
     6.97344056E-15    2     1000014       -13   # BR(~chi_2+ -> ~nu_muL  mu+ )
     4.85614990E-15    2    -1000011        12   # BR(~chi_2+ -> ~e_L+    nu_e)
     4.85614990E-15    2    -1000013        14   # BR(~chi_2+ -> ~mu_L+   nu_mu)
     7.64400689E-15    2    -1000015        16   # BR(~chi_2+ -> ~tau_1+  nu_tau)
     1.14286826E-16    2    -2000015        16   # BR(~chi_2+ -> ~tau_2+  nu_tau)
     1.77796198E-03    2     1000024        23   # BR(~chi_2+ -> ~chi_1+  Z )
     2.08989402E-07    2     1000022        24   # BR(~chi_2+ -> ~chi_10  W+)
     1.72500616E-03    2     1000023        24   # BR(~chi_2+ -> ~chi_20  W+)
     1.72477907E-03    2     1000025        24   # BR(~chi_2+ -> ~chi_30  W+)
     1.79517915E-03    2     1000024        25   # BR(~chi_2+ -> ~chi_1+  h )
     1.57582784E-03    2     1000024        35   # BR(~chi_2+ -> ~chi_1+  H )
     1.57603705E-03    2     1000024        36   # BR(~chi_2+ -> ~chi_1+  A )
     2.98124345E-07    2     1000022        37   # BR(~chi_2+ -> ~chi_10  H+)
     1.57597477E-03    2     1000023        37   # BR(~chi_2+ -> ~chi_20  H+)
     1.57574312E-03    2     1000025        37   # BR(~chi_2+ -> ~chi_30  H+)
     1.01562485E-01    2     1000039        24   # BR(~chi_2+ -> ~G       W+)
     2.91177736E-08    2     1000039        37   # BR(~chi_2+ -> ~G       H+)
#
#         PDG            Width
DECAY   1000022     1.E-08   # neutralino1 decays (OJ Mods)
#          BR         NDA      ID1       ID2
     1.00000000E+00    2     1000039        22   # BR(~chi_10 -> ~G        gam)
#
#         PDG            Width
DECAY   1000023     1.E-08   # neutralino2 decays (OJ Mods)
#          BR         NDA      ID1       ID2
     3.22209374E-02    2     1000022        23   # BR(~chi_20 -> ~chi_10   Z )
     1.25512749E-03    2     1000022        25   # BR(~chi_20 -> ~chi_10   h )
     1.45125829E-02    2     1000022        35   # BR(~chi_20 -> ~chi_10   H )
     5.91391325E-04    2     1000022        36   # BR(~chi_20 -> ~chi_10   A )
     2.79259392E-08    2     1000002        -2   # BR(~chi_20 -> ~u_L      ub)
     2.79259392E-08    2    -1000002         2   # BR(~chi_20 -> ~u_L*     u )
     1.04304856E-07    2     1000001        -1   # BR(~chi_20 -> ~d_L      db)
     1.04304856E-07    2    -1000001         1   # BR(~chi_20 -> ~d_L*     d )
     2.40183160E-07    2     2000001        -1   # BR(~chi_20 -> ~d_R      db)
     2.40183160E-07    2    -2000001         1   # BR(~chi_20 -> ~d_R*     d )
     2.79259392E-08    2     1000004        -4   # BR(~chi_20 -> ~c_L      cb)
     2.79259392E-08    2    -1000004         4   # BR(~chi_20 -> ~c_L*     c )
     1.04304856E-07    2     1000003        -3   # BR(~chi_20 -> ~s_L      sb)
     1.04304856E-07    2    -1000003         3   # BR(~chi_20 -> ~s_L*     s )
     2.40183160E-07    2     2000003        -3   # BR(~chi_20 -> ~s_R      sb)
     2.40183160E-07    2    -2000003         3   # BR(~chi_20 -> ~s_R*     s )
     4.17765265E-01    2     1000006        -6   # BR(~chi_20 -> ~t_1      tb)
     4.17765265E-01    2    -1000006         6   # BR(~chi_20 -> ~t_1*     t )
     2.78327011E-02    2     1000005        -5   # BR(~chi_20 -> ~b_1      bb)
     2.78327011E-02    2    -1000005         5   # BR(~chi_20 -> ~b_1*     b )
     3.01085135E-02    2     2000005        -5   # BR(~chi_20 -> ~b_2      bb)
     3.01085135E-02    2    -2000005         5   # BR(~chi_20 -> ~b_2*     b )
     4.19136290E-11    2     1000039        22   # BR(~chi_20 -> ~G        gam)
     1.82462238E-07    2     1000039        23   # BR(~chi_20 -> ~G        Z)
     4.55364745E-06    2     1000039        25   # BR(~chi_20 -> ~G        h)
     3.64745492E-08    2     1000039        35   # BR(~chi_20 -> ~G        H)
     9.40710818E-07    2     1000039        36   # BR(~chi_20 -> ~G        A)
#
#         PDG            Width
DECAY   1000025     6.36584042E+01   # neutralino3 decays
#          BR         NDA      ID1       ID2
     1.27349323E-03    2     1000022        23   # BR(~chi_30 -> ~chi_10   Z )
     3.24256228E-02    2     1000022        25   # BR(~chi_30 -> ~chi_10   h )
     5.74905661E-04    2     1000022        35   # BR(~chi_30 -> ~chi_10   H )
     1.45372634E-02    2     1000022        36   # BR(~chi_30 -> ~chi_10   A )
     2.71984673E-06    2     1000002        -2   # BR(~chi_30 -> ~u_L      ub)
     2.71984673E-06    2    -1000002         2   # BR(~chi_30 -> ~u_L*     u )
     6.61616180E-07    2     1000001        -1   # BR(~chi_30 -> ~d_L      db)
     6.61616180E-07    2    -1000001         1   # BR(~chi_30 -> ~d_L*     d )
     6.06375929E-06    2     2000001        -1   # BR(~chi_30 -> ~d_R      db)
     6.06375929E-06    2    -2000001         1   # BR(~chi_30 -> ~d_R*     d )
     2.71984673E-06    2     1000004        -4   # BR(~chi_30 -> ~c_L      cb)
     2.71984673E-06    2    -1000004         4   # BR(~chi_30 -> ~c_L*     c )
     6.61616180E-07    2     1000003        -3   # BR(~chi_30 -> ~s_L      sb)
     6.61616180E-07    2    -1000003         3   # BR(~chi_30 -> ~s_L*     s )
     6.06375929E-06    2     2000003        -3   # BR(~chi_30 -> ~s_R      sb)
     6.06375929E-06    2    -2000003         3   # BR(~chi_30 -> ~s_R*     s )
     4.17356071E-01    2     1000006        -6   # BR(~chi_30 -> ~t_1      tb)
     4.17356071E-01    2    -1000006         6   # BR(~chi_30 -> ~t_1*     t )
     2.48501168E-02    2     1000005        -5   # BR(~chi_30 -> ~b_1      bb)
     2.48501168E-02    2    -1000005         5   # BR(~chi_30 -> ~b_1*     b )
     3.33689902E-02    2     2000005        -5   # BR(~chi_30 -> ~b_2      bb)
     3.33689902E-02    2    -2000005         5   # BR(~chi_30 -> ~b_2*     b )
     1.21776764E-09    2     1000039        22   # BR(~chi_30 -> ~G        gam)
     4.55710675E-06    2     1000039        23   # BR(~chi_30 -> ~G        Z)
     1.77698734E-07    2     1000039        25   # BR(~chi_30 -> ~G        h)
     9.34001153E-07    2     1000039        35   # BR(~chi_30 -> ~G        H)
     3.76135387E-08    2     1000039        36   # BR(~chi_30 -> ~G        A)
#
#         PDG            Width
DECAY   1000035     1.01845742E+05   # neutralino4 decays
#          BR         NDA      ID1       ID2
     4.20777080E-11    2     1000022        23   # BR(~chi_40 -> ~chi_10   Z )
     1.71821128E-03    2     1000023        23   # BR(~chi_40 -> ~chi_20   Z )
     5.97456266E-05    2     1000025        23   # BR(~chi_40 -> ~chi_30   Z )
     1.72498933E-03    2     1000024       -24   # BR(~chi_40 -> ~chi_1+   W-)
     1.72498933E-03    2    -1000024        24   # BR(~chi_40 -> ~chi_1-   W+)
     2.17855281E-07    2     1000022        25   # BR(~chi_40 -> ~chi_10   h )
     4.00777782E-08    2     1000022        35   # BR(~chi_40 -> ~chi_10   H )
     2.57619509E-07    2     1000022        36   # BR(~chi_40 -> ~chi_10   A )
     5.89460316E-05    2     1000023        25   # BR(~chi_40 -> ~chi_20   h )
     1.50805480E-03    2     1000023        35   # BR(~chi_40 -> ~chi_20   H )
     6.93209909E-05    2     1000023        36   # BR(~chi_40 -> ~chi_20   A )
     1.73601062E-03    2     1000025        25   # BR(~chi_40 -> ~chi_30   h )
     6.77253178E-05    2     1000025        35   # BR(~chi_40 -> ~chi_30   H )
     1.50645272E-03    2     1000025        36   # BR(~chi_40 -> ~chi_30   A )
     1.57600331E-03    2     1000024       -37   # BR(~chi_40 -> ~chi_1+   H-)
     1.57600331E-03    2    -1000024        37   # BR(~chi_40 -> ~chi_1-   H+)
     4.64352047E-03    2     1000002        -2   # BR(~chi_40 -> ~u_L      ub)
     4.64352047E-03    2    -1000002         2   # BR(~chi_40 -> ~u_L*     u )
     7.22827135E-23    2     2000002        -2   # BR(~chi_40 -> ~u_R      ub)
     7.22827135E-23    2    -2000002         2   # BR(~chi_40 -> ~u_R*     u )
     4.64352244E-03    2     1000001        -1   # BR(~chi_40 -> ~d_L      db)
     4.64352244E-03    2    -1000001         1   # BR(~chi_40 -> ~d_L*     d )
     8.78346616E-17    2     2000001        -1   # BR(~chi_40 -> ~d_R      db)
     8.78346616E-17    2    -2000001         1   # BR(~chi_40 -> ~d_R*     d )
     4.64352047E-03    2     1000004        -4   # BR(~chi_40 -> ~c_L      cb)
     4.64352047E-03    2    -1000004         4   # BR(~chi_40 -> ~c_L*     c )
     7.22827135E-23    2     2000004        -4   # BR(~chi_40 -> ~c_R      cb)
     7.22827135E-23    2    -2000004         4   # BR(~chi_40 -> ~c_R*     c )
     4.64352244E-03    2     1000003        -3   # BR(~chi_40 -> ~s_L      sb)
     4.64352244E-03    2    -1000003         3   # BR(~chi_40 -> ~s_L*     s )
     8.78346616E-17    2     2000003        -3   # BR(~chi_40 -> ~s_R      sb)
     8.78346616E-17    2    -2000003         3   # BR(~chi_40 -> ~s_R*     s )
     5.66556242E-03    2     1000006        -6   # BR(~chi_40 -> ~t_1      tb)
     5.66556242E-03    2    -1000006         6   # BR(~chi_40 -> ~t_1*     t )
     1.98834438E-01    2     1000005        -5   # BR(~chi_40 -> ~b_1      bb)
     1.98834438E-01    2    -1000005         5   # BR(~chi_40 -> ~b_1*     b )
     2.18656621E-01    2     2000005        -5   # BR(~chi_40 -> ~b_2      bb)
     2.18656621E-01    2    -2000005         5   # BR(~chi_40 -> ~b_2*     b )
     2.42806460E-15    2     1000011       -11   # BR(~chi_40 -> ~e_L-     e+)
     2.42806460E-15    2    -1000011        11   # BR(~chi_40 -> ~e_L+     e-)
     4.13353289E-28    2     2000011       -11   # BR(~chi_40 -> ~e_R-     e+)
     4.13353289E-28    2    -2000011        11   # BR(~chi_40 -> ~e_R+     e-)
     2.42806460E-15    2     1000013       -13   # BR(~chi_40 -> ~mu_L-    mu+)
     2.42806460E-15    2    -1000013        13   # BR(~chi_40 -> ~mu_L+    mu-)
     4.13353289E-28    2     2000013       -13   # BR(~chi_40 -> ~mu_R-    mu+)
     4.13353289E-28    2    -2000013        13   # BR(~chi_40 -> ~mu_R+    mu-)
     3.48670997E-15    2     1000012       -12   # BR(~chi_40 -> ~nu_eL    nu_eb)
     3.48670997E-15    2    -1000012        12   # BR(~chi_40 -> ~nu_eL*   nu_e )
     3.48670997E-15    2     1000014       -14   # BR(~chi_40 -> ~nu_muL   nu_mub)
     3.48670997E-15    2    -1000014        14   # BR(~chi_40 -> ~nu_muL*  nu_mu )
     3.48670997E-15    2     1000016       -16   # BR(~chi_40 -> ~nu_tau1  nu_taub)
     3.48670997E-15    2    -1000016        16   # BR(~chi_40 -> ~nu_tau1* nu_tau )
     2.46104553E-02    2     1000039        22   # BR(~chi_40 -> ~G        gam)
     7.69516565E-02    2     1000039        23   # BR(~chi_40 -> ~G        Z)
     4.64551893E-09    2     1000039        25   # BR(~chi_40 -> ~G        h)
     2.91665411E-08    2     1000039        35   # BR(~chi_40 -> ~G        H)
     5.74745437E-12    2     1000039        36   # BR(~chi_40 -> ~G        A)
#
#
#
#
