#
#                              ======================
#                              | THE SUSYHIT OUTPUT |
#                              ======================
#
#
#              ------------------------------------------------------
#              |     This is the output of the SUSY-HIT package     |
#              |  created by A.Djouadi, M.Muehlleitner and M.Spira. |
#              |  In case of problems with SUSY-HIT email to        |
#              |           margarete.muehlleitner@cern.ch           |
#              |           michael.spira@psi.ch                     |
#              |           abdelhak.djouadi@cern.ch                 |
#              ------------------------------------------------------
#
#              ------------------------------------------------------
#              |  SUSY Les Houches Accord - MSSM Spectrum + Decays  |
#              |              based on the decay programs           |
#              |                                                    |
#              |                     SDECAY 1.3b                    |
#              |                                                    |
#              |  Authors: M.Muhlleitner, A.Djouadi and Y.Mambrini  |
#              |  Ref.:    Comput.Phys.Commun.168(2005)46           |
#              |           [hep-ph/0311167]                         |
#              |                                                    |
#              |                     HDECAY 3.4                     |
#              |                                                    |
#              |  By: A.Djouadi,J.Kalinowski,M.Muhlleitner,M.Spira  |
#              |  Ref.:    Comput.Phys.Commun.108(1998)56           |
#              |           [hep-ph/9704448]                         |
#              |                                                    |
#              |                                                    |
#              |  If not stated otherwise all DRbar couplings and   |
#              |  soft SUSY breaking masses are given at the scale  |
#              |  Q=  0.91187600E+02
#              |                                                    |
#              ------------------------------------------------------
#
#
BLOCK DCINFO  # Decay Program information
     1   SDECAY/HDECAY # decay calculator
     2   1.3b  /3.4    # version number
#
BLOCK SPINFO  # Spectrum calculator information
     1   SuSpect     # RGE +Spectrum calculator            
     2   2.41         # version number                     
#
BLOCK MODSEL  # Model selection
     1     0   # #general MSSM low scale                           
#
BLOCK SMINPUTS  # Standard Model inputs
         1     1.27934000E+02   # alpha_em^-1(M_Z)^MSbar
         2     1.16639000E-05   # G_F [GeV^-2]
         3     1.17200000E-01   # alpha_S(M_Z)^MSbar
         4     9.11870000E+01   # M_Z pole mass
         5     4.25000000E+00   # mb(mb)^MSbar
         6     1.72500000E+02   # mt pole mass
         7     1.77700000E+00   # mtau pole mass
#
BLOCK MINPAR  # Input parameters - minimal models
#
BLOCK EXTPAR  # Input parameters - non-minimal models
         0     9.11876000E+01   # EWSB                
         1     1.90000000E+03   # M_1                 
         2     1.00000000E+05   # M_2                 
         3     2.30000000E+03   # M_3                 
        11     0.00000000E+00   # A_t                 
        12     0.00000000E+00   # A_b                 
        13     0.00000000E+00   # A_tau               
        14     0.00000000E+00   # A_u                 
        15     0.00000000E+00   # A_d                 
        16     0.00000000E+00   # A_e                 
        23     1.00000000E+05   # mu(EWSB)            
        25     1.50000000E+00   # tanbeta(in)         
        26     2.00000000E+03   # MA_pole             
        31     1.00000000E+05   # M_eL                
        32     1.00000000E+05   # M_muL               
        33     1.00000000E+05   # M_tauL              
        34     1.00000000E+05   # M_eR                
        35     1.00000000E+05   # M_muR               
        36     1.00000000E+05   # M_tauR              
        41     3.00000000E+03   # M_q1L               
        42     3.00000000E+03   # M_q2L               
        43     3.00000000E+03   # M_q3L               
        44     1.00000000E+05   # M_uR                
        45     1.00000000E+05   # M_cR                
        46     1.00000000E+05   # M_tR                
        47     3.00000000E+03   # M_dR                
        48     3.00000000E+03   # M_sR                
        49     3.00000000E+03   # M_bR                
#
BLOCK MASS  # Mass Spectrum
# PDG code           mass       particle
        24     8.05653401E+01   # W+
        25     1.25000000E+02   # h
        35     2.00878415E+03   # H
        36     2.00000000E+03   # A
        37     2.02274160E+03   # H+
         5     4.87877839E+00   # b-quark pole mass calculated from mb(mb)_Msbar
   1000001     3.00021864E+03   # ~d_L
   2000001     3.00004273E+03   # ~d_R
   1000002     2.99982408E+03   # ~u_L
   2000002     9.99999974E+04   # ~u_R
   1000003     3.00021864E+03   # ~s_L
   2000003     3.00004273E+03   # ~s_R
   1000004     2.99982408E+03   # ~c_L
   2000004     9.99999974E+04   # ~c_R
   1000005     2.95147086E+03   # ~b_1
   2000005     3.04801501E+03   # ~b_2
   1000006     3.00183448E+03   # ~t_1
   2000006     1.00000154E+05   # ~t_2
   1000011     1.00000004E+05   # ~e_L
   2000011     1.00000004E+05   # ~e_R
   1000012     9.99999922E+04   # ~nu_eL
   1000013     1.00000004E+05   # ~mu_L
   2000013     1.00000004E+05   # ~mu_R
   1000014     9.99999922E+04   # ~nu_muL
   1000015     9.99986721E+04   # ~tau_1
   2000015     1.00001336E+05   # ~tau_2
   1000016     9.99999922E+04   # ~nu_tauL
   1000021     2.30000000E+03   # ~g
   1000022     1.89998115E+03   # ~chi_10
   1000023     9.99230783E+04   # ~chi_20
   1000025    -1.00000002E+05   # ~chi_30
   1000035     1.00076943E+05   # ~chi_40
   1000024     9.99230691E+04   # ~chi_1+
   1000037     1.00076933E+05   # ~chi_2+
   1000039     2.50000000E-08   # ~gravitino
#
BLOCK NMIX  # Neutralino Mixing Matrix
  1  1     9.99999896E-01   # N_11
  1  2    -3.37051677E-07   # N_12
  1  3     3.76938918E-04   # N_13
  1  4    -2.55221587E-04   # N_14
  2  1     3.16304326E-04   # N_21
  2  2     7.07149102E-01   # N_22
  2  3    -5.00008495E-01   # N_23
  2  4     4.99931548E-01   # N_24
  3  1     8.60670605E-05   # N_31
  3  2    -7.69321161E-05   # N_32
  3  3    -7.07106742E-01   # N_33
  3  4    -7.07106811E-01   # N_34
  4  1     3.15856135E-04   # N_41
  4  2    -7.07064459E-01   # N_42
  4  3    -4.99991414E-01   # N_43
  4  4     5.00068332E-01   # N_44
#
BLOCK UMIX  # Chargino Mixing Matrix U
  1  1    -7.07052380E-01   # U_11
  1  2     7.07161178E-01   # U_12
  2  1     7.07161178E-01   # U_21
  2  2     7.07052380E-01   # U_22
#
BLOCK VMIX  # Chargino Mixing Matrix V
  1  1    -7.07161178E-01   # V_11
  1  2     7.07052380E-01   # V_12
  2  1     7.07052380E-01   # V_21
  2  2     7.07161178E-01   # V_22
#
BLOCK STOPMIX  # Stop Mixing Matrix
  1  1     9.99999516E-01   # cos(theta_t)
  1  2     9.83869791E-04   # sin(theta_t)
  2  1    -9.83869791E-04   # -sin(theta_t)
  2  2     9.99999516E-01   # cos(theta_t)
#
BLOCK SBOTMIX  # Sbottom Mixing Matrix
  1  1     7.06462200E-01   # cos(theta_b)
  1  2     7.07750775E-01   # sin(theta_b)
  2  1    -7.07750775E-01   # -sin(theta_b)
  2  2     7.06462200E-01   # cos(theta_b)
#
BLOCK STAUMIX  # Stau Mixing Matrix
  1  1     7.07086900E-01   # cos(theta_tau)
  1  2     7.07126662E-01   # sin(theta_tau)
  2  1    -7.07126662E-01   # -sin(theta_tau)
  2  2     7.07086900E-01   # cos(theta_tau)
#
BLOCK ALPHA  # Higgs mixing
          -6.37602633E-01   # Mixing angle in the neutral Higgs boson sector
#
BLOCK HMIX Q=  9.11876000E+01  # DRbar Higgs Parameters
         1     1.00000000E+05   # mu(Q)               
         2     1.49999982E+00   # tanbeta(Q)          
         3     2.55461761E+02   # vev(Q)              
         4    -2.17338323E+09   # MA^2(Q)             
#
BLOCK GAUGE Q=  9.11876000E+01  # The gauge couplings
     1     3.50079243E-01   # gprime(Q) DRbar
     2     6.14176049E-01   # g(Q) DRbar
     3     1.07261147E+00   # g3(Q) DRbar
#
BLOCK AU Q=  9.11876000E+01  # The trilinear couplings
  1  1     0.00000000E+00   # A_u(Q) DRbar
  2  2     0.00000000E+00   # A_c(Q) DRbar
  3  3     0.00000000E+00   # A_t(Q) DRbar
#
BLOCK AD Q=  9.11876000E+01  # The trilinear couplings
  1  1     0.00000000E+00   # A_d(Q) DRbar
  2  2     0.00000000E+00   # A_s(Q) DRbar
  3  3     0.00000000E+00   # A_b(Q) DRbar
#
BLOCK AE Q=  9.11876000E+01  # The trilinear couplings
  1  1     0.00000000E+00   # A_e(Q) DRbar
  2  2     0.00000000E+00   # A_mu(Q) DRbar
  3  3     0.00000000E+00   # A_tau(Q) DRbar
#
BLOCK Yu Q=  9.11876000E+01  # The Yukawa couplings
  1  1     0.00000000E+00   # y_u(Q) DRbar
  2  2     0.00000000E+00   # y_c(Q) DRbar
  3  3     9.80784338E-01   # y_t(Q) DRbar
#
BLOCK Yd Q=  9.11876000E+01  # The Yukawa couplings
  1  1     0.00000000E+00   # y_d(Q) DRbar
  2  2     0.00000000E+00   # y_s(Q) DRbar
  3  3     1.92669622E-02   # y_b(Q) DRbar
#
BLOCK Ye Q=  9.11876000E+01  # The Yukawa couplings
  1  1     0.00000000E+00   # y_e(Q) DRbar
  2  2     0.00000000E+00   # y_mu(Q) DRbar
  3  3     1.77202034E-02   # y_tau(Q) DRbar
#
BLOCK MSOFT Q=  9.11876000E+01  # The soft SUSY breaking masses at the scale Q
         1     1.90000000E+03   # M_1                 
         2     1.00000000E+05   # M_2                 
         3     2.30000000E+03   # M_3                 
        14     0.00000000E+00   # A_u                 
        15     0.00000000E+00   # A_d                 
        16     0.00000000E+00   # A_e                 
        21    -1.06431313E+10   # M^2_Hd              
        22    -1.00425440E+10   # M^2_Hu              
        31     1.00000000E+05   # M_eL                
        32     1.00000000E+05   # M_muL               
        33     1.00000000E+05   # M_tauL              
        34     1.00000000E+05   # M_eR                
        35     1.00000000E+05   # M_muR               
        36     1.00000000E+05   # M_tauR              
        41     3.00000000E+03   # M_q1L               
        42     3.00000000E+03   # M_q2L               
        43     3.00000000E+03   # M_q3L               
        44     1.00000000E+05   # M_uR                
        45     1.00000000E+05   # M_cR                
        46     1.00000000E+05   # M_tR                
        47     3.00000000E+03   # M_dR                
        48     3.00000000E+03   # M_sR                
        49     3.00000000E+03   # M_bR                
#
#
#
#                             =================
#                             |The decay table|
#                             =================
#
# - The QCD corrections to the decays gluino -> squark  + quark
#                                     squark -> gaugino + quark_prime
#                                     squark -> squark_prime + Higgs
#                                     squark -> gluino  + quark
#   are included.
#
# - The multi-body decays for the inos, stops and sbottoms are included.
#
# - The loop induced decays for the gluino, neutralinos and stops
#   are included.
#
# - The SUSY decays of the top quark are included.
#
# - Possible decays of the NLSP in GMSB models are included.
#
#
#         PDG            Width
DECAY         6     1.30265120E+00   # top decays
#          BR         NDA      ID1       ID2
     1.00000000E+00    2           5        24   # BR(t ->  b    W+)
#
#         PDG            Width
DECAY   1000021     1.E-04   # gluino decays (OJ Mods)
#          BR         NDA      ID1       ID2
     2.13778855E-02    2     1000022        21   # BR(~g -> ~chi_10 g)
#          BR         NDA      ID1       ID2
     1.13987710E-02    2     1000039        21   # BR(~g -> ~G      g)
#           BR         NDA      ID1       ID2       ID3
     2.83404353E-01    3     1000022         1        -1   # BR(~g -> ~chi_10 d  db)
     5.67189648E-02    3     1000022         2        -2   # BR(~g -> ~chi_10 u  ub)
     2.83404353E-01    3     1000022         3        -3   # BR(~g -> ~chi_10 s  sb)
     5.67189648E-02    3     1000022         4        -4   # BR(~g -> ~chi_10 c  cb)
     2.84819648E-01    3     1000022         5        -5   # BR(~g -> ~chi_10 b  bb)
     2.15706027E-03    3     1000022         6        -6   # BR(~g -> ~chi_10 t  tb)
#
#         PDG            Width
DECAY   1000006     3.40993295E+01   # stop1 decays
#          BR         NDA      ID1       ID2
     4.07523549E-03    2     1000022         6   # BR(~t_1 -> ~chi_10 t )
     9.95924765E-01    2     1000021         6   # BR(~t_1 -> ~g      t )
#
#         PDG            Width
DECAY   2000006     4.77278624E+03   # stop2 decays
#          BR         NDA      ID1       ID2
     4.39821625E-02    2     1000022         6   # BR(~t_2 -> ~chi_10 t )
     3.24696472E-07    2     1000024         5   # BR(~t_2 -> ~chi_1+ b )
     5.56042129E-01    2     1000021         6   # BR(~t_2 -> ~g      t )
     2.41518384E-02    2     1000006        25   # BR(~t_2 -> ~t_1    h )
     4.79234414E-02    2     1000006        35   # BR(~t_2 -> ~t_1    H )
     5.12360707E-02    2     1000006        36   # BR(~t_2 -> ~t_1    A )
     5.09661370E-02    2     1000005        37   # BR(~t_2 -> ~b_1    H+)
     5.15597587E-02    2     2000005        37   # BR(~t_2 -> ~b_2    H+)
     5.74562377E-02    2     1000006        23   # BR(~t_2 -> ~t_1    Z )
     5.81339531E-02    2     1000005        24   # BR(~t_2 -> ~b_1    W+)
     5.85479472E-02    2     2000005        24   # BR(~t_2 -> ~b_2    W+)
#
#         PDG            Width
DECAY   1000005     3.15734353E+01   # sbottom1 decays
#          BR         NDA      ID1       ID2
     1.04721055E-02    2     1000022         5   # BR(~b_1 -> ~chi_10 b )
     9.89527895E-01    2     1000021         5   # BR(~b_1 -> ~g      b )
#
#         PDG            Width
DECAY   2000005     3.83206538E+01   # sbottom2 decays
#          BR         NDA      ID1       ID2
     9.70130375E-03    2     1000022         5   # BR(~b_2 -> ~chi_10 b )
     9.89579076E-01    2     1000021         5   # BR(~b_2 -> ~g      b )
     7.19620123E-04    2     1000005        23   # BR(~b_2 -> ~b_1    Z )
#
#         PDG            Width
DECAY   1000002     1.92543777E+01   # sup_L decays
#          BR         NDA      ID1       ID2
     7.89771599E-03    2     1000022         2   # BR(~u_L -> ~chi_10 u)
     9.92102284E-01    2     1000021         2   # BR(~u_L -> ~g      u)
#
#         PDG            Width
DECAY   2000002     3.95463261E+03   # sup_R decays
#          BR         NDA      ID1       ID2
     5.30940063E-02    2     1000022         2   # BR(~u_R -> ~chi_10 u)
     6.71002081E-13    2     1000023         2   # BR(~u_R -> ~chi_20 u)
     9.46905994E-01    2     1000021         2   # BR(~u_R -> ~g      u)
#
#         PDG            Width
DECAY   1000001     1.92712965E+01   # sdown_L decays
#          BR         NDA      ID1       ID2
     7.89444428E-03    2     1000022         1   # BR(~d_L -> ~chi_10 d)
     9.92105556E-01    2     1000021         1   # BR(~d_L -> ~g      d)
#
#         PDG            Width
DECAY   2000001     1.97200669E+01   # sdown_R decays
#          BR         NDA      ID1       ID2
     3.08527665E-02    2     1000022         1   # BR(~d_R -> ~chi_10 d)
     9.69147234E-01    2     1000021         1   # BR(~d_R -> ~g      d)
#
#         PDG            Width
DECAY   1000004     1.92543777E+01   # scharm_L decays
#          BR         NDA      ID1       ID2
     7.89771599E-03    2     1000022         4   # BR(~c_L -> ~chi_10 c)
     9.92102284E-01    2     1000021         4   # BR(~c_L -> ~g      c)
#
#         PDG            Width
DECAY   2000004     3.95463261E+03   # scharm_R decays
#          BR         NDA      ID1       ID2
     5.30940063E-02    2     1000022         4   # BR(~c_R -> ~chi_10 c)
     6.71002081E-13    2     1000023         4   # BR(~c_R -> ~chi_20 c)
     9.46905994E-01    2     1000021         4   # BR(~c_R -> ~g      c)
#
#         PDG            Width
DECAY   1000003     1.92712965E+01   # sstrange_L decays
#          BR         NDA      ID1       ID2
     7.89444428E-03    2     1000022         3   # BR(~s_L -> ~chi_10 s)
     9.92105556E-01    2     1000021         3   # BR(~s_L -> ~g      s)
#
#         PDG            Width
DECAY   2000003     1.97200669E+01   # sstrange_R decays
#          BR         NDA      ID1       ID2
     3.08527665E-02    2     1000022         3   # BR(~s_R -> ~chi_10 s)
     9.69147234E-01    2     1000021         3   # BR(~s_R -> ~g      s)
#
#         PDG            Width
DECAY   1000011     1.21821354E+02   # selectron_L decays
#          BR         NDA      ID1       ID2
     9.99989070E-01    2     1000022        11   # BR(~e_L -> ~chi_10 e-)
     3.64480781E-06    2     1000023        11   # BR(~e_L -> ~chi_20 e-)
     3.82897455E-24    2     1000025        11   # BR(~e_L -> ~chi_30 e-)
     7.28564869E-06    2    -1000024        12   # BR(~e_L -> ~chi_1- nu_e)
#
#         PDG            Width
DECAY   2000011     4.87280665E+02   # selectron_R decays
#          BR         NDA      ID1       ID2
     1.00000000E+00    2     1000022        11   # BR(~e_R -> ~chi_10 e-)
     2.36805992E-13    2     1000023        11   # BR(~e_R -> ~chi_20 e-)
     1.18606253E-23    2     1000025        11   # BR(~e_R -> ~chi_30 e-)
#
#         PDG            Width
DECAY   1000013     1.21821354E+02   # smuon_L decays
#          BR         NDA      ID1       ID2
     9.99989070E-01    2     1000022        13   # BR(~mu_L -> ~chi_10 mu-)
     3.64480781E-06    2     1000023        13   # BR(~mu_L -> ~chi_20 mu-)
     3.82897455E-24    2     1000025        13   # BR(~mu_L -> ~chi_30 mu-)
     7.28564869E-06    2    -1000024        14   # BR(~mu_L -> ~chi_1- nu_mu)
#
#         PDG            Width
DECAY   2000013     4.87280665E+02   # smuon_R decays
#          BR         NDA      ID1       ID2
     1.00000000E+00    2     1000022        13   # BR(~mu_R -> ~chi_10 mu-)
     2.36805992E-13    2     1000023        13   # BR(~mu_R -> ~chi_20 mu-)
     1.18606253E-23    2     1000025        13   # BR(~mu_R -> ~chi_30 mu-)
#
#         PDG            Width
DECAY   1000015     3.22980176E+02   # stau_1 decays
#          BR         NDA      ID1       ID2
     9.42968115E-01    2     1000022        15   # BR(~tau_1 -> ~chi_10  tau-)
     7.02030221E-07    2     1000023        15   # BR(~tau_1 -> ~chi_20  tau-)
     1.40447860E-06    2    -1000024        16   # BR(~tau_1 -> ~chi_1-  nu_tau)
     5.70297788E-02    2     1000039        15   # BR(~tau_1 -> ~G       tau-)
#
#         PDG            Width
DECAY   2000015     3.04541328E+02   # stau_2 decays
#          BR         NDA      ID1       ID2
     9.99997867E-01    2     1000022        15   # BR(~tau_2 -> ~chi_10  tau-)
     7.11073718E-07    2     1000023        15   # BR(~tau_2 -> ~chi_20  tau-)
     1.42234867E-06    2    -1000024        16   # BR(~tau_2 -> ~chi_1-  nu_tau)
#
#         PDG            Width
DECAY   1000012     1.21821627E+02   # snu_eL decays
#          BR         NDA      ID1       ID2
     9.99989074E-01    2     1000022        12   # BR(~nu_eL -> ~chi_10 nu_e)
     3.63996836E-06    2     1000023        12   # BR(~nu_eL -> ~chi_20 nu_e)
     7.28564100E-06    2     1000024        11   # BR(~nu_eL -> ~chi_1+ e-)
#
#         PDG            Width
DECAY   1000014     1.21821627E+02   # snu_muL decays
#          BR         NDA      ID1       ID2
     9.99989074E-01    2     1000022        14   # BR(~nu_muL -> ~chi_10 nu_mu)
     3.63996836E-06    2     1000023        14   # BR(~nu_muL -> ~chi_20 nu_mu)
     7.28564100E-06    2     1000024        13   # BR(~nu_muL -> ~chi_1+ mu-)
#
#         PDG            Width
DECAY   1000016     1.21821626E+02   # snu_tauL decays
#          BR         NDA      ID1       ID2
     9.99989080E-01    2     1000022        16   # BR(~nu_tauL -> ~chi_10 nu_tau)
     3.63996838E-06    2     1000023        16   # BR(~nu_tauL -> ~chi_20 nu_tau)
     7.28005292E-06    2     1000024        15   # BR(~nu_tauL -> ~chi_1+ tau-)
#
#         PDG            Width
DECAY   1000024     3.89335869E+03   # chargino1+ decays
#          BR         NDA      ID1       ID2
     1.39197825E-01    2     1000002        -1   # BR(~chi_1+ -> ~u_L     db)
     1.39154946E-01    2    -1000001         2   # BR(~chi_1+ -> ~d_L*    u )
     1.39197825E-01    2     1000004        -3   # BR(~chi_1+ -> ~c_L     sb)
     1.39154946E-01    2    -1000003         4   # BR(~chi_1+ -> ~s_L*    c )
     1.24031606E-01    2     1000006        -5   # BR(~chi_1+ -> ~t_1     bb)
     1.51944821E-01    2    -1000005         6   # BR(~chi_1+ -> ~b_1*    t )
     1.47457364E-01    2    -2000005         6   # BR(~chi_1+ -> ~b_2*    t )
     7.65262730E-03    2     1000022        24   # BR(~chi_1+ -> ~chi_10  W+)
     7.51892684E-03    2     1000022        37   # BR(~chi_1+ -> ~chi_10  H+)
     3.51820528E-03    2     1000039        24   # BR(~chi_1+ -> ~G       W+)
     1.17090930E-03    2     1000039        37   # BR(~chi_1+ -> ~G       H+)
#
#         PDG            Width
DECAY   1000037     3.89768367E+03   # chargino2+ decays
#          BR         NDA      ID1       ID2
     1.39210906E-01    2     1000002        -1   # BR(~chi_2+ -> ~u_L     db)
     1.39253701E-01    2    -1000001         2   # BR(~chi_2+ -> ~d_L*    u )
     1.39210906E-01    2     1000004        -3   # BR(~chi_2+ -> ~c_L     sb)
     1.39253701E-01    2    -1000003         4   # BR(~chi_2+ -> ~s_L*    c )
     1.23708234E-01    2     1000006        -5   # BR(~chi_2+ -> ~t_1     bb)
     9.20993355E-07    2     2000006        -5   # BR(~chi_2+ -> ~t_2     bb)
     1.45940531E-01    2    -1000005         6   # BR(~chi_2+ -> ~b_1*    t )
     1.52948833E-01    2    -2000005         6   # BR(~chi_2+ -> ~b_2*    t )
     1.13248702E-07    2     1000012       -11   # BR(~chi_2+ -> ~nu_eL   e+  )
     1.13248702E-07    2     1000014       -13   # BR(~chi_2+ -> ~nu_muL  mu+ )
     1.13161819E-07    2     1000016       -15   # BR(~chi_2+ -> ~nu_tau1 tau+)
     1.13248825E-07    2    -1000011        12   # BR(~chi_2+ -> ~e_L+    nu_e)
     1.13248825E-07    2    -1000013        14   # BR(~chi_2+ -> ~mu_L+   nu_mu)
     5.52657889E-08    2    -1000015        16   # BR(~chi_2+ -> ~tau_1+  nu_tau)
     5.78846687E-08    2    -2000015        16   # BR(~chi_2+ -> ~tau_2+  nu_tau)
     2.89924607E-04    2     1000024        23   # BR(~chi_2+ -> ~chi_1+  Z )
     7.63388006E-03    2     1000022        24   # BR(~chi_2+ -> ~chi_10  W+)
     3.31769071E-04    2     1000023        24   # BR(~chi_2+ -> ~chi_20  W+)
     1.49693052E-12    2     1000024        25   # BR(~chi_2+ -> ~chi_1+  h )
     7.49607091E-03    2     1000022        37   # BR(~chi_2+ -> ~chi_10  H+)
     3.54147190E-03    2     1000039        24   # BR(~chi_2+ -> ~G       W+)
     1.17847270E-03    2     1000039        37   # BR(~chi_2+ -> ~G       H+)
#
#         PDG            Width
DECAY   1000022     1.E-08   # neutralino1 decays (OJ Mods)
#          BR         NDA      ID1       ID2
     7.56478044E-01    2     1000039        22   # BR(~chi_10 -> ~G        gam)
     2.43521956E-01    2     1000039        23   # BR(~chi_10 -> ~G        Z)
     1.83526137E-10    2     1000039        25   # BR(~chi_10 -> ~G        h)
#
#         PDG            Width
DECAY   1000023     1.E-08   # neutralino2 decays (OJ Mods)
#          BR         NDA      ID1       ID2
     2.82176039E-04    2     1000022        23   # BR(~chi_20 -> ~chi_10   Z )
     7.91408872E-03    2     1000022        25   # BR(~chi_20 -> ~chi_10   h )
     1.75830402E-04    2     1000022        35   # BR(~chi_20 -> ~chi_10   H )
     7.20391713E-03    2     1000022        36   # BR(~chi_20 -> ~chi_10   A )
     6.74152522E-02    2     1000002        -2   # BR(~chi_20 -> ~u_L      ub)
     6.74152522E-02    2    -1000002         2   # BR(~chi_20 -> ~u_L*     u )
     6.73923221E-02    2     1000001        -1   # BR(~chi_20 -> ~d_L      db)
     6.73923221E-02    2    -1000001         1   # BR(~chi_20 -> ~d_L*     d )
     1.94731862E-09    2     2000001        -1   # BR(~chi_20 -> ~d_R      db)
     1.94731862E-09    2    -2000001         1   # BR(~chi_20 -> ~d_R*     d )
     6.74152522E-02    2     1000004        -4   # BR(~chi_20 -> ~c_L      cb)
     6.74152522E-02    2    -1000004         4   # BR(~chi_20 -> ~c_L*     c )
     6.73923221E-02    2     1000003        -3   # BR(~chi_20 -> ~s_L      sb)
     6.73923221E-02    2    -1000003         3   # BR(~chi_20 -> ~s_L*     s )
     1.94731862E-09    2     2000003        -3   # BR(~chi_20 -> ~s_R      sb)
     1.94731862E-09    2    -2000003         3   # BR(~chi_20 -> ~s_R*     s )
     1.49637156E-01    2     1000006        -6   # BR(~chi_20 -> ~t_1      tb)
     1.49637156E-01    2    -1000006         6   # BR(~chi_20 -> ~t_1*     t )
     3.23026384E-02    2     1000005        -5   # BR(~chi_20 -> ~b_1      bb)
     3.23026384E-02    2    -1000005         5   # BR(~chi_20 -> ~b_1*     b )
     2.96403014E-02    2     2000005        -5   # BR(~chi_20 -> ~b_2      bb)
     2.96403014E-02    2    -2000005         5   # BR(~chi_20 -> ~b_2*     b )
     5.75949999E-04    2     1000039        22   # BR(~chi_20 -> ~G        gam)
     2.89610832E-03    2     1000039        23   # BR(~chi_20 -> ~G        Z)
     2.53928345E-05    2     1000039        25   # BR(~chi_20 -> ~G        h)
     1.14496266E-03    2     1000039        35   # BR(~chi_20 -> ~G        H)
     4.50473557E-05    2     1000039        36   # BR(~chi_20 -> ~G        A)
#
#         PDG            Width
DECAY   1000025     1.49222657E+03   # neutralino3 decays
#          BR         NDA      ID1       ID2
     3.94973413E-02    2     1000022        23   # BR(~chi_30 -> ~chi_10   Z )
     8.41750471E-04    2     1000022        25   # BR(~chi_30 -> ~chi_10   h )
     3.79443292E-02    2     1000022        35   # BR(~chi_30 -> ~chi_10   H )
     1.60960863E-03    2     1000022        36   # BR(~chi_30 -> ~chi_10   A )
     1.28235162E-09    2     1000002        -2   # BR(~chi_30 -> ~u_L      ub)
     1.28235162E-09    2    -1000002         2   # BR(~chi_30 -> ~u_L*     u )
     2.27910112E-17    2     2000002        -2   # BR(~chi_30 -> ~u_R      ub)
     2.27910112E-17    2    -2000002         2   # BR(~chi_30 -> ~u_R*     u )
     3.04073471E-09    2     1000001        -1   # BR(~chi_30 -> ~d_L      db)
     3.04073471E-09    2    -1000001         1   # BR(~chi_30 -> ~d_L*     d )
     3.73762001E-10    2     2000001        -1   # BR(~chi_30 -> ~d_R      db)
     3.73762001E-10    2    -2000001         1   # BR(~chi_30 -> ~d_R*     d )
     1.28235162E-09    2     1000004        -4   # BR(~chi_30 -> ~c_L      cb)
     1.28235162E-09    2    -1000004         4   # BR(~chi_30 -> ~c_L*     c )
     2.27910112E-17    2     2000004        -4   # BR(~chi_30 -> ~c_R      cb)
     2.27910112E-17    2    -2000004         4   # BR(~chi_30 -> ~c_R*     c )
     3.04073471E-09    2     1000003        -3   # BR(~chi_30 -> ~s_L      sb)
     3.04073471E-09    2    -1000003         3   # BR(~chi_30 -> ~s_L*     s )
     3.73762001E-10    2     2000003        -3   # BR(~chi_30 -> ~s_R      sb)
     3.73762001E-10    2    -2000003         3   # BR(~chi_30 -> ~s_R*     s )
     4.53657958E-01    2     1000006        -6   # BR(~chi_30 -> ~t_1      tb)
     4.53657958E-01    2    -1000006         6   # BR(~chi_30 -> ~t_1*     t )
     1.50285337E-04    2     1000005        -5   # BR(~chi_30 -> ~b_1      bb)
     1.50285337E-04    2    -1000005         5   # BR(~chi_30 -> ~b_1*     b )
     1.53025661E-04    2     2000005        -5   # BR(~chi_30 -> ~b_2      bb)
     1.53025661E-04    2    -2000005         5   # BR(~chi_30 -> ~b_2*     b )
     7.57325425E-23    2     1000012       -12   # BR(~chi_30 -> ~nu_eL    nu_eb)
     7.57325425E-23    2    -1000012        12   # BR(~chi_30 -> ~nu_eL*   nu_e )
     7.57325425E-23    2     1000014       -14   # BR(~chi_30 -> ~nu_muL   nu_mub)
     7.57325425E-23    2    -1000014        14   # BR(~chi_30 -> ~nu_muL*  nu_mu )
     7.57325425E-23    2     1000016       -16   # BR(~chi_30 -> ~nu_tau1  nu_taub)
     7.57325425E-23    2    -1000016        16   # BR(~chi_30 -> ~nu_tau1* nu_tau )
     1.64027652E-11    2     1000039        22   # BR(~chi_30 -> ~G        gam)
     2.34500076E-04    2     1000039        23   # BR(~chi_30 -> ~G        Z)
     5.96476822E-03    2     1000039        25   # BR(~chi_30 -> ~G        h)
     1.32000096E-04    2     1000039        35   # BR(~chi_30 -> ~G        H)
     5.85314375E-03    2     1000039        36   # BR(~chi_30 -> ~G        A)
#
#         PDG            Width
DECAY   1000035     3.89861300E+03   # neutralino4 decays
#          BR         NDA      ID1       ID2
     2.82807086E-04    2     1000022        23   # BR(~chi_40 -> ~chi_10   Z )
     1.11047103E-18    2     1000023        23   # BR(~chi_40 -> ~chi_20   Z )
     3.31623119E-04    2     1000024       -24   # BR(~chi_40 -> ~chi_1+   W-)
     3.31623119E-04    2    -1000024        24   # BR(~chi_40 -> ~chi_1-   W+)
     7.89586048E-03    2     1000022        25   # BR(~chi_40 -> ~chi_10   h )
     1.74331191E-04    2     1000022        35   # BR(~chi_40 -> ~chi_10   H )
     7.18589754E-03    2     1000022        36   # BR(~chi_40 -> ~chi_10   A )
     5.12887070E-12    2     1000023        25   # BR(~chi_40 -> ~chi_20   h )
     6.74109300E-02    2     1000002        -2   # BR(~chi_40 -> ~u_L      ub)
     6.74109300E-02    2    -1000002         2   # BR(~chi_40 -> ~u_L*     u )
     2.00764149E-12    2     2000002        -2   # BR(~chi_40 -> ~u_R      ub)
     2.00764149E-12    2    -2000002         2   # BR(~chi_40 -> ~u_R*     u )
     6.74338035E-02    2     1000001        -1   # BR(~chi_40 -> ~d_L      db)
     6.74338035E-02    2    -1000001         1   # BR(~chi_40 -> ~d_L*     d )
     1.94280429E-09    2     2000001        -1   # BR(~chi_40 -> ~d_R      db)
     1.94280429E-09    2    -2000001         1   # BR(~chi_40 -> ~d_R*     d )
     6.74109300E-02    2     1000004        -4   # BR(~chi_40 -> ~c_L      cb)
     6.74109300E-02    2    -1000004         4   # BR(~chi_40 -> ~c_L*     c )
     2.00764149E-12    2     2000004        -4   # BR(~chi_40 -> ~c_R      cb)
     2.00764149E-12    2    -2000004         4   # BR(~chi_40 -> ~c_R*     c )
     6.74338035E-02    2     1000003        -3   # BR(~chi_40 -> ~s_L      sb)
     6.74338035E-02    2    -1000003         3   # BR(~chi_40 -> ~s_L*     s )
     1.94280429E-09    2     2000003        -3   # BR(~chi_40 -> ~s_R      sb)
     1.94280429E-09    2    -2000003         3   # BR(~chi_40 -> ~s_R*     s )
     1.49188368E-01    2     1000006        -6   # BR(~chi_40 -> ~t_1      tb)
     1.49188368E-01    2    -1000006         6   # BR(~chi_40 -> ~t_1*     t )
     2.94492422E-02    2     1000005        -5   # BR(~chi_40 -> ~b_1      bb)
     2.94492422E-02    2    -1000005         5   # BR(~chi_40 -> ~b_1*     b )
     3.25363170E-02    2     2000005        -5   # BR(~chi_40 -> ~b_2      bb)
     3.25363170E-02    2    -2000005         5   # BR(~chi_40 -> ~b_2*     b )
     5.65813725E-08    2     1000011       -11   # BR(~chi_40 -> ~e_L-     e+)
     5.65813725E-08    2    -1000011        11   # BR(~chi_40 -> ~e_L+     e-)
     1.46812235E-14    2     2000011       -11   # BR(~chi_40 -> ~e_R-     e+)
     1.46812235E-14    2    -2000011        11   # BR(~chi_40 -> ~e_R+     e-)
     5.65813725E-08    2     1000013       -13   # BR(~chi_40 -> ~mu_L-    mu+)
     5.65813725E-08    2    -1000013        13   # BR(~chi_40 -> ~mu_L+    mu-)
     1.46812235E-14    2     2000013       -13   # BR(~chi_40 -> ~mu_R-    mu+)
     1.46812235E-14    2    -2000013        13   # BR(~chi_40 -> ~mu_R+    mu-)
     2.75908375E-08    2     1000015       -15   # BR(~chi_40 -> ~tau_1-   tau+)
     2.75908375E-08    2    -1000015        15   # BR(~chi_40 -> ~tau_1+   tau-)
     2.88979657E-08    2     2000015       -15   # BR(~chi_40 -> ~tau_2-   tau+)
     2.88979657E-08    2    -2000015        15   # BR(~chi_40 -> ~tau_2+   tau-)
     5.66563983E-08    2     1000012       -12   # BR(~chi_40 -> ~nu_eL    nu_eb)
     5.66563983E-08    2    -1000012        12   # BR(~chi_40 -> ~nu_eL*   nu_e )
     5.66563983E-08    2     1000014       -14   # BR(~chi_40 -> ~nu_muL   nu_mub)
     5.66563983E-08    2    -1000014        14   # BR(~chi_40 -> ~nu_muL*  nu_mu )
     5.66563983E-08    2     1000016       -16   # BR(~chi_40 -> ~nu_tau1  nu_taub)
     5.66563983E-08    2    -1000016        16   # BR(~chi_40 -> ~nu_tau1* nu_tau )
     5.77848212E-04    2     1000039        22   # BR(~chi_40 -> ~G        gam)
     2.91721095E-03    2     1000039        23   # BR(~chi_40 -> ~G        Z)
     2.56217109E-05    2     1000039        25   # BR(~chi_40 -> ~G        h)
     1.15285013E-03    2     1000039        35   # BR(~chi_40 -> ~G        H)
     4.52900170E-05    2     1000039        36   # BR(~chi_40 -> ~G        A)
#
#
#
#
