#
#                              ======================
#                              | THE SUSYHIT OUTPUT |
#                              ======================
#
#
#              ------------------------------------------------------
#              |     This is the output of the SUSY-HIT package     |
#              |  created by A.Djouadi, M.Muehlleitner and M.Spira. |
#              |  In case of problems with SUSY-HIT email to        |
#              |           margarete.muehlleitner@cern.ch           |
#              |           michael.spira@psi.ch                     |
#              |           abdelhak.djouadi@cern.ch                 |
#              ------------------------------------------------------
#
#              ------------------------------------------------------
#              |  SUSY Les Houches Accord - MSSM Spectrum + Decays  |
#              |              based on the decay programs           |
#              |                                                    |
#              |                     SDECAY 1.3b                    |
#              |                                                    |
#              |  Authors: M.Muhlleitner, A.Djouadi and Y.Mambrini  |
#              |  Ref.:    Comput.Phys.Commun.168(2005)46           |
#              |           [hep-ph/0311167]                         |
#              |                                                    |
#              |                     HDECAY 3.4                     |
#              |                                                    |
#              |  By: A.Djouadi,J.Kalinowski,M.Muhlleitner,M.Spira  |
#              |  Ref.:    Comput.Phys.Commun.108(1998)56           |
#              |           [hep-ph/9704448]                         |
#              |                                                    |
#              |                                                    |
#              |  If not stated otherwise all DRbar couplings and   |
#              |  soft SUSY breaking masses are given at the scale  |
#              |  Q=  0.91187600E+02
#              |                                                    |
#              ------------------------------------------------------
#
#
BLOCK DCINFO  # Decay Program information
     1   SDECAY/HDECAY # decay calculator
     2   1.3b  /3.4    # version number
#
BLOCK SPINFO  # Spectrum calculator information
     1   SuSpect     # RGE +Spectrum calculator            
     2   2.41         # version number                     
#
BLOCK MODSEL  # Model selection
     1     0   # #general MSSM low scale                           
#
BLOCK SMINPUTS  # Standard Model inputs
         1     1.27934000E+02   # alpha_em^-1(M_Z)^MSbar
         2     1.16639000E-05   # G_F [GeV^-2]
         3     1.17200000E-01   # alpha_S(M_Z)^MSbar
         4     9.11870000E+01   # M_Z pole mass
         5     4.25000000E+00   # mb(mb)^MSbar
         6     1.72500000E+02   # mt pole mass
         7     1.77700000E+00   # mtau pole mass
#
BLOCK MINPAR  # Input parameters - minimal models
#
BLOCK EXTPAR  # Input parameters - non-minimal models
         0     9.11876000E+01   # EWSB                
         1     5.00000000E+01   # M_1                 
         2     1.00000000E+05   # M_2                 
         3     1.00000000E+05   # M_3                 
        11     0.00000000E+00   # A_t                 
        12     0.00000000E+00   # A_b                 
        13     0.00000000E+00   # A_tau               
        14     0.00000000E+00   # A_u                 
        15     0.00000000E+00   # A_d                 
        16     0.00000000E+00   # A_e                 
        23     3.50000000E+03   # mu(EWSB)            
        25     1.50000000E+00   # tanbeta(in)         
        26     2.00000000E+03   # MA_pole             
        31     1.00000000E+05   # M_eL                
        32     1.00000000E+05   # M_muL               
        33     1.00000000E+05   # M_tauL              
        34     1.00000000E+05   # M_eR                
        35     1.00000000E+05   # M_muR               
        36     1.00000000E+05   # M_tauR              
        41     1.00000000E+03   # M_q1L               
        42     1.00000000E+03   # M_q2L               
        43     1.00000000E+03   # M_q3L               
        44     1.00000000E+05   # M_uR                
        45     1.00000000E+05   # M_cR                
        46     1.00000000E+05   # M_tR                
        47     1.00000000E+03   # M_dR                
        48     1.00000000E+03   # M_sR                
        49     1.00000000E+03   # M_bR                
#
BLOCK MASS  # Mass Spectrum
# PDG code           mass       particle
        24     8.05807132E+01   # W+
        25     1.25000000E+02   # h
        35     2.00386980E+03   # H
        36     2.00000000E+03   # A
        37     2.02368020E+03   # H+
         5     4.87877839E+00   # b-quark pole mass calculated from mb(mb)_Msbar
   1000001     1.00066598E+03   # ~d_L
   2000001     1.00012796E+03   # ~d_R
   1000002     9.99461620E+02   # ~u_L
   2000002     9.99999974E+04   # ~u_R
   1000003     1.00066598E+03   # ~s_L
   2000003     1.00012796E+03   # ~s_R
   1000004     9.99461620E+02   # ~c_L
   2000004     9.99999974E+04   # ~c_R
   1000005     9.93601588E+02   # ~b_1
   2000005     1.00715318E+03   # ~b_2
   1000006     1.01027371E+03   # ~t_1
   2000006     1.00000106E+05   # ~t_2
   1000011     1.00000004E+05   # ~e_L
   2000011     1.00000004E+05   # ~e_R
   1000012     9.99999921E+04   # ~nu_eL
   1000013     1.00000004E+05   # ~mu_L
   2000013     1.00000004E+05   # ~mu_R
   1000014     9.99999921E+04   # ~nu_muL
   1000015     9.99999574E+04   # ~tau_1
   2000015     1.00000051E+05   # ~tau_2
   1000016     9.99999921E+04   # ~nu_tauL
   1000021     1.00000000E+05   # ~g
   1000022     4.94653397E+01   # ~chi_10
   1000023    -3.50002396E+03   # ~chi_20
   1000025     3.50049388E+03   # ~chi_30
   1000035     1.00000065E+05   # ~chi_40
   1000024     3.49993992E+03   # ~chi_1+
   1000037     1.00000065E+05   # ~chi_2+
   1000039     1.00000000E-09   # ~gravitino
#
BLOCK NMIX  # Neutralino Mixing Matrix
  1  1     9.99916352E-01   # N_11
  1  2    -9.47419816E-06   # N_12
  1  3     1.07230815E-02   # N_13
  1  4    -7.23212815E-03   # N_14
  2  1     2.46845533E-03   # N_21
  2  2    -1.49969191E-04   # N_22
  2  3    -7.07092519E-01   # N_23
  2  4    -7.07116719E-01   # N_24
  3  1     1.26962561E-02   # N_31
  3  2     8.04114308E-04   # N_32
  3  3    -7.07039583E-01   # N_33
  3  4     7.07059536E-01   # N_34
  4  1     3.65644515E-07   # N_41
  4  2    -9.99999665E-01   # N_42
  4  3    -4.62600299E-04   # N_43
  4  4     6.74671155E-04   # N_44
#
BLOCK UMIX  # Chargino Mixing Matrix U
  1  1    -6.54215411E-04   # U_11
  1  2     9.99999786E-01   # U_12
  2  1     9.99999786E-01   # U_21
  2  2     6.54215411E-04   # U_22
#
BLOCK VMIX  # Chargino Mixing Matrix V
  1  1    -9.54129012E-04   # V_11
  1  2     9.99999545E-01   # V_12
  2  1     9.99999545E-01   # V_21
  2  2     9.54129012E-04   # V_22
#
BLOCK STOPMIX  # Stop Mixing Matrix
  1  1     9.99999999E-01   # cos(theta_t)
  1  2     4.47213589E-05   # sin(theta_t)
  2  1    -4.47213589E-05   # -sin(theta_t)
  2  2     9.99999999E-01   # cos(theta_t)
#
BLOCK SBOTMIX  # Sbottom Mixing Matrix
  1  1     6.92927662E-01   # cos(theta_b)
  1  2     7.21007112E-01   # sin(theta_b)
  2  1    -7.21007112E-01   # -sin(theta_b)
  2  2     6.92927662E-01   # cos(theta_b)
#
BLOCK STAUMIX  # Stau Mixing Matrix
  1  1     7.06104407E-01   # cos(theta_tau)
  1  2     7.08107736E-01   # sin(theta_tau)
  2  1    -7.08107736E-01   # -sin(theta_tau)
  2  2     7.06104407E-01   # cos(theta_tau)
#
BLOCK ALPHA  # Higgs mixing
          -5.90225232E-01   # Mixing angle in the neutral Higgs boson sector
#
BLOCK HMIX Q=  9.11876000E+01  # DRbar Higgs Parameters
         1     3.50000000E+03   # mu(Q)               
         2     1.49999982E+00   # tanbeta(Q)          
         3     2.54849790E+02   # vev(Q)              
         4    -6.84496613E+07   # MA^2(Q)             
#
BLOCK GAUGE Q=  9.11876000E+01  # The gauge couplings
     1     3.50633379E-01   # gprime(Q) DRbar
     2     6.21068068E-01   # g(Q) DRbar
     3     1.02926405E+00   # g3(Q) DRbar
#
BLOCK AU Q=  9.11876000E+01  # The trilinear couplings
  1  1     0.00000000E+00   # A_u(Q) DRbar
  2  2     0.00000000E+00   # A_c(Q) DRbar
  3  3     0.00000000E+00   # A_t(Q) DRbar
#
BLOCK AD Q=  9.11876000E+01  # The trilinear couplings
  1  1     0.00000000E+00   # A_d(Q) DRbar
  2  2     0.00000000E+00   # A_s(Q) DRbar
  3  3     0.00000000E+00   # A_b(Q) DRbar
#
BLOCK AE Q=  9.11876000E+01  # The trilinear couplings
  1  1     0.00000000E+00   # A_e(Q) DRbar
  2  2     0.00000000E+00   # A_mu(Q) DRbar
  3  3     0.00000000E+00   # A_tau(Q) DRbar
#
BLOCK Yu Q=  9.11876000E+01  # The Yukawa couplings
  1  1     0.00000000E+00   # y_u(Q) DRbar
  2  2     0.00000000E+00   # y_c(Q) DRbar
  3  3     9.83385239E-01   # y_t(Q) DRbar
#
BLOCK Yd Q=  9.11876000E+01  # The Yukawa couplings
  1  1     0.00000000E+00   # y_d(Q) DRbar
  2  2     0.00000000E+00   # y_s(Q) DRbar
  3  3     2.58121843E-02   # y_b(Q) DRbar
#
BLOCK Ye Q=  9.11876000E+01  # The Yukawa couplings
  1  1     0.00000000E+00   # y_e(Q) DRbar
  2  2     0.00000000E+00   # y_mu(Q) DRbar
  3  3     1.77401944E-02   # y_tau(Q) DRbar
#
BLOCK MSOFT Q=  9.11876000E+01  # The soft SUSY breaking masses at the scale Q
         1     5.00000000E+01   # M_1                 
         2     1.00000000E+05   # M_2                 
         3     1.00000000E+05   # M_3                 
        14     0.00000000E+00   # A_u                 
        15     0.00000000E+00   # A_d                 
        16     0.00000000E+00   # A_e                 
        21     6.34931930E+08   # M^2_Hd              
        22    -1.14415620E+09   # M^2_Hu              
        31     1.00000000E+05   # M_eL                
        32     1.00000000E+05   # M_muL               
        33     1.00000000E+05   # M_tauL              
        34     1.00000000E+05   # M_eR                
        35     1.00000000E+05   # M_muR               
        36     1.00000000E+05   # M_tauR              
        41     1.00000000E+03   # M_q1L               
        42     1.00000000E+03   # M_q2L               
        43     1.00000000E+03   # M_q3L               
        44     1.00000000E+05   # M_uR                
        45     1.00000000E+05   # M_cR                
        46     1.00000000E+05   # M_tR                
        47     1.00000000E+03   # M_dR                
        48     1.00000000E+03   # M_sR                
        49     1.00000000E+03   # M_bR                
#
#
#
#                             =================
#                             |The decay table|
#                             =================
#
# - The QCD corrections to the decays gluino -> squark  + quark
#                                     squark -> gaugino + quark_prime
#                                     squark -> squark_prime + Higgs
#                                     squark -> gluino  + quark
#   are included.
#
# - The multi-body decays for the inos, stops and sbottoms are included.
#
# - The loop induced decays for the gluino, neutralinos and stops
#   are included.
#
# - The SUSY decays of the top quark are included.
#
# - Possible decays of the NLSP in GMSB models are included.
#
#
#         PDG            Width
DECAY         6     1.33141339E+00   # top decays
#          BR         NDA      ID1       ID2
     1.00000000E+00    2           5        24   # BR(t ->  b    W+)
#
#         PDG            Width
DECAY   1000021     1.E-04   # gluino decays (OJ Mods)
#          BR         NDA      ID1       ID2
     7.69989407E-04    2     1000001        -1   # BR(~g -> ~d_L  db)
     7.69989407E-04    2    -1000001         1   # BR(~g -> ~d_L* d )
     7.69989573E-04    2     2000001        -1   # BR(~g -> ~d_R  db)
     7.69989573E-04    2    -2000001         1   # BR(~g -> ~d_R* d )
     7.69989778E-04    2     1000002        -2   # BR(~g -> ~u_L  ub)
     7.69989778E-04    2    -1000002         2   # BR(~g -> ~u_L* u )
     2.08246834E-18    2     2000002        -2   # BR(~g -> ~u_R  ub)
     2.08246834E-18    2    -2000002         2   # BR(~g -> ~u_R* u )
     7.69989407E-04    2     1000003        -3   # BR(~g -> ~s_L  sb)
     7.69989407E-04    2    -1000003         3   # BR(~g -> ~s_L* s )
     7.69989573E-04    2     2000003        -3   # BR(~g -> ~s_R  sb)
     7.69989573E-04    2    -2000003         3   # BR(~g -> ~s_R* s )
     7.69989778E-04    2     1000004        -4   # BR(~g -> ~c_L  cb)
     7.69989778E-04    2    -1000004         4   # BR(~g -> ~c_L* c )
     2.08246834E-18    2     2000004        -4   # BR(~g -> ~c_R  cb)
     2.08246834E-18    2    -2000004         4   # BR(~g -> ~c_R* c )
     2.42641603E-01    2     1000005        -5   # BR(~g -> ~b_1  bb)
     2.42641603E-01    2    -1000005         5   # BR(~g -> ~b_1* b )
     2.41229917E-01    2     2000005        -5   # BR(~g -> ~b_2  bb)
     2.41229917E-01    2    -2000005         5   # BR(~g -> ~b_2* b )
     7.57684737E-04    2     1000006        -6   # BR(~g -> ~t_1  tb)
     7.57684737E-04    2    -1000006         6   # BR(~g -> ~t_1* t )
     2.15017159E-02    2     1000039        21   # BR(~g -> ~G g)
#
#         PDG            Width
DECAY   1000006     1.58840190E-01   # stop1 decays
#          BR         NDA      ID1       ID2
     1.00000000E+00    2     1000022         6   # BR(~t_1 -> ~chi_10 t )
#
#         PDG            Width
DECAY   2000006     2.19503552E+05   # stop2 decays
#          BR         NDA      ID1       ID2
     9.50087566E-04    2     1000022         6   # BR(~t_2 -> ~chi_10 t )
     2.25674649E-03    2     1000023         6   # BR(~t_2 -> ~chi_20 t )
     2.25649496E-03    2     1000025         6   # BR(~t_2 -> ~chi_30 t )
     9.94617369E-01    2     1000024         5   # BR(~t_2 -> ~chi_1+ b )
    -6.25276017E-05    2     1000006        25   # BR(~t_2 -> ~t_1    h )
     6.54270390E-05    2     1000006        35   # BR(~t_2 -> ~t_1    H )
     6.53160613E-05    2     1000006        36   # BR(~t_2 -> ~t_1    A )
     6.15045634E-05    2     1000005        37   # BR(~t_2 -> ~b_1    H+)
     6.91224056E-05    2     2000005        37   # BR(~t_2 -> ~b_2    H+)
    -4.49710495E-05    2     1000006        23   # BR(~t_2 -> ~t_1    Z )
    -1.12630614E-04    2     1000005        24   # BR(~t_2 -> ~b_1    W+)
    -1.21938924E-04    2     2000005        24   # BR(~t_2 -> ~b_2    W+)
#
#         PDG            Width
DECAY   1000005     4.48508055E+01   # sbottom1 decays
#          BR         NDA      ID1       ID2
     1.00000000E+00    2     1000022         5   # BR(~b_1 -> ~chi_10 b )
#
#         PDG            Width
DECAY   2000005     4.26222448E+01   # sbottom2 decays
#          BR         NDA      ID1       ID2
     1.00000000E+00    2     1000022         5   # BR(~b_2 -> ~chi_10 b )
#
#         PDG            Width
DECAY   1000002     1.64834532E-01   # sup_L decays
#          BR         NDA      ID1       ID2
     1.00000000E+00    2     1000022         2   # BR(~u_L -> ~chi_10 u)
#
#         PDG            Width
DECAY   2000002     2.08353351E+02   # sup_R decays
#          BR         NDA      ID1       ID2
     9.99832886E-01    2     1000022         2   # BR(~u_R -> ~chi_10 u)
     6.08693635E-06    2     1000023         2   # BR(~u_R -> ~chi_20 u)
     1.61027253E-04    2     1000025         2   # BR(~u_R -> ~chi_30 u)
#
#         PDG            Width
DECAY   1000001     1.65059337E-01   # sdown_L decays
#          BR         NDA      ID1       ID2
     1.00000000E+00    2     1000022         1   # BR(~d_L -> ~chi_10 d)
#
#         PDG            Width
DECAY   2000001     6.59828528E-01   # sdown_R decays
#          BR         NDA      ID1       ID2
     1.00000000E+00    2     1000022         1   # BR(~d_R -> ~chi_10 d)
#
#         PDG            Width
DECAY   1000004     1.64834532E-01   # scharm_L decays
#          BR         NDA      ID1       ID2
     1.00000000E+00    2     1000022         4   # BR(~c_L -> ~chi_10 c)
#
#         PDG            Width
DECAY   2000004     2.08353351E+02   # scharm_R decays
#          BR         NDA      ID1       ID2
     9.99832886E-01    2     1000022         4   # BR(~c_R -> ~chi_10 c)
     6.08693635E-06    2     1000023         4   # BR(~c_R -> ~chi_20 c)
     1.61027253E-04    2     1000025         4   # BR(~c_R -> ~chi_30 c)
#
#         PDG            Width
DECAY   1000003     1.65059337E-01   # sstrange_L decays
#          BR         NDA      ID1       ID2
     1.00000000E+00    2     1000022         3   # BR(~s_L -> ~chi_10 s)
#
#         PDG            Width
DECAY   2000003     6.59828528E-01   # sstrange_R decays
#          BR         NDA      ID1       ID2
     1.00000000E+00    2     1000022         3   # BR(~s_R -> ~chi_10 s)
#
#         PDG            Width
DECAY   1000011     1.22295053E+02   # selectron_L decays
#          BR         NDA      ID1       ID2
     9.99793580E-01    2     1000022        11   # BR(~e_L -> ~chi_10 e-)
     4.84050425E-06    2     1000023        11   # BR(~e_L -> ~chi_20 e-)
     1.98900958E-04    2     1000025        11   # BR(~e_L -> ~chi_30 e-)
     2.67902384E-06    2    -1000024        12   # BR(~e_L -> ~chi_1- nu_e)
#
#         PDG            Width
DECAY   2000011     4.89177283E+02   # selectron_R decays
#          BR         NDA      ID1       ID2
     9.99833121E-01    2     1000022        11   # BR(~e_R -> ~chi_10 e-)
     6.07835761E-06    2     1000023        11   # BR(~e_R -> ~chi_20 e-)
     1.60800267E-04    2     1000025        11   # BR(~e_R -> ~chi_30 e-)
#
#         PDG            Width
DECAY   1000013     1.22295053E+02   # smuon_L decays
#          BR         NDA      ID1       ID2
     9.99793580E-01    2     1000022        13   # BR(~mu_L -> ~chi_10 mu-)
     4.84050425E-06    2     1000023        13   # BR(~mu_L -> ~chi_20 mu-)
     1.98900958E-04    2     1000025        13   # BR(~mu_L -> ~chi_30 mu-)
     2.67902384E-06    2    -1000024        14   # BR(~mu_L -> ~chi_1- nu_mu)
#
#         PDG            Width
DECAY   2000013     4.89177283E+02   # smuon_R decays
#          BR         NDA      ID1       ID2
     9.99833121E-01    2     1000022        13   # BR(~mu_R -> ~chi_10 mu-)
     6.07835761E-06    2     1000023        13   # BR(~mu_R -> ~chi_20 mu-)
     1.60800267E-04    2     1000025        13   # BR(~mu_R -> ~chi_30 mu-)
#
#         PDG            Width
DECAY   1000015     1.18201350E+04   # stau_1 decays
#          BR         NDA      ID1       ID2
     2.59130813E-02    2     1000022        15   # BR(~tau_1 -> ~chi_10  tau-)
     2.51422041E-05    2     1000023        15   # BR(~tau_1 -> ~chi_20  tau-)
     2.48921112E-05    2     1000025        15   # BR(~tau_1 -> ~chi_30  tau-)
     2.77186723E-05    2    -1000024        16   # BR(~tau_1 -> ~chi_1-  nu_tau)
     9.74009166E-01    2     1000039        15   # BR(~tau_1 -> ~G       tau-)
#
#         PDG            Width
DECAY   2000015     3.06130880E+02   # stau_2 decays
#          BR         NDA      ID1       ID2
     9.96532865E-01    2     1000022        15   # BR(~tau_2 -> ~chi_10  tau-)
     1.08100001E-03    2     1000023        15   # BR(~tau_2 -> ~chi_20  tau-)
     1.41511055E-03    2     1000025        15   # BR(~tau_2 -> ~chi_30  tau-)
     9.71024426E-04    2    -1000024        16   # BR(~tau_2 -> ~chi_1-  nu_tau)
#
#         PDG            Width
DECAY   1000012     1.22295111E+02   # snu_eL decays
#          BR         NDA      ID1       ID2
     9.99860100E-01    2     1000022        12   # BR(~nu_eL -> ~chi_10 nu_e)
     7.45691315E-06    2     1000023        12   # BR(~nu_eL -> ~chi_20 nu_e)
     1.26744921E-04    2     1000025        12   # BR(~nu_eL -> ~chi_30 nu_e)
     5.69834817E-06    2     1000024        11   # BR(~nu_eL -> ~chi_1+ e-)
#
#         PDG            Width
DECAY   1000014     1.22295111E+02   # snu_muL decays
#          BR         NDA      ID1       ID2
     9.99860100E-01    2     1000022        14   # BR(~nu_muL -> ~chi_10 nu_mu)
     7.45691315E-06    2     1000023        14   # BR(~nu_muL -> ~chi_20 nu_mu)
     1.26744921E-04    2     1000025        14   # BR(~nu_muL -> ~chi_30 nu_mu)
     5.69834817E-06    2     1000024        13   # BR(~nu_muL -> ~chi_1+ mu-)
#
#         PDG            Width
DECAY   1000016     1.22919683E+02   # snu_tauL decays
#          BR         NDA      ID1       ID2
     9.94779678E-01    2     1000022        16   # BR(~nu_tauL -> ~chi_10 nu_tau)
     7.41902358E-06    2     1000023        16   # BR(~nu_tauL -> ~chi_20 nu_tau)
     1.26100913E-04    2     1000025        16   # BR(~nu_tauL -> ~chi_30 nu_tau)
     5.08680248E-03    2     1000024        15   # BR(~nu_tauL -> ~chi_1+ tau-)
#
#         PDG            Width
DECAY   1000024     8.00960500E+01   # chargino1+ decays
#          BR         NDA      ID1       ID2
     4.51397770E-07    2     1000002        -1   # BR(~chi_1+ -> ~u_L     db)
     2.12134953E-07    2    -1000001         2   # BR(~chi_1+ -> ~d_L*    u )
     4.51397770E-07    2     1000004        -3   # BR(~chi_1+ -> ~c_L     sb)
     2.12134953E-07    2    -1000003         4   # BR(~chi_1+ -> ~s_L*    c )
     9.69658820E-02    2     1000006        -5   # BR(~chi_1+ -> ~t_1     bb)
     6.38038882E-02    2    -1000005         6   # BR(~chi_1+ -> ~b_1*    t )
     8.01414748E-01    2    -2000005         6   # BR(~chi_1+ -> ~b_2*    t )
     2.64388294E-02    2     1000022        24   # BR(~chi_1+ -> ~chi_10  W+)
     1.13708180E-02    2     1000022        37   # BR(~chi_1+ -> ~chi_10  H+)
     3.76667479E-06    2     1000039        24   # BR(~chi_1+ -> ~G       W+)
     7.41152586E-07    2     1000039        37   # BR(~chi_1+ -> ~G       H+)
#
#         PDG            Width
DECAY   1000037     1.38835444E+05   # chargino2+ decays
#          BR         NDA      ID1       ID2
     7.33767230E-03    2     1000002        -1   # BR(~chi_2+ -> ~u_L     db)
     7.33767546E-03    2    -1000001         2   # BR(~chi_2+ -> ~d_L*    u )
     7.33767230E-03    2     1000004        -3   # BR(~chi_2+ -> ~c_L     sb)
     7.33767546E-03    2    -1000003         4   # BR(~chi_2+ -> ~s_L*    c )
     8.75390507E-01    2     1000006        -5   # BR(~chi_2+ -> ~t_1     bb)
     1.56746464E-03    2    -1000005         6   # BR(~chi_2+ -> ~b_1*    t )
     7.01763369E-03    2    -2000005         6   # BR(~chi_2+ -> ~b_2*    t )
     5.42492578E-15    2     1000012       -11   # BR(~chi_2+ -> ~nu_eL   e+  )
     5.42492578E-15    2     1000014       -13   # BR(~chi_2+ -> ~nu_muL  mu+ )
     3.79838232E-15    2    -1000011        12   # BR(~chi_2+ -> ~e_L+    nu_e)
     3.79838232E-15    2    -1000013        14   # BR(~chi_2+ -> ~mu_L+   nu_mu)
     5.89230084E-15    2    -1000015        16   # BR(~chi_2+ -> ~tau_1+  nu_tau)
     1.00325225E-16    2    -2000015        16   # BR(~chi_2+ -> ~tau_2+  nu_tau)
     1.34923460E-03    2     1000024        23   # BR(~chi_2+ -> ~chi_1+  Z )
     1.63051279E-07    2     1000022        24   # BR(~chi_2+ -> ~chi_10  W+)
     1.31019702E-03    2     1000023        24   # BR(~chi_2+ -> ~chi_20  W+)
     1.31002014E-03    2     1000025        24   # BR(~chi_2+ -> ~chi_30  W+)
     1.35848703E-03    2     1000024        25   # BR(~chi_2+ -> ~chi_1+  h )
     1.19250506E-03    2     1000024        35   # BR(~chi_2+ -> ~chi_1+  H )
     1.19265781E-03    2     1000024        36   # BR(~chi_2+ -> ~chi_1+  A )
     2.29879433E-07    2     1000022        37   # BR(~chi_2+ -> ~chi_10  H+)
     1.19261103E-03    2     1000023        37   # BR(~chi_2+ -> ~chi_20  H+)
     1.19243081E-03    2     1000025        37   # BR(~chi_2+ -> ~chi_30  H+)
     7.65751404E-02    2     1000039        24   # BR(~chi_2+ -> ~G       W+)
     2.20335619E-08    2     1000039        37   # BR(~chi_2+ -> ~G       H+)
#
#         PDG            Width
DECAY   1000022     1.E-08   # neutralino1 decays (OJ Mods)
#          BR         NDA      ID1       ID2
     1.00000000E+00    2     1000039        22   # BR(~chi_10 -> ~G        gam)
#
#         PDG            Width
DECAY   1000023     1.E-08   # neutralino2 decays (OJ Mods)
#          BR         NDA      ID1       ID2
     2.42124817E-02    2     1000022        23   # BR(~chi_20 -> ~chi_10   Z )
     8.99245801E-04    2     1000022        25   # BR(~chi_20 -> ~chi_10   h )
     1.02678907E-02    2     1000022        35   # BR(~chi_20 -> ~chi_10   H )
     4.47791365E-04    2     1000022        36   # BR(~chi_20 -> ~chi_10   A )
     2.59080316E-08    2     1000002        -2   # BR(~chi_20 -> ~u_L      ub)
     2.59080316E-08    2    -1000002         2   # BR(~chi_20 -> ~u_L*     u )
     9.88315688E-08    2     1000001        -1   # BR(~chi_20 -> ~d_L      db)
     9.88315688E-08    2    -1000001         1   # BR(~chi_20 -> ~d_L*     d )
     2.25952338E-07    2     2000001        -1   # BR(~chi_20 -> ~d_R      db)
     2.25952338E-07    2    -2000001         1   # BR(~chi_20 -> ~d_R*     d )
     2.59080316E-08    2     1000004        -4   # BR(~chi_20 -> ~c_L      cb)
     2.59080316E-08    2    -1000004         4   # BR(~chi_20 -> ~c_L*     c )
     9.88315688E-08    2     1000003        -3   # BR(~chi_20 -> ~s_L      sb)
     9.88315688E-08    2    -1000003         3   # BR(~chi_20 -> ~s_L*     s )
     2.25952338E-07    2     2000003        -3   # BR(~chi_20 -> ~s_R      sb)
     2.25952338E-07    2    -2000003         3   # BR(~chi_20 -> ~s_R*     s )
     3.98614341E-01    2     1000006        -6   # BR(~chi_20 -> ~t_1      tb)
     3.98614341E-01    2    -1000006         6   # BR(~chi_20 -> ~t_1*     t )
     4.00094382E-02    2     1000005        -5   # BR(~chi_20 -> ~b_1      bb)
     4.00094382E-02    2    -1000005         5   # BR(~chi_20 -> ~b_1*     b )
     4.34598108E-02    2     2000005        -5   # BR(~chi_20 -> ~b_2      bb)
     4.34598108E-02    2    -2000005         5   # BR(~chi_20 -> ~b_2*     b )
     3.00224722E-11    2     1000039        22   # BR(~chi_20 -> ~G        gam)
     1.33658833E-07    2     1000039        23   # BR(~chi_20 -> ~G        Z)
     3.33558491E-06    2     1000039        25   # BR(~chi_20 -> ~G        h)
     2.67482648E-08    2     1000039        35   # BR(~chi_20 -> ~G        H)
     6.89100179E-07    2     1000039        36   # BR(~chi_20 -> ~G        A)
#
#         PDG            Width
DECAY   1000025     8.69145359E+01   # neutralino3 decays
#          BR         NDA      ID1       ID2
     9.14160651E-04    2     1000022        23   # BR(~chi_30 -> ~chi_10   Z )
     2.42954457E-02    2     1000022        25   # BR(~chi_30 -> ~chi_10   h )
     4.35679612E-04    2     1000022        35   # BR(~chi_30 -> ~chi_10   H )
     1.02834252E-02    2     1000022        36   # BR(~chi_30 -> ~chi_10   A )
     2.66667938E-06    2     1000002        -2   # BR(~chi_30 -> ~u_L      ub)
     2.66667938E-06    2    -1000002         2   # BR(~chi_30 -> ~u_L*     u )
     6.56827507E-07    2     1000001        -1   # BR(~chi_30 -> ~d_L      db)
     6.56827507E-07    2    -1000001         1   # BR(~chi_30 -> ~d_L*     d )
     5.96992359E-06    2     2000001        -1   # BR(~chi_30 -> ~d_R      db)
     5.96992359E-06    2    -2000001         1   # BR(~chi_30 -> ~d_R*     d )
     2.66667938E-06    2     1000004        -4   # BR(~chi_30 -> ~c_L      cb)
     2.66667938E-06    2    -1000004         4   # BR(~chi_30 -> ~c_L*     c )
     6.56827507E-07    2     1000003        -3   # BR(~chi_30 -> ~s_L      sb)
     6.56827507E-07    2    -1000003         3   # BR(~chi_30 -> ~s_L*     s )
     5.96992359E-06    2     2000003        -3   # BR(~chi_30 -> ~s_R      sb)
     5.96992359E-06    2    -2000003         3   # BR(~chi_30 -> ~s_R*     s )
     3.98116494E-01    2     1000006        -6   # BR(~chi_30 -> ~t_1      tb)
     3.98116494E-01    2    -1000006         6   # BR(~chi_30 -> ~t_1*     t )
     3.54374448E-02    2     1000005        -5   # BR(~chi_30 -> ~b_1      bb)
     3.54374448E-02    2    -1000005         5   # BR(~chi_30 -> ~b_1*     b )
     4.84633723E-02    2     2000005        -5   # BR(~chi_30 -> ~b_2      bb)
     4.84633723E-02    2    -2000005         5   # BR(~chi_30 -> ~b_2*     b )
     9.12952993E-10    2     1000039        22   # BR(~chi_30 -> ~G        gam)
     3.33776791E-06    2     1000039        23   # BR(~chi_30 -> ~G        Z)
     1.30257164E-07    2     1000039        25   # BR(~chi_30 -> ~G        h)
     6.84276197E-07    2     1000039        35   # BR(~chi_30 -> ~G        H)
     2.75494356E-08    2     1000039        36   # BR(~chi_30 -> ~G        A)
#
#         PDG            Width
DECAY   1000035     1.38836015E+05   # neutralino4 decays
#          BR         NDA      ID1       ID2
     1.33404743E-11    2     1000022        23   # BR(~chi_40 -> ~chi_10   Z )
     1.30389170E-03    2     1000023        23   # BR(~chi_40 -> ~chi_20   Z )
     4.53388249E-05    2     1000025        23   # BR(~chi_40 -> ~chi_30   Z )
     1.31018396E-03    2     1000024       -24   # BR(~chi_40 -> ~chi_1+   W-)
     1.31018396E-03    2    -1000024        24   # BR(~chi_40 -> ~chi_1-   W+)
     1.69348557E-07    2     1000022        25   # BR(~chi_40 -> ~chi_10   h )
     3.03786819E-08    2     1000022        35   # BR(~chi_40 -> ~chi_10   H )
     1.99184374E-07    2     1000022        36   # BR(~chi_40 -> ~chi_10   A )
     4.46430158E-05    2     1000023        25   # BR(~chi_40 -> ~chi_20   h )
     1.14117682E-03    2     1000023        35   # BR(~chi_40 -> ~chi_20   H )
     5.24583769E-05    2     1000023        36   # BR(~chi_40 -> ~chi_20   A )
     1.31367090E-03    2     1000025        25   # BR(~chi_40 -> ~chi_30   h )
     5.12918524E-05    2     1000025        35   # BR(~chi_40 -> ~chi_30   H )
     1.13999570E-03    2     1000025        36   # BR(~chi_40 -> ~chi_30   A )
     1.19263208E-03    2     1000024       -37   # BR(~chi_40 -> ~chi_1+   H-)
     1.19263208E-03    2    -1000024        37   # BR(~chi_40 -> ~chi_1-   H+)
     3.51043321E-03    2     1000002        -2   # BR(~chi_40 -> ~u_L      ub)
     3.51043321E-03    2    -1000002         2   # BR(~chi_40 -> ~u_L*     u )
     5.61139987E-23    2     2000002        -2   # BR(~chi_40 -> ~u_R      ub)
     5.61139987E-23    2    -2000002         2   # BR(~chi_40 -> ~u_R*     u )
     3.51043564E-03    2     1000001        -1   # BR(~chi_40 -> ~d_L      db)
     3.51043564E-03    2    -1000001         1   # BR(~chi_40 -> ~d_L*     d )
     6.64851857E-17    2     2000001        -1   # BR(~chi_40 -> ~d_R      db)
     6.64851857E-17    2    -2000001         1   # BR(~chi_40 -> ~d_R*     d )
     3.51043321E-03    2     1000004        -4   # BR(~chi_40 -> ~c_L      cb)
     3.51043321E-03    2    -1000004         4   # BR(~chi_40 -> ~c_L*     c )
     5.61139987E-23    2     2000004        -4   # BR(~chi_40 -> ~c_R      cb)
     5.61139987E-23    2    -2000004         4   # BR(~chi_40 -> ~c_R*     c )
     3.51043564E-03    2     1000003        -3   # BR(~chi_40 -> ~s_L      sb)
     3.51043564E-03    2    -1000003         3   # BR(~chi_40 -> ~s_L*     s )
     6.64851857E-17    2     2000003        -3   # BR(~chi_40 -> ~s_R      sb)
     6.64851857E-17    2    -2000003         3   # BR(~chi_40 -> ~s_R*     s )
     4.29250566E-03    2     1000006        -6   # BR(~chi_40 -> ~t_1      tb)
     4.29250566E-03    2    -1000006         6   # BR(~chi_40 -> ~t_1*     t )
     2.08870430E-01    2     1000005        -5   # BR(~chi_40 -> ~b_1      bb)
     2.08870430E-01    2    -1000005         5   # BR(~chi_40 -> ~b_1*     b )
     2.28825088E-01    2     2000005        -5   # BR(~chi_40 -> ~b_2      bb)
     2.28825088E-01    2    -2000005         5   # BR(~chi_40 -> ~b_2*     b )
     1.89918271E-15    2     1000011       -11   # BR(~chi_40 -> ~e_L-     e+)
     1.89918271E-15    2    -1000011        11   # BR(~chi_40 -> ~e_L+     e-)
     3.23722919E-28    2     2000011       -11   # BR(~chi_40 -> ~e_R-     e+)
     3.23722919E-28    2    -2000011        11   # BR(~chi_40 -> ~e_R+     e-)
     1.89918271E-15    2     1000013       -13   # BR(~chi_40 -> ~mu_L-    mu+)
     1.89918271E-15    2    -1000013        13   # BR(~chi_40 -> ~mu_L+    mu-)
     3.23722919E-28    2     2000013       -13   # BR(~chi_40 -> ~mu_R-    mu+)
     3.23722919E-28    2    -2000013        13   # BR(~chi_40 -> ~mu_R+    mu-)
     2.71245437E-15    2     1000012       -12   # BR(~chi_40 -> ~nu_eL    nu_eb)
     2.71245437E-15    2    -1000012        12   # BR(~chi_40 -> ~nu_eL*   nu_e )
     2.71245437E-15    2     1000014       -14   # BR(~chi_40 -> ~nu_muL   nu_mub)
     2.71245437E-15    2    -1000014        14   # BR(~chi_40 -> ~nu_muL*  nu_mu )
     2.71245437E-15    2     1000016       -16   # BR(~chi_40 -> ~nu_tau1  nu_taub)
     2.71245437E-15    2    -1000016        16   # BR(~chi_40 -> ~nu_tau1* nu_tau )
     1.85079147E-02    2     1000039        22   # BR(~chi_40 -> ~G        gam)
     5.80669302E-02    2     1000039        23   # BR(~chi_40 -> ~G        Z)
     3.51669140E-09    2     1000039        25   # BR(~chi_40 -> ~G        h)
     2.20690622E-08    2     1000039        35   # BR(~chi_40 -> ~G        H)
     4.34912578E-12    2     1000039        36   # BR(~chi_40 -> ~G        A)
#
#
#
#
