# SUSY Les Houches Accord 2 - MSSM spectrum + Decays
# SPheno v3.1.12 
# W. Porod, Comput. Phys. Commun. 153 (2003) 275-315, hep-ph/0301101
# in case of problems send email to porod@physik.uni-wuerzburg.de
# Created: 23.11.2012,  13:29
Block SPINFO         # Program information
     1   SPheno      # spectrum calculator
     2   v3.1.12     # version number
#
Block SPhenoINFO     # SPheno specific information
    1      2         # using 2-loop RGEs
    2      1         # using running masses for boundary conditions at mZ
Block MODSEL  # Model selection
    1    2    # mGMSB model
Block MINPAR  # Input parameters
    1    1.10000000E+05  # Lambda, scale of SUSY breaking
    2    2.50000000E+05  # M_M, messenger mass scale
    3    2.00000000E+01  # tanb at m_Z   
    4    1.00000000E+00  # Sign(mu)
    5    3.00000000E+00  # N_5 number of effective five-plets
    6    1.00000000E+00  # c_grav, Gravitino mass factor
Block gauge Q=  2.50000000E+05  # (GMSB scale)
   1    4.93496692E-01  # g'(Q)^DRbar
   2    6.48595988E-01  # g(Q)^DRbar
   3    9.38562659E-01  # g3(Q)^DRbar
Block SMINPUTS  # SM parameters
         1     1.27932490E+02  # alpha_em^-1(MZ)^MSbar
         2     1.16639000E-05  # G_mu [GeV^-2]
         3     1.17200000E-01  # alpha_s(MZ)^MSbar
         4     9.11876000E+01  # m_Z(pole)
         5     4.20000000E+00  # m_b(m_b), MSbar
         6     1.72500000E+02  # m_t(pole)
         7     1.77700000E+00  # m_tau(pole)
         8     0.00000000E+00  # m_nu_3
        11     5.10998910E-04  # m_e(pole)
        12     0.00000000E+00  # m_nu_1
        13     1.05658000E-01  # m_muon(pole)
        14     0.00000000E+00  # m_nu_2
        21     5.00000000E-03  # m_d(2 GeV), MSbar
        22     3.00000000E-03  # m_u(2 GeV), MSbar
        23     1.05000000E-01  # m_s(2 GeV), MSbar
        24     1.27000000E+00  # m_c(m_c), MSbar
Block gauge Q=  2.10168686E+03  # (SUSY scale)
   1    3.64655381E-01  # g'(Q)^DRbar
   2    6.39017434E-01  # g(Q)^DRbar
   3    1.02098909E+00  # g3(Q)^DRbar
Block Yu Q=  2.10168686E+03  # (SUSY scale)
  1  1     8.37682777E-06   # Y_u(Q)^DRbar
  2  2     3.54619095E-03   # Y_c(Q)^DRbar
  3  3     8.41336220E-01   # Y_t(Q)^DRbar
Block Yd Q=  2.10168686E+03  # (SUSY scale)
  1  1     2.51380312E-04   # Y_d(Q)^DRbar
  2  2     5.27898556E-03   # Y_s(Q)^DRbar
  3  3     2.50475799E-01   # Y_b(Q)^DRbar
Block Ye Q=  2.10168686E+03  # (SUSY scale)
  1  1     5.83512699E-05   # Y_e(Q)^DRbar
  2  2     1.20651719E-02   # Y_mu(Q)^DRbar
  3  3     2.03020557E-01   # Y_tau(Q)^DRbar
Block Au Q=  2.10168686E+03  # (SUSY scale)
  1  1    -6.63888358E+02   # A_u(Q)^DRbar
  2  2    -6.63887192E+02   # A_c(Q)^DRbar
  3  3    -6.25622791E+02   # A_t(Q)^DRbar
Block Ad Q=  2.10168686E+03  # (SUSY scale)
  1  1    -7.03477874E+02   # A_d(Q)^DRbar
  2  2    -7.03476134E+02   # A_s(Q)^DRbar
  3  3    -6.87968028E+02   # A_b(Q)^DRbar
Block Ae Q=  2.10168686E+03  # (SUSY scale)
  1  1    -7.43735401E+01   # A_e(Q)^DRbar
  2  2    -7.43724389E+01   # A_mu(Q)^DRbar
  3  3    -7.40619007E+01   # A_tau(Q)^DRbar
Block MSOFT Q=  2.10168686E+03  # soft SUSY breaking masses at Q
   1    4.76260452E+02  # M_1
   2    8.74546298E+02  # M_2
   3    2.24261949E+03  # M_3
  21    3.85652958E+05  # M^2_(H,d)
  22   -4.60628012E+05  # M^2_(H,u)
  31    6.86825853E+02  # M_(L,11)
  32    6.86820005E+02  # M_(L,22)
  33    6.85169916E+02  # M_(L,33)
  34    3.32514831E+02  # M_(E,11)
  35    3.32490252E+02  # M_(E,22)
  36    3.25484423E+02  # M_(E,33)
  41    2.18397893E+03  # M_(Q,11)
  42    2.18397509E+03  # M_(Q,22)
  43    2.11191161E+03  # M_(Q,33)
  44    2.09477353E+03  # M_(U,11)
  45    2.09477106E+03  # M_(U,22)
  46    1.95233820E+03  # M_(U,33)
  47    2.08610869E+03  # M_(D,11)
  48    2.08610306E+03  # M_(D,22)
  49    2.07349307E+03  # M_(D,33)
Block MASS  # Mass spectrum
#   PDG code      mass          particle
         6     1.72500000E+02  # m_t(pole)
        23     9.11876000E+01  # m_Z(pole)
        24     8.03127843E+01  # W+
        15     1.77700000E+00  # m_tau(pole)
        25     1.18905589E+02  # h0
        35     9.76826111E+02  # H0
        36     9.76722179E+02  # A0
        37     9.80434110E+02  # H+
   1000001     2.27481986E+03  # ~d_L
   2000001     2.17163451E+03  # ~d_R
   1000002     2.27342430E+03  # ~u_L
   2000002     2.17948282E+03  # ~u_R
   1000003     2.27481546E+03  # ~s_L
   2000003     2.17162739E+03  # ~s_R
   1000004     2.27341988E+03  # ~c_L
   2000004     2.17947982E+03  # ~c_R
   1000005     2.15424762E+03  # ~b_1
   2000005     2.18903632E+03  # ~b_2
   1000006     2.01158814E+03  # ~t_1
   2000006     2.19581817E+03  # ~t_2
   1000011     7.02304202E+02  # ~e_L-
   2000011     3.47049339E+02  # ~e_R-
   1000012     6.97401649E+02  # ~nu_eL
   1000013     7.02300846E+02  # ~mu_L-
   2000013     3.47008963E+02  # ~mu_R-
   1000014     6.97393368E+02  # ~nu_muL
   1000015     3.35485875E+02  # ~tau_1-
   2000015     7.01340985E+02  # ~tau_2-
   1000016     6.95062639E+02  # ~nu_tauL
   1000021     2.36165873E+03  # ~g
   1000022     4.62695774E+02  # ~chi_10
   1000023     7.35919171E+02  # ~chi_20
   1000025    -7.55807517E+02  # ~chi_30
   1000035     9.15652919E+02  # ~chi_40
   1000024     7.33925461E+02  # ~chi_1+
   1000037     9.15768990E+02  # ~chi_2+
   1000039     6.60000000E-09  # ~G
# Higgs mixing
Block alpha # Effective Higgs mixing angle
          -5.33000096E-02   # alpha
Block Hmix Q=  2.10168686E+03  # Higgs mixing parameters
   1    7.44463856E+02  # mu
   2    1.91889951E+01  # tan[beta](Q)
   3    2.43600760E+02  # v(Q)
   4    8.42859509E+05  # m^2_A(Q)
Block stopmix # stop mixing matrix
   1  1     1.52423430E-01   # Re[R_st(1,1)]
   1  2     9.88315283E-01   # Re[R_st(1,2)]
   2  1    -9.88315283E-01   # Re[R_st(2,1)]
   2  2     1.52423430E-01   # Re[R_st(2,2)]
Block sbotmix # sbottom mixing matrix
   1  1     2.42819621E-01   # Re[R_sb(1,1)]
   1  2     9.70071457E-01   # Re[R_sb(1,2)]
   2  1    -9.70071457E-01   # Re[R_sb(2,1)]
   2  2     2.42819621E-01   # Re[R_sb(2,2)]
Block staumix # stau mixing matrix
   1  1     7.05685801E-02   # Re[R_sta(1,1)]
   1  2     9.97506930E-01   # Re[R_sta(1,2)]
   2  1    -9.97506930E-01   # Re[R_sta(2,1)]
   2  2     7.05685801E-02   # Re[R_sta(2,2)]
Block Nmix # neutralino mixing matrix
   1  1    -9.92848668E-01   # Re[N(1,1)]
   1  2     1.25995911E-02   # Re[N(1,2)]
   1  3    -9.95841131E-02   # Re[N(1,3)]
   1  4     6.46202551E-02   # Re[N(1,4)]
   2  1     1.13710959E-01   # Re[N(2,1)]
   2  2     3.40513589E-01   # Re[N(2,2)]
   2  3    -6.66898894E-01   # Re[N(2,3)]
   2  4     6.52967210E-01   # Re[N(2,4)]
   3  1     2.42663369E-02   # Re[N(3,1)]
   3  2    -3.21741057E-02   # Re[N(3,2)]
   3  3    -7.05283564E-01   # Re[N(3,3)]
   3  4    -7.07778967E-01   # Re[N(3,4)]
   4  1    -2.70644645E-02   # Re[N(4,1)]
   4  2     9.39604477E-01   # Re[N(4,2)]
   4  3     2.18869740E-01   # Re[N(4,3)]
   4  4    -2.61738379E-01   # Re[N(4,4)]
Block Umix # chargino mixing matrix
   1  1    -3.08804886E-01   # Re[U(1,1)]
   1  2     9.51125408E-01   # Re[U(1,2)]
   2  1     9.51125408E-01   # Re[U(2,1)]
   2  2     3.08804886E-01   # Re[U(2,2)]
Block Vmix # chargino mixing matrix
   1  1    -3.69238146E-01   # Re[V(1,1)]
   1  2     9.29334811E-01   # Re[V(1,2)]
   2  1     9.29334811E-01   # Re[V(2,1)]
   2  2     3.69238146E-01   # Re[V(2,2)]
DECAY   2000011     5.01851335E-10   # ~e^-_R
#    BR                NDA      ID1      ID2
     2.63903883E-01    2     1000039        11   # BR(~e^-_R -> ~G e^-)
#    BR                NDA      ID1      ID2       ID3
     1.71719258E-01    3     1000015        11       -15   # BR(~e^-_R -> ~tau^-_1 e^- tau^+)
     5.64376859E-01    3    -1000015        11        15   # BR(~e^-_R -> ~tau^+_1 e^- tau^-)
DECAY   1000011     2.80399833E-01   # ~e^-_L
#    BR                NDA      ID1      ID2
     9.99999851E-01    2     1000022        11   # BR(~e^-_L -> chi^0_1 e^-)
     6.54570757E-08    2     2000011        23   # BR(~e^-_L -> ~e^-_R Z)
     6.79246511E-08    2     2000011        25   # BR(~e^-_L -> ~e^-_R h^0)
     1.60292551E-08    2     1000039        11   # BR(~e^-_L -> ~G e^-)
DECAY   2000013     4.95087332E-10   # ~mu^-_R
#    BR                NDA      ID1      ID2
     2.67353728E-01    2     1000039        13   # BR(~mu^-_R -> ~G mu^-)
#    BR                NDA      ID1      ID2       ID3
     1.70864173E-01    3     1000015        13       -15   # BR(~mu^-_R -> ~tau^-_1 mu^- tau^+)
     5.61782100E-01    3    -1000015        13        15   # BR(~mu^-_R -> ~tau^+_1 mu^- tau^-)
DECAY   1000013     2.82003268E-01   # ~mu^-_L
#    BR                NDA      ID1      ID2
     9.94329639E-01    2     1000022        13   # BR(~mu^-_L -> chi^0_1 mu^-)
     2.78282686E-03    2     2000013        23   # BR(~mu^-_L -> ~mu^-_R Z)
     2.88751794E-03    2     2000013        25   # BR(~mu^-_L -> ~mu^-_R h^0)
     1.59377326E-08    2     1000039        13   # BR(~mu^-_L -> ~G mu^-)
DECAY   1000015     1.11785948E-10   # ~tau^-_1
#    BR                NDA      ID1      ID2
     1.00000000E+00    2     1000039        15   # BR(~tau^-_1 -> ~G tau^-)
DECAY   2000015     7.41116865E-01   # ~tau^-_2
#    BR                NDA      ID1      ID2
     3.79884380E-01    2     1000022        15   # BR(~tau^-_2 -> chi^0_1 tau^-)
     3.07494050E-01    2     1000015        23   # BR(~tau^-_2 -> ~tau^-_1 Z)
     3.12621565E-01    2     1000015        25   # BR(~tau^-_2 -> ~tau^-_1 h^0)
     6.02300193E-09    2     1000039        15   # BR(~tau^-_2 -> ~G tau^-)
DECAY   1000012     2.97799449E-01   # ~nu_e
#    BR                NDA      ID1      ID2
     9.99999867E-01    2     1000022        12   # BR(~nu_e -> chi^0_1 nu_e)
     1.18562475E-07    2     2000011        24   # BR(~nu_e -> ~e^-_R W^+)
     1.45732266E-08    2     1000039        12   # BR(~nu_e -> ~G nu_e)
DECAY   1000014     2.99294378E-01   # ~nu_mu
#    BR                NDA      ID1      ID2
     9.94956045E-01    2     1000022        14   # BR(~nu_mu -> chi^0_1 nu_mu)
     5.04394073E-03    2     2000013        24   # BR(~nu_mu -> ~mu^-_R W^+)
     1.44995747E-08    2     1000039        14   # BR(~nu_mu -> ~G nu_mu)
DECAY   1000016     7.29758066E-01   # ~nu_tau
#    BR                NDA      ID1      ID2
     4.02410631E-01    2     1000022        16   # BR(~nu_tau -> chi^0_1 nu_tau)
     5.97589363E-01    2     1000015        24   # BR(~nu_tau -> ~tau^-_1 W^+)
     5.84797596E-09    2     1000039        16   # BR(~nu_tau -> ~G nu_tau)
DECAY   2000001     1.16093771E+00   # ~d_R
#    BR                NDA      ID1      ID2
     9.87809807E-01    2     1000022         1   # BR(~d_R -> chi^0_1 d)
     1.11415702E-02    2     1000023         1   # BR(~d_R -> chi^0_2 d)
     5.01058636E-04    2     1000025         1   # BR(~d_R -> chi^0_3 d)
     5.44555015E-04    2     1000035         1   # BR(~d_R -> chi^0_4 d)
     1.89272901E-06    2    -1000024         2   # BR(~d_R -> chi^-_1 u)
     2.24310506E-08    2    -1000037         2   # BR(~d_R -> chi^-_2 u)
     1.09443382E-06    2     1000039         1   # BR(~d_R -> ~G d)
DECAY   1000001     2.00517671E+01   # ~d_L
#    BR                NDA      ID1      ID2
     1.71862589E-02    2     1000022         1   # BR(~d_L -> chi^0_1 d)
     3.75634003E-02    2     1000023         1   # BR(~d_L -> chi^0_2 d)
     4.93660853E-04    2     1000025         1   # BR(~d_L -> chi^0_3 d)
     2.88817676E-01    2     1000035         1   # BR(~d_L -> chi^0_4 d)
     7.05418308E-02    2    -1000024         2   # BR(~d_L -> chi^-_1 u)
     5.85397093E-01    2    -1000037         2   # BR(~d_L -> chi^-_2 u)
     3.05813482E-13    2     2000002       -24   # BR(~d_L -> ~u_R W^-)
     8.38240893E-11    2     2000001        23   # BR(~d_L -> ~d_R Z)
     7.99184709E-08    2     1000039         1   # BR(~d_L -> ~G d)
DECAY   2000003     1.16286567E+00   # ~s_R
#    BR                NDA      ID1      ID2
     9.86190823E-01    2     1000022         3   # BR(~s_R -> chi^0_1 s)
     1.15268141E-02    2     1000023         3   # BR(~s_R -> chi^0_2 s)
     8.89791725E-04    2     1000025         3   # BR(~s_R -> chi^0_3 s)
     5.48302584E-04    2     1000035         3   # BR(~s_R -> chi^0_4 s)
     8.33300100E-04    2    -1000024         4   # BR(~s_R -> chi^-_1 c)
     9.87634993E-06    2    -1000037         4   # BR(~s_R -> chi^-_2 c)
     1.09260141E-06    2     1000039         3   # BR(~s_R -> ~G s)
DECAY   1000003     2.00530691E+01   # ~s_L
#    BR                NDA      ID1      ID2
     1.71848518E-02    2     1000022         3   # BR(~s_L -> chi^0_1 s)
     3.75804524E-02    2     1000023         3   # BR(~s_L -> chi^0_2 s)
     5.18776178E-04    2     1000025         3   # BR(~s_L -> chi^0_3 s)
     2.88801927E-01    2     1000035         3   # BR(~s_L -> chi^0_4 s)
     7.05496199E-02    2    -1000024         4   # BR(~s_L -> chi^-_1 c)
     5.85364201E-01    2    -1000037         4   # BR(~s_L -> chi^-_2 c)
     5.47946891E-08    2     2000004       -24   # BR(~s_L -> ~c_R W^-)
     3.69754402E-08    2     2000003        23   # BR(~s_L -> ~s_R Z)
     7.99125070E-08    2     1000039         3   # BR(~s_L -> ~G s)
DECAY   1000005     7.47335437E+00   # ~b_1
#    BR                NDA      ID1      ID2
     1.64792738E-01    2     1000022         5   # BR(~b_1 -> chi^0_1 b)
     1.75725579E-01    2     1000023         5   # BR(~b_1 -> chi^0_2 b)
     1.30218989E-01    2     1000025         5   # BR(~b_1 -> chi^0_3 b)
     1.01135282E-02    2     1000035         5   # BR(~b_1 -> chi^0_4 b)
     4.72959896E-01    2    -1000024         6   # BR(~b_1 -> chi^-_1 t)
     4.48217390E-02    2    -1000037         6   # BR(~b_1 -> chi^-_2 t)
     1.36736832E-03    2     1000006       -24   # BR(~b_1 -> ~t_1 W^-)
     1.63312974E-07    2     1000039         5   # BR(~b_1 -> ~G b)
DECAY   2000005     4.24738401E+01   # ~b_2
#    BR                NDA      ID1      ID2
     6.61054995E-03    2     1000022         5   # BR(~b_2 -> chi^0_1 b)
     3.03414758E-02    2     1000023         5   # BR(~b_2 -> chi^0_2 b)
     2.63832670E-02    2     1000025         5   # BR(~b_2 -> chi^0_3 b)
     1.29624584E-01    2     1000035         5   # BR(~b_2 -> chi^0_4 b)
     4.61931049E-01    2    -1000024         6   # BR(~b_2 -> chi^-_1 t)
     3.36039569E-01    2    -1000037         6   # BR(~b_2 -> chi^-_2 t)
     9.06947387E-03    2     1000006       -24   # BR(~b_2 -> ~t_1 W^-)
     3.11316165E-08    2     1000039         5   # BR(~b_2 -> ~G b)
DECAY   2000002     4.66376972E+00   # ~u_R
#    BR                NDA      ID1      ID2
     9.87799349E-01    2     1000022         2   # BR(~u_R -> chi^0_1 u)
     1.11536972E-02    2     1000023         2   # BR(~u_R -> chi^0_2 u)
     5.00815924E-04    2     1000025         2   # BR(~u_R -> chi^0_3 u)
     5.45859608E-04    2     1000035         2   # BR(~u_R -> chi^0_4 u)
     5.29861941E-10    2     1000024         1   # BR(~u_R -> chi^+_1 d)
     9.94037128E-12    2     1000037         1   # BR(~u_R -> chi^+_2 d)
     2.77392622E-07    2     1000039         2   # BR(~u_R -> ~G u)
DECAY   1000002     2.01141469E+01   # ~u_L
#    BR                NDA      ID1      ID2
     1.31054302E-02    2     1000022         2   # BR(~u_L -> chi^0_1 u)
     4.82525264E-02    2     1000023         2   # BR(~u_L -> chi^0_2 u)
     2.75851186E-04    2     1000025         2   # BR(~u_L -> chi^0_3 u)
     2.81373941E-01    2     1000035         2   # BR(~u_L -> chi^0_4 u)
     1.00450621E-01    2     1000024         1   # BR(~u_L -> chi^+_1 d)
     5.56541550E-01    2     1000037         1   # BR(~u_L -> chi^+_2 d)
     3.53352930E-10    2     2000001        24   # BR(~u_L -> ~d_R W^+)
     1.33198585E-14    2     2000002        23   # BR(~u_L -> ~u_R Z)
     7.94265364E-08    2     1000039         2   # BR(~u_L -> ~G u)
DECAY   2000004     4.66464259E+00   # ~c_R
#    BR                NDA      ID1      ID2
     9.87612144E-01    2     1000022         4   # BR(~c_R -> chi^0_1 c)
     1.11971684E-02    2     1000023         4   # BR(~c_R -> chi^0_2 c)
     5.47164848E-04    2     1000025         4   # BR(~c_R -> chi^0_3 c)
     5.46525267E-04    2     1000035         4   # BR(~c_R -> chi^0_4 c)
     9.49395895E-05    2     1000024         3   # BR(~c_R -> chi^+_1 s)
     1.78103538E-06    2     1000037         3   # BR(~c_R -> chi^+_2 s)
     2.77338431E-07    2     1000039         4   # BR(~c_R -> ~G c)
DECAY   1000004     2.01154850E+01   # ~c_L
#    BR                NDA      ID1      ID2
     1.31046771E-02    2     1000022         4   # BR(~c_L -> chi^0_1 c)
     4.82567999E-02    2     1000023         4   # BR(~c_L -> chi^0_2 c)
     2.86840882E-04    2     1000025         4   # BR(~c_L -> chi^0_3 c)
     2.81357211E-01    2     1000035         4   # BR(~c_L -> chi^0_4 c)
     1.00485045E-01    2     1000024         3   # BR(~c_L -> chi^+_1 s)
     5.56509189E-01    2     1000037         3   # BR(~c_L -> chi^+_2 s)
     1.55843388E-07    2     2000003        24   # BR(~c_L -> ~s_R W^+)
     2.38510495E-09    2     2000004        23   # BR(~c_L -> ~c_R Z)
     7.94203830E-08    2     1000039         4   # BR(~c_L -> ~G c)
DECAY   1000006     4.57701786E+01   # ~t_1
#    BR                NDA      ID1      ID2
     1.95960000E-05    2     1000022         4   # BR(~t_1 -> chi^0_1 c)
     9.25686303E-02    2     1000022         6   # BR(~t_1 -> chi^0_1 t)
     6.91877554E-05    2     1000023         4   # BR(~t_1 -> chi^0_2 c)
     2.06316726E-01    2     1000023         6   # BR(~t_1 -> chi^0_2 t)
     2.32135889E-01    2     1000025         6   # BR(~t_1 -> chi^0_3 t)
     1.25305488E-02    2     1000035         6   # BR(~t_1 -> chi^0_4 t)
     4.30524774E-01    2     1000024         5   # BR(~t_1 -> chi^+_1 b)
     2.58263401E-02    2     1000037         5   # BR(~t_1 -> chi^+_2 b)
     1.83804341E-08    2     1000039         6   # BR(~t_1 -> ~G t)
#    BR                NDA      ID1      ID2       ID3
     8.28937810E-06    3     1000022        24         5   # BR(~t_1 -> chi^0_1 W^+ b)
DECAY   2000006     4.47951795E+01   # ~t_2
#    BR                NDA      ID1      ID2
     6.66096300E-03    2     1000022         6   # BR(~t_2 -> chi^0_1 t)
     2.28641976E-01    2     1000023         6   # BR(~t_2 -> chi^0_2 t)
     2.57549049E-01    2     1000025         6   # BR(~t_2 -> chi^0_3 t)
     1.74527758E-01    2     1000035         6   # BR(~t_2 -> chi^0_4 t)
     5.26007204E-02    2     1000024         5   # BR(~t_2 -> chi^+_1 b)
     2.71729615E-01    2     1000037         5   # BR(~t_2 -> chi^+_2 b)
     4.73010352E-03    2     1000006        23   # BR(~t_2 -> ~t_1 Z)
     3.55978498E-03    2     1000006        25   # BR(~t_2 -> ~t_1 h^0)
     2.92456490E-08    2     1000039         6   # BR(~t_2 -> ~G t)
DECAY   1000024     5.66593266E-01   # chi^+_1
#    BR                NDA      ID1      ID2
     2.75575441E-08    2    -2000011        12   # BR(chi^+_1 -> ~e^+_R nu_e)
     3.56675040E-03    2    -1000011        12   # BR(chi^+_1 -> ~e^+_L nu_e)
     1.17829599E-03    2    -2000013        14   # BR(chi^+_1 -> ~mu^+_R nu_mu)
     3.56565862E-03    2    -1000013        14   # BR(chi^+_1 -> ~mu^+_L nu_mu)
     3.43957081E-01    2    -1000015        16   # BR(chi^+_1 -> ~tau^+_1 nu_tau)
     3.26041176E-03    2    -2000015        16   # BR(chi^+_1 -> ~tau^+_2 nu_tau)
     6.75680573E-03    2     1000012       -11   # BR(chi^+_1 -> ~nu_e e^+)
     6.77770449E-03    2     1000014       -13   # BR(chi^+_1 -> ~nu_mu mu^+)
     1.33047852E-02    2     1000016       -15   # BR(chi^+_1 -> ~nu_tau tau^+)
     6.17110490E-01    2     1000022        24   # BR(chi^+_1 -> chi^0_1 W^+)
#    BR                NDA      ID1      ID2       ID3
     1.19520778E-08    3     1000022        -1         2   # BR(chi^+_1 -> chi^0_1 d_bar u)
     1.25098889E-08    3     1000022        -3         4   # BR(chi^+_1 -> chi^0_1 s_bar c)
     5.04233719E-04    3     1000022        -5         6   # BR(chi^+_1 -> chi^0_1 b_bar t)
     1.59619185E-12    3     1000022       -11        12   # BR(chi^+_1 -> chi^0_1 e^+ nu_e)
     6.82198421E-08    3     1000022       -13        14   # BR(chi^+_1 -> chi^0_1 mu^+ nu_mu)
     1.76631790E-05    3     1000022       -15        16   # BR(chi^+_1 -> chi^0_1 tau^+ nu_tau)
DECAY   1000037     6.18280747E+00   # chi^+_2
#    BR                NDA      ID1      ID2
     3.26236773E-11    2    -2000011        12   # BR(chi^+_2 -> ~e^+_R nu_e)
     9.23222598E-02    2    -1000011        12   # BR(chi^+_2 -> ~e^+_L nu_e)
     1.39514686E-06    2    -2000013        14   # BR(chi^+_2 -> ~mu^+_R nu_mu)
     9.23279265E-02    2    -1000013        14   # BR(chi^+_2 -> ~mu^+_L nu_mu)
     4.26299258E-04    2    -1000015        16   # BR(chi^+_2 -> ~tau^+_1 nu_tau)
     9.39392342E-02    2    -2000015        16   # BR(chi^+_2 -> ~tau^+_2 nu_tau)
     9.16774322E-02    2     1000012       -11   # BR(chi^+_2 -> ~nu_e e^+)
     9.16864134E-02    2     1000014       -13   # BR(chi^+_2 -> ~nu_mu mu^+)
     9.42385007E-02    2     1000016       -15   # BR(chi^+_2 -> ~nu_tau tau^+)
     3.80243659E-03    2     1000022        24   # BR(chi^+_2 -> chi^0_1 W^+)
     1.33604242E-01    2     1000023        24   # BR(chi^+_2 -> chi^0_2 W^+)
     9.62856746E-02    2     1000025        24   # BR(chi^+_2 -> chi^0_3 W^+)
     1.22888494E-01    2     1000024        23   # BR(chi^+_2 -> chi^+_1 Z)
     8.67699290E-02    2     1000024        25   # BR(chi^+_2 -> chi^+_1 h^0)
#    BR                NDA      ID1      ID2       ID3
     3.36258455E-09    3     1000024         2        -2   # BR(chi^+_2 -> chi^+_1 u u_bar)
     3.35923076E-09    3     1000024         4        -4   # BR(chi^+_2 -> chi^+_1 c c_bar)
     4.60286211E-09    3     1000024         1        -1   # BR(chi^+_2 -> chi^+_1 d d_bar)
     4.65788464E-09    3     1000024         3        -3   # BR(chi^+_2 -> chi^+_1 s s_bar)
     1.33901018E-07    3     1000024         5        -5   # BR(chi^+_2 -> chi^+_1 b b_bar)
     1.07643155E-06    3     1000024        11       -11   # BR(chi^+_2 -> chi^+_1 e^- e^+)
     1.07850092E-06    3     1000024        13       -13   # BR(chi^+_2 -> chi^+_1 mu^- mu^+)
     1.61926158E-06    3     1000024        15       -15   # BR(chi^+_2 -> chi^+_1 tau^- tau^+)
     2.47349108E-06    3     1000024        12       -12   # BR(chi^+_2 -> chi^+_1 nu_e nu_bar_e)
     8.86528744E-08    3     1000022        -1         2   # BR(chi^+_2 -> chi^0_1 d_bar u)
     8.86485450E-08    3     1000022        -3         4   # BR(chi^+_2 -> chi^0_1 s_bar c)
     2.08934347E-05    3     1000022        -5         6   # BR(chi^+_2 -> chi^0_1 b_bar t)
     2.64754972E-10    3     1000022       -13        14   # BR(chi^+_2 -> chi^0_1 mu^+ nu_mu)
     7.44391190E-08    3     1000022       -15        16   # BR(chi^+_2 -> chi^0_1 tau^+ nu_tau)
     1.93865806E-09    3     1000023        -1         2   # BR(chi^+_2 -> chi^0_2 d_bar u)
     1.97185584E-09    3     1000023        -3         4   # BR(chi^+_2 -> chi^0_2 s_bar c)
     2.48617260E-08    3     1000023        -5         6   # BR(chi^+_2 -> chi^0_2 b_bar t)
     5.99793571E-07    3     1000023       -11        12   # BR(chi^+_2 -> chi^0_2 e^+ nu_e)
     6.00671573E-07    3     1000023       -13        14   # BR(chi^+_2 -> chi^0_2 mu^+ nu_mu)
     8.10757825E-07    3     1000023       -15        16   # BR(chi^+_2 -> chi^0_2 tau^+ nu_tau)
     2.98957811E-11    3     1000025        -1         2   # BR(chi^+_2 -> chi^0_3 d_bar u)
     4.48144347E-11    3     1000025        -3         4   # BR(chi^+_2 -> chi^0_3 s_bar c)
     5.37393708E-09    3     1000025       -11        12   # BR(chi^+_2 -> chi^0_3 e^+ nu_e)
     5.96205893E-09    3     1000025       -13        14   # BR(chi^+_2 -> chi^0_3 mu^+ nu_mu)
     1.68745059E-07    3     1000025       -15        16   # BR(chi^+_2 -> chi^0_3 tau^+ nu_tau)
DECAY   1000022     1.46688363E+00   # chi^0_1
#    BR                NDA      ID1      ID2
     1.57376697E-01    2     2000011       -11   # BR(chi^0_1 -> ~e^-_R e^+)
     1.57376697E-01    2    -2000011        11   # BR(chi^0_1 -> ~e^+_R e^-)
     1.57471241E-01    2     2000013       -13   # BR(chi^0_1 -> ~mu^-_R mu^+)
     1.57471241E-01    2    -2000013        13   # BR(chi^0_1 -> ~mu^+_R mu^-)
     1.85152062E-01    2     1000015       -15   # BR(chi^0_1 -> ~tau^-_1 tau^+)
     1.85152062E-01    2    -1000015        15   # BR(chi^0_1 -> ~tau^+_1 tau^-)
     2.78723621E-10    2     1000039        22   # BR(chi^0_1 -> ~G photon)
     8.32696621E-11    2     1000039        23   # BR(chi^0_1 -> ~G Z)
     1.84663023E-12    2     1000039        25   # BR(chi^0_1 -> ~G h^0)
DECAY   1000023     6.95326061E-01   # chi^0_2
#    BR                NDA      ID1      ID2
     2.18907967E-02    2     2000011       -11   # BR(chi^0_2 -> ~e^-_R e^+)
     2.18907967E-02    2    -2000011        11   # BR(chi^0_2 -> ~e^+_R e^-)
     2.81519349E-03    2     1000011       -11   # BR(chi^0_2 -> ~e^-_L e^+)
     2.81519349E-03    2    -1000011        11   # BR(chi^0_2 -> ~e^+_L e^-)
     2.23613107E-02    2     2000013       -13   # BR(chi^0_2 -> ~mu^-_R mu^+)
     2.23613107E-02    2    -2000013        13   # BR(chi^0_2 -> ~mu^+_R mu^-)
     2.82121949E-03    2     1000013       -13   # BR(chi^0_2 -> ~mu^-_L mu^+)
     2.82121949E-03    2    -1000013        13   # BR(chi^0_2 -> ~mu^+_L mu^-)
     1.59922572E-01    2     1000015       -15   # BR(chi^0_2 -> ~tau^-_1 tau^+)
     1.59922572E-01    2    -1000015        15   # BR(chi^0_2 -> ~tau^+_1 tau^-)
     4.59537515E-03    2     2000015       -15   # BR(chi^0_2 -> ~tau^-_2 tau^+)
     4.59537515E-03    2    -2000015        15   # BR(chi^0_2 -> ~tau^+_2 tau^-)
     1.69689734E-03    2     1000012       -12   # BR(chi^0_2 -> ~nu_e nu_bar_e)
     1.69689734E-03    2    -1000012        12   # BR(chi^0_2 -> ~nu^*_e nu_e)
     1.69760750E-03    2     1000014       -14   # BR(chi^0_2 -> ~nu_mu nu_bar_mu)
     1.69760750E-03    2    -1000014        14   # BR(chi^0_2 -> ~nu^*_mu nu_mu)
     1.90301978E-03    2     1000016       -16   # BR(chi^0_2 -> ~nu_tau nu_bar_tau)
     1.90301978E-03    2    -1000016        16   # BR(chi^0_2 -> ~nu^*_tau nu_tau)
     2.75009998E-02    2     1000022        23   # BR(chi^0_2 -> chi^0_1 Z)
     5.33062916E-01    2     1000022        25   # BR(chi^0_2 -> chi^0_1 h^0)
     5.84484347E-10    2     1000039        22   # BR(chi^0_2 -> ~G photon)
     8.71867275E-11    2     1000039        23   # BR(chi^0_2 -> ~G Z)
     3.85800767E-09    2     1000039        25   # BR(chi^0_2 -> ~G h^0)
     7.43418857E-07    2     1000022        22   # BR(chi^0_2 -> chi^0_1 photon)
#    BR                NDA      ID1      ID2       ID3
     1.14487683E-08    3     1000022         2        -2   # BR(chi^0_2 -> chi^0_1 u u_bar)
     1.14610966E-08    3     1000022         4        -4   # BR(chi^0_2 -> chi^0_1 c c_bar)
     5.52839215E-09    3     1000022         1        -1   # BR(chi^0_2 -> chi^0_1 d d_bar)
     6.13319851E-09    3     1000022         3        -3   # BR(chi^0_2 -> chi^0_1 s s_bar)
     1.37988842E-06    3     1000022         5        -5   # BR(chi^0_2 -> chi^0_1 b b_bar)
     4.14955028E-06    3     1000022        11       -11   # BR(chi^0_2 -> chi^0_1 e^- e^+)
     4.20199763E-06    3     1000022        13       -13   # BR(chi^0_2 -> chi^0_1 mu^- mu^+)
     1.75861750E-05    3     1000022        15       -15   # BR(chi^0_2 -> chi^0_1 tau^- tau^+)
     2.24076881E-11    3     1000024         1        -2   # BR(chi^0_2 -> chi^+_1 d u_bar)
     2.24076881E-11    3    -1000024        -1         2   # BR(chi^0_2 -> chi^-_1 d_bar u)
     2.51117264E-12    3     1000024         3        -4   # BR(chi^0_2 -> chi^+_1 s c_bar)
     2.51117264E-12    3    -1000024        -3         4   # BR(chi^0_2 -> chi^-_1 s_bar c)
     7.27060071E-12    3     1000024        11       -12   # BR(chi^0_2 -> chi^+_1 e^- nu_bar_e)
     7.27060071E-12    3    -1000024       -11        12   # BR(chi^0_2 -> chi^-_1 e^+ nu_e)
     7.16986248E-12    3     1000024        13       -14   # BR(chi^0_2 -> chi^+_1 mu^- nu_bar_mu)
     7.16986248E-12    3    -1000024       -13        14   # BR(chi^0_2 -> chi^-_1 mu^+ nu_mu)
     1.75893947E-14    3     1000024        15       -16   # BR(chi^0_2 -> chi^+_1 tau^- nu_bar_tau)
     1.75893947E-14    3    -1000024       -15        16   # BR(chi^0_2 -> chi^-_1 tau^+ nu_tau)
DECAY   1000025     6.21024428E-01   # chi^0_3
#    BR                NDA      ID1      ID2
     1.18069397E-03    2     2000011       -11   # BR(chi^0_3 -> ~e^-_R e^+)
     1.18069397E-03    2    -2000011        11   # BR(chi^0_3 -> ~e^+_R e^-)
     1.54834280E-05    2     1000011       -11   # BR(chi^0_3 -> ~e^-_L e^+)
     1.54834280E-05    2    -1000011        11   # BR(chi^0_3 -> ~e^+_L e^-)
     1.71599292E-03    2     2000013       -13   # BR(chi^0_3 -> ~mu^-_R mu^+)
     1.71599292E-03    2    -2000013        13   # BR(chi^0_3 -> ~mu^+_R mu^-)
     3.22426734E-05    2     1000013       -13   # BR(chi^0_3 -> ~mu^-_L mu^+)
     3.22426734E-05    2    -1000013        13   # BR(chi^0_3 -> ~mu^+_L mu^-)
     1.58011153E-01    2     1000015       -15   # BR(chi^0_3 -> ~tau^-_1 tau^+)
     1.58011153E-01    2    -1000015        15   # BR(chi^0_3 -> ~tau^+_1 tau^-)
     4.94446134E-03    2     2000015       -15   # BR(chi^0_3 -> ~tau^-_2 tau^+)
     4.94446134E-03    2    -2000015        15   # BR(chi^0_3 -> ~tau^+_2 tau^-)
     1.15570682E-04    2     1000012       -12   # BR(chi^0_3 -> ~nu_e nu_bar_e)
     1.15570682E-04    2    -1000012        12   # BR(chi^0_3 -> ~nu^*_e nu_e)
     1.15602141E-04    2     1000014       -14   # BR(chi^0_3 -> ~nu_mu nu_bar_mu)
     1.15602141E-04    2    -1000014        14   # BR(chi^0_3 -> ~nu^*_mu nu_mu)
     1.24610568E-04    2     1000016       -16   # BR(chi^0_3 -> ~nu_tau nu_bar_tau)
     1.24610568E-04    2    -1000016        16   # BR(chi^0_3 -> ~nu^*_tau nu_tau)
     6.40469037E-01    2     1000022        23   # BR(chi^0_3 -> chi^0_1 Z)
     2.69752659E-02    2     1000022        25   # BR(chi^0_3 -> chi^0_1 h^0)
     2.74915523E-13    2     1000039        22   # BR(chi^0_3 -> ~G photon)
     9.14347951E-10    2     1000039        23   # BR(chi^0_3 -> ~G Z)
     4.67582097E-09    2     1000039        25   # BR(chi^0_3 -> ~G h^0)
     7.29287103E-07    2     1000022        22   # BR(chi^0_3 -> chi^0_1 photon)
     3.67344769E-09    2     1000023        22   # BR(chi^0_3 -> chi^0_2 photon)
#    BR                NDA      ID1      ID2       ID3
     1.77286874E-10    3     1000022         2        -2   # BR(chi^0_3 -> chi^0_1 u u_bar)
     2.08365466E-10    3     1000022         4        -4   # BR(chi^0_3 -> chi^0_1 c c_bar)
     5.00110862E-11    3     1000022         1        -1   # BR(chi^0_3 -> chi^0_1 d d_bar)
     9.47669536E-10    3     1000022         3        -3   # BR(chi^0_3 -> chi^0_1 s s_bar)
     2.03490015E-06    3     1000022         5        -5   # BR(chi^0_3 -> chi^0_1 b b_bar)
     1.01125873E-07    3     1000022        11       -11   # BR(chi^0_3 -> chi^0_1 e^- e^+)
     1.76053696E-07    3     1000022        13       -13   # BR(chi^0_3 -> chi^0_1 mu^- mu^+)
     1.96495892E-05    3     1000022        15       -15   # BR(chi^0_3 -> chi^0_1 tau^- tau^+)
     5.14435425E-07    3     1000023         2        -2   # BR(chi^0_3 -> chi^0_2 u u_bar)
     5.01781305E-07    3     1000023         4        -4   # BR(chi^0_3 -> chi^0_2 c c_bar)
     6.67587256E-07    3     1000023         1        -1   # BR(chi^0_3 -> chi^0_2 d d_bar)
     6.67439464E-07    3     1000023         3        -3   # BR(chi^0_3 -> chi^0_2 s s_bar)
     4.52133290E-07    3     1000023         5        -5   # BR(chi^0_3 -> chi^0_2 b b_bar)
     1.53515555E-07    3     1000023        11       -11   # BR(chi^0_3 -> chi^0_2 e^- e^+)
     1.53486627E-07    3     1000023        13       -13   # BR(chi^0_3 -> chi^0_2 mu^- mu^+)
     1.44818261E-07    3     1000023        15       -15   # BR(chi^0_3 -> chi^0_2 tau^- tau^+)
     9.17252550E-07    3     1000023        12       -12   # BR(chi^0_3 -> chi^0_2 nu_e nu_bar_e)
     2.89355943E-06    3     1000024         1        -2   # BR(chi^0_3 -> chi^+_1 d u_bar)
     2.89355943E-06    3    -1000024        -1         2   # BR(chi^0_3 -> chi^-_1 d_bar u)
     2.84692293E-06    3     1000024         3        -4   # BR(chi^0_3 -> chi^+_1 s c_bar)
     2.84692293E-06    3    -1000024        -3         4   # BR(chi^0_3 -> chi^-_1 s_bar c)
     9.63418467E-07    3     1000024        11       -12   # BR(chi^0_3 -> chi^+_1 e^- nu_bar_e)
     9.63418467E-07    3    -1000024       -11        12   # BR(chi^0_3 -> chi^-_1 e^+ nu_e)
     9.63413954E-07    3     1000024        13       -14   # BR(chi^0_3 -> chi^+_1 mu^- nu_bar_mu)
     9.63413954E-07    3    -1000024       -13        14   # BR(chi^0_3 -> chi^-_1 mu^+ nu_mu)
     9.33407374E-07    3     1000024        15       -16   # BR(chi^0_3 -> chi^+_1 tau^- nu_bar_tau)
     9.33407374E-07    3    -1000024       -15        16   # BR(chi^0_3 -> chi^-_1 tau^+ nu_tau)
DECAY   1000035     6.18520100E+00   # chi^0_4
#    BR                NDA      ID1      ID2
     2.10362790E-04    2     2000011       -11   # BR(chi^0_4 -> ~e^-_R e^+)
     2.10362790E-04    2    -2000011        11   # BR(chi^0_4 -> ~e^+_R e^-)
     4.35268911E-02    2     1000011       -11   # BR(chi^0_4 -> ~e^-_L e^+)
     4.35268911E-02    2    -1000011        11   # BR(chi^0_4 -> ~e^+_L e^-)
     2.10830957E-04    2     2000013       -13   # BR(chi^0_4 -> ~mu^-_R mu^+)
     2.10830957E-04    2    -2000013        13   # BR(chi^0_4 -> ~mu^+_R mu^-)
     4.35311357E-02    2     1000013       -13   # BR(chi^0_4 -> ~mu^-_L mu^+)
     4.35311357E-02    2    -1000013        13   # BR(chi^0_4 -> ~mu^+_L mu^-)
     3.70431782E-04    2     1000015       -15   # BR(chi^0_4 -> ~tau^-_1 tau^+)
     3.70431782E-04    2    -1000015        15   # BR(chi^0_4 -> ~tau^+_1 tau^-)
     4.47351863E-02    2     2000015       -15   # BR(chi^0_4 -> ~tau^-_2 tau^+)
     4.47351863E-02    2    -2000015        15   # BR(chi^0_4 -> ~tau^+_2 tau^-)
     4.83517189E-02    2     1000012       -12   # BR(chi^0_4 -> ~nu_e nu_bar_e)
     4.83517189E-02    2    -1000012        12   # BR(chi^0_4 -> ~nu^*_e nu_e)
     4.83548919E-02    2     1000014       -14   # BR(chi^0_4 -> ~nu_mu nu_bar_mu)
     4.83548919E-02    2    -1000014        14   # BR(chi^0_4 -> ~nu^*_mu nu_mu)
     4.92505054E-02    2     1000016       -16   # BR(chi^0_4 -> ~nu_tau nu_bar_tau)
     4.92505054E-02    2    -1000016        16   # BR(chi^0_4 -> ~nu^*_tau nu_tau)
     1.33040344E-01    2     1000024       -24   # BR(chi^0_4 -> chi^+_1 W^-)
     1.33040344E-01    2    -1000024        24   # BR(chi^0_4 -> chi^-_1 W^+)
     4.16118246E-04    2     1000022        23   # BR(chi^0_4 -> chi^0_1 Z)
     1.44182576E-03    2     1000023        23   # BR(chi^0_4 -> chi^0_2 Z)
     8.34708968E-02    2     1000025        23   # BR(chi^0_4 -> chi^0_3 Z)
     4.04695299E-03    2     1000022        25   # BR(chi^0_4 -> chi^0_1 h^0)
     8.71054788E-02    2     1000023        25   # BR(chi^0_4 -> chi^0_2 h^0)
     3.41274048E-04    2     1000025        25   # BR(chi^0_4 -> chi^0_3 h^0)
     5.35280208E-10    2     1000039        22   # BR(chi^0_4 -> ~G photon)
     2.55254969E-09    2     1000039        23   # BR(chi^0_4 -> ~G Z)
     2.04010621E-10    2     1000039        25   # BR(chi^0_4 -> ~G h^0)
     2.56394098E-07    2     1000022        22   # BR(chi^0_4 -> chi^0_1 photon)
     9.80239253E-07    2     1000023        22   # BR(chi^0_4 -> chi^0_2 photon)
     8.87325999E-07    2     1000025        22   # BR(chi^0_4 -> chi^0_3 photon)
#    BR                NDA      ID1      ID2       ID3
     3.83955783E-08    3     1000022         2        -2   # BR(chi^0_4 -> chi^0_1 u u_bar)
     3.83899819E-08    3     1000022         4        -4   # BR(chi^0_4 -> chi^0_1 c c_bar)
     1.59524574E-06    3     1000022         6        -6   # BR(chi^0_4 -> chi^0_1 t t_bar)
     5.06131174E-08    3     1000022         1        -1   # BR(chi^0_4 -> chi^0_1 d d_bar)
     5.06158980E-08    3     1000022         3        -3   # BR(chi^0_4 -> chi^0_1 s s_bar)
     6.46452125E-08    3     1000022         5        -5   # BR(chi^0_4 -> chi^0_1 b b_bar)
     1.24529248E-07    3     1000022        11       -11   # BR(chi^0_4 -> chi^0_1 e^- e^+)
     1.24601899E-07    3     1000022        13       -13   # BR(chi^0_4 -> chi^0_1 mu^- mu^+)
     1.52812912E-07    3     1000022        15       -15   # BR(chi^0_4 -> chi^0_1 tau^- tau^+)
     3.16717486E-09    3     1000023         2        -2   # BR(chi^0_4 -> chi^0_2 u u_bar)
     3.16407197E-09    3     1000023         4        -4   # BR(chi^0_4 -> chi^0_2 c c_bar)
     2.50299801E-09    3     1000023         1        -1   # BR(chi^0_4 -> chi^0_2 d d_bar)
     2.52485953E-09    3     1000023         3        -3   # BR(chi^0_4 -> chi^0_2 s s_bar)
     5.28120637E-08    3     1000023         5        -5   # BR(chi^0_4 -> chi^0_2 b b_bar)
     9.23104236E-07    3     1000023        11       -11   # BR(chi^0_4 -> chi^0_2 e^- e^+)
     9.24037899E-07    3     1000023        13       -13   # BR(chi^0_4 -> chi^0_2 mu^- mu^+)
     1.13837403E-06    3     1000023        15       -15   # BR(chi^0_4 -> chi^0_2 tau^- tau^+)
     1.22819709E-06    3     1000023        12       -12   # BR(chi^0_4 -> chi^0_2 nu_e nu_bar_e)
     3.60490726E-12    3     1000025         2        -2   # BR(chi^0_4 -> chi^0_3 u u_bar)
     3.83966924E-12    3     1000025         4        -4   # BR(chi^0_4 -> chi^0_3 c c_bar)
     6.58691937E-12    3     1000025         1        -1   # BR(chi^0_4 -> chi^0_3 d d_bar)
     2.42891572E-11    3     1000025         3        -3   # BR(chi^0_4 -> chi^0_3 s s_bar)
     4.03931918E-08    3     1000025         5        -5   # BR(chi^0_4 -> chi^0_3 b b_bar)
     3.21892626E-10    3     1000025        11       -11   # BR(chi^0_4 -> chi^0_3 e^- e^+)
     8.43469848E-10    3     1000025        13       -13   # BR(chi^0_4 -> chi^0_3 mu^- mu^+)
     1.45427007E-07    3     1000025        15       -15   # BR(chi^0_4 -> chi^0_3 tau^- tau^+)
     5.87933184E-09    3     1000025        12       -12   # BR(chi^0_4 -> chi^0_3 nu_e nu_bar_e)
     2.03922856E-09    3     1000024         1        -2   # BR(chi^0_4 -> chi^+_1 d u_bar)
     2.03922856E-09    3    -1000024        -1         2   # BR(chi^0_4 -> chi^-_1 d_bar u)
     2.07093291E-09    3     1000024         3        -4   # BR(chi^0_4 -> chi^+_1 s c_bar)
     2.07093291E-09    3    -1000024        -3         4   # BR(chi^0_4 -> chi^-_1 s_bar c)
     7.21125084E-08    3     1000024         5        -6   # BR(chi^0_4 -> chi^+_1 b t_bar)
     7.21125084E-08    3    -1000024        -5         6   # BR(chi^0_4 -> chi^-_1 b_bar t)
     5.74919948E-07    3     1000024        11       -12   # BR(chi^0_4 -> chi^+_1 e^- nu_bar_e)
     5.74919948E-07    3    -1000024       -11        12   # BR(chi^0_4 -> chi^-_1 e^+ nu_e)
     5.75760046E-07    3     1000024        13       -14   # BR(chi^0_4 -> chi^+_1 mu^- nu_bar_mu)
     5.75760046E-07    3    -1000024       -13        14   # BR(chi^0_4 -> chi^-_1 mu^+ nu_mu)
     7.81964557E-07    3     1000024        15       -16   # BR(chi^0_4 -> chi^+_1 tau^- nu_bar_tau)
     7.81964557E-07    3    -1000024       -15        16   # BR(chi^0_4 -> chi^-_1 tau^+ nu_tau)
DECAY   1000021     1.13208516E+01   # ~g
#    BR                NDA      ID1      ID2
     4.75908901E-02    2     2000002        -2   # BR(~g -> ~u_R u_bar)
     4.75908901E-02    2    -2000002         2   # BR(~g -> ~u^*_R u)
     1.16306256E-02    2     1000002        -2   # BR(~g -> ~u_L u_bar)
     1.16306256E-02    2    -1000002         2   # BR(~g -> ~u^*_L u)
     4.75904244E-02    2     2000004        -4   # BR(~g -> ~c_R c_bar)
     4.75904244E-02    2    -2000004         4   # BR(~g -> ~c^*_R c)
     1.16310546E-02    2     1000004        -4   # BR(~g -> ~c_L c_bar)
     1.16310546E-02    2    -1000004         4   # BR(~g -> ~c^*_L c)
     6.41998588E-04    2     1000006        -4   # BR(~g -> ~t_1 c_bar)
     6.41998588E-04    2    -1000006         4   # BR(~g -> ~t^*_1 c)
     1.21740498E-01    2     1000006        -6   # BR(~g -> ~t_1 t_bar)
     1.21740498E-01    2    -1000006         6   # BR(~g -> ~t^*_1 t)
     5.16009143E-02    2     2000001        -1   # BR(~g -> ~d_R d_bar)
     5.16009143E-02    2    -2000001         1   # BR(~g -> ~d^*_R d)
     1.12724067E-02    2     1000001        -1   # BR(~g -> ~d_L d_bar)
     1.12724067E-02    2    -1000001         1   # BR(~g -> ~d^*_L d)
     5.16045128E-02    2     2000003        -3   # BR(~g -> ~s_R s_bar)
     5.16045128E-02    2    -2000003         3   # BR(~g -> ~s^*_R s)
     1.12735672E-02    2     1000003        -3   # BR(~g -> ~s_L s_bar)
     1.12735672E-02    2    -1000003         3   # BR(~g -> ~s^*_L s)
     6.03850796E-02    2     1000005        -5   # BR(~g -> ~b_1 b_bar)
     6.03850796E-02    2    -1000005         5   # BR(~g -> ~b^*_1 b)
     4.34089070E-02    2     2000005        -5   # BR(~g -> ~b_2 b_bar)
     4.34089070E-02    2    -2000005         5   # BR(~g -> ~b^*_2 b)
     4.14202476E-06    2     1000022        21   # BR(~g -> chi^0_1 g)
     1.47281407E-04    2     1000023        21   # BR(~g -> chi^0_2 g)
     1.75606500E-04    2     1000025        21   # BR(~g -> chi^0_3 g)
     2.84810822E-05    2     1000035        21   # BR(~g -> chi^0_4 g)
#    BR                NDA      ID1      ID2       ID3
     4.28750388E-04    3     1000022         6        -6   # BR(~g -> chi^0_1 t t_bar)
     1.34395838E-02    3     1000023         6        -6   # BR(~g -> chi^0_2 t t_bar)
     1.51819649E-02    3     1000025         6        -6   # BR(~g -> chi^0_3 t t_bar)
     1.10754511E-02    3     1000035         6        -6   # BR(~g -> chi^0_4 t t_bar)
     1.56588982E-03    3     1000024         5        -6   # BR(~g -> chi^+_1 b t_bar)
     1.56588982E-03    3    -1000024        -5         6   # BR(~g -> chi^-_1 b_bar t)
     7.82260080E-03    3     1000037         5        -6   # BR(~g -> chi^+_2 b t_bar)
     7.82260080E-03    3    -1000037        -5         6   # BR(~g -> chi^-_2 b_bar t)
DECAY        25     2.70924640E-03   # h^0
#    BR                NDA      ID1      ID2
     8.85636326E-09    2          11       -11   # BR(h^0 -> e^- e^+)
     3.78627951E-04    2          13       -13   # BR(h^0 -> mu^- mu^+)
     1.06573393E-01    2          15       -15   # BR(h^0 -> tau^- tau^+)
     6.73964215E-07    2           1        -1   # BR(h^0 -> d d_bar)
     2.97216997E-04    2           3        -3   # BR(h^0 -> s s_bar)
     6.44472767E-01    2           5        -5   # BR(h^0 -> b b_bar)
     2.45013002E-07    2           2        -2   # BR(h^0 -> u u_bar)
     4.39000774E-02    2           4        -4   # BR(h^0 -> c c_bar)
     6.57947027E-02    2          21        21   # BR(h^0 -> g g)
     3.12673558E-03    2          22        22   # BR(h^0 -> photon photon)
# writing decays into V V* as 3-body decays
#    BR                NDA      ID1      ID2       ID3
     6.21831944E-03    3          24        11        12   # BR(h^0 -> W^+ e^- nu_e)
     6.21831944E-03    3          24        13        14   # BR(h^0 -> W^+ mu^- nu_mu)
     6.21831944E-03    3          24        15        16   # BR(h^0 -> W^+ tau^- nu_tau)
     2.17641181E-02    3          24         1        -2   # BR(h^0 -> W^+ d u_bar)
     2.17641181E-02    3          24         3        -4   # BR(h^0 -> W^+ s c_bar)
     6.21831944E-03    3         -24       -11       -12   # BR(h^0 -> W^- e^+ nu_bar_e)
     6.21831944E-03    3         -24       -13       -14   # BR(h^0 -> W^- mu^+ nu_bar_mu)
     6.21831944E-03    3         -24       -15       -16   # BR(h^0 -> W^- tau^+ nu_bar_tau)
     2.17641181E-02    3         -24        -1         2   # BR(h^0 -> W^- d_bar u)
     2.17641181E-02    3         -24        -3         4   # BR(h^0 -> W^- s_bar c)
     3.88120677E-04    3          23        11       -11   # BR(h^0 -> Z e^- e^+)
     3.88120677E-04    3          23        13       -13   # BR(h^0 -> Z mu^- mu^+)
     3.32674866E-04    3          23        15       -15   # BR(h^0 -> Z tau^- tau^+)
     2.21783244E-03    3          23        12       -12   # BR(h^0 -> Z nu_e nu_bar_e)
     1.55248271E-03    3          23         1        -1   # BR(h^0 -> Z u u_bar)
     1.55248271E-03    3          23         3        -3   # BR(h^0 -> Z c c_bar)
     1.55248271E-03    3          23         5        -5   # BR(h^0 -> Z t t_bar)
     1.55248271E-03    3          23         2        -2   # BR(h^0 -> Z u u_bar)
     1.55248271E-03    3          23         4        -4   # BR(h^0 -> Z c c_bar)
DECAY        35     5.06912832E+00   # H^0
#    BR                NDA      ID1      ID2
     1.30160850E-08    2          11       -11   # BR(H^0 -> e^- e^+)
     5.56476397E-04    2          13       -13   # BR(H^0 -> mu^- mu^+)
     1.57561882E-01    2          15       -15   # BR(H^0 -> tau^- tau^+)
     8.22926734E-07    2           1        -1   # BR(H^0 -> d d_bar)
     3.62910554E-04    2           3        -3   # BR(H^0 -> s s_bar)
     8.17011648E-01    2           5        -5   # BR(H^0 -> b b_bar)
     2.60097131E-12    2           2        -2   # BR(H^0 -> u u_bar)
     4.66123689E-07    2           4        -4   # BR(H^0 -> c c_bar)
     2.30885127E-02    2           6        -6   # BR(H^0 -> t t_bar)
     8.55276156E-06    2     2000011  -2000011   # BR(H^0 -> ~e^-_R ~e^+_R)
     8.56041062E-06    2     2000013  -2000013   # BR(H^0 -> ~mu^-_R ~mu^+_R)
     1.06649526E-05    2     1000015  -1000015   # BR(H^0 -> ~tau^-_1 ~tau^+_1)
     1.58896381E-04    2     1000022   1000022   # BR(H^0 -> chi^0_1 chi^0_1)
     3.30727876E-04    2          23        23   # BR(H^0 -> Z Z)
     6.32912484E-04    2          24       -24   # BR(H^0 -> W^+ W^-)
     2.26856876E-04    2          25        25   # BR(H^0 -> h^0 h^0)
     3.99895698E-05    2          21        21   # BR(H^0 -> g g)
     1.07349113E-07    2          22        22   # BR(H^0 -> photon photon)
DECAY        36     5.07191066E+00   # A^0
#    BR                NDA      ID1      ID2
     1.30120536E-08    2          11       -11   # BR(A^0 -> e^- e^+)
     5.56304068E-04    2          13       -13   # BR(A^0 -> mu^- mu^+)
     1.57515166E-01    2          15       -15   # BR(A^0 -> tau^- tau^+)
     8.22671048E-07    2           1        -1   # BR(A^0 -> d d_bar)
     3.62797756E-04    2           3        -3   # BR(A^0 -> s s_bar)
     8.16765751E-01    2           5        -5   # BR(A^0 -> b b_bar)
     2.28382539E-12    2           2        -2   # BR(A^0 -> u u_bar)
     4.09287399E-07    2           4        -4   # BR(A^0 -> c c_bar)
     2.23826588E-02    2           6        -6   # BR(A^0 -> t t_bar)
     1.77023318E-03    2     1000022   1000022   # BR(A^0 -> chi^0_1 chi^0_1)
     6.17898565E-04    2          25        23   # BR(A^0 -> h^0 Z)
     2.78254270E-05    2          21        21   # BR(A^0 -> g g)
     1.20434681E-07    2          22        22   # BR(A^0 -> photon photon)
DECAY        37     4.34334571E+00   # H^+
#    BR                NDA      ID1      ID2
     1.52524778E-08    2         -11        12   # BR(H^+ -> e^+ nu_e)
     6.52088880E-04    2         -13        12   # BR(H^+ -> mu^+ nu_e)
     1.84636243E-01    2         -15        12   # BR(H^+ -> tau^+ nu_e)
     8.49228888E-07    2          -1         2   # BR(H^+ -> d_bar u)
     3.74929983E-04    2          -3         4   # BR(H^+ -> s_bar c)
     8.13621393E-01    2          -5         6   # BR(H^+ -> b_bar t)
     7.14480155E-04    2          25        24   # BR(H^+ -> h^0 W^+)
DECAY         6     2.43000000E+00   # top
#    BR                NDA      ID1      ID2
     1.00000000E+00    2           5        24   # BR(t -> b W)
Block HiggsBoundsInputHiggsCouplingsFermions
# ScalarNormEffCoupSq PseudoSNormEffCoupSq NP IP1 IP2 IP2
    1.13811893E+00    0.00000000E+00        3  25   5   5  # h0-b-b eff. coupling^2, normalised to SM
    3.99861881E+02    0.00000000E+00        3  35   5   5  # H0-b-b eff. coupling^2, normalised to SM
    0.00000000E+00    4.00000000E+02        3  36   5   5  # A0-b-b eff. coupling^2, normalised to SM
#
    9.99654703E-01    0.00000000E+00        3  25   6   6  # h0-t-t eff. coupling^2, normalised to SM
    2.84529733E-03    0.00000000E+00        3  35   6   6  # H0-t-t eff. coupling^2, normalised to SM
    0.00000000E+00    2.50000000E-03        3  36   6   6  # A0-t-t eff. coupling^2, normalised to SM
#
    1.13811893E+00    0.00000000E+00        3  25  15  15  # h0-tau-tau eff. coupling^2, normalised to SM
    3.99861881E+02    0.00000000E+00        3  35  15  15  # H0-tau-tau eff. coupling^2, normalised to SM
    0.00000000E+00    4.00000000E+02        3  36  15  15  # A0-tau-tau eff. coupling^2, normalised to SM
#
Block HiggsBoundsInputHiggsCouplingsBosons
    9.99988834E-01        3  25  24  24  # h0-W-W eff. coupling^2, normalised to SM
    1.11663418E-05        3  35  24  24  # H0-W-W eff. coupling^2, normalised to SM
    0.00000000E+00        3  36  24  24  # A0-W-W eff. coupling^2, normalised to SM
#
    9.99988834E-01        3  25  23  23  # h0-Z-Z eff. coupling^2, normalised to SM
    1.11663418E-05        3  35  23  23  # H0-Z-Z eff. coupling^2, normalised to SM
    0.00000000E+00        3  36  23  23  # A0-Z-Z eff. coupling^2, normalised to SM
#
    1.16130813E+00        3  25  21  21  # h0-g-g eff. coupling^2, normalised to SM
    5.46483891E-03        3  35  21  21  # H0-g-g eff. coupling^2, normalised to SM
    1.08542224E-01        3  36  21  21  # A0-g-g eff. coupling^2, normalised to SM
#
    0.00000000E+00        3  25  25  23  # h0-h0-Z eff. coupling^2, normalised to SM
    0.00000000E+00        3  35  25  23  # H0-h0-Z eff. coupling^2, normalised to SM
    1.11663418E-05        3  36  25  23  # A0-h0-Z eff. coupling^2, normalised to SM
    0.00000000E+00        3  35  35  23  # H0-H0-Z eff. coupling^2, normalised to SM
    9.99988834E-01        3  36  35  23  # A0-H0-Z eff. coupling^2, normalised to SM
    0.00000000E+00        3  36  36  23  # A0-A0-Z eff. coupling^2, normalised to SM
#
    0.00000000E+00        4  25  21  21  23  # h0-g-g-Z eff. coupling^2, normalised to SM
    0.00000000E+00        4  35  21  21  23  # H0-g-g-Z eff. coupling^2, normalised to SM
    0.00000000E+00        4  36  21  21  23  # A0-g-g-Z eff. coupling^2, normalised to SM
Block SPhenoLowEnergy  # low energy observables
    1    3.16680226E-04   # BR(b -> s gamma)
    2    1.58991951E-06   # BR(b -> s mu+ mu-)
    3    3.53839828E-05   # BR(b -> s nu nu)
    4    5.17750925E-11   # BR(Bd -> mu+ mu-)
    5    3.38275497E-09   # BR(Bs -> mu+ mu-)
    6    1.08887656E-04   # BR(B_u -> tau nu)
    7    9.84577108E-01   # BR(B_u -> tau nu)/BR(B_u -> tau nu)_SM
    8    2.73686855E-01   # |Delta(M_Bd)| [ps^-1] 
    9    2.03086040E+01   # |Delta(M_Bs)| [ps^-1] 
   20    1.70096608E-14   # Delta(g-2)_electron/2
   21    3.66129780E-10   # Delta(g-2)_muon/2
   22    2.59728062E-08   # Delta(g-2)_tau/2
   23    0.00000000E+00   # electric dipole moment of the electron
   24    0.00000000E+00   # electric dipole moment of the muon
   25    0.00000000E+00   # electric dipole moment of the tau
   26    0.00000000E+00   # Br(mu -> e gamma)
   27    0.00000000E+00   # Br(tau -> e gamma)
   28    0.00000000E+00   # Br(tau -> mu gamma)
   29    0.00000000E+00   # Br(mu -> 3 e)
   30    0.00000000E+00   # Br(tau -> 3 e)
   31    0.00000000E+00   # Br(tau -> 3 mu)
   39    6.17830543E-04   # Delta(rho_parameter)
   40    0.00000000E+00   # BR(Z -> e mu)
   41    0.00000000E+00   # BR(Z -> e tau)
   42    0.00000000E+00   # BR(Z -> mu tau)
Block FWCOEF Q=  9.11876000E+01  # Wilson coefficients at scale Q
#    id        order  M        value         comment
Block FWCOEF Q=  1.60000000E+02  # Wilson coefficients at scale Q
#    id        order  M        value         comment
     0305 4422   00   0    -1.87758631E-01   # C7
     0305 4422   00   1    -1.76426203E-02   # C7
     0305 4322   00   1    -3.84354338E-04   # C7'
     0305 6421   00   0    -9.48897726E-02   # C8
     0305 6421   00   1    -2.55976374E-02   # C8
     0305 6321   00   1    -5.50721685E-04   # C8'
 03051111 4133   00   0    -1.11232776E+00   # C9 e+e-
 03051111 4133   00   1     1.08677423E-03   # C9 e+e-
 03051111 4233   00   1    -1.61409451E-05   # C9' e+e-
 03051111 4137   00   0    -3.95573972E+00   # C10 e+e-
 03051111 4137   00   1     3.48887688E-03   # C10 e+e-
 03051111 4237   00   1     3.92366927E-04   # C10' e+e-
 03051313 4133   00   0    -1.11232776E+00   # C9 mu+mu-
 03051313 4133   00   1     1.08671861E-03   # C9 mu+mu-
 03051313 4233   00   1    -1.61418700E-05   # C9' mu+mu-
 03051313 4137   00   0    -3.95573972E+00   # C10 mu+mu-
 03051313 4137   00   1     3.48882114E-03   # C10 mu+mu-
 03051313 4237   00   1     3.92367852E-04   # C10' mu+mu-
 03051212 4237   00   0     1.49016386E+00   # C11 nu_1 nu_1
 03051212 4237   00   1    -8.39383578E-04   # C11 nu_1 nu_1
 03051212 4137   00   1    -9.41086106E-05   # C11' nu_1 nu_1
 03051414 4237   00   0     1.49016386E+00   # C11 nu_2 nu_2
 03051414 4237   00   1    -8.39383532E-04   # C11 nu_2 nu_2
 03051414 4137   00   1    -9.41083919E-05   # C11' nu_2 nu_2
 03051616 4237   00   0     1.49016386E+00   # C11 nu_3 nu_3
 03051616 4237   00   1    -8.39368334E-04   # C11 nu_3 nu_3
 03051616 4137   00   1    -9.40467330E-05   # C11' nu_3 nu_3
