#
#                              ======================
#                              | THE SUSYHIT OUTPUT |
#                              ======================
#
#
#              ------------------------------------------------------
#              |     This is the output of the SUSY-HIT package     |
#              |  created by A.Djouadi, M.Muehlleitner and M.Spira. |
#              |  In case of problems with SUSY-HIT email to        |
#              |           margarete.muehlleitner@cern.ch           |
#              |           michael.spira@psi.ch                     |
#              |           abdelhak.djouadi@cern.ch                 |
#              ------------------------------------------------------
#
#              ------------------------------------------------------
#              |  SUSY Les Houches Accord - MSSM Spectrum + Decays  |
#              |              based on the decay programs           |
#              |                                                    |
#              |                     SDECAY 1.3b                    |
#              |                                                    |
#              |  Authors: M.Muhlleitner, A.Djouadi and Y.Mambrini  |
#              |  Ref.:    Comput.Phys.Commun.168(2005)46           |
#              |           [hep-ph/0311167]                         |
#              |                                                    |
#              |                     HDECAY 3.4                     |
#              |                                                    |
#              |  By: A.Djouadi,J.Kalinowski,M.Muhlleitner,M.Spira  |
#              |  Ref.:    Comput.Phys.Commun.108(1998)56           |
#              |           [hep-ph/9704448]                         |
#              |                                                    |
#              |                                                    |
#              |  If not stated otherwise all DRbar couplings and   |
#              |  soft SUSY breaking masses are given at the scale  |
#              |  Q=  0.91187600E+02
#              |                                                    |
#              ------------------------------------------------------
#
#
BLOCK DCINFO  # Decay Program information
     1   SDECAY/HDECAY # decay calculator
     2   1.3b  /3.4    # version number
#
BLOCK SPINFO  # Spectrum calculator information
     1   SuSpect     # RGE +Spectrum calculator            
     2   2.41         # version number                     
#
BLOCK MODSEL  # Model selection
     1     0   # #general MSSM low scale                           
#
BLOCK SMINPUTS  # Standard Model inputs
         1     1.27934000E+02   # alpha_em^-1(M_Z)^MSbar
         2     1.16639000E-05   # G_F [GeV^-2]
         3     1.17200000E-01   # alpha_S(M_Z)^MSbar
         4     9.11870000E+01   # M_Z pole mass
         5     4.25000000E+00   # mb(mb)^MSbar
         6     1.72500000E+02   # mt pole mass
         7     1.77700000E+00   # mtau pole mass
#
BLOCK MINPAR  # Input parameters - minimal models
#
BLOCK EXTPAR  # Input parameters - non-minimal models
         0     9.11876000E+01   # EWSB                
         1     6.00000000E+02   # M_1                 
         2     1.00000000E+05   # M_2                 
         3     1.00000000E+05   # M_3                 
        11     0.00000000E+00   # A_t                 
        12     0.00000000E+00   # A_b                 
        13     0.00000000E+00   # A_tau               
        14     0.00000000E+00   # A_u                 
        15     0.00000000E+00   # A_d                 
        16     0.00000000E+00   # A_e                 
        23     3.50000000E+03   # mu(EWSB)            
        25     1.50000000E+00   # tanbeta(in)         
        26     2.00000000E+03   # MA_pole             
        31     1.00000000E+05   # M_eL                
        32     1.00000000E+05   # M_muL               
        33     1.00000000E+05   # M_tauL              
        34     1.00000000E+05   # M_eR                
        35     1.00000000E+05   # M_muR               
        36     1.00000000E+05   # M_tauR              
        41     1.30000000E+03   # M_q1L               
        42     1.30000000E+03   # M_q2L               
        43     1.30000000E+03   # M_q3L               
        44     1.00000000E+05   # M_uR                
        45     1.00000000E+05   # M_cR                
        46     1.00000000E+05   # M_tR                
        47     1.30000000E+03   # M_dR                
        48     1.30000000E+03   # M_sR                
        49     1.30000000E+03   # M_bR                
#
BLOCK MASS  # Mass Spectrum
# PDG code           mass       particle
        24     8.05817582E+01   # W+
        25     1.25000000E+02   # h
        35     2.00397827E+03   # H
        36     2.00000000E+03   # A
        37     2.02369850E+03   # H+
         5     4.87877839E+00   # b-quark pole mass calculated from mb(mb)_Msbar
   1000001     1.30051146E+03   # ~d_L
   2000001     1.30009843E+03   # ~d_R
   1000002     1.29958681E+03   # ~u_L
   2000002     9.99999974E+04   # ~u_R
   1000003     1.30051146E+03   # ~s_L
   2000003     1.30009843E+03   # ~s_R
   1000004     1.29958681E+03   # ~c_L
   2000004     9.99999974E+04   # ~c_R
   1000005     1.29507892E+03   # ~b_1
   2000005     1.30551519E+03   # ~b_2
   1000006     1.30792439E+03   # ~t_1
   2000006     1.00000106E+05   # ~t_2
   1000011     1.00000004E+05   # ~e_L
   2000011     1.00000004E+05   # ~e_R
   1000012     9.99999921E+04   # ~nu_eL
   1000013     1.00000004E+05   # ~mu_L
   2000013     1.00000004E+05   # ~mu_R
   1000014     9.99999921E+04   # ~nu_muL
   1000015     9.99999574E+04   # ~tau_1
   2000015     1.00000051E+05   # ~tau_2
   1000016     9.99999921E+04   # ~nu_tauL
   1000021     1.00000000E+05   # ~g
   1000022     5.99357006E+02   # ~chi_10
   1000023    -3.50002105E+03   # ~chi_20
   1000025     3.50059944E+03   # ~chi_30
   1000035     1.00000065E+05   # ~chi_40
   1000024     3.49994004E+03   # ~chi_1+
   1000037     1.00000065E+05   # ~chi_2+
   1000039     1.00000000E-09   # ~gravitino
#
BLOCK NMIX  # Neutralino Mixing Matrix
  1  1     9.99883669E-01   # N_11
  1  2    -1.14456619E-05   # N_12
  1  3     1.21902431E-02   # N_13
  1  4    -9.16772775E-03   # N_14
  2  1     2.13725531E-03   # N_21
  2  2    -1.49821972E-04   # N_22
  2  3    -7.07094526E-01   # N_23
  2  4    -7.07115790E-01   # N_24
  3  1     1.51023672E-02   # N_31
  3  2     8.03307133E-04   # N_32
  3  3    -7.07013801E-01   # N_33
  3  4     7.07038017E-01   # N_34
  4  1     3.67301933E-07   # N_41
  4  2    -9.99999666E-01   # N_42
  4  3    -4.62150613E-04   # N_43
  4  4     6.74015320E-04   # N_44
#
BLOCK UMIX  # Chargino Mixing Matrix U
  1  1    -6.53579459E-04   # U_11
  1  2     9.99999786E-01   # U_12
  2  1     9.99999786E-01   # U_21
  2  2     6.53579459E-04   # U_22
#
BLOCK VMIX  # Chargino Mixing Matrix V
  1  1    -9.53201519E-04   # V_11
  1  2     9.99999546E-01   # V_12
  2  1     9.99999546E-01   # V_21
  2  2     9.53201519E-04   # V_22
#
BLOCK STOPMIX  # Stop Mixing Matrix
  1  1     9.99999999E-01   # cos(theta_t)
  1  2     4.47213589E-05   # sin(theta_t)
  2  1    -4.47213589E-05   # -sin(theta_t)
  2  2     9.99999999E-01   # cos(theta_t)
#
BLOCK SBOTMIX  # Sbottom Mixing Matrix
  1  1     6.92973000E-01   # cos(theta_b)
  1  2     7.20963537E-01   # sin(theta_b)
  2  1    -7.20963537E-01   # -sin(theta_b)
  2  2     6.92973000E-01   # cos(theta_b)
#
BLOCK STAUMIX  # Stau Mixing Matrix
  1  1     7.06147942E-01   # cos(theta_tau)
  1  2     7.08064322E-01   # sin(theta_tau)
  2  1    -7.08064322E-01   # -sin(theta_tau)
  2  2     7.06147942E-01   # cos(theta_tau)
#
BLOCK ALPHA  # Higgs mixing
          -5.90269726E-01   # Mixing angle in the neutral Higgs boson sector
#
BLOCK HMIX Q=  9.11876000E+01  # DRbar Higgs Parameters
         1     3.50000000E+03   # mu(Q)               
         2     1.49999982E+00   # tanbeta(Q)          
         3     2.54863734E+02   # vev(Q)              
         4    -6.83219157E+07   # MA^2(Q)             
#
BLOCK GAUGE Q=  9.11876000E+01  # The gauge couplings
     1     3.50606231E-01   # gprime(Q) DRbar
     2     6.20430422E-01   # g(Q) DRbar
     3     1.02657282E+00   # g3(Q) DRbar
#
BLOCK AU Q=  9.11876000E+01  # The trilinear couplings
  1  1     0.00000000E+00   # A_u(Q) DRbar
  2  2     0.00000000E+00   # A_c(Q) DRbar
  3  3     0.00000000E+00   # A_t(Q) DRbar
#
BLOCK AD Q=  9.11876000E+01  # The trilinear couplings
  1  1     0.00000000E+00   # A_d(Q) DRbar
  2  2     0.00000000E+00   # A_s(Q) DRbar
  3  3     0.00000000E+00   # A_b(Q) DRbar
#
BLOCK AE Q=  9.11876000E+01  # The trilinear couplings
  1  1     0.00000000E+00   # A_e(Q) DRbar
  2  2     0.00000000E+00   # A_mu(Q) DRbar
  3  3     0.00000000E+00   # A_tau(Q) DRbar
#
BLOCK Yu Q=  9.11876000E+01  # The Yukawa couplings
  1  1     0.00000000E+00   # y_u(Q) DRbar
  2  2     0.00000000E+00   # y_c(Q) DRbar
  3  3     9.83578449E-01   # y_t(Q) DRbar
#
BLOCK Yd Q=  9.11876000E+01  # The Yukawa couplings
  1  1     0.00000000E+00   # y_d(Q) DRbar
  2  2     0.00000000E+00   # y_s(Q) DRbar
  3  3     2.58367021E-02   # y_b(Q) DRbar
#
BLOCK Ye Q=  9.11876000E+01  # The Yukawa couplings
  1  1     0.00000000E+00   # y_e(Q) DRbar
  2  2     0.00000000E+00   # y_mu(Q) DRbar
  3  3     1.77397703E-02   # y_tau(Q) DRbar
#
BLOCK MSOFT Q=  9.11876000E+01  # The soft SUSY breaking masses at the scale Q
         1     6.00000000E+02   # M_1                 
         2     1.00000000E+05   # M_2                 
         3     1.00000000E+05   # M_3                 
        14     0.00000000E+00   # A_u                 
        15     0.00000000E+00   # A_d                 
        16     0.00000000E+00   # A_e                 
        21     6.33064825E+08   # M^2_Hd              
        22    -1.14713657E+09   # M^2_Hu              
        31     1.00000000E+05   # M_eL                
        32     1.00000000E+05   # M_muL               
        33     1.00000000E+05   # M_tauL              
        34     1.00000000E+05   # M_eR                
        35     1.00000000E+05   # M_muR               
        36     1.00000000E+05   # M_tauR              
        41     1.30000000E+03   # M_q1L               
        42     1.30000000E+03   # M_q2L               
        43     1.30000000E+03   # M_q3L               
        44     1.00000000E+05   # M_uR                
        45     1.00000000E+05   # M_cR                
        46     1.00000000E+05   # M_tR                
        47     1.30000000E+03   # M_dR                
        48     1.30000000E+03   # M_sR                
        49     1.30000000E+03   # M_bR                
#
#
#
#                             =================
#                             |The decay table|
#                             =================
#
# - The QCD corrections to the decays gluino -> squark  + quark
#                                     squark -> gaugino + quark_prime
#                                     squark -> squark_prime + Higgs
#                                     squark -> gluino  + quark
#   are included.
#
# - The multi-body decays for the inos, stops and sbottoms are included.
#
# - The loop induced decays for the gluino, neutralinos and stops
#   are included.
#
# - The SUSY decays of the top quark are included.
#
# - Possible decays of the NLSP in GMSB models are included.
#
#
#         PDG            Width
DECAY         6     1.32863766E+00   # top decays
#          BR         NDA      ID1       ID2
     1.00000000E+00    2           5        24   # BR(t ->  b    W+)
#
#         PDG            Width
DECAY   1000021     1.E-04   # gluino decays (OJ Mods)
#          BR         NDA      ID1       ID2
    -2.12036516E-04    2     1000001        -1   # BR(~g -> ~d_L  db)
    -2.12036516E-04    2    -1000001         1   # BR(~g -> ~d_L* d )
    -2.12036562E-04    2     2000001        -1   # BR(~g -> ~d_R  db)
    -2.12036562E-04    2    -2000001         1   # BR(~g -> ~d_R* d )
    -2.12036618E-04    2     1000002        -2   # BR(~g -> ~u_L  ub)
    -2.12036618E-04    2    -1000002         2   # BR(~g -> ~u_L* u )
    -5.73540719E-19    2     2000002        -2   # BR(~g -> ~u_R  ub)
    -5.73540719E-19    2    -2000002         2   # BR(~g -> ~u_R* u )
    -2.12036516E-04    2     1000003        -3   # BR(~g -> ~s_L  sb)
    -2.12036516E-04    2    -1000003         3   # BR(~g -> ~s_L* s )
    -2.12036562E-04    2     2000003        -3   # BR(~g -> ~s_R  sb)
    -2.12036562E-04    2    -2000003         3   # BR(~g -> ~s_R* s )
    -2.12036618E-04    2     1000004        -4   # BR(~g -> ~c_L  cb)
    -2.12036618E-04    2    -1000004         4   # BR(~g -> ~c_L* c )
    -5.73540719E-19    2     2000004        -4   # BR(~g -> ~c_R  cb)
    -5.73540719E-19    2    -2000004         4   # BR(~g -> ~c_R* c )
     2.52107680E-01    2     1000005        -5   # BR(~g -> ~b_1  bb)
     2.52107680E-01    2    -1000005         5   # BR(~g -> ~b_1* b )
     2.52339919E-01    2     2000005        -5   # BR(~g -> ~b_2  bb)
     2.52339919E-01    2    -2000005         5   # BR(~g -> ~b_2* b )
    -2.08664116E-04    2     1000006        -6   # BR(~g -> ~t_1  tb)
    -2.08664116E-04    2    -1000006         6   # BR(~g -> ~t_1* t )
    -5.93343102E-03    2     1000039        21   # BR(~g -> ~G g)
#
#         PDG            Width
DECAY   1000006     1.30647022E-01   # stop1 decays
#          BR         NDA      ID1       ID2
     1.00000000E+00    2     1000022         6   # BR(~t_1 -> ~chi_10 t )
#
#         PDG            Width
DECAY   2000006    -9.03477659E+05   # stop2 decays
#          BR         NDA      ID1       ID2
    -2.30747970E-04    2     1000022         6   # BR(~t_2 -> ~chi_10 t )
    -5.51142482E-04    2     1000023         6   # BR(~t_2 -> ~chi_20 t )
    -5.51063532E-04    2     1000025         6   # BR(~t_2 -> ~chi_30 t )
     1.00131367E+00    2     1000024         5   # BR(~t_2 -> ~chi_1+ b )
     1.51152874E-05    2     1000006        25   # BR(~t_2 -> ~t_1    h )
    -1.58230892E-05    2     1000006        35   # BR(~t_2 -> ~t_1    H )
    -1.57957431E-05    2     1000006        36   # BR(~t_2 -> ~t_1    A )
    -1.48770890E-05    2     1000005        37   # BR(~t_2 -> ~b_1    H+)
    -1.67140393E-05    2     2000005        37   # BR(~t_2 -> ~b_2    H+)
     1.08199734E-05    2     1000006        23   # BR(~t_2 -> ~t_1    Z )
     2.71597054E-05    2     1000005        24   # BR(~t_2 -> ~b_1    W+)
     2.93969730E-05    2     2000005        24   # BR(~t_2 -> ~b_2    W+)
#
#         PDG            Width
DECAY   1000005    -1.28878136E+02   # sbottom1 decays
#          BR         NDA      ID1       ID2
     1.00000000E+00    2     1000022         5   # BR(~b_1 -> ~chi_10 b )
#
#         PDG            Width
DECAY   2000005    -1.24978174E+02   # sbottom2 decays
#          BR         NDA      ID1       ID2
     1.00000000E+00    2     1000022         5   # BR(~b_2 -> ~chi_10 b )
#
#         PDG            Width
DECAY   1000002     1.35614029E-01   # sup_L decays
#          BR         NDA      ID1       ID2
     1.00000000E+00    2     1000022         2   # BR(~u_L -> ~chi_10 u)
#
#         PDG            Width
DECAY   2000002     2.08386367E+02   # sup_R decays
#          BR         NDA      ID1       ID2
     9.99767614E-01    2     1000022         2   # BR(~u_R -> ~chi_10 u)
     4.56268227E-06    2     1000023         2   # BR(~u_R -> ~chi_20 u)
     2.27822832E-04    2     1000025         2   # BR(~u_R -> ~chi_30 u)
#
#         PDG            Width
DECAY   1000001     1.35838474E-01   # sdown_L decays
#          BR         NDA      ID1       ID2
     1.00000000E+00    2     1000022         1   # BR(~d_L -> ~chi_10 d)
#
#         PDG            Width
DECAY   2000001     5.42945807E-01   # sdown_R decays
#          BR         NDA      ID1       ID2
     1.00000000E+00    2     1000022         1   # BR(~d_R -> ~chi_10 d)
#
#         PDG            Width
DECAY   1000004     1.35614029E-01   # scharm_L decays
#          BR         NDA      ID1       ID2
     1.00000000E+00    2     1000022         4   # BR(~c_L -> ~chi_10 c)
#
#         PDG            Width
DECAY   2000004     2.08386367E+02   # scharm_R decays
#          BR         NDA      ID1       ID2
     9.99767614E-01    2     1000022         4   # BR(~c_R -> ~chi_10 c)
     4.56268227E-06    2     1000023         4   # BR(~c_R -> ~chi_20 c)
     2.27822832E-04    2     1000025         4   # BR(~c_R -> ~chi_30 c)
#
#         PDG            Width
DECAY   1000003     1.35838474E-01   # sstrange_L decays
#          BR         NDA      ID1       ID2
     1.00000000E+00    2     1000022         3   # BR(~s_L -> ~chi_10 s)
#
#         PDG            Width
DECAY   2000003     5.42945807E-01   # sstrange_R decays
#          BR         NDA      ID1       ID2
     1.00000000E+00    2     1000022         3   # BR(~s_R -> ~chi_10 s)
#
#         PDG            Width
DECAY   1000011     1.22267370E+02   # selectron_L decays
#          BR         NDA      ID1       ID2
     9.99721446E-01    2     1000022        11   # BR(~e_L -> ~chi_10 e-)
     3.49652635E-06    2     1000023        11   # BR(~e_L -> ~chi_20 e-)
     2.72388409E-04    2     1000025        11   # BR(~e_L -> ~chi_30 e-)
     2.66893448E-06    2    -1000024        12   # BR(~e_L -> ~chi_1- nu_e)
#
#         PDG            Width
DECAY   2000011     4.89066567E+02   # selectron_R decays
#          BR         NDA      ID1       ID2
     9.99767904E-01    2     1000022        11   # BR(~e_R -> ~chi_10 e-)
     4.55700564E-06    2     1000023        11   # BR(~e_R -> ~chi_20 e-)
     2.27539320E-04    2     1000025        11   # BR(~e_R -> ~chi_30 e-)
#
#         PDG            Width
DECAY   1000013     1.22267370E+02   # smuon_L decays
#          BR         NDA      ID1       ID2
     9.99721446E-01    2     1000022        13   # BR(~mu_L -> ~chi_10 mu-)
     3.49652635E-06    2     1000023        13   # BR(~mu_L -> ~chi_20 mu-)
     2.72388409E-04    2     1000025        13   # BR(~mu_L -> ~chi_30 mu-)
     2.66893448E-06    2    -1000024        14   # BR(~mu_L -> ~chi_1- nu_mu)
#
#         PDG            Width
DECAY   2000013     4.89066567E+02   # smuon_R decays
#          BR         NDA      ID1       ID2
     9.99767904E-01    2     1000022        13   # BR(~mu_R -> ~chi_10 mu-)
     4.55700564E-06    2     1000023        13   # BR(~mu_R -> ~chi_20 mu-)
     2.27539320E-04    2     1000025        13   # BR(~mu_R -> ~chi_30 mu-)
#
#         PDG            Width
DECAY   1000015     1.18200431E+04   # stau_1 decays
#          BR         NDA      ID1       ID2
     2.59048770E-02    2     1000022        15   # BR(~tau_1 -> ~chi_10  tau-)
     2.52760846E-05    2     1000023        15   # BR(~tau_1 -> ~chi_20  tau-)
     2.53945458E-05    2     1000025        15   # BR(~tau_1 -> ~chi_30  tau-)
     2.77118729E-05    2    -1000024        16   # BR(~tau_1 -> ~chi_1-  nu_tau)
     9.74016740E-01    2     1000039        15   # BR(~tau_1 -> ~G       tau-)
#
#         PDG            Width
DECAY   2000015     3.06084315E+02   # stau_2 decays
#          BR         NDA      ID1       ID2
     9.96424113E-01    2     1000022        15   # BR(~tau_2 -> ~chi_10  tau-)
     1.07294566E-03    2     1000023        15   # BR(~tau_2 -> ~chi_20  tau-)
     1.53160000E-03    2     1000025        15   # BR(~tau_2 -> ~chi_30  tau-)
     9.71341212E-04    2    -1000024        16   # BR(~tau_2 -> ~chi_1-  nu_tau)
#
#         PDG            Width
DECAY   1000012     1.22267430E+02   # snu_eL decays
#          BR         NDA      ID1       ID2
     9.99801846E-01    2     1000022        12   # BR(~nu_eL -> ~chi_10 nu_e)
     5.75767366E-06    2     1000023        12   # BR(~nu_eL -> ~chi_20 nu_e)
     1.86719253E-04    2     1000025        12   # BR(~nu_eL -> ~chi_30 nu_e)
     5.67688781E-06    2     1000024        11   # BR(~nu_eL -> ~chi_1+ e-)
#
#         PDG            Width
DECAY   1000014     1.22267430E+02   # snu_muL decays
#          BR         NDA      ID1       ID2
     9.99801846E-01    2     1000022        14   # BR(~nu_muL -> ~chi_10 nu_mu)
     5.75767366E-06    2     1000023        14   # BR(~nu_muL -> ~chi_20 nu_mu)
     1.86719253E-04    2     1000025        14   # BR(~nu_muL -> ~chi_30 nu_mu)
     5.67688781E-06    2     1000024        13   # BR(~nu_muL -> ~chi_1+ mu-)
#
#         PDG            Width
DECAY   1000016     1.22891971E+02   # snu_tauL decays
#          BR         NDA      ID1       ID2
     9.94720817E-01    2     1000022        16   # BR(~nu_tauL -> ~chi_10 nu_tau)
     5.72841296E-06    2     1000023        16   # BR(~nu_tauL -> ~chi_20 nu_tau)
     1.85770339E-04    2     1000025        16   # BR(~nu_tauL -> ~chi_30 nu_tau)
     5.08768390E-03    2     1000024        15   # BR(~nu_tauL -> ~chi_1+ tau-)
#
#         PDG            Width
DECAY   1000024     4.13495832E+01   # chargino1+ decays
#          BR         NDA      ID1       ID2
     7.72364867E-07    2     1000002        -1   # BR(~chi_1+ -> ~u_L     db)
     3.62963492E-07    2    -1000001         2   # BR(~chi_1+ -> ~d_L*    u )
     7.72364867E-07    2     1000004        -3   # BR(~chi_1+ -> ~c_L     sb)
     3.62963492E-07    2    -1000003         4   # BR(~chi_1+ -> ~s_L*    c )
    -5.77347786E-01    2     1000006        -5   # BR(~chi_1+ -> ~t_1     bb)
     1.26249676E-01    2    -1000005         6   # BR(~chi_1+ -> ~b_1*    t )
     1.37422526E+00    2    -2000005         6   # BR(~chi_1+ -> ~b_2*    t )
     6.50086379E-02    2     1000022        24   # BR(~chi_1+ -> ~chi_10  W+)
     1.18532097E-02    2     1000022        37   # BR(~chi_1+ -> ~chi_10  H+)
     7.29622224E-06    2     1000039        24   # BR(~chi_1+ -> ~G       W+)
     1.43558896E-06    2     1000039        37   # BR(~chi_1+ -> ~G       H+)
#
#         PDG            Width
DECAY   1000037    -5.33183985E+05   # chargino2+ decays
#          BR         NDA      ID1       ID2
    -2.11083432E-03    2     1000002        -1   # BR(~chi_2+ -> ~u_L     db)
    -2.11083506E-03    2    -1000001         2   # BR(~chi_2+ -> ~d_L*    u )
    -2.11083432E-03    2     1000004        -3   # BR(~chi_2+ -> ~c_L     sb)
    -2.11083506E-03    2    -1000003         4   # BR(~chi_2+ -> ~s_L*    c )
     1.03588272E+00    2     1000006        -5   # BR(~chi_2+ -> ~t_1     bb)
    -4.56772404E-04    2    -1000005         6   # BR(~chi_2+ -> ~b_1*    t )
    -2.01081350E-03    2    -2000005         6   # BR(~chi_2+ -> ~b_2*    t )
    -1.56028399E-15    2     1000012       -11   # BR(~chi_2+ -> ~nu_eL   e+  )
    -1.56028399E-15    2     1000014       -13   # BR(~chi_2+ -> ~nu_muL  mu+ )
    -1.09246750E-15    2    -1000011        12   # BR(~chi_2+ -> ~e_L+    nu_e)
    -1.09246750E-15    2    -1000013        14   # BR(~chi_2+ -> ~mu_L+   nu_mu)
    -1.69491653E-15    2    -1000015        16   # BR(~chi_2+ -> ~tau_1+  nu_tau)
    -2.88513900E-17    2    -2000015        16   # BR(~chi_2+ -> ~tau_2+  nu_tau)
    -3.87482513E-04    2     1000024        23   # BR(~chi_2+ -> ~chi_1+  Z )
    -6.95257855E-08    2     1000022        24   # BR(~chi_2+ -> ~chi_10  W+)
    -3.76088889E-04    2     1000023        24   # BR(~chi_2+ -> ~chi_20  W+)
    -3.76015290E-04    2     1000025        24   # BR(~chi_2+ -> ~chi_30  W+)
    -3.90720606E-04    2     1000024        25   # BR(~chi_2+ -> ~chi_1+  h )
    -3.42980115E-04    2     1000024        35   # BR(~chi_2+ -> ~chi_1+  H )
    -3.43024949E-04    2     1000024        36   # BR(~chi_2+ -> ~chi_1+  A )
    -8.88239482E-08    2     1000022        37   # BR(~chi_2+ -> ~chi_10  H+)
    -3.43012592E-04    2     1000023        37   # BR(~chi_2+ -> ~chi_20  H+)
    -3.42935839E-04    2     1000025        37   # BR(~chi_2+ -> ~chi_30  H+)
    -2.20693675E-02    2     1000039        24   # BR(~chi_2+ -> ~G       W+)
    -6.33785103E-09    2     1000039        37   # BR(~chi_2+ -> ~G       H+)
#
#         PDG            Width
DECAY   1000022     1.E-08   # neutralino1 decays (OJ Mods)
#          BR         NDA      ID1       ID2
     7.74638960E-01    2     1000039        22   # BR(~chi_10 -> ~G        gam)
     2.25360744E-01    2     1000039        23   # BR(~chi_10 -> ~G        Z)
     2.95842592E-07    2     1000039        25   # BR(~chi_10 -> ~G        h)
#
#         PDG            Width
DECAY   1000023     1.E-08   # neutralino2 decays (OJ Mods)
#          BR         NDA      ID1       ID2
     1.61042109E-01    2     1000022        23   # BR(~chi_20 -> ~chi_10   Z )
     3.17209774E-03    2     1000022        25   # BR(~chi_20 -> ~chi_10   h )
     2.68435586E-02    2     1000022        35   # BR(~chi_20 -> ~chi_10   H )
     3.12952311E-03    2     1000022        36   # BR(~chi_20 -> ~chi_10   A )
     7.65949821E-08    2     1000002        -2   # BR(~chi_20 -> ~u_L      ub)
     7.65949821E-08    2    -1000002         2   # BR(~chi_20 -> ~u_L*     u )
     3.65683665E-07    2     1000001        -1   # BR(~chi_20 -> ~d_L      db)
     3.65683665E-07    2    -1000001         1   # BR(~chi_20 -> ~d_L*     d )
     7.77042145E-07    2     2000001        -1   # BR(~chi_20 -> ~d_R      db)
     7.77042145E-07    2    -2000001         1   # BR(~chi_20 -> ~d_R*     d )
     7.65949821E-08    2     1000004        -4   # BR(~chi_20 -> ~c_L      cb)
     7.65949821E-08    2    -1000004         4   # BR(~chi_20 -> ~c_L*     c )
     3.65683665E-07    2     1000003        -3   # BR(~chi_20 -> ~s_L      sb)
     3.65683665E-07    2    -1000003         3   # BR(~chi_20 -> ~s_L*     s )
     7.77042145E-07    2     2000003        -3   # BR(~chi_20 -> ~s_R      sb)
     7.77042145E-07    2    -2000003         3   # BR(~chi_20 -> ~s_R*     s )
     1.83695212E+00    2     1000006        -6   # BR(~chi_20 -> ~t_1      tb)
     1.83695212E+00    2    -1000006         6   # BR(~chi_20 -> ~t_1*     t )
    -6.93518738E-01    2     1000005        -5   # BR(~chi_20 -> ~b_1      bb)
    -6.93518738E-01    2    -1000005         5   # BR(~chi_20 -> ~b_1*     b )
    -7.40539922E-01    2     2000005        -5   # BR(~chi_20 -> ~b_2      bb)
    -7.40539922E-01    2    -2000005         5   # BR(~chi_20 -> ~b_2*     b )
     1.14546457E-10    2     1000039        22   # BR(~chi_20 -> ~G        gam)
     6.88090154E-07    2     1000039        23   # BR(~chi_20 -> ~G        Z)
     1.71729627E-05    2     1000039        25   # BR(~chi_20 -> ~G        h)
     1.37620151E-07    2     1000039        35   # BR(~chi_20 -> ~G        H)
     3.54770313E-06    2     1000039        36   # BR(~chi_20 -> ~G        A)
#
#         PDG            Width
DECAY   1000025     1.64599577E+01   # neutralino3 decays
#          BR         NDA      ID1       ID2
     3.30821865E-03    2     1000022        23   # BR(~chi_30 -> ~chi_10   Z )
     1.66096370E-01    2     1000022        25   # BR(~chi_30 -> ~chi_10   h )
     3.12093164E-03    2     1000022        35   # BR(~chi_30 -> ~chi_10   H )
     2.76395126E-02    2     1000022        36   # BR(~chi_30 -> ~chi_10   A )
     1.63443852E-05    2     1000002        -2   # BR(~chi_30 -> ~u_L      ub)
     1.63443852E-05    2    -1000002         2   # BR(~chi_30 -> ~u_L*     u )
     5.11621293E-06    2     1000001        -1   # BR(~chi_30 -> ~d_L      db)
     5.11621293E-06    2    -1000001         1   # BR(~chi_30 -> ~d_L*     d )
     3.97463594E-05    2     2000001        -1   # BR(~chi_30 -> ~d_R      db)
     3.97463594E-05    2    -2000001         1   # BR(~chi_30 -> ~d_R*     d )
     1.63443852E-05    2     1000004        -4   # BR(~chi_30 -> ~c_L      cb)
     1.63443852E-05    2    -1000004         4   # BR(~chi_30 -> ~c_L*     c )
     5.11621293E-06    2     1000003        -3   # BR(~chi_30 -> ~s_L      sb)
     5.11621293E-06    2    -1000003         3   # BR(~chi_30 -> ~s_L*     s )
     3.97463594E-05    2     2000003        -3   # BR(~chi_30 -> ~s_R      sb)
     3.97463594E-05    2    -2000003         3   # BR(~chi_30 -> ~s_R*     s )
     1.88191613E+00    2     1000006        -6   # BR(~chi_30 -> ~t_1      tb)
     1.88191613E+00    2    -1000006         6   # BR(~chi_30 -> ~t_1*     t )
    -6.10284182E-01    2     1000005        -5   # BR(~chi_30 -> ~b_1      bb)
    -6.10284182E-01    2    -1000005         5   # BR(~chi_30 -> ~b_1*     b )
    -8.71831967E-01    2     2000005        -5   # BR(~chi_30 -> ~b_2      bb)
    -8.71831967E-01    2    -2000005         5   # BR(~chi_30 -> ~b_2*     b )
     6.74399301E-09    2     1000039        22   # BR(~chi_30 -> ~G        gam)
     1.76263452E-05    2     1000039        23   # BR(~chi_30 -> ~G        Z)
     6.87561980E-07    2     1000039        25   # BR(~chi_30 -> ~G        h)
     3.61318590E-06    2     1000039        35   # BR(~chi_30 -> ~G        H)
     1.45493214E-07    2     1000039        36   # BR(~chi_30 -> ~G        A)
#
#         PDG            Width
DECAY   1000035    -5.33186359E+05   # neutralino4 decays
#          BR         NDA      ID1       ID2
    -1.73232480E-10    2     1000022        23   # BR(~chi_40 -> ~chi_10   Z )
    -3.74460626E-04    2     1000023        23   # BR(~chi_40 -> ~chi_20   Z )
    -1.30202543E-05    2     1000025        23   # BR(~chi_40 -> ~chi_30   Z )
    -3.76084802E-04    2     1000024       -24   # BR(~chi_40 -> ~chi_1+   W-)
    -3.76084802E-04    2    -1000024        24   # BR(~chi_40 -> ~chi_1-   W+)
    -7.21660591E-08    2     1000022        25   # BR(~chi_40 -> ~chi_10   h )
    -9.35154763E-09    2     1000022        35   # BR(~chi_40 -> ~chi_10   H )
    -7.93554417E-08    2     1000022        36   # BR(~chi_40 -> ~chi_10   A )
    -1.28339340E-05    2     1000023        25   # BR(~chi_40 -> ~chi_20   h )
    -3.28224587E-04    2     1000023        35   # BR(~chi_40 -> ~chi_20   H )
    -1.50880598E-05    2     1000023        36   # BR(~chi_40 -> ~chi_20   A )
    -3.77813126E-04    2     1000025        25   # BR(~chi_40 -> ~chi_30   h )
    -1.47441907E-05    2     1000025        35   # BR(~chi_40 -> ~chi_30   H )
    -3.27855966E-04    2     1000025        36   # BR(~chi_40 -> ~chi_30   A )
    -3.43017282E-04    2     1000024       -37   # BR(~chi_40 -> ~chi_1+   H-)
    -3.43017282E-04    2    -1000024        37   # BR(~chi_40 -> ~chi_1-   H+)
    -1.01021836E-03    2     1000002        -2   # BR(~chi_40 -> ~u_L      ub)
    -1.01021836E-03    2    -1000002         2   # BR(~chi_40 -> ~u_L*     u )
    -1.62315486E-23    2     2000002        -2   # BR(~chi_40 -> ~u_R      ub)
    -1.62315486E-23    2    -2000002         2   # BR(~chi_40 -> ~u_R*     u )
    -1.01021889E-03    2     1000001        -1   # BR(~chi_40 -> ~d_L      db)
    -1.01021889E-03    2    -1000001         1   # BR(~chi_40 -> ~d_L*     d )
    -1.93433935E-17    2     2000001        -1   # BR(~chi_40 -> ~d_R      db)
    -1.93433935E-17    2    -2000001         1   # BR(~chi_40 -> ~d_R*     d )
    -1.01021836E-03    2     1000004        -4   # BR(~chi_40 -> ~c_L      cb)
    -1.01021836E-03    2    -1000004         4   # BR(~chi_40 -> ~c_L*     c )
    -1.62315486E-23    2     2000004        -4   # BR(~chi_40 -> ~c_R      cb)
    -1.62315486E-23    2    -2000004         4   # BR(~chi_40 -> ~c_R*     c )
    -1.01021889E-03    2     1000003        -3   # BR(~chi_40 -> ~s_L      sb)
    -1.01021889E-03    2    -1000003         3   # BR(~chi_40 -> ~s_L*     s )
    -1.93433935E-17    2     2000003        -3   # BR(~chi_40 -> ~s_R      sb)
    -1.93433935E-17    2    -2000003         3   # BR(~chi_40 -> ~s_R*     s )
    -1.23378720E-03    2     1000006        -6   # BR(~chi_40 -> ~t_1      tb)
    -1.23378720E-03    2    -1000006         6   # BR(~chi_40 -> ~t_1*     t )
     2.49072079E-01    2     1000005        -5   # BR(~chi_40 -> ~b_1      bb)
     2.49072079E-01    2    -1000005         5   # BR(~chi_40 -> ~b_1*     b )
     2.68869198E-01    2     2000005        -5   # BR(~chi_40 -> ~b_2      bb)
     2.68869198E-01    2    -2000005         5   # BR(~chi_40 -> ~b_2*     b )
    -5.46230906E-16    2     1000011       -11   # BR(~chi_40 -> ~e_L-     e+)
    -5.46230906E-16    2    -1000011        11   # BR(~chi_40 -> ~e_L+     e-)
    -9.41317753E-29    2     2000011       -11   # BR(~chi_40 -> ~e_R-     e+)
    -9.41317753E-29    2    -2000011        11   # BR(~chi_40 -> ~e_R+     e-)
    -5.46230906E-16    2     1000013       -13   # BR(~chi_40 -> ~mu_L-    mu+)
    -5.46230906E-16    2    -1000013        13   # BR(~chi_40 -> ~mu_L+    mu-)
    -9.41317753E-29    2     2000013       -13   # BR(~chi_40 -> ~mu_R-    mu+)
    -9.41317753E-29    2    -2000013        13   # BR(~chi_40 -> ~mu_R+    mu-)
    -7.80138956E-16    2     1000012       -12   # BR(~chi_40 -> ~nu_eL    nu_eb)
    -7.80138956E-16    2    -1000012        12   # BR(~chi_40 -> ~nu_eL*   nu_e )
    -7.80138956E-16    2     1000014       -14   # BR(~chi_40 -> ~nu_muL   nu_mub)
    -7.80138956E-16    2    -1000014        14   # BR(~chi_40 -> ~nu_muL*  nu_mu )
    -7.80138956E-16    2     1000016       -16   # BR(~chi_40 -> ~nu_tau1  nu_taub)
    -7.80138956E-16    2    -1000016        16   # BR(~chi_40 -> ~nu_tau1* nu_tau )
    -5.34176382E-03    2     1000039        22   # BR(~chi_40 -> ~G        gam)
    -1.67275017E-02    2     1000039        23   # BR(~chi_40 -> ~G        Z)
    -1.01133344E-09    2     1000039        25   # BR(~chi_40 -> ~G        h)
    -6.34828213E-09    2     1000039        35   # BR(~chi_40 -> ~G        H)
    -1.25100459E-12    2     1000039        36   # BR(~chi_40 -> ~G        A)
#
#
#
#
