#
#                              ======================
#                              | THE SUSYHIT OUTPUT |
#                              ======================
#
#
#              ------------------------------------------------------
#              |     This is the output of the SUSY-HIT package     |
#              |  created by A.Djouadi, M.Muehlleitner and M.Spira. |
#              |  In case of problems with SUSY-HIT email to        |
#              |           margarete.muehlleitner@cern.ch           |
#              |           michael.spira@psi.ch                     |
#              |           abdelhak.djouadi@cern.ch                 |
#              ------------------------------------------------------
#
#              ------------------------------------------------------
#              |  SUSY Les Houches Accord - MSSM Spectrum + Decays  |
#              |              based on the decay programs           |
#              |                                                    |
#              |                     SDECAY 1.3b                    |
#              |                                                    |
#              |  Authors: M.Muhlleitner, A.Djouadi and Y.Mambrini  |
#              |  Ref.:    Comput.Phys.Commun.168(2005)46           |
#              |           [hep-ph/0311167]                         |
#              |                                                    |
#              |                     HDECAY 3.4                     |
#              |                                                    |
#              |  By: A.Djouadi,J.Kalinowski,M.Muhlleitner,M.Spira  |
#              |  Ref.:    Comput.Phys.Commun.108(1998)56           |
#              |           [hep-ph/9704448]                         |
#              |                                                    |
#              |                                                    |
#              |  If not stated otherwise all DRbar couplings and   |
#              |  soft SUSY breaking masses are given at the scale  |
#              |  Q=  0.91187600E+02
#              |                                                    |
#              ------------------------------------------------------
#
#
BLOCK DCINFO  # Decay Program information
     1   SDECAY/HDECAY # decay calculator
     2   1.3b  /3.4    # version number
#
BLOCK SPINFO  # Spectrum calculator information
     1   SuSpect     # RGE +Spectrum calculator            
     2   2.41         # version number                     
#
BLOCK MODSEL  # Model selection
     1     0   # #general MSSM low scale                           
#
BLOCK SMINPUTS  # Standard Model inputs
         1     1.27934000E+02   # alpha_em^-1(M_Z)^MSbar
         2     1.16639000E-05   # G_F [GeV^-2]
         3     1.17200000E-01   # alpha_S(M_Z)^MSbar
         4     9.11870000E+01   # M_Z pole mass
         5     4.25000000E+00   # mb(mb)^MSbar
         6     1.72500000E+02   # mt pole mass
         7     1.77700000E+00   # mtau pole mass
#
BLOCK MINPAR  # Input parameters - minimal models
#
BLOCK EXTPAR  # Input parameters - non-minimal models
         0     9.11876000E+01   # EWSB                
         1     4.00000000E+02   # M_1                 
         2     1.00000000E+05   # M_2                 
         3     1.00000000E+05   # M_3                 
        11     0.00000000E+00   # A_t                 
        12     0.00000000E+00   # A_b                 
        13     0.00000000E+00   # A_tau               
        14     0.00000000E+00   # A_u                 
        15     0.00000000E+00   # A_d                 
        16     0.00000000E+00   # A_e                 
        23     3.50000000E+03   # mu(EWSB)            
        25     1.50000000E+00   # tanbeta(in)         
        26     2.00000000E+03   # MA_pole             
        31     1.00000000E+05   # M_eL                
        32     1.00000000E+05   # M_muL               
        33     1.00000000E+05   # M_tauL              
        34     1.00000000E+05   # M_eR                
        35     1.00000000E+05   # M_muR               
        36     1.00000000E+05   # M_tauR              
        41     1.70000000E+03   # M_q1L               
        42     1.70000000E+03   # M_q2L               
        43     1.70000000E+03   # M_q3L               
        44     1.00000000E+05   # M_uR                
        45     1.00000000E+05   # M_cR                
        46     1.00000000E+05   # M_tR                
        47     1.70000000E+03   # M_dR                
        48     1.70000000E+03   # M_sR                
        49     1.70000000E+03   # M_bR                
#
BLOCK MASS  # Mass Spectrum
# PDG code           mass       particle
        24     8.05833880E+01   # W+
        25     1.25000000E+02   # h
        35     2.00403022E+03   # H
        36     2.00000000E+03   # A
        37     2.02369381E+03   # H+
         5     4.87877839E+00   # b-quark pole mass calculated from mb(mb)_Msbar
   1000001     1.70039040E+03   # ~d_L
   2000001     1.70007526E+03   # ~d_R
   1000002     1.69968478E+03   # ~u_L
   2000002     9.99999974E+04   # ~u_R
   1000003     1.70039040E+03   # ~s_L
   2000003     1.70007526E+03   # ~s_R
   1000004     1.69968478E+03   # ~c_L
   2000004     9.99999974E+04   # ~c_R
   1000005     1.69623537E+03   # ~b_1
   2000005     1.70422485E+03   # ~b_2
   1000006     1.70606983E+03   # ~t_1
   2000006     1.00000106E+05   # ~t_2
   1000011     1.00000004E+05   # ~e_L
   2000011     1.00000004E+05   # ~e_R
   1000012     9.99999921E+04   # ~nu_eL
   1000013     1.00000004E+05   # ~mu_L
   2000013     1.00000004E+05   # ~mu_R
   1000014     9.99999921E+04   # ~nu_muL
   1000015     9.99999574E+04   # ~tau_1
   2000015     1.00000051E+05   # ~tau_2
   1000016     9.99999921E+04   # ~nu_tauL
   1000021     1.00000000E+05   # ~g
   1000022     3.99400741E+02   # ~chi_10
   1000023    -3.50002200E+03   # ~chi_20
   1000025     3.50055679E+03   # ~chi_30
   1000035     1.00000064E+05   # ~chi_40
   1000024     3.49994016E+03   # ~chi_1+
   1000037     1.00000064E+05   # ~chi_2+
   1000039     1.00000000E-09   # ~gravitino
#
BLOCK NMIX  # Neutralino Mixing Matrix
  1  1     9.99897679E-01   # N_11
  1  2    -1.06356240E-05   # N_12
  1  3     1.15782319E-02   # N_13
  1  4    -8.40095159E-03   # N_14
  2  1     2.24667601E-03   # N_21
  2  2    -1.49665675E-04   # N_22
  2  3    -7.07093876E-01   # N_23
  2  4    -7.07116101E-01   # N_24
  3  1     1.41274188E-02   # N_31
  3  2     8.02477470E-04   # N_32
  3  3    -7.07024739E-01   # N_33
  3  4     7.07047233E-01   # N_34
  4  1     3.66150166E-07   # N_41
  4  2    -9.99999667E-01   # N_42
  4  3    -4.61667038E-04   # N_43
  4  4     6.73310057E-04   # N_44
#
BLOCK UMIX  # Chargino Mixing Matrix U
  1  1    -6.52895580E-04   # U_11
  1  2     9.99999787E-01   # U_12
  2  1     9.99999787E-01   # U_21
  2  2     6.52895580E-04   # U_22
#
BLOCK VMIX  # Chargino Mixing Matrix V
  1  1    -9.52204127E-04   # V_11
  1  2     9.99999547E-01   # V_12
  2  1     9.99999547E-01   # V_21
  2  2     9.52204127E-04   # V_22
#
BLOCK STOPMIX  # Stop Mixing Matrix
  1  1     9.99999999E-01   # cos(theta_t)
  1  2     4.47213589E-05   # sin(theta_t)
  2  1    -4.47213589E-05   # -sin(theta_t)
  2  2     9.99999999E-01   # cos(theta_t)
#
BLOCK SBOTMIX  # Sbottom Mixing Matrix
  1  1     6.93020502E-01   # cos(theta_b)
  1  2     7.20917876E-01   # sin(theta_b)
  2  1    -7.20917876E-01   # -sin(theta_b)
  2  2     6.93020502E-01   # cos(theta_b)
#
BLOCK STAUMIX  # Stau Mixing Matrix
  1  1     7.06192113E-01   # cos(theta_tau)
  1  2     7.08020268E-01   # sin(theta_tau)
  2  1    -7.08020268E-01   # -sin(theta_tau)
  2  2     7.06192113E-01   # cos(theta_tau)
#
BLOCK ALPHA  # Higgs mixing
          -5.90314797E-01   # Mixing angle in the neutral Higgs boson sector
#
BLOCK HMIX Q=  9.11876000E+01  # DRbar Higgs Parameters
         1     3.50000000E+03   # mu(Q)               
         2     1.49999982E+00   # tanbeta(Q)          
         3     2.54863181E+02   # vev(Q)              
         4    -6.81635530E+07   # MA^2(Q)             
#
BLOCK GAUGE Q=  9.11876000E+01  # The gauge couplings
     1     3.50577648E-01   # gprime(Q) DRbar
     2     6.19782587E-01   # g(Q) DRbar
     3     1.02383653E+00   # g3(Q) DRbar
#
BLOCK AU Q=  9.11876000E+01  # The trilinear couplings
  1  1     0.00000000E+00   # A_u(Q) DRbar
  2  2     0.00000000E+00   # A_c(Q) DRbar
  3  3     0.00000000E+00   # A_t(Q) DRbar
#
BLOCK AD Q=  9.11876000E+01  # The trilinear couplings
  1  1     0.00000000E+00   # A_d(Q) DRbar
  2  2     0.00000000E+00   # A_s(Q) DRbar
  3  3     0.00000000E+00   # A_b(Q) DRbar
#
BLOCK AE Q=  9.11876000E+01  # The trilinear couplings
  1  1     0.00000000E+00   # A_e(Q) DRbar
  2  2     0.00000000E+00   # A_mu(Q) DRbar
  3  3     0.00000000E+00   # A_tau(Q) DRbar
#
BLOCK Yu Q=  9.11876000E+01  # The Yukawa couplings
  1  1     0.00000000E+00   # y_u(Q) DRbar
  2  2     0.00000000E+00   # y_c(Q) DRbar
  3  3     9.83706559E-01   # y_t(Q) DRbar
#
BLOCK Yd Q=  9.11876000E+01  # The Yukawa couplings
  1  1     0.00000000E+00   # y_d(Q) DRbar
  2  2     0.00000000E+00   # y_s(Q) DRbar
  3  3     2.58629783E-02   # y_b(Q) DRbar
#
BLOCK Ye Q=  9.11876000E+01  # The Yukawa couplings
  1  1     0.00000000E+00   # y_e(Q) DRbar
  2  2     0.00000000E+00   # y_mu(Q) DRbar
  3  3     1.77404446E-02   # y_tau(Q) DRbar
#
BLOCK MSOFT Q=  9.11876000E+01  # The soft SUSY breaking masses at the scale Q
         1     4.00000000E+02   # M_1                 
         2     1.00000000E+05   # M_2                 
         3     1.00000000E+05   # M_3                 
        14     0.00000000E+00   # A_u                 
        15     0.00000000E+00   # A_d                 
        16     0.00000000E+00   # A_e                 
        21     6.31181299E+08   # M^2_Hd              
        22    -1.14989687E+09   # M^2_Hu              
        31     1.00000000E+05   # M_eL                
        32     1.00000000E+05   # M_muL               
        33     1.00000000E+05   # M_tauL              
        34     1.00000000E+05   # M_eR                
        35     1.00000000E+05   # M_muR               
        36     1.00000000E+05   # M_tauR              
        41     1.70000000E+03   # M_q1L               
        42     1.70000000E+03   # M_q2L               
        43     1.70000000E+03   # M_q3L               
        44     1.00000000E+05   # M_uR                
        45     1.00000000E+05   # M_cR                
        46     1.00000000E+05   # M_tR                
        47     1.70000000E+03   # M_dR                
        48     1.70000000E+03   # M_sR                
        49     1.70000000E+03   # M_bR                
#
#
#
#                             =================
#                             |The decay table|
#                             =================
#
# - The QCD corrections to the decays gluino -> squark  + quark
#                                     squark -> gaugino + quark_prime
#                                     squark -> squark_prime + Higgs
#                                     squark -> gluino  + quark
#   are included.
#
# - The multi-body decays for the inos, stops and sbottoms are included.
#
# - The loop induced decays for the gluino, neutralinos and stops
#   are included.
#
# - The SUSY decays of the top quark are included.
#
# - Possible decays of the NLSP in GMSB models are included.
#
#
#         PDG            Width
DECAY         6     1.32579719E+00   # top decays
#          BR         NDA      ID1       ID2
     1.00000000E+00    2           5        24   # BR(t ->  b    W+)
#
#         PDG            Width
DECAY   1000021     1.E-04   # gluino decays (OJ Mods)
#          BR         NDA      ID1       ID2
     2.88325013E-03    2     1000001        -1   # BR(~g -> ~d_L  db)
     2.88325013E-03    2    -1000001         1   # BR(~g -> ~d_L* d )
     2.88325074E-03    2     2000001        -1   # BR(~g -> ~d_R  db)
     2.88325074E-03    2    -2000001         1   # BR(~g -> ~d_R* d )
     2.88325151E-03    2     1000002        -2   # BR(~g -> ~u_L  ub)
     2.88325151E-03    2    -1000002         2   # BR(~g -> ~u_L* u )
     7.80081846E-18    2     2000002        -2   # BR(~g -> ~u_R  ub)
     7.80081846E-18    2    -2000002         2   # BR(~g -> ~u_R* u )
     2.88325013E-03    2     1000003        -3   # BR(~g -> ~s_L  sb)
     2.88325013E-03    2    -1000003         3   # BR(~g -> ~s_L* s )
     2.88325074E-03    2     2000003        -3   # BR(~g -> ~s_R  sb)
     2.88325074E-03    2    -2000003         3   # BR(~g -> ~s_R* s )
     2.88325151E-03    2     1000004        -4   # BR(~g -> ~c_L  cb)
     2.88325151E-03    2    -1000004         4   # BR(~g -> ~c_L* c )
     7.80081846E-18    2     2000004        -4   # BR(~g -> ~c_R  cb)
     7.80081846E-18    2    -2000004         4   # BR(~g -> ~c_R* c )
     2.20139501E-01    2     1000005        -5   # BR(~g -> ~b_1  bb)
     2.20139501E-01    2    -1000005         5   # BR(~g -> ~b_1* b )
     2.19286497E-01    2     2000005        -5   # BR(~g -> ~b_2  bb)
     2.19286497E-01    2    -2000005         5   # BR(~g -> ~b_2* b )
     2.83761088E-03    2     1000006        -6   # BR(~g -> ~t_1  tb)
     2.83761088E-03    2    -1000006         6   # BR(~g -> ~t_1* t )
     8.08737723E-02    2     1000039        21   # BR(~g -> ~G g)
#
#         PDG            Width
DECAY   1000006     2.44118646E-01   # stop1 decays
#          BR         NDA      ID1       ID2
     1.00000000E+00    2     1000022         6   # BR(~t_1 -> ~chi_10 t )
#
#         PDG            Width
DECAY   2000006     5.61155360E+04   # stop2 decays
#          BR         NDA      ID1       ID2
     3.71496763E-03    2     1000022         6   # BR(~t_2 -> ~chi_10 t )
     8.91849146E-03    2     1000023         6   # BR(~t_2 -> ~chi_20 t )
     8.91733607E-03    2     1000025         6   # BR(~t_2 -> ~chi_30 t )
     9.78754416E-01    2     1000024         5   # BR(~t_2 -> ~chi_1+ b )
    -2.42072510E-04    2     1000006        25   # BR(~t_2 -> ~t_1    h )
     2.53521403E-04    2     1000006        35   # BR(~t_2 -> ~t_1    H )
     2.53075037E-04    2     1000006        36   # BR(~t_2 -> ~t_1    A )
     2.38406897E-04    2     1000005        37   # BR(~t_2 -> ~b_1    H+)
     2.67739271E-04    2     2000005        37   # BR(~t_2 -> ~b_2    H+)
    -1.72464283E-04    2     1000006        23   # BR(~t_2 -> ~t_1    Z )
    -4.33899697E-04    2     1000005        24   # BR(~t_2 -> ~b_1    W+)
    -4.69516969E-04    2     2000005        24   # BR(~t_2 -> ~b_2    W+)
#
#         PDG            Width
DECAY   1000005     1.69702042E+01   # sbottom1 decays
#          BR         NDA      ID1       ID2
     1.00000000E+00    2     1000022         5   # BR(~b_1 -> ~chi_10 b )
#
#         PDG            Width
DECAY   2000005     1.57417084E+01   # sbottom2 decays
#          BR         NDA      ID1       ID2
     1.00000000E+00    2     1000022         5   # BR(~b_2 -> ~chi_10 b )
#
#         PDG            Width
DECAY   1000002     2.47335660E-01   # sup_L decays
#          BR         NDA      ID1       ID2
     1.00000000E+00    2     1000022         2   # BR(~u_L -> ~chi_10 u)
#
#         PDG            Width
DECAY   2000002     2.08395751E+02   # sup_R decays
#          BR         NDA      ID1       ID2
     9.99795598E-01    2     1000022         2   # BR(~u_R -> ~chi_10 u)
     5.04190350E-06    2     1000023         2   # BR(~u_R -> ~chi_20 u)
     1.99360478E-04    2     1000025         2   # BR(~u_R -> ~chi_30 u)
#
#         PDG            Width
DECAY   1000001     2.47512136E-01   # sdown_L decays
#          BR         NDA      ID1       ID2
     1.00000000E+00    2     1000022         1   # BR(~d_L -> ~chi_10 d)
#
#         PDG            Width
DECAY   2000001     9.89721331E-01   # sdown_R decays
#          BR         NDA      ID1       ID2
     1.00000000E+00    2     1000022         1   # BR(~d_R -> ~chi_10 d)
#
#         PDG            Width
DECAY   1000004     2.47335660E-01   # scharm_L decays
#          BR         NDA      ID1       ID2
     1.00000000E+00    2     1000022         4   # BR(~c_L -> ~chi_10 c)
#
#         PDG            Width
DECAY   2000004     2.08395751E+02   # scharm_R decays
#          BR         NDA      ID1       ID2
     9.99795598E-01    2     1000022         4   # BR(~c_R -> ~chi_10 c)
     5.04190350E-06    2     1000023         4   # BR(~c_R -> ~chi_20 c)
     1.99360478E-04    2     1000025         4   # BR(~c_R -> ~chi_30 c)
#
#         PDG            Width
DECAY   1000003     2.47512136E-01   # sstrange_L decays
#          BR         NDA      ID1       ID2
     1.00000000E+00    2     1000022         3   # BR(~s_L -> ~chi_10 s)
#
#         PDG            Width
DECAY   2000003     9.89721331E-01   # sstrange_R decays
#          BR         NDA      ID1       ID2
     1.00000000E+00    2     1000022         3   # BR(~s_R -> ~chi_10 s)
#
#         PDG            Width
DECAY   1000011     1.22252323E+02   # selectron_L decays
#          BR         NDA      ID1       ID2
     9.99752327E-01    2     1000022        11   # BR(~e_L -> ~chi_10 e-)
     3.91913974E-06    2     1000023        11   # BR(~e_L -> ~chi_20 e-)
     2.41095983E-04    2     1000025        11   # BR(~e_L -> ~chi_30 e-)
     2.65812012E-06    2    -1000024        12   # BR(~e_L -> ~chi_1- nu_e)
#
#         PDG            Width
DECAY   2000011     4.89006389E+02   # selectron_R decays
#          BR         NDA      ID1       ID2
     9.99795863E-01    2     1000022        11   # BR(~e_R -> ~chi_10 e-)
     5.03535715E-06    2     1000023        11   # BR(~e_R -> ~chi_20 e-)
     1.99101576E-04    2     1000025        11   # BR(~e_R -> ~chi_30 e-)
#
#         PDG            Width
DECAY   1000013     1.22252323E+02   # smuon_L decays
#          BR         NDA      ID1       ID2
     9.99752327E-01    2     1000022        13   # BR(~mu_L -> ~chi_10 mu-)
     3.91913974E-06    2     1000023        13   # BR(~mu_L -> ~chi_20 mu-)
     2.41095983E-04    2     1000025        13   # BR(~mu_L -> ~chi_30 mu-)
     2.65812012E-06    2    -1000024        14   # BR(~mu_L -> ~chi_1- nu_mu)
#
#         PDG            Width
DECAY   2000013     4.89006389E+02   # smuon_R decays
#          BR         NDA      ID1       ID2
     9.99795863E-01    2     1000022        13   # BR(~mu_R -> ~chi_10 mu-)
     5.03535715E-06    2     1000023        13   # BR(~mu_R -> ~chi_20 mu-)
     1.99101576E-04    2     1000025        13   # BR(~mu_R -> ~chi_30 mu-)
#
#         PDG            Width
DECAY   1000015     1.18199825E+04   # stau_1 decays
#          BR         NDA      ID1       ID2
     2.59001720E-02    2     1000022        15   # BR(~tau_1 -> ~chi_10  tau-)
     2.52334547E-05    2     1000023        15   # BR(~tau_1 -> ~chi_20  tau-)
     2.51528488E-05    2     1000025        15   # BR(~tau_1 -> ~chi_30  tau-)
     2.77081992E-05    2    -1000024        16   # BR(~tau_1 -> ~chi_1-  nu_tau)
     9.74021733E-01    2     1000039        15   # BR(~tau_1 -> ~G       tau-)
#
#         PDG            Width
DECAY   2000015     3.06069823E+02   # stau_2 decays
#          BR         NDA      ID1       ID2
     9.96469346E-01    2     1000022        15   # BR(~tau_2 -> ~chi_10  tau-)
     1.07573113E-03    2     1000023        15   # BR(~tau_2 -> ~chi_20  tau-)
     1.48323780E-03    2     1000025        15   # BR(~tau_2 -> ~chi_30  tau-)
     9.71685239E-04    2    -1000024        16   # BR(~tau_2 -> ~chi_1-  nu_tau)
#
#         PDG            Width
DECAY   1000012     1.22252381E+02   # snu_eL decays
#          BR         NDA      ID1       ID2
     9.99826935E-01    2     1000022        12   # BR(~nu_eL -> ~chi_10 nu_e)
     6.29119015E-06    2     1000023        12   # BR(~nu_eL -> ~chi_20 nu_e)
     1.61120328E-04    2     1000025        12   # BR(~nu_eL -> ~chi_30 nu_e)
     5.65388546E-06    2     1000024        11   # BR(~nu_eL -> ~chi_1+ e-)
#
#         PDG            Width
DECAY   1000014     1.22252381E+02   # snu_muL decays
#          BR         NDA      ID1       ID2
     9.99826935E-01    2     1000022        14   # BR(~nu_muL -> ~chi_10 nu_mu)
     6.29119015E-06    2     1000023        14   # BR(~nu_muL -> ~chi_20 nu_mu)
     1.61120328E-04    2     1000025        14   # BR(~nu_muL -> ~chi_30 nu_mu)
     5.65388546E-06    2     1000024        13   # BR(~nu_muL -> ~chi_1+ mu-)
#
#         PDG            Width
DECAY   1000016     1.22876970E+02   # snu_tauL decays
#          BR         NDA      ID1       ID2
     9.94744772E-01    2     1000022        16   # BR(~nu_tauL -> ~chi_10 nu_tau)
     6.25921177E-06    2     1000023        16   # BR(~nu_tauL -> ~chi_20 nu_tau)
     1.60301346E-04    2     1000025        16   # BR(~nu_tauL -> ~chi_30 nu_tau)
     5.08866784E-03    2     1000024        15   # BR(~nu_tauL -> ~chi_1+ tau-)
#
#         PDG            Width
DECAY   1000024     5.43978529E+01   # chargino1+ decays
#          BR         NDA      ID1       ID2
     4.64888696E-07    2     1000002        -1   # BR(~chi_1+ -> ~u_L     db)
     2.18456737E-07    2    -1000001         2   # BR(~chi_1+ -> ~d_L*    u )
     4.64888696E-07    2     1000004        -3   # BR(~chi_1+ -> ~c_L     sb)
     2.18456737E-07    2    -1000003         4   # BR(~chi_1+ -> ~s_L*    c )
     2.39366789E-02    2     1000006        -5   # BR(~chi_1+ -> ~t_1     bb)
     9.04271928E-02    2    -1000005         6   # BR(~chi_1+ -> ~b_1*    t )
     8.28262131E-01    2    -2000005         6   # BR(~chi_1+ -> ~b_2*    t )
     4.56032369E-02    2     1000022        24   # BR(~chi_1+ -> ~chi_10  W+)
     1.17627566E-02    2     1000022        37   # BR(~chi_1+ -> ~chi_10  H+)
     5.54613289E-06    2     1000039        24   # BR(~chi_1+ -> ~G       W+)
     1.09125081E-06    2     1000039        37   # BR(~chi_1+ -> ~G       H+)
#
#         PDG            Width
DECAY   1000037     4.06408827E+04   # chargino2+ decays
#          BR         NDA      ID1       ID2
     2.10727072E-02    2     1000002        -1   # BR(~chi_2+ -> ~u_L     db)
     2.10727132E-02    2    -1000001         2   # BR(~chi_2+ -> ~d_L*    u )
     2.10727072E-02    2     1000004        -3   # BR(~chi_2+ -> ~c_L     sb)
     2.10727132E-02    2    -1000003         4   # BR(~chi_2+ -> ~s_L*    c )
     6.41397713E-01    2     1000006        -5   # BR(~chi_2+ -> ~t_1     bb)
     4.62006851E-03    2    -1000005         6   # BR(~chi_2+ -> ~b_1*    t )
     1.99928211E-02    2    -2000005         6   # BR(~chi_2+ -> ~b_2*    t )
     1.51498882E-14    2     1000012       -11   # BR(~chi_2+ -> ~nu_eL   e+  )
     1.51498882E-14    2     1000014       -13   # BR(~chi_2+ -> ~nu_muL  mu+ )
     1.05500473E-14    2    -1000011        12   # BR(~chi_2+ -> ~e_L+    nu_e)
     1.05500473E-14    2    -1000013        14   # BR(~chi_2+ -> ~mu_L+   nu_mu)
     1.66071675E-14    2    -1000015        16   # BR(~chi_2+ -> ~tau_1+  nu_tau)
     2.48282658E-16    2    -2000015        16   # BR(~chi_2+ -> ~tau_2+  nu_tau)
     3.86143254E-03    2     1000024        23   # BR(~chi_2+ -> ~chi_1+  Z )
     5.95455901E-07    2     1000022        24   # BR(~chi_2+ -> ~chi_10  W+)
     3.74599006E-03    2     1000023        24   # BR(~chi_2+ -> ~chi_20  W+)
     3.74535424E-03    2     1000025        24   # BR(~chi_2+ -> ~chi_30  W+)
     3.90005144E-03    2     1000024        25   # BR(~chi_2+ -> ~chi_1+  h )
     3.42350405E-03    2     1000024        35   # BR(~chi_2+ -> ~chi_1+  H )
     3.42396052E-03    2     1000024        36   # BR(~chi_2+ -> ~chi_1+  A )
     7.89076704E-07    2     1000022        37   # BR(~chi_2+ -> ~chi_10  H+)
     3.42383364E-03    2     1000023        37   # BR(~chi_2+ -> ~chi_20  H+)
     3.42317212E-03    2     1000025        37   # BR(~chi_2+ -> ~chi_30  H+)
     2.20749810E-01    2     1000039        24   # BR(~chi_2+ -> ~G       W+)
     6.32620335E-08    2     1000039        37   # BR(~chi_2+ -> ~G       H+)
#
#         PDG            Width
DECAY   1000022     1.E-08   # neutralino1 decays (OJ Mods)
#          BR         NDA      ID1       ID2
     7.94665920E-01    2     1000039        22   # BR(~chi_10 -> ~G        gam)
     2.05333981E-01    2     1000039        23   # BR(~chi_10 -> ~G        Z)
     9.92320562E-08    2     1000039        25   # BR(~chi_10 -> ~G        h)
#
#         PDG            Width
DECAY   1000023     1.E-08   # neutralino2 decays (OJ Mods)
#          BR         NDA      ID1       ID2
     4.48776250E-02    2     1000022        23   # BR(~chi_20 -> ~chi_10   Z )
     1.11763161E-03    2     1000022        25   # BR(~chi_20 -> ~chi_10   h )
     1.09360859E-02    2     1000022        35   # BR(~chi_20 -> ~chi_10   H )
     8.76329070E-04    2     1000022        36   # BR(~chi_20 -> ~chi_10   A )
     2.18471945E-08    2     1000002        -2   # BR(~chi_20 -> ~u_L      ub)
     2.18471945E-08    2    -1000002         2   # BR(~chi_20 -> ~u_L*     u )
     9.56311162E-08    2     1000001        -1   # BR(~chi_20 -> ~d_L      db)
     9.56311162E-08    2    -1000001         1   # BR(~chi_20 -> ~d_L*     d )
     2.08907415E-07    2     2000001        -1   # BR(~chi_20 -> ~d_R      db)
     2.08907415E-07    2    -2000001         1   # BR(~chi_20 -> ~d_R*     d )
     2.18471945E-08    2     1000004        -4   # BR(~chi_20 -> ~c_L      cb)
     2.18471945E-08    2    -1000004         4   # BR(~chi_20 -> ~c_L*     c )
     9.56311162E-08    2     1000003        -3   # BR(~chi_20 -> ~s_L      sb)
     9.56311162E-08    2    -1000003         3   # BR(~chi_20 -> ~s_L*     s )
     2.08907415E-07    2     2000003        -3   # BR(~chi_20 -> ~s_R      sb)
     2.08907415E-07    2    -2000003         3   # BR(~chi_20 -> ~s_R*     s )
     4.48706231E-01    2     1000006        -6   # BR(~chi_20 -> ~t_1      tb)
     4.48706231E-01    2    -1000006         6   # BR(~chi_20 -> ~t_1*     t )
     1.07759762E-02    2     1000005        -5   # BR(~chi_20 -> ~b_1      bb)
     1.07759762E-02    2    -1000005         5   # BR(~chi_20 -> ~b_1*     b )
     1.16101266E-02    2     2000005        -5   # BR(~chi_20 -> ~b_2      bb)
     1.16101266E-02    2    -2000005         5   # BR(~chi_20 -> ~b_2*     b )
     3.85335467E-11    2     1000039        22   # BR(~chi_20 -> ~G        gam)
     2.08735850E-07    2     1000039        23   # BR(~chi_20 -> ~G        Z)
     5.20953375E-06    2     1000039        25   # BR(~chi_20 -> ~G        h)
     4.17237407E-08    2     1000039        35   # BR(~chi_20 -> ~G        H)
     1.07620099E-06    2     1000039        36   # BR(~chi_20 -> ~G        A)
#
#         PDG            Width
DECAY   1000025     5.56393130E+01   # neutralino3 decays
#          BR         NDA      ID1       ID2
     1.13477657E-03    2     1000022        23   # BR(~chi_30 -> ~chi_10   Z )
     4.52044573E-02    2     1000022        25   # BR(~chi_30 -> ~chi_10   h )
     8.52001582E-04    2     1000022        35   # BR(~chi_30 -> ~chi_10   H )
     1.09687887E-02    2     1000022        36   # BR(~chi_30 -> ~chi_10   A )
     3.49456343E-06    2     1000002        -2   # BR(~chi_30 -> ~u_L      ub)
     3.49456343E-06    2    -1000002         2   # BR(~chi_30 -> ~u_L*     u )
     1.00713373E-06    2     1000001        -1   # BR(~chi_30 -> ~d_L      db)
     1.00713373E-06    2    -1000001         1   # BR(~chi_30 -> ~d_L*     d )
     8.25297537E-06    2     2000001        -1   # BR(~chi_30 -> ~d_R      db)
     8.25297537E-06    2    -2000001         1   # BR(~chi_30 -> ~d_R*     d )
     3.49456343E-06    2     1000004        -4   # BR(~chi_30 -> ~c_L      cb)
     3.49456343E-06    2    -1000004         4   # BR(~chi_30 -> ~c_L*     c )
     1.00713373E-06    2     1000003        -3   # BR(~chi_30 -> ~s_L      sb)
     1.00713373E-06    2    -1000003         3   # BR(~chi_30 -> ~s_L*     s )
     8.25297537E-06    2     2000003        -3   # BR(~chi_30 -> ~s_R      sb)
     8.25297537E-06    2    -2000003         3   # BR(~chi_30 -> ~s_R*     s )
     4.48349376E-01    2     1000006        -6   # BR(~chi_30 -> ~t_1      tb)
     4.48349376E-01    2    -1000006         6   # BR(~chi_30 -> ~t_1*     t )
     9.34396348E-03    2     1000005        -5   # BR(~chi_30 -> ~b_1      bb)
     9.34396348E-03    2    -1000005         5   # BR(~chi_30 -> ~b_1*     b )
     1.32013930E-02    2     2000005        -5   # BR(~chi_30 -> ~b_2      bb)
     1.32013930E-02    2    -2000005         5   # BR(~chi_30 -> ~b_2*     b )
     1.75195453E-09    2     1000039        22   # BR(~chi_30 -> ~G        gam)
     5.21430107E-06    2     1000039        23   # BR(~chi_30 -> ~G        Z)
     2.03304971E-07    2     1000039        25   # BR(~chi_30 -> ~G        h)
     1.06874315E-06    2     1000039        35   # BR(~chi_30 -> ~G        H)
     4.30394930E-08    2     1000039        36   # BR(~chi_30 -> ~G        A)
#
#         PDG            Width
DECAY   1000035     4.06410237E+04   # neutralino4 decays
#          BR         NDA      ID1       ID2
     5.62982135E-10    2     1000022        23   # BR(~chi_40 -> ~chi_10   Z )
     3.73166980E-03    2     1000023        23   # BR(~chi_40 -> ~chi_20   Z )
     1.29754777E-04    2     1000025        23   # BR(~chi_40 -> ~chi_30   Z )
     3.74595640E-03    2     1000024       -24   # BR(~chi_40 -> ~chi_1+   W-)
     3.74595640E-03    2    -1000024        24   # BR(~chi_40 -> ~chi_1-   W+)
     6.20402406E-07    2     1000022        25   # BR(~chi_40 -> ~chi_10   h )
     8.99530399E-08    2     1000022        35   # BR(~chi_40 -> ~chi_10   H )
     6.98040100E-07    2     1000022        36   # BR(~chi_40 -> ~chi_10   A )
     1.28046616E-04    2     1000023        25   # BR(~chi_40 -> ~chi_20   h )
     3.27629001E-03    2     1000023        35   # BR(~chi_40 -> ~chi_20   H )
     1.50603233E-04    2     1000023        36   # BR(~chi_40 -> ~chi_20   A )
     3.77137788E-03    2     1000025        25   # BR(~chi_40 -> ~chi_30   h )
     1.47110617E-04    2     1000025        35   # BR(~chi_40 -> ~chi_30   H )
     3.27264993E-03    2     1000025        36   # BR(~chi_40 -> ~chi_30   A )
     3.42389033E-03    2     1000024       -37   # BR(~chi_40 -> ~chi_1+   H-)
     3.42389033E-03    2    -1000024        37   # BR(~chi_40 -> ~chi_1-   H+)
     1.00893817E-02    2     1000002        -2   # BR(~chi_40 -> ~u_L      ub)
     1.00893817E-02    2    -1000002         2   # BR(~chi_40 -> ~u_L*     u )
     1.58081704E-22    2     2000002        -2   # BR(~chi_40 -> ~u_R      ub)
     1.58081704E-22    2    -2000002         2   # BR(~chi_40 -> ~u_R*     u )
     1.00893857E-02    2     1000001        -1   # BR(~chi_40 -> ~d_L      db)
     1.00893857E-02    2    -1000001         1   # BR(~chi_40 -> ~d_L*     d )
     1.92349290E-16    2     2000001        -1   # BR(~chi_40 -> ~d_R      db)
     1.92349290E-16    2    -2000001         1   # BR(~chi_40 -> ~d_R*     d )
     1.00893817E-02    2     1000004        -4   # BR(~chi_40 -> ~c_L      cb)
     1.00893817E-02    2    -1000004         4   # BR(~chi_40 -> ~c_L*     c )
     1.58081704E-22    2     2000004        -4   # BR(~chi_40 -> ~c_R      cb)
     1.58081704E-22    2    -2000004         4   # BR(~chi_40 -> ~c_R*     c )
     1.00893857E-02    2     1000003        -3   # BR(~chi_40 -> ~s_L      sb)
     1.00893857E-02    2    -1000003         3   # BR(~chi_40 -> ~s_L*     s )
     1.92349290E-16    2     2000003        -3   # BR(~chi_40 -> ~s_R      sb)
     1.92349290E-16    2    -2000003         3   # BR(~chi_40 -> ~s_R*     s )
     1.23064303E-02    2     1000006        -6   # BR(~chi_40 -> ~t_1      tb)
     1.23064303E-02    2    -1000006         6   # BR(~chi_40 -> ~t_1*     t )
     1.50416173E-01    2     1000005        -5   # BR(~chi_40 -> ~b_1      bb)
     1.50416173E-01    2    -1000005         5   # BR(~chi_40 -> ~b_1*     b )
     1.70283151E-01    2     2000005        -5   # BR(~chi_40 -> ~b_2      bb)
     1.70283151E-01    2    -2000005         5   # BR(~chi_40 -> ~b_2*     b )
     5.27500598E-15    2     1000011       -11   # BR(~chi_40 -> ~e_L-     e+)
     5.27500598E-15    2    -1000011        11   # BR(~chi_40 -> ~e_L+     e-)
     9.05089638E-28    2     2000011       -11   # BR(~chi_40 -> ~e_R-     e+)
     9.05089638E-28    2    -2000011        11   # BR(~chi_40 -> ~e_R+     e-)
     5.27500598E-15    2     1000013       -13   # BR(~chi_40 -> ~mu_L-    mu+)
     5.27500598E-15    2    -1000013        13   # BR(~chi_40 -> ~mu_L+    mu-)
     9.05089638E-28    2     2000013       -13   # BR(~chi_40 -> ~mu_R-    mu+)
     9.05089638E-28    2    -2000013        13   # BR(~chi_40 -> ~mu_R+    mu-)
     7.57492862E-15    2     1000012       -12   # BR(~chi_40 -> ~nu_eL    nu_eb)
     7.57492862E-15    2    -1000012        12   # BR(~chi_40 -> ~nu_eL*   nu_e )
     7.57492862E-15    2     1000014       -14   # BR(~chi_40 -> ~nu_muL   nu_mub)
     7.57492862E-15    2    -1000014        14   # BR(~chi_40 -> ~nu_muL*  nu_mu )
     7.57492862E-15    2     1000016       -16   # BR(~chi_40 -> ~nu_tau1  nu_taub)
     7.57492862E-15    2    -1000016        16   # BR(~chi_40 -> ~nu_tau1* nu_tau )
     5.35093786E-02    2     1000039        22   # BR(~chi_40 -> ~G        gam)
     1.67239820E-01    2     1000039        23   # BR(~chi_40 -> ~G        Z)
     1.00924851E-08    2     1000039        25   # BR(~chi_40 -> ~G        h)
     6.33685423E-08    2     1000039        35   # BR(~chi_40 -> ~G        H)
     1.24870802E-11    2     1000039        36   # BR(~chi_40 -> ~G        A)
#
#
#
#
