# SUSY Les Houches Accord 2 - MSSM-RpV/Bi Spectrum + Decays + Flavor Observables
# SPheno module generated by SARAH
# ----------------------------------------------------------------------
# SPheno v3.3.6  
#   W. Porod, Comput. Phys. Commun. 153 (2003) 275-315, hep-ph/0301101
#   W. Porod, F.Staub, Comput.Phys.Commun.183 (2012) 2458-2469, arXiv:1104.1573
# SARAH: SARAHVER
#   F. Staub; arXiv:0806.0538 (online manual)
#   F. Staub; Comput. Phys. Commun. 181 (2010) 1077-1086; arXiv:0909.2863
#   F. Staub; Comput. Phys. Commun. 182 (2011)  808-833; arXiv:1002.0840
#   F. Staub; Comput. Phys. Commun. 184 (2013)  1792-1809; arXiv:1207.0906
#   F. Staub; Comput. Phys. Commun. 185 (2014)  1773-1790; arXiv:1309.7223 
# Including the calculation of flavor observables based on the FlavorKit 
#   W. Porod, F. Staub, A. Vicente; Eur.Phys.J. C74 (2014) 8, 2992; arXiv:1405.1434 
# Two-loop masss corrections to Higgs fields based on 
#   M. D. Goodsell, K. Nickel, F. Staub; arXiv:1411.0675 
#   M. D. Goodsell, K. Nickel, F. Staub; arXiv:1503.03098
#  
# in case of problems send email to florian.staub@cern.ch and goodsell@lpthe.jussieu.fr 
# ----------------------------------------------------------------------
# Created: 01.02.2018,  10:58
Block SPINFO         # Program information
     1   SPhenoSARAH      # spectrum calculator
     2   v3.3.6      # version number of SPheno
     9   SARAHVER    # version number of SARAH
Block MODSEL  # Input parameters
     1  0   #  SUSY Scale input
     2  1   #  Boundary conditions 
Block MINPAR  # Input parameters
    1    0.00000000E+00  # m0
    2    0.00000000E+00  # m12
    3    5.00000000E+00  # TanBeta
    4    0.00000000E+00  # SignumMue
    5    0.00000000E+00  # Azero
Block EXTPAR  # Input parameters
    1   -8.00000000E+02  # M1input
    2    2.00000000E+03  # M2input
    3    3.20000000E+03  # M3input
   23    4.00000000E+02  # Muinput
   25    5.00000000E+00  # TanBeta
   24    1.00000000E+06  # MA2input
Block gaugeGUT Q=  1.99782668E+03  # (GUT scale)
   1    4.69852911E-01  # g1(Q)^DRbar
   2    6.37265154E-01  # g2(Q)^DRbar
   3    1.02086149E+00  # g3(Q)^DRbar
Block SMINPUTS  # SM parameters
         1     1.27932486E+02  # alpha_em^-1(MZ)^MSbar
         2     1.16637000E-05  # G_mu [GeV^-2]
         3     1.18700000E-01  # alpha_s(MZ)^MSbar
         4     9.11887000E+01  # m_Z(pole)
         5     4.18000000E+00  # m_b(m_b), MSbar
         6     1.73500000E+02  # m_t(pole)
         7     1.77669000E+00  # m_tau(pole)
Block GAUGE Q=  1.99782668E+03  # (SUSY Scale)
   1    3.63946500E-01  # g1
   2    6.37265154E-01  # g2
   3    1.02086149E+00  # g3
Block HMIX Q=  1.99782668E+03  # (SUSY Scale)
   1    4.00000000E+02  # Mu
 101    1.92307692E+05  # Bmu
 102    4.77262128E+01  # vd
 103    2.38631064E+02  # vu
Block MSOFT Q=  1.99782668E+03  # (SUSY Scale)
  21    7.60097746E+05  # mHd2
  22   -6.13864541E+04  # mHu2
   1   -8.00000000E+02  # M1
   2    2.00000000E+03  # M2
   3    3.20000000E+03  # M3
Block PHASES Q=  1.99782668E+03  # (SUSY Scale)
   1    1.00000000E+00  # pG
Block Yd Q=  1.99782668E+03  # (SUSY Scale)
  1  1     6.72042763E-05   # Real(Yd(1,1),dp)
  1  2     0.00000000E+00   # Real(Yd(1,2),dp)
  1  3     0.00000000E+00   # Real(Yd(1,3),dp)
  2  1     0.00000000E+00   # Real(Yd(2,1),dp)
  2  2     1.27688078E-03   # Real(Yd(2,2),dp)
  2  3     0.00000000E+00   # Real(Yd(2,3),dp)
  3  1     0.00000000E+00   # Real(Yd(3,1),dp)
  3  2     0.00000000E+00   # Real(Yd(3,2),dp)
  3  3     6.63846683E-02   # Real(Yd(3,3),dp)
Block Ye Q=  1.99782668E+03  # (SUSY Scale)
  1  1     1.43378670E-05   # Real(Ye(1,1),dp)
  1  2    -2.67722172E-14   # Real(Ye(1,2),dp)
  1  3     2.69026439E-14   # Real(Ye(1,3),dp)
  2  1     1.76125306E-11   # Real(Ye(2,1),dp)
  2  2     2.96461630E-03   # Real(Ye(2,2),dp)
  2  3     1.85005527E-11   # Real(Ye(2,3),dp)
  3  1     3.86459873E-10   # Real(Ye(3,1),dp)
  3  2    -4.03489753E-10   # Real(Ye(3,2),dp)
  3  3     4.98521748E-02   # Real(Ye(3,3),dp)
Block Yu Q=  1.99782668E+03  # (SUSY Scale)
  1  1     7.03345707E-06   # Real(Yu(1,1),dp)
  1  2     0.00000000E+00   # Real(Yu(1,2),dp)
  1  3     0.00000000E+00   # Real(Yu(1,3),dp)
  2  1     0.00000000E+00   # Real(Yu(2,1),dp)
  2  2     3.57299644E-03   # Real(Yu(2,2),dp)
  2  3     0.00000000E+00   # Real(Yu(2,3),dp)
  3  1     0.00000000E+00   # Real(Yu(3,1),dp)
  3  2     0.00000000E+00   # Real(Yu(3,2),dp)
  3  3     8.54422822E-01   # Real(Yu(3,3),dp)
Block RVSNVEV Q=  1.99782668E+03  # (SUSY Scale)
   1   -1.01903819E-02  # vL(1)
   2    1.24114579E-02  # vL(2)
   3   -9.36949175E-03  # vL(3)
Block RVKAPPA Q=  1.99782668E+03  # (SUSY Scale)
   1    8.52138643E-02  # Real(REps(1) ,dp)
   2   -8.90610186E-02  # Real(REps(2) ,dp)
   3    8.94277184E-02  # Real(REps(3) ,dp)
Block Td Q=  1.99782668E+03  # (SUSY Scale)
  1  1     0.00000000E+00   # Real(Td(1,1),dp)
  1  2     0.00000000E+00   # Real(Td(1,2),dp)
  1  3     0.00000000E+00   # Real(Td(1,3),dp)
  2  1     0.00000000E+00   # Real(Td(2,1),dp)
  2  2     0.00000000E+00   # Real(Td(2,2),dp)
  2  3     0.00000000E+00   # Real(Td(2,3),dp)
  3  1     0.00000000E+00   # Real(Td(3,1),dp)
  3  2     0.00000000E+00   # Real(Td(3,2),dp)
  3  3     0.00000000E+00   # Real(Td(3,3),dp)
Block Te Q=  1.99782668E+03  # (SUSY Scale)
  1  1     0.00000000E+00   # Real(Te(1,1),dp)
  1  2     0.00000000E+00   # Real(Te(1,2),dp)
  1  3     0.00000000E+00   # Real(Te(1,3),dp)
  2  1     0.00000000E+00   # Real(Te(2,1),dp)
  2  2     0.00000000E+00   # Real(Te(2,2),dp)
  2  3     0.00000000E+00   # Real(Te(2,3),dp)
  3  1     0.00000000E+00   # Real(Te(3,1),dp)
  3  2     0.00000000E+00   # Real(Te(3,2),dp)
  3  3     0.00000000E+00   # Real(Te(3,3),dp)
Block Tu Q=  1.99782668E+03  # (SUSY Scale)
  1  1     0.00000000E+00   # Real(Tu(1,1),dp)
  1  2     0.00000000E+00   # Real(Tu(1,2),dp)
  1  3     0.00000000E+00   # Real(Tu(1,3),dp)
  2  1     0.00000000E+00   # Real(Tu(2,1),dp)
  2  2     0.00000000E+00   # Real(Tu(2,2),dp)
  2  3     0.00000000E+00   # Real(Tu(2,3),dp)
  3  1     0.00000000E+00   # Real(Tu(3,1),dp)
  3  2     0.00000000E+00   # Real(Tu(3,2),dp)
  3  3    -2.70000000E+03   # Real(Tu(3,3),dp)
Block RVD Q=  1.99782668E+03  # (SUSY Scale)
   1    1.79120832E+02  # Real(Beps(1) ,dp)
   2   -2.16805139E+02  # Real(Beps(2) ,dp)
   3    1.65708254E+02  # Real(Beps(3) ,dp)
Block MSQ2 Q=  1.99782668E+03  # (SUSY Scale)
  1  1     4.00000000E+06   # Real(mq2(1,1),dp)
  1  2     0.00000000E+00   # Real(mq2(1,2),dp)
  1  3     0.00000000E+00   # Real(mq2(1,3),dp)
  2  1     0.00000000E+00   # Real(mq2(2,1),dp)
  2  2     4.00000000E+06   # Real(mq2(2,2),dp)
  2  3     0.00000000E+00   # Real(mq2(2,3),dp)
  3  1     0.00000000E+00   # Real(mq2(3,1),dp)
  3  2     0.00000000E+00   # Real(mq2(3,2),dp)
  3  3     4.00000000E+06   # Real(mq2(3,3),dp)
Block MSL2 Q=  1.99782668E+03  # (SUSY Scale)
  1  1     4.00000000E+06   # Real(ml2(1,1),dp)
  1  2     0.00000000E+00   # Real(ml2(1,2),dp)
  1  3     0.00000000E+00   # Real(ml2(1,3),dp)
  2  1     0.00000000E+00   # Real(ml2(2,1),dp)
  2  2     4.00000000E+06   # Real(ml2(2,2),dp)
  2  3     0.00000000E+00   # Real(ml2(2,3),dp)
  3  1     0.00000000E+00   # Real(ml2(3,1),dp)
  3  2     0.00000000E+00   # Real(ml2(3,2),dp)
  3  3     4.00000000E+06   # Real(ml2(3,3),dp)
Block MSD2 Q=  1.99782668E+03  # (SUSY Scale)
  1  1     4.00000000E+06   # Real(md2(1,1),dp)
  1  2     0.00000000E+00   # Real(md2(1,2),dp)
  1  3     0.00000000E+00   # Real(md2(1,3),dp)
  2  1     0.00000000E+00   # Real(md2(2,1),dp)
  2  2     4.00000000E+06   # Real(md2(2,2),dp)
  2  3     0.00000000E+00   # Real(md2(2,3),dp)
  3  1     0.00000000E+00   # Real(md2(3,1),dp)
  3  2     0.00000000E+00   # Real(md2(3,2),dp)
  3  3     4.00000000E+06   # Real(md2(3,3),dp)
Block MSU2 Q=  1.99782668E+03  # (SUSY Scale)
  1  1     4.00000000E+06   # Real(mu2(1,1),dp)
  1  2     0.00000000E+00   # Real(mu2(1,2),dp)
  1  3     0.00000000E+00   # Real(mu2(1,3),dp)
  2  1     0.00000000E+00   # Real(mu2(2,1),dp)
  2  2     4.00000000E+06   # Real(mu2(2,2),dp)
  2  3     0.00000000E+00   # Real(mu2(2,3),dp)
  3  1     0.00000000E+00   # Real(mu2(3,1),dp)
  3  2     0.00000000E+00   # Real(mu2(3,2),dp)
  3  3     4.00000000E+06   # Real(mu2(3,3),dp)
Block MSE2 Q=  1.99782668E+03  # (SUSY Scale)
  1  1     4.00000000E+06   # Real(me2(1,1),dp)
  1  2     0.00000000E+00   # Real(me2(1,2),dp)
  1  3     0.00000000E+00   # Real(me2(1,3),dp)
  2  1     0.00000000E+00   # Real(me2(2,1),dp)
  2  2     4.00000000E+06   # Real(me2(2,2),dp)
  2  3     0.00000000E+00   # Real(me2(2,3),dp)
  3  1     0.00000000E+00   # Real(me2(3,1),dp)
  3  2     0.00000000E+00   # Real(me2(3,2),dp)
  3  3     4.00000000E+06   # Real(me2(3,3),dp)
Block RVM2LH1 Q=  1.99782668E+03  # (SUSY Scale)
   1    0.00000000E+00  # mlHd2(1) 
   2    0.00000000E+00  # mlHd2(2) 
   3    0.00000000E+00  # mlHd2(3) 
Block MASS  # Mass spectrum
#   PDG code      mass          particle
   1000001     2.04854203E+03  # Sd_1
   1000003     2.07158471E+03  # Sd_2
   1000005     2.07174428E+03  # Sd_3
   2000001     2.07174439E+03  # Sd_4
   2000003     2.09025983E+03  # Sd_5
   2000005     2.09026011E+03  # Sd_6
   1000002     1.90300889E+03  # Su_1
   1000004     2.07187151E+03  # Su_2
   1000006     2.07187197E+03  # Su_3
   2000002     2.08881965E+03  # Su_4
   2000004     2.08881987E+03  # Su_5
   2000006     2.14086675E+03  # Su_6
        25     1.22382969E+02  # hh_1
        35     9.99308229E+02  # hh_2
   1000012     2.01394243E+03  # hh_3
   1000014     2.01399926E+03  # hh_4
   1000016     2.01399946E+03  # hh_5
        36     9.98488505E+02  # Ah_2
   1000017     2.01394245E+03  # Ah_3
   1000018     2.01399926E+03  # Ah_4
   1000019     2.01399947E+03  # Ah_5
        37     1.00173196E+03  # Hpm_2
   1000011     2.00301163E+03  # Hpm_3
   2000011     2.00318252E+03  # Hpm_4
   1000013     2.00318313E+03  # Hpm_5
   2000013     2.01583240E+03  # Hpm_6
   1000015     2.01583241E+03  # Hpm_7
   2000015     2.01583413E+03  # Hpm_8
        23     9.11887000E+01  # VZ
        24     8.03146661E+01  # VWm
         1     5.00000000E-03  # Fd_1
         3     9.50000000E-02  # Fd_2
         5     4.18000000E+00  # Fd_3
         2     2.50000000E-03  # Fu_1
         4     1.27000000E+00  # Fu_2
         6     1.73500000E+02  # Fu_3
   1000021     3.13323299E+03  # Glu
        12     1.83308535E-12  # Chi_1
        14     1.15465352E-11  # Chi_2
        16     4.82450912E-11  # Chi_3
   1000022     4.06775227E+02  # Chi_4
   1000023     4.07921898E+02  # Chi_5
   1000025     7.97024788E+02  # Chi_6
   1000035     2.00977174E+03  # Chi_7
        11     5.10998930E-04  # Cha_1
        13     1.05658372E-01  # Cha_2
        15     1.77669000E+00  # Cha_3
   1000024     4.07019663E+02  # Cha_4
   1000037     2.00999108E+03  # Cha_5
Block DSQMIX Q=  1.99782668E+03  # ()
  1  1     0.00000000E+00   # Real(ZD(1,1),dp)
  1  2     0.00000000E+00   # Real(ZD(1,2),dp)
  1  3     9.98841603E-01   # Real(ZD(1,3),dp)
  1  4     0.00000000E+00   # Real(ZD(1,4),dp)
  1  5    -6.22552545E-15   # Real(ZD(1,5),dp)
  1  6     4.81191487E-02   # Real(ZD(1,6),dp)
  2  1     0.00000000E+00   # Real(ZD(2,1),dp)
  2  2     0.00000000E+00   # Real(ZD(2,2),dp)
  2  3     4.81191487E-02   # Real(ZD(2,3),dp)
  2  4     0.00000000E+00   # Real(ZD(2,4),dp)
  2  5    -7.03384144E-16   # Real(ZD(2,5),dp)
  2  6    -9.98841603E-01   # Real(ZD(2,6),dp)
  3  1     1.59393449E-13   # Real(ZD(3,1),dp)
  3  2     1.32625623E-03   # Real(ZD(3,2),dp)
  3  3     6.25215457E-15   # Real(ZD(3,3),dp)
  3  4     2.28351479E-09   # Real(ZD(3,4),dp)
  3  5     9.99999121E-01   # Real(ZD(3,5),dp)
  3  6    -4.03002007E-16   # Real(ZD(3,6),dp)
  4  1    -6.98022530E-05   # Real(ZD(4,1),dp)
  4  2     3.04326841E-12   # Real(ZD(4,2),dp)
  4  3     1.42768873E-23   # Real(ZD(4,3),dp)
  4  4    -9.99999998E-01   # Real(ZD(4,4),dp)
  4  5     2.28351277E-09   # Real(ZD(4,5),dp)
  4  6    -9.20261036E-25   # Real(ZD(4,6),dp)
  5  1     6.33570489E-14   # Real(ZD(5,1),dp)
  5  2     9.99999121E-01   # Real(ZD(5,2),dp)
  5  3    -8.29196621E-18   # Real(ZD(5,3),dp)
  5  4     1.47382639E-14   # Real(ZD(5,4),dp)
  5  5    -1.32625623E-03   # Real(ZD(5,5),dp)
  5  6     5.34484391E-19   # Real(ZD(5,6),dp)
  6  1    -9.99999998E-01   # Real(ZD(6,1),dp)
  6  2     6.33559611E-14   # Real(ZD(6,2),dp)
  6  3    -5.31777841E-31   # Real(ZD(6,3),dp)
  6  4     6.98022530E-05   # Real(ZD(6,4),dp)
  6  5    -8.50550587E-17   # Real(ZD(6,5),dp)
  6  6     3.42773895E-32   # Real(ZD(6,6),dp)
Block USQMIX Q=  1.99782668E+03  # ()
  1  1    -0.00000000E+00   # Real(ZU(1,1),dp)
  1  2    -0.00000000E+00   # Real(ZU(1,2),dp)
  1  3    -6.30019336E-01   # Real(ZU(1,3),dp)
  1  4    -0.00000000E+00   # Real(ZU(1,4),dp)
  1  5    -0.00000000E+00   # Real(ZU(1,5),dp)
  1  6    -7.76579446E-01   # Real(ZU(1,6),dp)
  2  1     1.72524529E-15   # Real(ZU(2,1),dp)
  2  2     1.52736411E-03   # Real(ZU(2,2),dp)
  2  3     0.00000000E+00   # Real(ZU(2,3),dp)
  2  4     5.73822101E-10   # Real(ZU(2,4),dp)
  2  5     9.99998834E-01   # Real(ZU(2,5),dp)
  2  6     0.00000000E+00   # Real(ZU(2,6),dp)
  3  1    -3.00668215E-06   # Real(ZU(3,1),dp)
  3  2     8.82900222E-13   # Real(ZU(3,2),dp)
  3  3    -0.00000000E+00   # Real(ZU(3,3),dp)
  3  4    -1.00000000E+00   # Real(ZU(3,4),dp)
  3  5     5.73821421E-10   # Real(ZU(3,5),dp)
  3  6    -0.00000000E+00   # Real(ZU(3,6),dp)
  4  1     1.63510849E-15   # Real(ZU(4,1),dp)
  4  2     9.99998834E-01   # Real(ZU(4,2),dp)
  4  3     0.00000000E+00   # Real(ZU(4,3),dp)
  4  4     6.46494387E-15   # Real(ZU(4,4),dp)
  4  5    -1.52736411E-03   # Real(ZU(4,5),dp)
  4  6     0.00000000E+00   # Real(ZU(4,6),dp)
  5  1     1.00000000E+00   # Real(ZU(5,1),dp)
  5  2    -1.63508727E-15   # Real(ZU(5,2),dp)
  5  3     0.00000000E+00   # Real(ZU(5,3),dp)
  5  4    -3.00668215E-06   # Real(ZU(5,4),dp)
  5  5     2.55275418E-18   # Real(ZU(5,5),dp)
  5  6     0.00000000E+00   # Real(ZU(5,6),dp)
  6  1     0.00000000E+00   # Real(ZU(6,1),dp)
  6  2     0.00000000E+00   # Real(ZU(6,2),dp)
  6  3    -7.76579446E-01   # Real(ZU(6,3),dp)
  6  4     0.00000000E+00   # Real(ZU(6,4),dp)
  6  5     0.00000000E+00   # Real(ZU(6,5),dp)
  6  6     6.30019336E-01   # Real(ZU(6,6),dp)
Block SCALARMIX Q=  1.99782668E+03  # ()
  1  1     2.00564389E-01   # ZH(1,1)
  1  2     9.79680519E-01   # ZH(1,2)
  1  3    -4.20249320E-05   # ZH(1,3)
  1  4     5.11920051E-05   # ZH(1,4)
  1  5    -3.86340558E-05   # ZH(1,5)
  2  1    -9.79680522E-01   # ZH(2,1)
  2  2     2.00564387E-01   # ZH(2,2)
  2  3    -2.29141569E-05   # ZH(2,3)
  2  4     2.59161324E-05   # ZH(2,4)
  2  5    -2.25661101E-05   # ZH(2,5)
  3  1     1.43527481E-05   # ZH(3,1)
  3  2    -4.23533651E-05   # ZH(3,2)
  3  3     2.02029409E-04   # ZH(3,3)
  3  4    -2.23612573E-04   # ZH(3,4)
  3  5    -9.99999954E-01   # ZH(3,5)
  4  1     1.40911354E-05   # ZH(4,1)
  4  2    -5.19676517E-05   # ZH(4,2)
  4  3     7.10347707E-02   # ZH(4,3)
  4  4     9.97473817E-01   # ZH(4,4)
  4  5    -2.08694180E-04   # ZH(4,5)
  5  1    -1.50617573E-05   # ZH(5,1)
  5  2     4.95921165E-05   # ZH(5,2)
  5  3     9.97473818E-01   # ZH(5,3)
  5  4    -7.10347225E-02   # ZH(5,4)
  5  5     2.17400997E-04   # ZH(5,5)
Block PSEUDOSCALARMIX Q=  1.99782668E+03  # ()
  1  1     1.94587254E-01   # ZA(1,1)
  1  2    -9.80885210E-01   # ZA(1,2)
  1  3    -4.18207121E-05   # ZA(1,3)
  1  4     5.09346014E-05   # ZA(1,4)
  1  5    -3.84527828E-05   # ZA(1,5)
  2  1    -9.80885212E-01   # ZA(2,1)
  2  2    -1.94587252E-01   # ZA(2,2)
  2  3    -2.25272453E-05   # ZA(2,3)
  2  4     2.54455100E-05   # ZA(2,4)
  2  5    -2.22099275E-05   # ZA(2,5)
  3  1     1.42969268E-05   # ZA(3,1)
  3  2     4.20185699E-05   # ZA(3,2)
  3  3     1.95220353E-04   # ZA(3,3)
  3  4    -2.20337402E-04   # ZA(3,4)
  3  5    -9.99999956E-01   # ZA(3,5)
  4  1     1.41277145E-05   # ZA(4,1)
  4  2     5.19060935E-05   # ZA(4,2)
  4  3     6.39286369E-02   # ZA(4,3)
  4  4     9.97954450E-01   # ZA(4,4)
  4  5    -2.07404146E-04   # ZA(4,5)
  5  1    -1.48952899E-05   # ZA(5,1)
  5  2    -4.88312080E-05   # ZA(5,2)
  5  3     9.97954452E-01   # ZA(5,3)
  5  4    -6.39285909E-02   # ZA(5,4)
  5  5     2.08904625E-04   # ZA(5,5)
Block CHARGEMIX Q=  1.99782668E+03  # ()
  1  1     1.96015565E-01   # ZP(1,1)
  1  2    -9.80600781E-01   # ZP(1,2)
  1  3    -4.18705471E-05   # ZP(1,3)
  1  4     5.09964102E-05   # ZP(1,4)
  1  5    -3.84977774E-05   # ZP(1,5)
  1  6    -4.07884615E-15   # ZP(1,6)
  1  7     8.38241129E-13   # ZP(1,7)
  1  8    -1.51382920E-11   # ZP(1,8)
  2  1     9.80600784E-01   # ZP(2,1)
  2  2     1.96015563E-01   # ZP(2,2)
  2  3     2.26428072E-05   # ZP(2,3)
  2  4    -2.55858460E-05   # ZP(2,4)
  2  5     2.23165736E-05   # ZP(2,5)
  2  6     7.48799475E-11   # ZP(2,6)
  2  7    -1.62235075E-08   # ZP(2,7)
  2  8     2.72711252E-07   # ZP(2,8)
  3  1     2.28580975E-06   # ZP(3,1)
  3  2     5.99107097E-06   # ZP(3,2)
  3  3     9.22015983E-08   # ZP(3,3)
  3  4    -1.04090976E-07   # ZP(3,4)
  3  5    -1.40963690E-01   # ZP(3,5)
  3  6     1.41068805E-10   # ZP(3,6)
  3  7    -3.33606271E-08   # ZP(3,7)
  3  8    -9.90014767E-01   # ZP(3,8)
  4  1    -1.46790269E-07   # ZP(4,1)
  4  2    -4.80306082E-07   # ZP(4,2)
  4  3    -6.80397360E-09   # ZP(4,3)
  4  4    -8.67148980E-03   # ZP(4,4)
  4  5    -1.60475054E-09   # ZP(4,5)
  4  6    -2.83155332E-09   # ZP(4,6)
  4  7    -9.99962402E-01   # ZP(4,7)
  4  8     3.48328082E-08   # ZP(4,8)
  5  1     6.60478191E-10   # ZP(5,1)
  5  2     1.92296674E-09   # ZP(5,2)
  5  3    -4.19434520E-05   # ZP(5,3)
  5  4    -8.13016263E-12   # ZP(5,4)
  5  5     7.03292740E-12   # ZP(5,5)
  5  6    -9.99999999E-01   # ZP(5,6)
  5  7     2.83201470E-09   # ZP(5,7)
  5  8    -1.47386194E-10   # ZP(5,8)
  6  1    -1.38113622E-05   # ZP(6,1)
  6  2    -4.48233165E-05   # ZP(6,2)
  6  3     9.99926208E-01   # ZP(6,3)
  6  4     1.21475451E-02   # ZP(6,4)
  6  5    -3.73770262E-05   # ZP(6,5)
  6  6    -4.19403575E-05   # ZP(6,6)
  6  7    -1.05348054E-04   # ZP(6,7)
  6  8     5.41349227E-06   # ZP(6,8)
  7  1     1.52609998E-05   # ZP(7,1)
  7  2     5.55670594E-05   # ZP(7,2)
  7  3    -1.21479975E-02   # ZP(7,3)
  7  4     9.99888612E-01   # ZP(7,4)
  7  5     4.32434615E-05   # ZP(7,5)
  7  6     5.09496384E-07   # ZP(7,6)
  7  7    -8.67084985E-03   # ZP(7,7)
  7  8    -6.26283617E-06   # ZP(7,8)
  8  1    -1.41578151E-05   # ZP(8,1)
  8  2    -4.17012984E-05   # ZP(8,2)
  8  3     3.82928324E-05   # ZP(8,3)
  8  4    -4.32284041E-05   # ZP(8,4)
  8  5     9.90014764E-01   # ZP(8,5)
  8  6    -1.57848292E-09   # ZP(8,6)
  8  7     3.68391475E-07   # ZP(8,7)
  8  8    -1.40963690E-01   # ZP(8,8)
Block UVMIX Q=  1.99782668E+03  # ()
  1  1     0.00000000E+00   # Real(UV(1,1),dp)
  1  2     0.00000000E+00   # Real(UV(1,2),dp)
  1  3    -0.00000000E+00   # Real(UV(1,3),dp)
  1  4     0.00000000E+00   # Real(UV(1,4),dp)
  1  5     0.00000000E+00   # Real(UV(1,5),dp)
  1  6    -0.00000000E+00   # Real(UV(1,6),dp)
  1  7     0.00000000E+00   # Real(UV(1,7),dp)
  2  1    -5.64361743E-01   # Real(UV(2,1),dp)
  2  2     4.46611762E-01   # Real(UV(2,2),dp)
  2  3    -6.94286409E-01   # Real(UV(2,3),dp)
  2  4     2.08418039E-08   # Real(UV(2,4),dp)
  2  5     7.85165708E-09   # Real(UV(2,5),dp)
  2  6    -3.74484713E-04   # Real(UV(2,6),dp)
  2  7    -8.02462745E-11   # Real(UV(2,7),dp)
  3  1     0.00000000E+00   # Real(UV(3,1),dp)
  3  2    -0.00000000E+00   # Real(UV(3,2),dp)
  3  3    -0.00000000E+00   # Real(UV(3,3),dp)
  3  4     0.00000000E+00   # Real(UV(3,4),dp)
  3  5     0.00000000E+00   # Real(UV(3,5),dp)
  3  6     0.00000000E+00   # Real(UV(3,6),dp)
  3  7     0.00000000E+00   # Real(UV(3,7),dp)
  4  1    -1.50502320E-04   # Real(UV(4,1),dp)
  4  2     1.57175534E-04   # Real(UV(4,2),dp)
  4  3    -1.58034587E-04   # Real(UV(4,3),dp)
  4  4    -3.05398201E-02   # Real(UV(4,4),dp)
  4  5    -4.06340181E-02   # Real(UV(4,5),dp)
  4  6     7.07250660E-01   # Real(UV(4,6),dp)
  4  7    -7.05133057E-01   # Real(UV(4,7),dp)
  5  1    -0.00000000E+00   # Real(UV(5,1),dp)
  5  2     0.00000000E+00   # Real(UV(5,2),dp)
  5  3    -0.00000000E+00   # Real(UV(5,3),dp)
  5  4     0.00000000E+00   # Real(UV(5,4),dp)
  5  5     0.00000000E+00   # Real(UV(5,5),dp)
  5  6     0.00000000E+00   # Real(UV(5,6),dp)
  5  7     0.00000000E+00   # Real(UV(5,7),dp)
  6  1     0.00000000E+00   # Real(UV(6,1),dp)
  6  2    -0.00000000E+00   # Real(UV(6,2),dp)
  6  3     0.00000000E+00   # Real(UV(6,3),dp)
  6  4     0.00000000E+00   # Real(UV(6,4),dp)
  6  5    -0.00000000E+00   # Real(UV(6,5),dp)
  6  6    -0.00000000E+00   # Real(UV(6,6),dp)
  6  7    -0.00000000E+00   # Real(UV(6,7),dp)
  7  1     3.39041150E-06   # Real(UV(7,1),dp)
  7  2    -3.82278741E-06   # Real(UV(7,2),dp)
  7  3     3.34798482E-06   # Real(UV(7,3),dp)
  7  4     6.89944464E-04   # Real(UV(7,4),dp)
  7  5    -9.99007861E-01   # Real(UV(7,5),dp)
  7  6    -1.58965462E-02   # Real(UV(7,6),dp)
  7  7     4.15946863E-02   # Real(UV(7,7),dp)
Block IMUVMIX Q=  1.99782668E+03  # ()
  1  1     8.25046319E-01   # Aimag(UV(1,1))
  1  2     3.33855859E-01   # Aimag(UV(1,2))
  1  3    -4.55893449E-01   # Aimag(UV(1,3))
  1  4     3.63041111E-09   # Aimag(UV(1,4))
  1  5     2.51871460E-09   # Aimag(UV(1,5))
  1  6    -4.93883129E-07   # Aimag(UV(1,6))
  1  7     1.12055743E-11   # Aimag(UV(1,7))
  2  1     0.00000000E+00   # Aimag(UV(2,1))
  2  2     0.00000000E+00   # Aimag(UV(2,2))
  2  3     0.00000000E+00   # Aimag(UV(2,3))
  2  4     0.00000000E+00   # Aimag(UV(2,4))
  2  5     0.00000000E+00   # Aimag(UV(2,5))
  2  6     0.00000000E+00   # Aimag(UV(2,6))
  2  7     0.00000000E+00   # Aimag(UV(2,7))
  3  1     2.81841966E-02   # Aimag(UV(3,1))
  3  2    -8.30107313E-01   # Aimag(UV(3,2))
  3  3    -5.56890920E-01   # Aimag(UV(3,3))
  3  4     4.99719279E-07   # Aimag(UV(3,4))
  3  5     3.54695967E-07   # Aimag(UV(3,5))
  3  6     6.60829811E-05   # Aimag(UV(3,6))
  3  7     1.75448839E-09   # Aimag(UV(3,7))
  4  1     0.00000000E+00   # Aimag(UV(4,1))
  4  2     0.00000000E+00   # Aimag(UV(4,2))
  4  3     0.00000000E+00   # Aimag(UV(4,3))
  4  4     0.00000000E+00   # Aimag(UV(4,4))
  4  5     0.00000000E+00   # Aimag(UV(4,5))
  4  6     0.00000000E+00   # Aimag(UV(4,6))
  4  7     0.00000000E+00   # Aimag(UV(4,7))
  5  1    -1.50325603E-04   # Aimag(UV(5,1))
  5  2     1.57046713E-04   # Aimag(UV(5,2))
  5  3    -1.57807104E-04   # Aimag(UV(5,3))
  5  4     6.28360092E-02   # Aimag(UV(5,4))
  5  5     1.81464601E-02   # Aimag(UV(5,5))
  5  6     7.06415087E-01   # Aimag(UV(5,6))
  5  7     7.04769462E-01   # Aimag(UV(5,7))
  6  1     4.85375221E-06   # Aimag(UV(6,1))
  6  2    -4.67255683E-06   # Aimag(UV(6,2))
  6  3     5.39490905E-06   # Aimag(UV(6,3))
  6  4     9.97556254E-01   # Aimag(UV(6,4))
  6  5    -1.69609161E-03   # Aimag(UV(6,5))
  6  6    -2.28338294E-02   # Aimag(UV(6,6))
  6  7    -6.60095457E-02   # Aimag(UV(6,7))
  7  1     0.00000000E+00   # Aimag(UV(7,1))
  7  2     0.00000000E+00   # Aimag(UV(7,2))
  7  3     0.00000000E+00   # Aimag(UV(7,3))
  7  4     0.00000000E+00   # Aimag(UV(7,4))
  7  5     0.00000000E+00   # Aimag(UV(7,5))
  7  6     0.00000000E+00   # Aimag(UV(7,6))
  7  7     0.00000000E+00   # Aimag(UV(7,7))
Block UELMIX Q=  1.99782668E+03  # ()
  1  1    -9.99999977E-01   # Real(ZEL(1,1),dp)
  1  2    -4.93141247E-08   # Real(ZEL(1,2),dp)
  1  3     4.93815770E-08   # Real(ZEL(1,3),dp)
  1  4    -1.08063891E-08   # Real(ZEL(1,4),dp)
  1  5    -2.12798817E-04   # Real(ZEL(1,5),dp)
  2  1    -2.03566194E-09   # Real(ZEL(2,1),dp)
  2  2     9.99999975E-01   # Real(ZEL(2,2),dp)
  2  3     5.17474801E-08   # Real(ZEL(2,3),dp)
  2  4    -4.11076244E-07   # Real(ZEL(2,4),dp)
  2  5    -2.22174425E-04   # Real(ZEL(2,5),dp)
  3  1     1.82224298E-09   # Real(ZEL(3,1),dp)
  3  2    -2.09286626E-09   # Real(ZEL(3,2),dp)
  3  3     9.99999975E-01   # Real(ZEL(3,3),dp)
  3  4    -2.89319542E-07   # Real(ZEL(3,4),dp)
  3  5     2.23494364E-04   # Real(ZEL(3,5),dp)
  4  1     2.12744828E-04   # Real(ZEL(4,1),dp)
  4  2    -2.22109059E-04   # Real(ZEL(4,2),dp)
  4  3     2.23444395E-04   # Real(ZEL(4,3),dp)
  4  4     2.24762984E-02   # Real(ZEL(4,4),dp)
  4  5    -9.99747304E-01   # Real(ZEL(4,5),dp)
  5  1    -4.79373363E-06   # Real(ZEL(5,1),dp)
  5  2     5.40463106E-06   # Real(ZEL(5,2),dp)
  5  3    -4.73407928E-06   # Real(ZEL(5,3),dp)
  5  4     9.99747376E-01   # Real(ZEL(5,4),dp)
  5  5     2.24762967E-02   # Real(ZEL(5,5),dp)
Block UERMIX Q=  1.99782668E+03  # ()
  1  1    -1.00000000E+00   # Real(ZER(1,1),dp)
  1  2    -2.47711246E-10   # Real(ZER(1,2),dp)
  1  3     1.47526167E-11   # Real(ZER(1,3),dp)
  1  4    -1.19213765E-14   # Real(ZER(1,4),dp)
  1  5     2.63092798E-13   # Real(ZER(1,5),dp)
  2  1    -2.47711246E-10   # Real(ZER(2,1),dp)
  2  2     1.00000000E+00   # Real(ZER(2,2),dp)
  2  3     3.20432632E-09   # Real(ZER(2,3),dp)
  2  4    -5.20197101E-10   # Real(ZER(2,4),dp)
  2  5     9.21616039E-09   # Real(ZER(2,5),dp)
  3  1     1.47526175E-11   # Real(ZER(3,1),dp)
  3  2    -3.20432735E-09   # Real(ZER(3,2),dp)
  3  3     1.00000000E+00   # Real(ZER(3,3),dp)
  3  4    -6.50627778E-09   # Real(ZER(3,4),dp)
  3  5     1.14937142E-07   # Real(ZER(3,5),dp)
  4  1    -2.63338964E-13   # Real(ZER(4,1),dp)
  4  2     9.23080043E-09   # Real(ZER(4,2),dp)
  4  3     1.15120831E-07   # Real(ZER(4,3),dp)
  4  4     5.88535224E-02   # Real(ZER(4,4),dp)
  4  5    -9.98266629E-01   # Real(ZER(4,5),dp)
  5  1     3.58322734E-15   # Real(ZER(5,1),dp)
  5  2    -2.31080951E-11   # Real(ZER(5,2),dp)
  5  3    -2.69455699E-10   # Real(ZER(5,3),dp)
  5  4     9.98266629E-01   # Real(ZER(5,4),dp)
  5  5     5.88535224E-02   # Real(ZER(5,5),dp)
Block UDLMIX Q=  1.99782668E+03  # ()
  1  1     1.00000000E+00   # Real(ZDL(1,1),dp)
  1  2     0.00000000E+00   # Real(ZDL(1,2),dp)
  1  3     0.00000000E+00   # Real(ZDL(1,3),dp)
  2  1     0.00000000E+00   # Real(ZDL(2,1),dp)
  2  2     1.00000000E+00   # Real(ZDL(2,2),dp)
  2  3     0.00000000E+00   # Real(ZDL(2,3),dp)
  3  1     0.00000000E+00   # Real(ZDL(3,1),dp)
  3  2     0.00000000E+00   # Real(ZDL(3,2),dp)
  3  3     1.00000000E+00   # Real(ZDL(3,3),dp)
Block UDRMIX Q=  1.99782668E+03  # ()
  1  1     1.00000000E+00   # Real(ZDR(1,1),dp)
  1  2     0.00000000E+00   # Real(ZDR(1,2),dp)
  1  3     0.00000000E+00   # Real(ZDR(1,3),dp)
  2  1     0.00000000E+00   # Real(ZDR(2,1),dp)
  2  2     1.00000000E+00   # Real(ZDR(2,2),dp)
  2  3     0.00000000E+00   # Real(ZDR(2,3),dp)
  3  1     0.00000000E+00   # Real(ZDR(3,1),dp)
  3  2     0.00000000E+00   # Real(ZDR(3,2),dp)
  3  3     1.00000000E+00   # Real(ZDR(3,3),dp)
Block UULMIX Q=  1.99782668E+03  # ()
  1  1     1.00000000E+00   # Real(ZUL(1,1),dp)
  1  2     0.00000000E+00   # Real(ZUL(1,2),dp)
  1  3     0.00000000E+00   # Real(ZUL(1,3),dp)
  2  1     0.00000000E+00   # Real(ZUL(2,1),dp)
  2  2     1.00000000E+00   # Real(ZUL(2,2),dp)
  2  3     0.00000000E+00   # Real(ZUL(2,3),dp)
  3  1     0.00000000E+00   # Real(ZUL(3,1),dp)
  3  2     0.00000000E+00   # Real(ZUL(3,2),dp)
  3  3     1.00000000E+00   # Real(ZUL(3,3),dp)
Block UURMIX Q=  1.99782668E+03  # ()
  1  1     1.00000000E+00   # Real(ZUR(1,1),dp)
  1  2     0.00000000E+00   # Real(ZUR(1,2),dp)
  1  3     0.00000000E+00   # Real(ZUR(1,3),dp)
  2  1     0.00000000E+00   # Real(ZUR(2,1),dp)
  2  2     1.00000000E+00   # Real(ZUR(2,2),dp)
  2  3     0.00000000E+00   # Real(ZUR(2,3),dp)
  3  1     0.00000000E+00   # Real(ZUR(3,1),dp)
  3  2     0.00000000E+00   # Real(ZUR(3,2),dp)
  3  3     1.00000000E+00   # Real(ZUR(3,3),dp)
Block SPheno # SPheno internal parameters 
         1    -1.00000000E+00  # ErrorLevel
         2     0.00000000E+00  # SPA_conventions
        11     1.00000000E+00  # Branching ratios
        13     1.00000000E+00  # 3 Body decays
        31     1.99782668E+03  # GUT scale
        33     1.99782668E+03  # Renormalization scale
        34     1.00000000E-04  # Precision
        35     4.00000000E+01  # Iterations
        38     2.00000000E+00  # RGE level
        40     7.29735257E-03  # Alpha
        41     2.49520000E+00  # Gamma_Z
        42     2.06000000E+00  # Gamma_W
        50     1.00000000E+00  # Rotate negative fermion masses
        51     0.00000000E+00  # Switch to SCKM matrix
        52     0.00000000E+00  # Ignore negative masses
        53     0.00000000E+00  # Ignore negative masses at MZ
        55     1.00000000E+00  # Calculate one loop masses
        56     1.00000000E+00  # Calculate two-loop Higgs masses
        57     0.00000000E+00  # Calculate low energy
        60     1.00000000E+00  # Include kinetic mixing
        65     1.00000000E+00  # Solution of tadpole equation
         8     3.00000000E+00  # Two-Loop Method: diagrammatic 
         9     1.00000000E+00  # Gauge-less limit
       400     1.00000000E-01  # Step-size for purely-numerical methode for 2-loop calculation
       401     1.00000000E-03  # Step-size for semi-analytical methode for 2-loop calculation
       410     0.00000000E+00  # indicative error in numerical derivation
Block HiggsLHC7 # Higgs production cross section at LHC7 [pb] 
  1        25        1.59891066E+01 # Gluon fusion 
  2        25        1.23943846E+00 # Vector boson fusion 
  3        25        5.85944686E-01 # W-H production 
  4        25        3.38532487E-01 # Z-H production 
  5        25        9.16585505E-02 # t-t-H production 
  1        35        1.04474921E-01 # Gluon fusion 
  2        35        1.51434225E-06 # Vector boson fusion 
Block HiggsLHC8 # Higgs production cross section at LHC8 [pb] 
  1        25        2.02348409E+01 # Gluon fusion 
  2        25        1.59625490E+00 # Vector boson fusion 
  3        25        7.45238906E-01 # W-H production 
  4        25        4.22493525E-01 # Z-H production 
  5        25        1.38549361E-01 # t-t-H production 
  1        35        1.58929216E-01 # Gluon fusion 
  2        35        1.72321121E-06 # Vector boson fusion 
Block EFFHIGGSCOUPLINGS # values of loop-induced couplings 
        25           22           22     0.18387830E-04 # H-Photon-Photon 
        25           21           21     0.58947630E-04 # H-Gluon-Gluon 
        25           22           23     0.00000000E+00 # H-Photon-Z (not yet calculated by SPheno) 
        35           22           22     0.86518956E-04 # H-Photon-Photon 
        35           21           21     0.79872336E-05 # H-Gluon-Gluon 
        35           22           23     0.00000000E+00 # H-Photon-Z (not yet calculated by SPheno) 
   1000012           22           22     0.10398687E-08 # H-Photon-Photon 
   1000012           21           21     0.67120744E-09 # H-Gluon-Gluon 
   1000012           22           23     0.00000000E+00 # H-Photon-Z (not yet calculated by SPheno) 
   1000014           22           22     0.11038299E-08 # H-Photon-Photon 
   1000014           21           21     0.82472775E-09 # H-Gluon-Gluon 
   1000014           22           23     0.00000000E+00 # H-Photon-Z (not yet calculated by SPheno) 
   1000016           22           22     0.11320941E-08 # H-Photon-Photon 
   1000016           21           21     0.78648219E-09 # H-Gluon-Gluon 
   1000016           22           23     0.00000000E+00 # H-Photon-Z (not yet calculated by SPheno) 
        36           22           22     0.14880517E-05 # A-Photon-Photon 
        36           21           21     0.11220945E-04 # A-Gluon-Gluon 
        36           22           23     0.00000000E+00 # A-Photon-Z (not yet calculated by SPheno) 
   1000017           22           22     0.13319267E-09 # A-Photon-Photon 
   1000017           21           21     0.90308572E-09 # A-Gluon-Gluon 
   1000017           22           23     0.00000000E+00 # A-Photon-Z (not yet calculated by SPheno) 
   1000018           22           22     0.15529764E-09 # A-Photon-Photon 
   1000018           21           21     0.11152072E-08 # A-Gluon-Gluon 
   1000018           22           23     0.00000000E+00 # A-Photon-Z (not yet calculated by SPheno) 
   1000019           22           22     0.14962023E-09 # A-Photon-Photon 
   1000019           21           21     0.10493185E-08 # A-Gluon-Gluon 
   1000019           22           23     0.00000000E+00 # A-Photon-Z (not yet calculated by SPheno) 
Block SPhenoLowEnergy # low energy observables 
      20    0.00000000E+00  # (g-2)_e
      21    0.00000000E+00  # (g-2)_mu
      22    0.00000000E+00  # (g-2)_tau
      23    0.00000000E+00  # EDM(e)
      24    0.00000000E+00  # EDM(mu)
      25    0.00000000E+00  # EDM(tau)
      39    0.00000000E+00  # delta(rho)
Block FlavorKitQFV # quark flavor violating observables 
     200    0.00000000E+00  # BR(B->X_s gamma)
     201    0.00000000E+00  # BR(B->X_s gamma)/BR(B->X_s gamma)_SM
     300    0.00000000E+00  # BR(D->mu nu)
     301    0.00000000E+00  # BR(D->mu nu)/BR(D->mu nu)_SM
     400    0.00000000E+00  # BR(Ds->mu nu)
     401    0.00000000E+00  # BR(Ds->mu nu)/BR(Ds->mu nu)_SM
     402    0.00000000E+00  # BR(Ds->tau nu)
     403    0.00000000E+00  # BR(Ds->tau nu)/BR(Ds->tau nu)_SM
     500    0.00000000E+00  # BR(B->mu nu)
     501    0.00000000E+00  # BR(B->mu nu)/BR(B->mu nu)_SM
     502    0.00000000E+00  # BR(B->tau nu)
     503    0.00000000E+00  # BR(B->tau nu)/BR(B->tau nu)_SM
     600    0.00000000E+00  # BR(K->mu nu)
     601    0.00000000E+00  # BR(K->mu nu)/BR(K->mu nu)_SM
     602    0.00000000E+00  # R_K = BR(K->e nu)/(K->mu nu)
     603    0.00000000E+00  # R_K^SM = BR(K->e nu)_SM/(K->mu nu)_SM
    1900    0.00000000E+00  # Delta(M_Bs)
    1901    0.00000000E+00  # Delta(M_Bs)/Delta(M_Bs)_SM
    1902    0.00000000E+00  # Delta(M_Bd)
    1903    0.00000000E+00  # Delta(M_Bd)/Delta(M_Bd)_SM
    4000    0.00000000E+00  # BR(B^0_d->e e)
    4001    0.00000000E+00  # BR(B^0_d->e e)/BR(B^0_d->e e)_SM
    4002    0.00000000E+00  # BR(B^0_s->e e)
    4003    0.00000000E+00  # BR(B^0_s->e e)/BR(B^0_s->e e)_SM
    4004    0.00000000E+00  # BR(B^0_d->mu mu)
    4005    0.00000000E+00  # BR(B^0_d->mu mu)/BR(B^0_d->mu mu)_SM
    4006    0.00000000E+00  # BR(B^0_s->mu mu)
    4007    0.00000000E+00  # BR(B^0_s->mu mu)/BR(B^0_s->mu mu)_SM
    4008    0.00000000E+00  # BR(B^0_d->tau tau)
    4009    0.00000000E+00  # BR(B^0_d->tau tau)/BR(B^0_d->tau tau)_SM
    4010    0.00000000E+00  # BR(B^0_s->tau tau)
    4011    0.00000000E+00  # BR(B^0_s->tau tau)/BR(B^0_s->tau tau)_SM
    5000    0.00000000E+00  # BR(B-> s e e)
    5001    0.00000000E+00  # BR(B-> s e e)/BR(B-> s e e)_SM
    5002    0.00000000E+00  # BR(B-> s mu mu)
    5003    0.00000000E+00  # BR(B-> s mu mu)/BR(B-> s mu mu)_SM
    6000    0.00000000E+00  # BR(B -> K mu mu)
    6001    0.00000000E+00  # BR(B -> K mu mu)/BR(B -> K mu mu)_SM
    7000    0.00000000E+00  # BR(B->s nu nu)
    7001    0.00000000E+00  # BR(B->s nu nu)/BR(B->s nu nu)_SM
    7002    0.00000000E+00  # BR(B->D nu nu)
    7003    0.00000000E+00  # BR(B->D nu nu)/BR(B->D nu nu)_SM
    8000    0.00000000E+00  # BR(K^+ -> pi^+ nu nu)
    8001    0.00000000E+00  # BR(K^+ -> pi^+ nu nu)/BR(K^+ -> pi^+ nu nu)_SM
    8002    0.00000000E+00  # BR(K_L -> pi^0 nu nu)
    8003    0.00000000E+00  # BR(K_L -> pi^0 nu nu)/BR(K_L -> pi^0 nu nu)_SM
    9100    0.00000000E+00  # Delta(M_K)
    9102    0.00000000E+00  # Delta(M_K)/Delta(M_K)_SM
    9103    0.00000000E+00  # epsilon_K
    9104    0.00000000E+00  # epsilon_K/epsilon_K^SM
Block FlavorKitLFV # lepton flavor violating observables 
     701    0.00000000E+00  # BR(mu->e gamma)
     702    0.00000000E+00  # BR(tau->e gamma)
     703    0.00000000E+00  # BR(tau->mu gamma)
     800    0.00000000E+00  # CR(mu-e, Al)
     801    0.00000000E+00  # CR(mu-e, Ti)
     802    0.00000000E+00  # CR(mu-e, Sr)
     803    0.00000000E+00  # CR(mu-e, Sb)
     804    0.00000000E+00  # CR(mu-e, Au)
     805    0.00000000E+00  # CR(mu-e, Pb)
     901    0.00000000E+00  # BR(mu->3e)
     902    0.00000000E+00  # BR(tau->3e)
     903    0.00000000E+00  # BR(tau->3mu)
     904    0.00000000E+00  # BR(tau- -> e- mu+ mu-)
     905    0.00000000E+00  # BR(tau- -> mu- e+ e-)
     906    0.00000000E+00  # BR(tau- -> e+ mu- mu-)
     907    0.00000000E+00  # BR(tau- -> mu+ e- e-)
    1001    0.00000000E+00  # BR(Z->e mu)
    1002    0.00000000E+00  # BR(Z->e tau)
    1003    0.00000000E+00  # BR(Z->mu tau)
    1101    0.00000000E+00  # BR(h->e mu)
    1102    0.00000000E+00  # BR(h->e tau)
    1103    0.00000000E+00  # BR(h->mu tau)
    2001    0.00000000E+00  # BR(tau->e pi)
    2002    0.00000000E+00  # BR(tau->e eta)
    2003    0.00000000E+00  # BR(tau->e eta')
    2004    0.00000000E+00  # BR(tau->mu pi)
    2005    0.00000000E+00  # BR(tau->mu eta)
    2006    0.00000000E+00  # BR(tau->mu eta')
Block FWCOEF Q=  1.60000000E+02  # Wilson coefficients at scale Q 
      030 4422   00   0     0.00000000E+00    # coeffC7sm
      030 4422   00   2     0.00000000E+00    # coeffC7
      030 4322   00   2     0.00000000E+00    # coeffC7p
      030 6421   00   0     0.00000000E+00    # coeffC8sm
      030 6421   00   2     0.00000000E+00    # coeffC8
      030 6321   00   2     0.00000000E+00    # coeffC8p
  0305111 4133   00   0     0.00000000E+00    # coeffC9eeSM
  0305111 4133   00   2     0.00000000E+00    # coeffC9ee
  0305111 4233   00   2     0.00000000E+00    # coeffC9Pee
  0305111 4137   00   0     0.00000000E+00    # coeffC10eeSM
  0305111 4137   00   2     0.00000000E+00    # coeffC10ee
  0305111 4237   00   2     0.00000000E+00    # coeffC10Pee
  0305131 4133   00   0     0.00000000E+00    # coeffC9mumuSM
  0305131 4133   00   2     0.00000000E+00    # coeffC9mumu
  0305131 4233   00   2     0.00000000E+00    # coeffC9Pmumu
  0305131 4137   00   0     0.00000000E+00    # coeffC10mumuSM
  0305131 4137   00   2     0.00000000E+00    # coeffC10mumu
  0305131 4237   00   2     0.00000000E+00    # coeffC10Pmumu
  0305121 4137   00   0     0.00000000E+00    # coeffC11nu1nu1SM
  0305121 4137   00   2     0.00000000E+00    # coeffC11nu1nu1
  0305121 4237   00   2     0.00000000E+00    # coeffC11Pnu1nu1
  0305141 4137   00   0     0.00000000E+00    # coeffC11nu2nu2SM
  0305141 4137   00   2     0.00000000E+00    # coeffC11nu2nu2
  0305141 4237   00   2     0.00000000E+00    # coeffC11Pnu2nu2
  0305161 4137   00   0     0.00000000E+00    # coeffC11nu3nu3SM
  0305161 4137   00   2     0.00000000E+00    # coeffC11nu3nu3
  0305161 4237   00   2     0.00000000E+00    # coeffC11Pnu3nu3
Block IMFWCOEF Q=  1.60000000E+02  # Im(Wilson coefficients) at scale Q 
      030 4422   00   0     0.00000000E+00    # coeffC7sm
      030 4422   00   2     0.00000000E+00    # coeffC7
      030 4322   00   2     0.00000000E+00    # coeffC7p
      030 6421   00   0     0.00000000E+00    # coeffC8sm
      030 6421   00   2     0.00000000E+00    # coeffC8
      030 6321   00   2     0.00000000E+00    # coeffC8p
  0305111 4133   00   0     0.00000000E+00    # coeffC9eeSM
  0305111 4133   00   2     0.00000000E+00    # coeffC9ee
  0305111 4233   00   2     0.00000000E+00    # coeffC9Pee
  0305111 4137   00   0     0.00000000E+00    # coeffC10eeSM
  0305111 4137   00   2     0.00000000E+00    # coeffC10ee
  0305111 4237   00   2     0.00000000E+00    # coeffC10Pee
  0305131 4133   00   0     0.00000000E+00    # coeffC9mumuSM
  0305131 4133   00   2     0.00000000E+00    # coeffC9mumu
  0305131 4233   00   2     0.00000000E+00    # coeffC9Pmumu
  0305131 4137   00   0     0.00000000E+00    # coeffC10mumuSM
  0305131 4137   00   2     0.00000000E+00    # coeffC10mumu
  0305131 4237   00   2     0.00000000E+00    # coeffC10Pmumu
  0305121 4137   00   0     0.00000000E+00    # coeffC11nu1nu1SM
  0305121 4137   00   2     0.00000000E+00    # coeffC11nu1nu1
  0305121 4237   00   2     0.00000000E+00    # coeffC11Pnu1nu1
  0305141 4137   00   0     0.00000000E+00    # coeffC11nu2nu2SM
  0305141 4137   00   2     0.00000000E+00    # coeffC11nu2nu2
  0305141 4237   00   2     0.00000000E+00    # coeffC11Pnu2nu2
  0305161 4137   00   0     0.00000000E+00    # coeffC11nu3nu3SM
  0305161 4137   00   2     0.00000000E+00    # coeffC11nu3nu3
  0305161 4237   00   2     0.00000000E+00    # coeffC11Pnu3nu3
DECAY   1000001     3.04326482E+01   # Sd_1
#    BR                NDA      ID1      ID2
     8.82067463E-01    2            6   -1000024   # BR(Sd_1 -> Fu_3 Cha_4 )
     3.08389582E-03    2            5    1000022   # BR(Sd_1 -> Fd_3 Chi_4 )
     2.77044524E-03    2            5    1000023   # BR(Sd_1 -> Fd_3 Chi_5 )
     7.20578840E-03    2            5    1000025   # BR(Sd_1 -> Fd_3 Chi_6 )
     3.78559332E-04    2            5    1000035   # BR(Sd_1 -> Fd_3 Chi_7 )
     1.04493847E-01    2      1000002        -24   # BR(Sd_1 -> Su_1 VWm )
DECAY   1000003     1.29083820E+00   # Sd_2
#    BR                NDA      ID1      ID2
     1.79464202E-01    2            6   -1000024   # BR(Sd_2 -> Fu_3 Cha_4 )
     6.45058494E-02    2            5    1000022   # BR(Sd_2 -> Fd_3 Chi_4 )
     6.72503370E-02    2            5    1000023   # BR(Sd_2 -> Fd_3 Chi_5 )
     6.78475774E-01    2            5    1000025   # BR(Sd_2 -> Fd_3 Chi_6 )
     1.02469234E-02    2      1000002        -24   # BR(Sd_2 -> Su_1 VWm )
DECAY   1000005     8.81951868E-01   # Sd_3
#    BR                NDA      ID1      ID2
     1.22229473E-03    2            3    1000022   # BR(Sd_3 -> Fd_2 Chi_4 )
     5.05426864E-03    2            3    1000023   # BR(Sd_3 -> Fd_2 Chi_5 )
     9.93650791E-01    2            3    1000025   # BR(Sd_3 -> Fd_2 Chi_6 )
DECAY   2000001     8.81826149E-01   # Sd_4
#    BR                NDA      ID1      ID2
     1.18622795E-03    2            1    1000022   # BR(Sd_4 -> Fd_1 Chi_4 )
     5.01911915E-03    2            1    1000023   # BR(Sd_4 -> Fd_1 Chi_5 )
     9.93794449E-01    2            1    1000025   # BR(Sd_4 -> Fd_1 Chi_6 )
DECAY   2000003     3.88320251E-01   # Sd_5
#    BR                NDA      ID1      ID2
     2.12046983E-02    2            4   -1000024   # BR(Sd_5 -> Fu_2 Cha_4 )
     2.46618378E-01    2            4   -1000037   # BR(Sd_5 -> Fu_2 Cha_5 )
     2.44833032E-02    2            3    1000022   # BR(Sd_5 -> Fd_2 Chi_4 )
     8.48260814E-04    2            3    1000023   # BR(Sd_5 -> Fd_2 Chi_5 )
     5.83011789E-01    2            3    1000025   # BR(Sd_5 -> Fd_2 Chi_6 )
     1.23833571E-01    2            3    1000035   # BR(Sd_5 -> Fd_2 Chi_7 )
DECAY   2000005     3.87783551E-01   # Sd_6
#    BR                NDA      ID1      ID2
     1.99784308E-02    2            2   -1000024   # BR(Sd_6 -> Fu_1 Cha_4 )
     2.46991345E-01    2            2   -1000037   # BR(Sd_6 -> Fu_1 Cha_5 )
     2.44390278E-02    2            1    1000022   # BR(Sd_6 -> Fd_1 Chi_4 )
     7.70811160E-04    2            1    1000023   # BR(Sd_6 -> Fd_1 Chi_5 )
     5.83814338E-01    2            1    1000025   # BR(Sd_6 -> Fd_1 Chi_6 )
     1.24006047E-01    2            1    1000035   # BR(Sd_6 -> Fd_1 Chi_7 )
DECAY   1000002     4.31459700E+01   # Su_1
#    BR                NDA      ID1      ID2
     2.78263026E-01    2            6    1000022   # BR(Su_1 -> Fu_3 Chi_4 )
     2.92118847E-01    2            6    1000023   # BR(Su_1 -> Fu_3 Chi_5 )
     5.25994393E-02    2            6    1000025   # BR(Su_1 -> Fu_3 Chi_6 )
     3.77018687E-01    2      1000024          5   # BR(Su_1 -> Cha_4^* Fd_3 )
DECAY   1000004     3.52865025E+00   # Su_2
#    BR                NDA      ID1      ID2
     1.25532028E-03    2            4    1000022   # BR(Su_2 -> Fu_2 Chi_4 )
     5.08493048E-03    2            4    1000023   # BR(Su_2 -> Fu_2 Chi_5 )
     9.93517958E-01    2            4    1000025   # BR(Su_2 -> Fu_2 Chi_6 )
     1.41753254E-04    2      1000024          3   # BR(Su_2 -> Cha_4^* Fd_2 )
DECAY   1000006     3.52767062E+00   # Su_3
#    BR                NDA      ID1      ID2
     1.18608923E-03    2            2    1000022   # BR(Su_3 -> Fu_1 Chi_4 )
     5.01885790E-03    2            2    1000023   # BR(Su_3 -> Fu_1 Chi_5 )
     9.93795050E-01    2            2    1000025   # BR(Su_3 -> Fu_1 Chi_6 )
DECAY   2000002     4.33788749E-01   # Su_4
#    BR                NDA      ID1      ID2
     3.93963724E-02    2            4    1000022   # BR(Su_4 -> Fu_2 Chi_4 )
     1.68832553E-02    2            4    1000023   # BR(Su_4 -> Fu_2 Chi_5 )
     5.03008881E-01    2            4    1000025   # BR(Su_4 -> Fu_2 Chi_6 )
     1.06998787E-01    2            4    1000035   # BR(Su_4 -> Fu_2 Chi_7 )
     1.21089897E-01    2      1000024          3   # BR(Su_4 -> Cha_4^* Fd_2 )
     2.12622807E-01    2      1000037          3   # BR(Su_4 -> Cha_5^* Fd_2 )
DECAY   2000004     4.33257422E-01   # Su_5
#    BR                NDA      ID1      ID2
     3.88907289E-02    2            2    1000022   # BR(Su_5 -> Fu_1 Chi_4 )
     1.63342556E-02    2            2    1000023   # BR(Su_5 -> Fu_1 Chi_5 )
     5.03615627E-01    2            2    1000025   # BR(Su_5 -> Fu_1 Chi_6 )
     1.07143956E-01    2            2    1000035   # BR(Su_5 -> Fu_1 Chi_7 )
     1.21130316E-01    2      1000024          1   # BR(Su_5 -> Cha_4^* Fd_1 )
     2.12885117E-01    2      1000037          1   # BR(Su_5 -> Cha_5^* Fd_1 )
DECAY   2000006     4.61188980E+01   # Su_6
#    BR                NDA      ID1      ID2
     3.11493839E-01    2            6    1000022   # BR(Su_6 -> Fu_3 Chi_4 )
     3.01162019E-01    2            6    1000023   # BR(Su_6 -> Fu_3 Chi_5 )
     2.84571453E-02    2            6    1000025   # BR(Su_6 -> Fu_3 Chi_6 )
     2.24339223E-01    2      1000024          5   # BR(Su_6 -> Cha_4^* Fd_3 )
     3.57805077E-03    2      1000037          5   # BR(Su_6 -> Cha_5^* Fd_3 )
     5.81758637E-03    2      1000002         25   # BR(Su_6 -> Su_1 hh_1 )
     5.77715241E-03    2      1000001         24   # BR(Su_6 -> Sd_1 VWm^* )
     1.19374983E-01    2      1000002         23   # BR(Su_6 -> Su_1 VZ )
DECAY        25     2.53652123E-03   # hh_1
#    BR                NDA      ID1      ID2
     1.21522190E-03    2           22         22   # BR(hh_1 -> VP VP )
     1.30815098E-01    2           21         21   # BR(hh_1 -> VG VG )
     2.14196328E-02    2           23         23   # BR(hh_1 -> VZ VZ )
     2.08013236E-01    2           24        -24   # BR(hh_1 -> VWm^* VWm_virt )
     3.39355856E-04    2          -13         13   # BR(hh_1 -> Cha_2^* Cha_2 )
     9.58382994E-02    2          -15         15   # BR(hh_1 -> Cha_3^* Cha_3 )
     1.88860295E-04    2           -3          3   # BR(hh_1 -> Fd_2^* Fd_2 )
     5.06909221E-01    2           -5          5   # BR(hh_1 -> Fd_3^* Fd_3 )
     3.52604073E-02    2           -4          4   # BR(hh_1 -> Fu_2^* Fu_2 )
DECAY        35     1.81249182E+00   # hh_2
#    BR                NDA      ID1      ID2
     2.04981671E-02    2           22         22   # BR(hh_2 -> VP VP )
     1.79159156E-03    2           21         21   # BR(hh_2 -> VG VG )
     2.61626936E-02    2          -15         15   # BR(hh_2 -> Cha_3^* Cha_3 )
     2.37902650E-03    2      1000024   -1000024   # BR(hh_2 -> Cha_4^* Cha_4 )
     1.42684908E-04    2      1000022    1000022   # BR(hh_2 -> Chi_4 Chi_4 )
     1.09305539E-03    2      1000022    1000023   # BR(hh_2 -> Chi_4 Chi_5 )
     1.87500108E-04    2      1000023    1000023   # BR(hh_2 -> Chi_5 Chi_5 )
     1.39166191E-01    2           -5          5   # BR(hh_2 -> Fd_3^* Fd_3 )
     7.96940269E-01    2           -6          6   # BR(hh_2 -> Fu_3^* Fu_3 )
     6.65288393E-03    2           25         25   # BR(hh_2 -> hh_1 hh_1 )
     3.16746090E-03    2          -24         24   # BR(hh_2 -> VWm VWm^* )
     1.65739606E-03    2           23         23   # BR(hh_2 -> VZ VZ )
DECAY   1000012     2.03795385E+00   # hh_3
#    BR                NDA      ID1      ID2
     3.47914736E-02    2          -15   -1000024   # BR(hh_3 -> Cha_3^* Cha_4 )
     3.47914736E-02    2      1000024         15   # BR(hh_3 -> Cha_4^* Cha_3 )
     4.10783658E-04    2           12    1000022   # BR(hh_3 -> Chi_1 Chi_4 )
     2.40213380E-04    2           12    1000023   # BR(hh_3 -> Chi_1 Chi_5 )
     1.92766914E-01    2           12    1000025   # BR(hh_3 -> Chi_1 Chi_6 )
     9.51745499E-04    2           14    1000022   # BR(hh_3 -> Chi_2 Chi_4 )
     5.56550871E-04    2           14    1000023   # BR(hh_3 -> Chi_2 Chi_5 )
     4.46622056E-01    2           14    1000025   # BR(hh_3 -> Chi_2 Chi_6 )
     6.13126032E-04    2           16    1000022   # BR(hh_3 -> Chi_3 Chi_4 )
     3.58536843E-04    2           16    1000023   # BR(hh_3 -> Chi_3 Chi_5 )
     2.87719364E-01    2           16    1000025   # BR(hh_3 -> Chi_3 Chi_6 )
DECAY   1000014     1.94689823E+00   # hh_4
#    BR                NDA      ID1      ID2
     1.29351827E-02    2          -13   -1000024   # BR(hh_4 -> Cha_2^* Cha_4 )
     1.29351827E-02    2      1000024         13   # BR(hh_4 -> Cha_4^* Cha_2 )
     3.17333645E-04    2           12    1000022   # BR(hh_4 -> Chi_1 Chi_4 )
     1.85566753E-04    2           12    1000023   # BR(hh_4 -> Chi_1 Chi_5 )
     1.48916381E-01    2           12    1000025   # BR(hh_4 -> Chi_1 Chi_6 )
     3.40127792E-04    2           14    1000022   # BR(hh_4 -> Chi_2 Chi_4 )
     1.98896054E-04    2           14    1000023   # BR(hh_4 -> Chi_2 Chi_5 )
     1.59613079E-01    2           14    1000025   # BR(hh_4 -> Chi_2 Chi_6 )
     1.41066263E-03    2           16    1000022   # BR(hh_4 -> Chi_3 Chi_4 )
     8.24911220E-04    2           16    1000023   # BR(hh_4 -> Chi_3 Chi_5 )
     6.61987085E-01    2           16    1000025   # BR(hh_4 -> Chi_3 Chi_6 )
DECAY   1000016     1.94657831E+00   # hh_5
#    BR                NDA      ID1      ID2
     1.28546032E-02    2          -11   -1000024   # BR(hh_5 -> Cha_1^* Cha_4 )
     1.28546032E-02    2      1000024         11   # BR(hh_5 -> Cha_4^* Cha_1 )
     1.32099772E-03    2           12    1000022   # BR(hh_5 -> Chi_1 Chi_4 )
     7.72477991E-04    2           12    1000023   # BR(hh_5 -> Chi_1 Chi_5 )
     6.19909720E-01    2           12    1000025   # BR(hh_5 -> Chi_1 Chi_6 )
     7.31825242E-04    2           14    1000022   # BR(hh_5 -> Chi_2 Chi_4 )
     4.27948426E-04    2           14    1000023   # BR(hh_5 -> Chi_2 Chi_5 )
     3.43426469E-01    2           14    1000025   # BR(hh_5 -> Chi_2 Chi_6 )
     7.34001934E-03    2           16    1000025   # BR(hh_5 -> Chi_3 Chi_6 )
DECAY        36     1.88087180E+00   # Ah_2
#    BR                NDA      ID1      ID2
     2.35687477E-03    2           21         21   # BR(Ah_2 -> VG VG )
     2.52531660E-02    2          -15         15   # BR(Ah_2 -> Cha_3^* Cha_3 )
     9.29288896E-03    2      1000024   -1000024   # BR(Ah_2 -> Cha_4^* Cha_4 )
     9.23517206E-04    2      1000022    1000022   # BR(Ah_2 -> Chi_4 Chi_4 )
     3.16387286E-04    2      1000022    1000023   # BR(Ah_2 -> Chi_4 Chi_5 )
     2.40356836E-04    2      1000023    1000023   # BR(Ah_2 -> Chi_5 Chi_5 )
     1.34335874E-01    2           -5          5   # BR(Ah_2 -> Fd_3^* Fd_3 )
     8.21220963E-01    2           -6          6   # BR(Ah_2 -> Fu_3^* Fu_3 )
     5.89966011E-03    2           25         23   # BR(Ah_2 -> hh_1 VZ )
DECAY   1000017     2.03795390E+00   # Ah_3
#    BR                NDA      ID1      ID2
     3.47914734E-02    2          -15   -1000024   # BR(Ah_3 -> Cha_3^* Cha_4 )
     3.47914734E-02    2      1000024         15   # BR(Ah_3 -> Cha_4^* Cha_3 )
     4.10775504E-04    2           12    1000022   # BR(Ah_3 -> Chi_1 Chi_4 )
     2.40208612E-04    2           12    1000023   # BR(Ah_3 -> Chi_1 Chi_5 )
     1.92763088E-01    2           12    1000025   # BR(Ah_3 -> Chi_1 Chi_6 )
     9.51760043E-04    2           14    1000022   # BR(Ah_3 -> Chi_2 Chi_4 )
     5.56559377E-04    2           14    1000023   # BR(Ah_3 -> Chi_2 Chi_5 )
     4.46628885E-01    2           14    1000025   # BR(Ah_3 -> Chi_2 Chi_6 )
     6.13119621E-04    2           16    1000022   # BR(Ah_3 -> Chi_3 Chi_4 )
     3.58533095E-04    2           16    1000023   # BR(Ah_3 -> Chi_3 Chi_5 )
     2.87716358E-01    2           16    1000025   # BR(Ah_3 -> Chi_3 Chi_6 )
DECAY   1000018     1.94689855E+00   # Ah_4
#    BR                NDA      ID1      ID2
     1.29476493E-02    2          -13   -1000024   # BR(Ah_4 -> Cha_2^* Cha_4 )
     1.29476493E-02    2      1000024         13   # BR(Ah_4 -> Cha_4^* Cha_2 )
     3.08160669E-04    2           12    1000022   # BR(Ah_4 -> Chi_1 Chi_4 )
     1.80202684E-04    2           12    1000023   # BR(Ah_4 -> Chi_1 Chi_5 )
     1.44611744E-01    2           12    1000025   # BR(Ah_4 -> Chi_1 Chi_6 )
     3.47250341E-04    2           14    1000022   # BR(Ah_4 -> Chi_2 Chi_4 )
     2.03061097E-04    2           14    1000023   # BR(Ah_4 -> Chi_2 Chi_5 )
     1.62955504E-01    2           14    1000025   # BR(Ah_4 -> Chi_2 Chi_6 )
     1.41271272E-03    2           16    1000022   # BR(Ah_4 -> Chi_3 Chi_4 )
     8.26110048E-04    2           16    1000023   # BR(Ah_4 -> Chi_3 Chi_5 )
     6.62949138E-01    2           16    1000025   # BR(Ah_4 -> Chi_3 Chi_6 )
DECAY   1000019     1.94657800E+00   # Ah_5
#    BR                NDA      ID1      ID2
     1.28669962E-02    2          -11   -1000024   # BR(Ah_5 -> Cha_1^* Cha_4 )
     1.28669962E-02    2      1000024         11   # BR(Ah_5 -> Cha_4^* Cha_1 )
     1.33018089E-03    2           12    1000022   # BR(Ah_5 -> Chi_1 Chi_4 )
     7.77848026E-04    2           12    1000023   # BR(Ah_5 -> Chi_1 Chi_5 )
     6.24219146E-01    2           12    1000025   # BR(Ah_5 -> Chi_1 Chi_6 )
     7.24686344E-04    2           14    1000022   # BR(Ah_5 -> Chi_2 Chi_4 )
     4.23773822E-04    2           14    1000023   # BR(Ah_5 -> Chi_2 Chi_5 )
     3.40076370E-01    2           14    1000025   # BR(Ah_5 -> Chi_2 Chi_6 )
     6.38084747E-03    2           16    1000025   # BR(Ah_5 -> Chi_3 Chi_6 )
DECAY        37     1.87947663E+00   # Hpm_2
#    BR                NDA      ID1      ID2
     5.26649162E-03    2           12        -15   # BR(Hpm_2^* -> Chi_1 Cha_3^* )
     1.22143969E-02    2           14        -15   # BR(Hpm_2^* -> Chi_2 Cha_3^* )
     7.85841510E-03    2           16        -15   # BR(Hpm_2^* -> Chi_3 Cha_3^* )
     1.03731842E-03    2      1000022    1000024   # BR(Hpm_2^* -> Chi_4 Cha_4^* )
     4.73167523E-03    2      1000023    1000024   # BR(Hpm_2^* -> Chi_5 Cha_4^* )
     9.65357493E-01    2            6         -5   # BR(Hpm_2^* -> Fu_3 Fd_3^* )
     3.37886644E-03    2           25         24   # BR(Hpm_2^* -> hh_1 VWm^* )
DECAY   1000011     7.56889868E+00   # Hpm_3
#    BR                NDA      ID1      ID2
     2.65110372E-03    2           12   -1000024   # BR(Hpm_3 -> Chi_1 Cha_4 )
     6.14861648E-03    2           14   -1000024   # BR(Hpm_3 -> Chi_2 Cha_4 )
     3.95585427E-03    2           16   -1000024   # BR(Hpm_3 -> Chi_3 Cha_4 )
     7.75311615E-03    2      1000022         15   # BR(Hpm_3 -> Chi_4 Cha_3 )
     1.13992174E-02    2      1000023         15   # BR(Hpm_3 -> Chi_5 Cha_3 )
     9.68092089E-01    2      1000025         15   # BR(Hpm_3 -> Chi_6 Cha_3 )
DECAY   2000011     7.49042506E+00   # Hpm_4
#    BR                NDA      ID1      ID2
     1.23191620E-03    2      1000022         13   # BR(Hpm_4 -> Chi_4 Cha_2 )
     5.13575171E-03    2      1000023         13   # BR(Hpm_4 -> Chi_5 Cha_2 )
     9.93585737E-01    2      1000025         13   # BR(Hpm_4 -> Chi_6 Cha_2 )
DECAY   1000013     7.49016607E+00   # Hpm_5
#    BR                NDA      ID1      ID2
     1.20843080E-03    2      1000022         11   # BR(Hpm_5 -> Chi_4 Cha_1 )
     5.11322542E-03    2      1000023         11   # BR(Hpm_5 -> Chi_5 Cha_1 )
     9.93678343E-01    2      1000025         11   # BR(Hpm_5 -> Chi_6 Cha_1 )
DECAY   2000013     1.92549717E+00   # Hpm_6
#    BR                NDA      ID1      ID2
     2.65116572E-03    2           12   -1000024   # BR(Hpm_6 -> Chi_1 Cha_4 )
     1.94603044E-04    2           12   -1000037   # BR(Hpm_6 -> Chi_1 Cha_5 )
     1.20486812E-03    2           14   -1000024   # BR(Hpm_6 -> Chi_2 Cha_4 )
     1.31239809E-02    2      1000022         11   # BR(Hpm_6 -> Chi_4 Cha_1 )
     1.13548637E-02    2      1000023         11   # BR(Hpm_6 -> Chi_5 Cha_1 )
     9.71081566E-01    2      1000025         11   # BR(Hpm_6 -> Chi_6 Cha_1 )
     1.43361044E-04    2      1000025         13   # BR(Hpm_6 -> Chi_6 Cha_2 )
     1.52008330E-04    2      1000035         11   # BR(Hpm_6 -> Chi_7 Cha_1 )
DECAY   1000015     1.92620589E+00   # Hpm_7
#    BR                NDA      ID1      ID2
     4.02732986E-04    2           12   -1000024   # BR(Hpm_7 -> Chi_1 Cha_4 )
     7.89844945E-04    2           14   -1000024   # BR(Hpm_7 -> Chi_2 Cha_4 )
     2.64906138E-03    2           16   -1000024   # BR(Hpm_7 -> Chi_3 Cha_4 )
     1.95154134E-04    2           16   -1000037   # BR(Hpm_7 -> Chi_3 Cha_5 )
     1.31954063E-02    2      1000022         13   # BR(Hpm_7 -> Chi_4 Cha_2 )
     1.14297166E-02    2      1000023         13   # BR(Hpm_7 -> Chi_5 Cha_2 )
     1.43273428E-04    2      1000025         11   # BR(Hpm_7 -> Chi_6 Cha_1 )
     9.70951218E-01    2      1000025         13   # BR(Hpm_7 -> Chi_6 Cha_2 )
     1.51919313E-04    2      1000035         13   # BR(Hpm_7 -> Chi_7 Cha_2 )
DECAY   2000015     2.12037296E+00   # Hpm_8
#    BR                NDA      ID1      ID2
     1.78217242E-04    2           12   -1000024   # BR(Hpm_8 -> Chi_1 Cha_4 )
     4.13494510E-04    2           14   -1000024   # BR(Hpm_8 -> Chi_2 Cha_4 )
     1.21617106E-04    2           14   -1000037   # BR(Hpm_8 -> Chi_2 Cha_5 )
     2.65896850E-04    2           16   -1000024   # BR(Hpm_8 -> Chi_3 Cha_4 )
     3.16041907E-02    2      1000022         15   # BR(Hpm_8 -> Chi_4 Cha_3 )
     3.06657998E-02    2      1000023         15   # BR(Hpm_8 -> Chi_5 Cha_3 )
     9.36490369E-01    2      1000025         15   # BR(Hpm_8 -> Chi_6 Cha_3 )
     1.29637645E-04    2      1000035         15   # BR(Hpm_8 -> Chi_7 Cha_3 )
DECAY   1000021     2.47604111E+02   # Glu
#    BR                NDA      ID1      ID2
     4.15495408E-02    2            1   -2000001   # BR(Glu -> Fd_1 Sd_4^* )
     4.15495408E-02    2           -1    2000001   # BR(Glu -> Fd_1^* Sd_4 )
     4.03985661E-02    2            1   -2000005   # BR(Glu -> Fd_1 Sd_6^* )
     4.03985661E-02    2           -1    2000005   # BR(Glu -> Fd_1^* Sd_6 )
     4.15495356E-02    2            3   -1000005   # BR(Glu -> Fd_2 Sd_3^* )
     4.15495356E-02    2           -3    1000005   # BR(Glu -> Fd_2^* Sd_3 )
     4.03985946E-02    2            3   -2000003   # BR(Glu -> Fd_2 Sd_5^* )
     4.03985946E-02    2           -3    2000003   # BR(Glu -> Fd_2^* Sd_5 )
     4.29803947E-02    2            5   -1000001   # BR(Glu -> Fd_3 Sd_1^* )
     4.29803947E-02    2           -5    1000001   # BR(Glu -> Fd_3^* Sd_1 )
     4.15782256E-02    2            5   -1000003   # BR(Glu -> Fd_3 Sd_2^* )
     4.15782256E-02    2           -5    1000003   # BR(Glu -> Fd_3^* Sd_2 )
     4.15415904E-02    2            2   -1000006   # BR(Glu -> Fu_1 Su_3^* )
     4.15415904E-02    2           -2    1000006   # BR(Glu -> Fu_1^* Su_3 )
     4.04878794E-02    2            2   -2000004   # BR(Glu -> Fu_1 Su_5^* )
     4.04878794E-02    2           -2    2000004   # BR(Glu -> Fu_1^* Su_5 )
     4.15414174E-02    2            4   -1000004   # BR(Glu -> Fu_2 Su_2^* )
     4.15414174E-02    2           -4    1000004   # BR(Glu -> Fu_2^* Su_2 )
     4.04880543E-02    2            4   -2000002   # BR(Glu -> Fu_2 Su_4^* )
     4.04880543E-02    2           -4    2000002   # BR(Glu -> Fu_2^* Su_4 )
     4.30705466E-02    2            6   -1000002   # BR(Glu -> Fu_3 Su_1^* )
     4.30705466E-02    2           -6    1000002   # BR(Glu -> Fu_3^* Su_1 )
     4.43604540E-02    2            6   -2000006   # BR(Glu -> Fu_3 Su_6^* )
     4.43604540E-02    2           -6    2000006   # BR(Glu -> Fu_3^* Su_6 )
DECAY         6     1.43930793E+00   # Fu_3
#    BR                NDA      ID1      ID2
     1.00000000E+00    2            5         24   # BR(Fu_3 -> Fd_3 VWm^* )
DECAY        13     1.10546910E-18   # Cha_2
#    BR                NDA      ID1      ID2
#    BR                NDA      ID1      ID2       ID3
     2.60322208E-02    3           11         12         12   # BR(Cha_2 -> Cha_1 Chi_1 Chi_1 )
     5.56768304E-02    3           11         12         14   # BR(Cha_2 -> Cha_1 Chi_1 Chi_2 )
     1.15034268E-01    3           11         12         16   # BR(Cha_2 -> Cha_1 Chi_1 Chi_3 )
     2.17977727E-02    3           11         14         14   # BR(Cha_2 -> Cha_1 Chi_2 Chi_2 )
     5.33049980E-02    3           11         14         16   # BR(Cha_2 -> Cha_1 Chi_2 Chi_3 )
     1.87808984E-04    3           11         16         16   # BR(Cha_2 -> Cha_1 Chi_3 Chi_3 )
     8.11388923E-02    3           12         -2          1   # BR(Cha_2 -> Chi_1 Fu_1^* Fd_1 )
     1.45201647E-01    3           14         -2          1   # BR(Cha_2 -> Chi_2 Fu_1^* Fd_1 )
     5.01625563E-01    3           16         -2          1   # BR(Cha_2 -> Chi_3 Fu_1^* Fd_1 )
DECAY        15     1.84645622E-12   # Cha_3
#    BR                NDA      ID1      ID2
#    BR                NDA      ID1      ID2       ID3
     2.82312779E-02    3           11         12         12   # BR(Cha_3 -> Cha_1 Chi_1 Chi_1 )
     7.86854453E-02    3           11         12         14   # BR(Cha_3 -> Cha_1 Chi_1 Chi_2 )
     4.21583424E-02    3           11         12         16   # BR(Cha_3 -> Cha_1 Chi_1 Chi_3 )
     3.06365414E-02    3           11         14         14   # BR(Cha_3 -> Cha_1 Chi_2 Chi_2 )
     1.97871273E-02    3           11         14         16   # BR(Cha_3 -> Cha_1 Chi_2 Chi_3 )
     4.50001784E-03    3           13         12         12   # BR(Cha_3 -> Cha_2 Chi_1 Chi_1 )
     1.84897576E-02    3           13         12         14   # BR(Cha_3 -> Cha_2 Chi_1 Chi_2 )
     3.45352675E-02    3           13         12         16   # BR(Cha_3 -> Cha_2 Chi_1 Chi_3 )
     1.86770136E-02    3           13         14         14   # BR(Cha_3 -> Cha_2 Chi_2 Chi_2 )
     7.65394535E-02    3           13         14         16   # BR(Cha_3 -> Cha_2 Chi_2 Chi_3 )
     4.15124501E-02    3           13         16         16   # BR(Cha_3 -> Cha_2 Chi_3 Chi_3 )
     1.24414504E-01    3           12         -2          1   # BR(Cha_3 -> Chi_1 Fu_1^* Fd_1 )
     1.57700662E-03    3           12         -4          3   # BR(Cha_3 -> Chi_1 Fu_2^* Fd_2 )
     2.88550443E-01    3           14         -2          1   # BR(Cha_3 -> Chi_2 Fu_1^* Fd_1 )
     3.65749928E-03    3           14         -4          3   # BR(Cha_3 -> Chi_2 Fu_2^* Fd_2 )
     1.85645557E-01    3           16         -2          1   # BR(Cha_3 -> Chi_3 Fu_1^* Fd_1 )
     2.35313619E-03    3           16         -4          3   # BR(Cha_3 -> Chi_3 Fu_2^* Fd_2 )
DECAY   1000024     5.06857765E-12   # Cha_4
#    BR                NDA      ID1      ID2
     4.65298430E-04    2          -11         25   # BR(Cha_4^* -> Cha_1^* hh_1 )
     7.46574791E-02    2          -13         25   # BR(Cha_4^* -> Cha_2^* hh_1 )
     9.35267743E-02    2          -15         25   # BR(Cha_4^* -> Cha_3^* hh_1 )
     3.09935697E-04    2          -13         23   # BR(Cha_4^* -> Cha_2^* VZ )
     3.28559366E-02    2          -15         23   # BR(Cha_4^* -> Cha_3^* VZ )
     7.39802563E-01    2           14         24   # BR(Cha_4^* -> Chi_2 VWm^* )
     5.69969910E-02    2           16         24   # BR(Cha_4^* -> Chi_3 VWm^* )
#    BR                NDA      ID1      ID2       ID3
     1.68784155E-04    3          -11          5         -5   # BR(Cha_4^* -> Cha_1^* Fd_3 Fd_3^* )
     1.84485000E-04    3          -13          5         -5   # BR(Cha_4^* -> Cha_2^* Fd_3 Fd_3^* )
     2.10843091E-04    3          -15          5         -5   # BR(Cha_4^* -> Cha_3^* Fd_3 Fd_3^* )
     5.85096018E-04    3           14          6         -5   # BR(Cha_4^* -> Chi_2 Fu_3 Fd_3^* )
     1.02962557E-04    3           16          6         -5   # BR(Cha_4^* -> Chi_3 Fu_3 Fd_3^* )
DECAY   1000037     2.55002330E+01   # Cha_5
#    BR                NDA      ID1      ID2
     6.93345546E-02    2      1000024         36   # BR(Cha_5^* -> Cha_4^* Ah_2 )
     1.80886268E-01    2      1000024         25   # BR(Cha_5^* -> Cha_4^* hh_1 )
     6.86952692E-02    2      1000024         35   # BR(Cha_5^* -> Cha_4^* hh_2 )
     1.73574637E-01    2      1000024         23   # BR(Cha_5^* -> Cha_4^* VZ )
     6.93020102E-02    2      1000022         37   # BR(Cha_5^* -> Chi_4 Hpm_2^* )
     6.87001977E-02    2      1000023         37   # BR(Cha_5^* -> Chi_5 Hpm_2^* )
     1.76665362E-01    2      1000022         24   # BR(Cha_5^* -> Chi_4 VWm^* )
     1.70685174E-01    2      1000023         24   # BR(Cha_5^* -> Chi_5 VWm^* )
     6.23860022E-04    2      1000025         24   # BR(Cha_5^* -> Chi_6 VWm^* )
     3.31282697E-03    2           -5    1000002   # BR(Cha_5^* -> Fd_3^* Su_1 )
#    BR                NDA      ID1      ID2       ID3
     1.88057707E-04    3      1000024          5         -5   # BR(Cha_5^* -> Cha_4^* Fd_3 Fd_3^* )
     7.26317331E-03    3      1000024          6         -6   # BR(Cha_5^* -> Cha_4^* Fu_3 Fu_3^* )
     5.23937704E-03    3      1000022          6         -5   # BR(Cha_5^* -> Chi_4 Fu_3 Fd_3^* )
     5.14482867E-03    3      1000023          6         -5   # BR(Cha_5^* -> Chi_5 Fu_3 Fd_3^* )
DECAY   1000022     4.47920727E-12   # Chi_4
#    BR                NDA      ID1      ID2
     1.37235449E-01    2           11         24   # BR(Chi_4 -> Cha_1 VWm^* )
     1.37235449E-01    2          -11        -24   # BR(Chi_4 -> Cha_1^* VWm )
     1.93901440E-01    2           13         24   # BR(Chi_4 -> Cha_2 VWm^* )
     1.93901440E-01    2          -13        -24   # BR(Chi_4 -> Cha_2^* VWm )
     1.60329802E-01    2           15         24   # BR(Chi_4 -> Cha_3 VWm^* )
     1.60329802E-01    2          -15        -24   # BR(Chi_4 -> Cha_3^* VWm )
     1.98470036E-04    2           14         25   # BR(Chi_4 -> Chi_2 hh_1 )
     1.06066551E-02    2           16         25   # BR(Chi_4 -> Chi_3 hh_1 )
     4.96607549E-03    2           16         23   # BR(Chi_4 -> Chi_3 VZ )
#    BR                NDA      ID1      ID2       ID3
     1.19424496E-04    3           11         -5          6   # BR(Chi_4 -> Cha_1 Fd_3^* Fu_3 )
     1.19424496E-04    3          -11          5         -6   # BR(Chi_4 -> Cha_1^* Fd_3 Fu_3^* )
     1.98920727E-04    3           13         -5          6   # BR(Chi_4 -> Cha_2 Fd_3^* Fu_3 )
     1.98920727E-04    3          -13          5         -6   # BR(Chi_4 -> Cha_2^* Fd_3 Fu_3^* )
     3.02730571E-04    3           15         -5          6   # BR(Chi_4 -> Cha_3 Fd_3^* Fu_3 )
     3.02730571E-04    3          -15          5         -6   # BR(Chi_4 -> Cha_3^* Fd_3 Fu_3^* )
DECAY   1000023     5.96471084E-12   # Chi_5
#    BR                NDA      ID1      ID2
     1.00524244E-01    2           11         24   # BR(Chi_5 -> Cha_1 VWm^* )
     1.00524244E-01    2          -11        -24   # BR(Chi_5 -> Cha_1^* VWm )
     1.11611025E-01    2           13         24   # BR(Chi_5 -> Cha_2 VWm^* )
     1.11611025E-01    2          -13        -24   # BR(Chi_5 -> Cha_2^* VWm )
     1.38696334E-01    2           15         24   # BR(Chi_5 -> Cha_3 VWm^* )
     1.38696334E-01    2          -15        -24   # BR(Chi_5 -> Cha_3^* VWm )
     1.20578631E-04    2           14         25   # BR(Chi_5 -> Chi_2 hh_1 )
     1.64900285E-03    2           16         25   # BR(Chi_5 -> Chi_3 hh_1 )
     5.91334210E-03    2           16         23   # BR(Chi_5 -> Chi_3 VZ )
#    BR                NDA      ID1      ID2       ID3
     9.01159880E-03    3           12        -11   -1000024   # BR(Chi_5 -> Chi_1 Cha_1^* Cha_4 )
     1.37978447E-03    3           12        -13   -1000024   # BR(Chi_5 -> Chi_1 Cha_2^* Cha_4 )
     9.01159880E-03    3           12    1000024         11   # BR(Chi_5 -> Chi_1 Cha_4^* Cha_1 )
     1.37981270E-03    3           12    1000024         13   # BR(Chi_5 -> Chi_1 Cha_4^* Cha_2 )
     4.21657971E-03    3           14        -11   -1000024   # BR(Chi_5 -> Chi_2 Cha_1^* Cha_4 )
     2.46918550E-03    3           14        -13   -1000024   # BR(Chi_5 -> Chi_2 Cha_2^* Cha_4 )
     4.21657971E-03    3           14    1000024         11   # BR(Chi_5 -> Chi_2 Cha_4^* Cha_1 )
     2.46923603E-03    3           14    1000024         13   # BR(Chi_5 -> Chi_2 Cha_4^* Cha_2 )
     8.53025153E-03    3           16        -13   -1000024   # BR(Chi_5 -> Chi_3 Cha_2^* Cha_4 )
     8.53042607E-03    3           16    1000024         13   # BR(Chi_5 -> Chi_3 Cha_4^* Cha_2 )
     1.15841001E-02    3      1000022        -11         11   # BR(Chi_5 -> Chi_4 Cha_1^* Cha_1 )
     1.10695088E-02    3      1000022        -13         13   # BR(Chi_5 -> Chi_4 Cha_2^* Cha_2 )
     5.04291489E-02    3      1000022         -1          1   # BR(Chi_5 -> Chi_4 Fd_1^* Fd_1 )
     4.76794685E-02    3      1000022         -3          3   # BR(Chi_5 -> Chi_4 Fd_2^* Fd_2 )
     3.88579127E-02    3      1000022         -2          2   # BR(Chi_5 -> Chi_4 Fu_1^* Fu_1 )
     9.36711098E-05    3           13         -5          6   # BR(Chi_5 -> Cha_2 Fd_3^* Fu_3 )
     9.36711098E-05    3          -13          5         -6   # BR(Chi_5 -> Cha_2^* Fd_3 Fu_3^* )
     6.52211698E-05    3           15         -5          6   # BR(Chi_5 -> Cha_3 Fd_3^* Fu_3 )
     6.52211698E-05    3          -15          5         -6   # BR(Chi_5 -> Cha_3^* Fd_3 Fu_3^* )
     3.97084948E-02    3     -1000024         -1          2   # BR(Chi_5 -> Cha_4 Fd_1^* Fu_1 )
     3.97084948E-02    3      1000024          1         -2   # BR(Chi_5 -> Cha_4^* Fd_1 Fu_1^* )
DECAY   1000025     1.21335000E+00   # Chi_6
#    BR                NDA      ID1      ID2
     2.48430466E-01    2     -1000024         24   # BR(Chi_6 -> Cha_4 VWm^* )
     2.48430466E-01    2      1000024        -24   # BR(Chi_6 -> Cha_4^* VWm )
     4.56200692E-02    2      1000022         25   # BR(Chi_6 -> Chi_4 hh_1 )
     2.04273480E-01    2      1000023         25   # BR(Chi_6 -> Chi_5 hh_1 )
     1.98109653E-01    2      1000022         23   # BR(Chi_6 -> Chi_4 VZ )
     5.33918692E-02    2      1000023         23   # BR(Chi_6 -> Chi_5 VZ )
#    BR                NDA      ID1      ID2       ID3
     8.38017100E-04    3     -1000024         -5          6   # BR(Chi_6 -> Cha_4 Fd_3^* Fu_3 )
     8.38017100E-04    3      1000024          5         -6   # BR(Chi_6 -> Cha_4^* Fd_3 Fu_3^* )
DECAY   1000035     2.50808161E+01   # Chi_7
#    BR                NDA      ID1      ID2
     2.96520657E-02    2      1000022         36   # BR(Chi_7 -> Chi_4 Ah_2 )
     4.08629195E-02    2      1000023         36   # BR(Chi_7 -> Chi_5 Ah_2 )
     7.00497328E-02    2     -1000024         37   # BR(Chi_7 -> Cha_4 Hpm_2^* )
     7.00497328E-02    2      1000024        -37   # BR(Chi_7 -> Cha_4^* Hpm_2 )
     1.67077090E-01    2     -1000024         24   # BR(Chi_7 -> Cha_4 VWm^* )
     1.67077090E-01    2      1000024        -24   # BR(Chi_7 -> Cha_4^* VWm )
     1.53974998E-01    2      1000022         25   # BR(Chi_7 -> Chi_4 hh_1 )
     4.02035202E-02    2      1000022         35   # BR(Chi_7 -> Chi_4 hh_2 )
     2.94384305E-02    2      1000023         25   # BR(Chi_7 -> Chi_5 hh_1 )
     2.97197993E-02    2      1000023         35   # BR(Chi_7 -> Chi_5 hh_2 )
     3.01666418E-02    2      1000022         23   # BR(Chi_7 -> Chi_4 VZ )
     1.50654098E-01    2      1000023         23   # BR(Chi_7 -> Chi_5 VZ )
     5.98847969E-04    2      1000025         23   # BR(Chi_7 -> Chi_6 VZ )
#    BR                NDA      ID1      ID2       ID3
     2.16379925E-03    3      1000022         -6          6   # BR(Chi_7 -> Chi_4 Fu_3^* Fu_3 )
     5.57474364E-03    3      1000023         -6          6   # BR(Chi_7 -> Chi_5 Fu_3^* Fu_3 )
     6.02522703E-03    3     -1000024         -5          6   # BR(Chi_7 -> Cha_4 Fd_3^* Fu_3 )
     6.02522703E-03    3      1000024          5         -6   # BR(Chi_7 -> Cha_4^* Fd_3 Fu_3^* )
