#
#                              ======================
#                              | THE SUSYHIT OUTPUT |
#                              ======================
#
#
#              ------------------------------------------------------
#              |     This is the output of the SUSY-HIT package     |
#              |  created by A.Djouadi, M.Muehlleitner and M.Spira. |
#              |  In case of problems with SUSY-HIT email to        |
#              |           margarete.muehlleitner@cern.ch           |
#              |           michael.spira@psi.ch                     |
#              |           abdelhak.djouadi@cern.ch                 |
#              ------------------------------------------------------
#
#              ------------------------------------------------------
#              |  SUSY Les Houches Accord - MSSM Spectrum + Decays  |
#              |              based on the decay programs           |
#              |                                                    |
#              |                     SDECAY 1.3b                    |
#              |                                                    |
#              |  Authors: M.Muhlleitner, A.Djouadi and Y.Mambrini  |
#              |  Ref.:    Comput.Phys.Commun.168(2005)46           |
#              |           [hep-ph/0311167]                         |
#              |                                                    |
#              |                     HDECAY 3.4                     |
#              |                                                    |
#              |  By: A.Djouadi,J.Kalinowski,M.Muhlleitner,M.Spira  |
#              |  Ref.:    Comput.Phys.Commun.108(1998)56           |
#              |           [hep-ph/9704448]                         |
#              |                                                    |
#              |                                                    |
#              |  If not stated otherwise all DRbar couplings and   |
#              |  soft SUSY breaking masses are given at the scale  |
#              |  Q=  0.50007464E+04
#              |                                                    |
#              ------------------------------------------------------
#
#
BLOCK DCINFO  # Decay Program information
     1   SDECAY/HDECAY # decay calculator
     2   1.3b  /3.4    # version number
#
BLOCK SPINFO  # Spectrum calculator information
     1    SOFTSUSY    # spectrum calculator                
     2    3.4.0       # version number                     
#
BLOCK MODSEL  # Model selection
     1     0   #  nonUniversal                                     
#
BLOCK SMINPUTS  # Standard Model inputs
         1     1.25778332E+02   # alpha_em^-1(M_Z)^MSbar
         2     1.16570000E-05   # G_F [GeV^-2]
         3     1.17200002E-01   # alpha_S(M_Z)^MSbar
         4     9.11876000E+01   # M_Z pole mass
         5     4.25000000E+00   # mb(mb)^MSbar
         6     1.72500000E+02   # mt pole mass
         7     1.77682000E+00   # mtau pole mass
#
BLOCK MINPAR  # Input parameters - minimal models
         3     1.00000000E+01   # tanb                
#
BLOCK EXTPAR  # Input parameters - non-minimal models
         0    -1.00000000E+00   # Set                 
         1     6.00000000E+01   # M_1(MX)             
         2     3.00000000E+03   # M_2(MX)             
         3     1.48350200E+03   # M_3(MX)             
        11     5.00000000E+03   # At(MX)              
        12     5.00000000E+03   # Ab(MX)              
        13     0.00000000E+00   # Atau(MX)            
        23    -7.64897000E+02   # mu(MX)              
        26     3.00000000E+03   # mA(pole)            
        31     5.00000000E+03   # meL(MX)             
        32     5.00000000E+03   # mmuL(MX)            
        33     5.00000000E+03   # mtauL(MX)           
        34     5.00000000E+03   # meR(MX)             
        35     5.00000000E+03   # mmuR(MX)            
        36     5.00000000E+03   # mtauR(MX)           
        41     5.00000000E+03   # mqL1(MX)            
        42     5.00000000E+03   # mqL2(MX)            
        43     5.00000000E+03   # mqL3(MX)            
        44     5.00000000E+03   # muR(MX)             
        45     5.00000000E+03   # mcR(MX)             
        46     5.00000000E+03   # mtR(MX)             
        47     5.00000000E+03   # mdR(MX)             
        48     5.00000000E+03   # msR(MX)             
        49     5.00000000E+03   # mbR(MX)             
#
BLOCK MASS  # Mass Spectrum
# PDG code           mass       particle
        24     8.00940972E+01   # W+
        25     1.24715527E+02   # h
        35     3.00008277E+03   # H
        36     2.99999748E+03   # A
        37     3.00136108E+03   # H+
         5     4.87878001E+00   # b-quark pole mass calculated from mb(mb)_Msbar
   1000001     5.06952805E+03   # ~d_L
   2000001     5.05170368E+03   # ~d_R
   1000002     5.06905328E+03   # ~u_L
   2000002     5.05141223E+03   # ~u_R
   1000003     5.06952805E+03   # ~s_L
   2000003     5.05170368E+03   # ~s_R
   1000004     5.06905328E+03   # ~c_L
   2000004     5.05141223E+03   # ~c_R
   1000005     5.01534312E+03   # ~b_1
   2000005     5.05011138E+03   # ~b_2
   1000006     4.90610755E+03   # ~t_1
   2000006     5.06012198E+03   # ~t_2
   1000011     5.01908337E+03   # ~e_L
   2000011     5.00593147E+03   # ~e_R
   1000012     5.01813420E+03   # ~nu_eL
   1000013     5.01908337E+03   # ~mu_L
   2000013     5.00593147E+03   # ~mu_R
   1000014     5.01813420E+03   # ~nu_muL
   1000015     5.00468713E+03   # ~tau_1
   2000015     5.01869902E+03   # ~tau_2
   1000016     5.01758573E+03   # ~nu_tauL
   1000021     1.80000107E+03   # ~g
   1000022     6.02874458E+01   # ~chi_10
   1000023     7.99841869E+02   # ~chi_20
   1000025    -8.02073345E+02   # ~chi_30
   1000035     3.07421537E+03   # ~chi_40
   1000024     8.00000476E+02   # ~chi_1+
   1000037     3.07438290E+03   # ~chi_2+
#
BLOCK NMIX  # Neutralino Mixing Matrix
  1  1     9.98451942E-01   # N_11
  1  2     2.07805832E-04   # N_12
  1  3    -5.55978823E-02   # N_13
  1  4     1.59727452E-03   # N_14
  2  1     3.81997565E-02   # N_21
  2  2     2.14542062E-02   # N_22
  2  3     7.06384945E-01   # N_23
  2  4     7.06470668E-01   # N_24
  3  1    -4.04270107E-02   # N_31
  3  2     1.56887886E-02   # N_32
  3  3    -7.05629212E-01   # N_33
  3  4     7.07253091E-01   # N_34
  4  1    -3.92917582E-04   # N_41
  4  2     9.99646705E-01   # N_42
  4  3    -4.07434665E-03   # N_43
  4  4    -2.62623219E-02   # N_44
#
BLOCK UMIX  # Chargino Mixing Matrix U
  1  1     5.77278436E-03   # U_11
  1  2     9.99983337E-01   # U_12
  2  1    -9.99983337E-01   # U_21
  2  2     5.77278436E-03   # U_22
#
BLOCK VMIX  # Chargino Mixing Matrix V
  1  1     3.71687730E-02   # V_11
  1  2    -9.99309002E-01   # V_12
  2  1    -9.99309002E-01   # V_21
  2  2    -3.71687730E-02   # V_22
#
BLOCK STOPMIX  # Stop Mixing Matrix
  1  1    -5.06286869E-01   # cos(theta_t)
  1  2     8.62365124E-01   # sin(theta_t)
  2  1    -8.62365124E-01   # -sin(theta_t)
  2  2    -5.06286869E-01   # cos(theta_t)
#
BLOCK SBOTMIX  # Sbottom Mixing Matrix
  1  1     9.97842190E-01   # cos(theta_b)
  1  2    -6.56579306E-02   # sin(theta_b)
  2  1     6.56579306E-02   # -sin(theta_b)
  2  2     9.97842190E-01   # cos(theta_b)
#
BLOCK STAUMIX  # Stau Mixing Matrix
  1  1    -9.13549387E-02   # cos(theta_tau)
  1  2     9.95818395E-01   # sin(theta_tau)
  2  1    -9.95818395E-01   # -sin(theta_tau)
  2  2    -9.13549387E-02   # cos(theta_tau)
#
BLOCK ALPHA  # Higgs mixing
          -1.05472476E-01   # Mixing angle in the neutral Higgs boson sector
#
BLOCK HMIX Q=  5.00074644E+03  # DRbar Higgs Parameters
         1    -7.78846504E+02   # mu(Q)MSSM           
         2     9.47012848E+00   # tan                 
         3     2.41820153E+02   # higgs               
         4     8.57618146E+06   # mA^2(Q)MSSM         
#
BLOCK GAUGE Q=  5.00074644E+03  # The gauge couplings
     1     3.70852691E-01   # gprime(Q) DRbar
     2     6.32815363E-01   # g(Q) DRbar
     3     1.00004720E+00   # g3(Q) DRbar
#
BLOCK AU Q=  5.00074644E+03  # The trilinear couplings
  1  1     5.00000001E+03   # A_u(Q) DRbar
  2  2     5.00000001E+03   # A_c(Q) DRbar
  3  3     5.00000002E+03   # A_t(Q) DRbar
#
BLOCK AD Q=  5.00074644E+03  # The trilinear couplings
  1  1     5.00000001E+03   # A_d(Q) DRbar
  2  2     5.00000001E+03   # A_s(Q) DRbar
  3  3     5.00000001E+03   # A_b(Q) DRbar
#
BLOCK AE Q=  5.00074644E+03  # The trilinear couplings
  1  1     0.00000000E+00   # A_e(Q) DRbar
  2  2     1.43176044E-07   # A_mu(Q) DRbar
  3  3     1.42692418E-07   # A_tau(Q) DRbar
#
BLOCK Yu Q=  5.00074644E+03  # The Yukawa couplings
  1  1     0.00000000E+00   # y_u(Q) DRbar
  2  2     0.00000000E+00   # y_c(Q) DRbar
  3  3     8.19289333E-01   # y_t(Q) DRbar
#
BLOCK Yd Q=  5.00074644E+03  # The Yukawa couplings
  1  1     0.00000000E+00   # y_d(Q) DRbar
  2  2     0.00000000E+00   # y_s(Q) DRbar
  3  3     1.30227014E-01   # y_b(Q) DRbar
#
BLOCK Ye Q=  5.00074644E+03  # The Yukawa couplings
  1  1     0.00000000E+00   # y_e(Q) DRbar
  2  2     0.00000000E+00   # y_mu(Q) DRbar
  3  3     9.69635689E-02   # y_tau(Q) DRbar
#
BLOCK MSOFT Q=  5.00074644E+03  # The soft SUSY breaking masses at the scale Q
         1     6.00000000E+01   # M_1(Q)              
         2     3.00000000E+03   # M_2(Q)              
         3     1.48350200E+03   # M_3(Q)              
        21     8.10250123E+06   # mH1^2(Q)            
        22    -3.77405115E+04   # mH2^2(Q)            
        31     5.00000000E+03   # meL(Q)              
        32     5.00000000E+03   # mmuL(Q)             
        33     5.00000000E+03   # mtauL(Q)            
        34     5.00000000E+03   # meR(Q)              
        35     5.00000000E+03   # mmuR(Q)             
        36     5.00000000E+03   # mtauR(Q)            
        41     5.00000000E+03   # mqL1(Q)             
        42     5.00000000E+03   # mqL2(Q)             
        43     5.00000000E+03   # mqL3(Q)             
        44     5.00000000E+03   # muR(Q)              
        45     5.00000000E+03   # mcR(Q)              
        46     4.99999999E+03   # mtR(Q)              
        47     5.00000000E+03   # mdR(Q)              
        48     5.00000000E+03   # msR(Q)              
        49     5.00000000E+03   # mbR(Q)              
#
#
#
#                             =================
#                             |The decay table|
#                             =================
#
# - The QCD corrections to the decays gluino -> squark  + quark
#                                     squark -> gaugino + quark_prime
#                                     squark -> squark_prime + Higgs
#                                     squark -> gluino  + quark
#   are included.
#
# - The multi-body decays for the inos, stops and sbottoms are included.
#
# - The loop induced decays for the gluino, neutralinos and stops
#   are included.
#
# - The SUSY decays of the top quark are included.
#
#
#         PDG            Width
DECAY         6     1.40337068E+00   # top decays
#          BR         NDA      ID1       ID2
     1.00000000E+00    2           5        24   # BR(t ->  b    W+)
#
#         PDG            Width
DECAY   1000021     4.84403036E-04   # gluino decays
#          BR         NDA      ID1       ID2
     2.97829943E-06    2     1000022        21   # BR(~g -> ~chi_10 g)
     1.23947867E-02    2     1000023        21   # BR(~g -> ~chi_20 g)
     1.21326562E-02    2     1000025        21   # BR(~g -> ~chi_30 g)
#           BR         NDA      ID1       ID2       ID3
     2.79761298E-02    3     1000022         1        -1   # BR(~g -> ~chi_10 d  db)
     2.07545083E-05    3     1000023         1        -1   # BR(~g -> ~chi_20 d  db)
     1.57745350E-05    3     1000025         1        -1   # BR(~g -> ~chi_30 d  db)
     9.53934478E-02    3     1000022         2        -2   # BR(~g -> ~chi_10 u  ub)
     8.56549844E-05    3     1000023         2        -2   # BR(~g -> ~chi_20 u  ub)
     2.09298167E-05    3     1000025         2        -2   # BR(~g -> ~chi_30 u  ub)
     2.79761298E-02    3     1000022         3        -3   # BR(~g -> ~chi_10 s  sb)
     2.07545083E-05    3     1000023         3        -3   # BR(~g -> ~chi_20 s  sb)
     1.57745350E-05    3     1000025         3        -3   # BR(~g -> ~chi_30 s  sb)
     9.53934478E-02    3     1000022         4        -4   # BR(~g -> ~chi_10 c  cb)
     8.56549844E-05    3     1000023         4        -4   # BR(~g -> ~chi_20 c  cb)
     2.09298167E-05    3     1000025         4        -4   # BR(~g -> ~chi_30 c  cb)
     2.84252339E-02    3     1000022         5        -5   # BR(~g -> ~chi_10 b  bb)
     4.52313315E-03    3     1000023         5        -5   # BR(~g -> ~chi_20 b  bb)
     4.46225559E-03    3     1000025         5        -5   # BR(~g -> ~chi_30 b  bb)
     8.97593334E-02    3     1000022         6        -6   # BR(~g -> ~chi_10 t  tb)
     1.50168620E-01    3     1000023         6        -6   # BR(~g -> ~chi_20 t  tb)
     1.24197989E-01    3     1000025         6        -6   # BR(~g -> ~chi_30 t  tb)
     5.50312538E-05    3     1000024         1        -2   # BR(~g -> ~chi_1+ d  ub)
     5.50312538E-05    3    -1000024         2        -1   # BR(~g -> ~chi_1- u  db)
     5.50312538E-05    3     1000024         3        -4   # BR(~g -> ~chi_1+ s  cb)
     5.50312538E-05    3    -1000024         4        -3   # BR(~g -> ~chi_1- c  sb)
     1.63343753E-01    3     1000024         5        -6   # BR(~g -> ~chi_1+ b  tb)
     1.63343753E-01    3    -1000024         6        -5   # BR(~g -> ~chi_1- t  bb)
#
#         PDG            Width
DECAY   1000006     3.62179961E+02   # stop1 decays
#          BR         NDA      ID1       ID2
     2.44054667E-02    2     1000022         6   # BR(~t_1 -> ~chi_10 t )
     8.68657288E-02    2     1000023         6   # BR(~t_1 -> ~chi_20 t )
     8.32165969E-02    2     1000025         6   # BR(~t_1 -> ~chi_30 t )
     5.69578843E-03    2     1000035         6   # BR(~t_1 -> ~chi_40 t )
     1.26298373E-01    2     1000024         5   # BR(~t_1 -> ~chi_1+ b )
     1.13512692E-02    2     1000037         5   # BR(~t_1 -> ~chi_2+ b )
     6.62166777E-01    2     1000021         6   # BR(~t_1 -> ~g      t )
#
#         PDG            Width
DECAY   2000006     3.67108036E+02   # stop2 decays
#          BR         NDA      ID1       ID2
     9.51301393E-03    2     1000022         6   # BR(~t_2 -> ~chi_10 t )
     8.71746507E-02    2     1000023         6   # BR(~t_2 -> ~chi_20 t )
     9.11591204E-02    2     1000025         6   # BR(~t_2 -> ~chi_30 t )
     1.51411383E-02    2     1000035         6   # BR(~t_2 -> ~chi_40 t )
     5.17332078E-02    2     1000024         5   # BR(~t_2 -> ~chi_1+ b )
     3.01366604E-02    2     1000037         5   # BR(~t_2 -> ~chi_2+ b )
     7.11723294E-01    2     1000021         6   # BR(~t_2 -> ~g      t )
     7.81062238E-04    2     1000006        25   # BR(~t_2 -> ~t_1    h )
     2.63785223E-03    2     1000006        23   # BR(~t_2 -> ~t_1    Z )
#
#         PDG            Width
DECAY   1000005     3.42786037E+02   # sbottom1 decays
#          BR         NDA      ID1       ID2
     2.25450849E-03    2     1000022         5   # BR(~b_1 -> ~chi_10 b )
     2.36578214E-03    2     1000023         5   # BR(~b_1 -> ~chi_20 b )
     2.32436529E-03    2     1000025         5   # BR(~b_1 -> ~chi_30 b )
     2.20153244E-02    2     1000035         5   # BR(~b_1 -> ~chi_40 b )
     1.85715353E-01    2    -1000024         6   # BR(~b_1 -> ~chi_1- t )
     4.42171907E-02    2    -1000037         6   # BR(~b_1 -> ~chi_2- t )
     7.39468035E-01    2     1000021         5   # BR(~b_1 -> ~g      b )
     1.63944076E-03    2     1000006       -24   # BR(~b_1 -> ~t_1    W-)
#
#         PDG            Width
DECAY   2000005     2.62605801E+02   # sbottom2 decays
#          BR         NDA      ID1       ID2
     1.11909417E-02    2     1000022         5   # BR(~b_2 -> ~chi_10 b )
     3.11746850E-03    2     1000023         5   # BR(~b_2 -> ~chi_20 b )
     3.18428116E-03    2     1000025         5   # BR(~b_2 -> ~chi_30 b )
     1.23971242E-04    2     1000035         5   # BR(~b_2 -> ~chi_40 b )
     7.19669196E-03    2    -1000024         6   # BR(~b_2 -> ~chi_1- t )
     2.48978741E-04    2    -1000037         6   # BR(~b_2 -> ~chi_2- t )
     9.74899327E-01    2     1000021         5   # BR(~b_2 -> ~g      b )
     3.83399918E-05    2     1000006       -24   # BR(~b_2 -> ~t_1    W-)
#
#         PDG            Width
DECAY   1000002     2.81787066E+02   # sup_L decays
#          BR         NDA      ID1       ID2
     2.64737553E-03    2     1000022         2   # BR(~u_L -> ~chi_10 u)
     5.52852362E-05    2     1000023         2   # BR(~u_L -> ~chi_20 u)
     4.01280223E-06    2     1000025         2   # BR(~u_L -> ~chi_30 u)
     2.78627509E-02    2     1000035         2   # BR(~u_L -> ~chi_40 u)
     1.82683725E-04    2     1000024         1   # BR(~u_L -> ~chi_1+ d)
     5.56893937E-02    2     1000037         1   # BR(~u_L -> ~chi_2+ d)
     9.13558498E-01    2     1000021         2   # BR(~u_L -> ~g      u)
#
#         PDG            Width
DECAY   2000002     2.67919119E+02   # sup_R decays
#          BR         NDA      ID1       ID2
     4.42995384E-02    2     1000022         2   # BR(~u_R -> ~chi_10 u)
     6.17174780E-05    2     1000023         2   # BR(~u_R -> ~chi_20 u)
     6.91044961E-05    2     1000025         2   # BR(~u_R -> ~chi_30 u)
     2.73281998E-09    2     1000035         2   # BR(~u_R -> ~chi_40 u)
     9.55569637E-01    2     1000021         2   # BR(~u_R -> ~g      u)
#
#         PDG            Width
DECAY   1000001     2.81799963E+02   # sdown_L decays
#          BR         NDA      ID1       ID2
     2.63624572E-03    2     1000022         1   # BR(~d_L -> ~chi_10 d)
     1.29452567E-05    2     1000023         1   # BR(~d_L -> ~chi_20 d)
     3.67733845E-05    2     1000025         1   # BR(~d_L -> ~chi_30 d)
     2.78786784E-02    2     1000035         1   # BR(~d_L -> ~chi_40 d)
     4.40696183E-06    2    -1000024         2   # BR(~d_L -> ~chi_1- u)
     5.57793231E-02    2    -1000037         2   # BR(~d_L -> ~chi_2- u)
     9.13651627E-01    2     1000021         1   # BR(~d_L -> ~g      d)
#
#         PDG            Width
DECAY   2000001     2.59014850E+02   # sdown_R decays
#          BR         NDA      ID1       ID2
     1.14562783E-02    2     1000022         1   # BR(~d_R -> ~chi_10 d)
     1.59608133E-05    2     1000023         1   # BR(~d_R -> ~chi_20 d)
     1.78711774E-05    2     1000025         1   # BR(~d_R -> ~chi_30 d)
     7.06827908E-10    2     1000035         1   # BR(~d_R -> ~chi_40 d)
     9.88509889E-01    2     1000021         1   # BR(~d_R -> ~g      d)
#
#         PDG            Width
DECAY   1000004     2.81787066E+02   # scharm_L decays
#          BR         NDA      ID1       ID2
     2.64737553E-03    2     1000022         4   # BR(~c_L -> ~chi_10 c)
     5.52852362E-05    2     1000023         4   # BR(~c_L -> ~chi_20 c)
     4.01280223E-06    2     1000025         4   # BR(~c_L -> ~chi_30 c)
     2.78627509E-02    2     1000035         4   # BR(~c_L -> ~chi_40 c)
     1.82683725E-04    2     1000024         3   # BR(~c_L -> ~chi_1+ s)
     5.56893937E-02    2     1000037         3   # BR(~c_L -> ~chi_2+ s)
     9.13558498E-01    2     1000021         4   # BR(~c_L -> ~g      c)
#
#         PDG            Width
DECAY   2000004     2.67919119E+02   # scharm_R decays
#          BR         NDA      ID1       ID2
     4.42995384E-02    2     1000022         4   # BR(~c_R -> ~chi_10 c)
     6.17174780E-05    2     1000023         4   # BR(~c_R -> ~chi_20 c)
     6.91044961E-05    2     1000025         4   # BR(~c_R -> ~chi_30 c)
     2.73281998E-09    2     1000035         4   # BR(~c_R -> ~chi_40 c)
     9.55569637E-01    2     1000021         4   # BR(~c_R -> ~g      c)
#
#         PDG            Width
DECAY   1000003     2.81799963E+02   # sstrange_L decays
#          BR         NDA      ID1       ID2
     2.63624572E-03    2     1000022         3   # BR(~s_L -> ~chi_10 s)
     1.29452567E-05    2     1000023         3   # BR(~s_L -> ~chi_20 s)
     3.67733845E-05    2     1000025         3   # BR(~s_L -> ~chi_30 s)
     2.78786784E-02    2     1000035         3   # BR(~s_L -> ~chi_40 s)
     4.40696183E-06    2    -1000024         4   # BR(~s_L -> ~chi_1- c)
     5.57793231E-02    2    -1000037         4   # BR(~s_L -> ~chi_2- c)
     9.13651627E-01    2     1000021         3   # BR(~s_L -> ~g      s)
#
#         PDG            Width
DECAY   2000003     2.59014850E+02   # sstrange_R decays
#          BR         NDA      ID1       ID2
     1.14562783E-02    2     1000022         3   # BR(~s_R -> ~chi_10 s)
     1.59608133E-05    2     1000023         3   # BR(~s_R -> ~chi_20 s)
     1.78711774E-05    2     1000025         3   # BR(~s_R -> ~chi_30 s)
     7.06827908E-10    2     1000035         3   # BR(~s_R -> ~chi_40 s)
     9.88509889E-01    2     1000021         3   # BR(~s_R -> ~g      s)
#
#         PDG            Width
DECAY   1000011     3.02924545E+01   # selectron_L decays
#          BR         NDA      ID1       ID2
     2.26063469E-01    2     1000022        11   # BR(~e_L -> ~chi_10 e-)
     1.20491020E-03    2     1000023        11   # BR(~e_L -> ~chi_20 e-)
     4.01392559E-05    2     1000025        11   # BR(~e_L -> ~chi_30 e-)
     2.57377671E-01    2     1000035        11   # BR(~e_L -> ~chi_40 e-)
     4.17823147E-05    2    -1000024        12   # BR(~e_L -> ~chi_1- nu_e)
     5.15272028E-01    2    -1000037        12   # BR(~e_L -> ~chi_2- nu_e)
#
#         PDG            Width
DECAY   2000011     2.73813165E+01   # selectron_R decays
#          BR         NDA      ID1       ID2
     9.97061457E-01    2     1000022        11   # BR(~e_R -> ~chi_10 e-)
     1.38628450E-03    2     1000023        11   # BR(~e_R -> ~chi_20 e-)
     1.55219857E-03    2     1000025        11   # BR(~e_R -> ~chi_30 e-)
     5.99214088E-08    2     1000035        11   # BR(~e_R -> ~chi_40 e-)
#
#         PDG            Width
DECAY   1000013     3.02924545E+01   # smuon_L decays
#          BR         NDA      ID1       ID2
     2.26063469E-01    2     1000022        13   # BR(~mu_L -> ~chi_10 mu-)
     1.20491020E-03    2     1000023        13   # BR(~mu_L -> ~chi_20 mu-)
     4.01392559E-05    2     1000025        13   # BR(~mu_L -> ~chi_30 mu-)
     2.57377671E-01    2     1000035        13   # BR(~mu_L -> ~chi_40 mu-)
     4.17823147E-05    2    -1000024        14   # BR(~mu_L -> ~chi_1- nu_mu)
     5.15272028E-01    2    -1000037        14   # BR(~mu_L -> ~chi_2- nu_mu)
#
#         PDG            Width
DECAY   2000013     2.73813165E+01   # smuon_R decays
#          BR         NDA      ID1       ID2
     9.97061457E-01    2     1000022        13   # BR(~mu_R -> ~chi_10 mu-)
     1.38628450E-03    2     1000023        13   # BR(~mu_R -> ~chi_20 mu-)
     1.55219857E-03    2     1000025        13   # BR(~mu_R -> ~chi_30 mu-)
     5.99214088E-08    2     1000035        13   # BR(~mu_R -> ~chi_40 mu-)
#
#         PDG            Width
DECAY   1000015     2.91737990E+01   # stau_1 decays
#          BR         NDA      ID1       ID2
     9.30687391E-01    2     1000022        15   # BR(~tau_1 -> ~chi_10  tau-)
     1.64861191E-02    2     1000023        15   # BR(~tau_1 -> ~chi_20  tau-)
     1.59011235E-02    2     1000025        15   # BR(~tau_1 -> ~chi_30  tau-)
     2.16632826E-03    2     1000035        15   # BR(~tau_1 -> ~chi_40  tau-)
     3.04222460E-02    2    -1000024        16   # BR(~tau_1 -> ~chi_1-  nu_tau)
     4.33679181E-03    2    -1000037        16   # BR(~tau_1 -> ~chi_2-  nu_tau)
#
#         PDG            Width
DECAY   2000015     3.11546098E+01   # stau_2 decays
#          BR         NDA      ID1       ID2
     2.24559551E-01    2     1000022        15   # BR(~tau_2 -> ~chi_10  tau-)
     1.54691539E-02    2     1000023        15   # BR(~tau_2 -> ~chi_20  tau-)
     1.49639147E-02    2     1000025        15   # BR(~tau_2 -> ~chi_30  tau-)
     2.48141889E-01    2     1000035        15   # BR(~tau_2 -> ~chi_40  tau-)
     8.29477501E-05    2    -1000024        16   # BR(~tau_2 -> ~chi_1-  nu_tau)
     4.96782543E-01    2    -1000037        16   # BR(~tau_2 -> ~chi_2-  nu_tau)
#
#         PDG            Width
DECAY   1000012     3.02954636E+01   # snu_eL decays
#          BR         NDA      ID1       ID2
     2.25677423E-01    2     1000022        12   # BR(~nu_eL -> ~chi_10 nu_e)
     5.44647714E-07    2     1000023        12   # BR(~nu_eL -> ~chi_20 nu_e)
     9.71633401E-04    2     1000025        12   # BR(~nu_eL -> ~chi_30 nu_e)
     2.57423632E-01    2     1000035        12   # BR(~nu_eL -> ~chi_40 nu_e)
     1.73158746E-03    2     1000024        11   # BR(~nu_eL -> ~chi_1+ e-)
     5.14195179E-01    2     1000037        11   # BR(~nu_eL -> ~chi_2+ e-)
#
#         PDG            Width
DECAY   1000014     3.02954636E+01   # snu_muL decays
#          BR         NDA      ID1       ID2
     2.25677423E-01    2     1000022        14   # BR(~nu_muL -> ~chi_10 nu_mu)
     5.44647714E-07    2     1000023        14   # BR(~nu_muL -> ~chi_20 nu_mu)
     9.71633401E-04    2     1000025        14   # BR(~nu_muL -> ~chi_30 nu_mu)
     2.57423632E-01    2     1000035        14   # BR(~nu_muL -> ~chi_40 nu_mu)
     1.73158746E-03    2     1000024        13   # BR(~nu_muL -> ~chi_1+ mu-)
     5.14195179E-01    2     1000037        13   # BR(~nu_muL -> ~chi_2+ mu-)
#
#         PDG            Width
DECAY   1000016     3.11774211E+01   # snu_tauL decays
#          BR         NDA      ID1       ID2
     2.19269401E-01    2     1000022        16   # BR(~nu_tauL -> ~chi_10 nu_tau)
     5.29176657E-07    2     1000023        16   # BR(~nu_tauL -> ~chi_20 nu_tau)
     9.44033488E-04    2     1000025        16   # BR(~nu_tauL -> ~chi_30 nu_tau)
     2.50048504E-01    2     1000035        16   # BR(~nu_tauL -> ~chi_40 nu_tau)
     3.02744937E-02    2     1000024        15   # BR(~nu_tauL -> ~chi_1+ tau-)
     4.99463039E-01    2     1000037        15   # BR(~nu_tauL -> ~chi_2+ tau-)
#
#         PDG            Width
DECAY   1000024     4.83384564E-01   # chargino1+ decays
#          BR         NDA      ID1       ID2
     1.00000000E+00    2     1000022        24   # BR(~chi_1+ -> ~chi_10  W+)
#
#         PDG            Width
DECAY   1000037     2.11172063E+01   # chargino2+ decays
#          BR         NDA      ID1       ID2
     2.53361370E-01    2     1000024        23   # BR(~chi_2+ -> ~chi_1+  Z )
     1.84732114E-04    2     1000022        24   # BR(~chi_2+ -> ~chi_10  W+)
     2.44412745E-01    2     1000023        24   # BR(~chi_2+ -> ~chi_20  W+)
     2.44229219E-01    2     1000025        24   # BR(~chi_2+ -> ~chi_30  W+)
     2.57810009E-01    2     1000024        25   # BR(~chi_2+ -> ~chi_1+  h )
     1.92366379E-06    2     1000022        37   # BR(~chi_2+ -> ~chi_10  H+)
#
#         PDG            Width
DECAY   1000022     0.00000000E+00   # neutralino1 decays
#
#         PDG            Width
DECAY   1000023     5.01759313E-01   # neutralino2 decays
#          BR         NDA      ID1       ID2
     5.29403736E-01    2     1000022        23   # BR(~chi_20 -> ~chi_10   Z )
     4.70596264E-01    2     1000022        25   # BR(~chi_20 -> ~chi_10   h )
#
#         PDG            Width
DECAY   1000025     5.01555776E-01   # neutralino3 decays
#          BR         NDA      ID1       ID2
     4.69511926E-01    2     1000022        23   # BR(~chi_30 -> ~chi_10   Z )
     5.30488074E-01    2     1000022        25   # BR(~chi_30 -> ~chi_10   h )
#
#         PDG            Width
DECAY   1000035     2.11329619E+01   # neutralino4 decays
#          BR         NDA      ID1       ID2
     3.18535231E-05    2     1000022        23   # BR(~chi_40 -> ~chi_10   Z )
     8.82301863E-02    2     1000023        23   # BR(~chi_40 -> ~chi_20   Z )
     1.64471107E-01    2     1000025        23   # BR(~chi_40 -> ~chi_30   Z )
     2.44949898E-01    2     1000024       -24   # BR(~chi_40 -> ~chi_1+   W-)
     2.44949898E-01    2    -1000024        24   # BR(~chi_40 -> ~chi_1-   W+)
     1.51474334E-04    2     1000022        25   # BR(~chi_40 -> ~chi_10   h )
     1.83216246E-06    2     1000022        35   # BR(~chi_40 -> ~chi_10   H )
     2.13743235E-07    2     1000022        36   # BR(~chi_40 -> ~chi_10   A )
     1.68726782E-01    2     1000023        25   # BR(~chi_40 -> ~chi_20   h )
     8.84867539E-02    2     1000025        25   # BR(~chi_40 -> ~chi_30   h )
#
#         PDG            Width
DECAY        25     4.05911483E-03   # h decays
#          BR         NDA      ID1       ID2
     6.09907562E-01    2           5        -5   # BR(h -> b       bb     )
     6.38709831E-02    2         -15        15   # BR(h -> tau+    tau-   )
     2.26126758E-04    2         -13        13   # BR(h -> mu+     mu-    )
     4.79418491E-04    2           3        -3   # BR(h -> s       sb     )
     2.07734319E-02    2           4        -4   # BR(h -> c       cb     )
     6.71305805E-02    2          21        21   # BR(h -> g       g      )
     2.30653398E-03    2          22        22   # BR(h -> gam     gam    )
     1.48244613E-03    2          22        23   # BR(h -> Z       gam    )
     2.08888675E-01    2          24       -24   # BR(h -> W+      W-     )
     2.48637448E-02    2          23        23   # BR(h -> Z       Z      )
     7.04973475E-05    2     1000022   1000022   # BR(h -> ~chi_10 ~chi_10)
#
#         PDG            Width
DECAY        35     8.36735089E+00   # H decays
#          BR         NDA      ID1       ID2
     3.84095739E-01    2           5        -5   # BR(H -> b       bb     )
     6.65856052E-02    2         -15        15   # BR(H -> tau+    tau-   )
     2.35451989E-04    2         -13        13   # BR(H -> mu+     mu-    )
     2.88628042E-04    2           3        -3   # BR(H -> s       sb     )
     1.61435152E-06    2           4        -4   # BR(H -> c       cb     )
     1.61286504E-01    2           6        -6   # BR(H -> t       tb     )
     5.36092214E-05    2          21        21   # BR(H -> g       g      )
     2.09576686E-07    2          22        22   # BR(H -> gam     gam    )
     9.51989198E-08    2          23        22   # BR(H -> Z       gam    )
     7.52175669E-05    2          24       -24   # BR(H -> W+      W-     )
     3.75611758E-05    2          23        23   # BR(H -> Z       Z      )
     2.77022462E-04    2          25        25   # BR(H -> h       h      )
    -2.27991442E-24    2          36        36   # BR(H -> A       A      )
     8.82729632E-19    2          23        36   # BR(H -> Z       A      )
     2.57795221E-03    2     1000024  -1000024   # BR(H -> ~chi_1+ ~chi_1-)
     2.69846197E-03    2     1000022   1000022   # BR(H -> ~chi_10 ~chi_10)
     4.86709062E-07    2     1000023   1000023   # BR(H -> ~chi_20 ~chi_20)
     1.01770818E-03    2     1000025   1000025   # BR(H -> ~chi_30 ~chi_30)
     2.28955729E-01    2     1000022   1000023   # BR(H -> ~chi_10 ~chi_20)
     1.50749726E-01    2     1000022   1000025   # BR(H -> ~chi_10 ~chi_30)
     1.06267729E-03    2     1000023   1000025   # BR(H -> ~chi_20 ~chi_30)
#
#         PDG            Width
DECAY        36     8.37928537E+00   # A decays
#          BR         NDA      ID1       ID2
     3.83678872E-01    2           5        -5   # BR(A -> b       bb     )
     6.64927277E-02    2         -15        15   # BR(A -> tau+    tau-   )
     2.35123238E-04    2         -13        13   # BR(A -> mu+     mu-    )
     2.88435712E-04    2           3        -3   # BR(A -> s       sb     )
     1.61860209E-06    2           4        -4   # BR(A -> c       cb     )
     1.61621944E-01    2           6        -6   # BR(A -> t       tb     )
     1.59944046E-04    2          21        21   # BR(A -> g       g      )
     5.96137426E-07    2          22        22   # BR(A -> gam     gam    )
     1.93655104E-07    2          23        22   # BR(A -> Z       gam    )
     7.48266490E-05    2          23        25   # BR(A -> Z       h      )
     3.36900064E-03    2     1000024  -1000024   # BR(A -> ~chi_1+ ~chi_1-)
     2.73204791E-03    2     1000022   1000022   # BR(A -> ~chi_10 ~chi_10)
     4.44199262E-07    2     1000023   1000023   # BR(A -> ~chi_20 ~chi_20)
     2.17805830E-03    2     1000025   1000025   # BR(A -> ~chi_30 ~chi_30)
     1.53046979E-01    2     1000022   1000023   # BR(A -> ~chi_10 ~chi_20)
     2.25630545E-01    2     1000022   1000025   # BR(A -> ~chi_10 ~chi_30)
     4.88643743E-04    2     1000023   1000025   # BR(A -> ~chi_20 ~chi_30)
#
#         PDG            Width
DECAY        37     8.33067628E+00   # H+ decays
#          BR         NDA      ID1       ID2
     6.16440130E-04    2           4        -5   # BR(H+ -> c       bb     )
     6.69111090E-02    2         -15        16   # BR(H+ -> tau+    nu_tau )
     2.36602665E-04    2         -13        14   # BR(H+ -> mu+     nu_mu  )
     3.94519629E-06    2           2        -5   # BR(H+ -> u       bb     )
     1.38830592E-05    2           2        -3   # BR(H+ -> u       sb     )
     2.87102329E-04    2           4        -3   # BR(H+ -> c       sb     )
     5.44470706E-01    2           6        -5   # BR(H+ -> t       bb     )
     7.54144764E-05    2          24        25   # BR(H+ -> W+      h      )
     7.43665291E-13    2          24        36   # BR(H+ -> W+      A      )
     3.85919326E-01    2     1000024   1000022   # BR(H+ -> ~chi_1+ ~chi_10)
     1.44129998E-03    2     1000024   1000023   # BR(H+ -> ~chi_1+ ~chi_20)
     2.41716333E-05    2     1000024   1000025   # BR(H+ -> ~chi_1+ ~chi_30)
