#
#                              ======================
#                              | THE SUSYHIT OUTPUT |
#                              ======================
#
#
#              ------------------------------------------------------
#              |     This is the output of the SUSY-HIT package     |
#              |  created by A.Djouadi, M.Muehlleitner and M.Spira. |
#              |  In case of problems with SUSY-HIT email to        |
#              |           margarete.muehlleitner@cern.ch           |
#              |           michael.spira@psi.ch                     |
#              |           abdelhak.djouadi@cern.ch                 |
#              ------------------------------------------------------
#
#              ------------------------------------------------------
#              |  SUSY Les Houches Accord - MSSM Spectrum + Decays  |
#              |              based on the decay programs           |
#              |                                                    |
#              |                     SDECAY 1.3b                    |
#              |                                                    |
#              |  Authors: M.Muhlleitner, A.Djouadi and Y.Mambrini  |
#              |  Ref.:    Comput.Phys.Commun.168(2005)46           |
#              |           [hep-ph/0311167]                         |
#              |                                                    |
#              |                     HDECAY 3.4                     |
#              |                                                    |
#              |  By: A.Djouadi,J.Kalinowski,M.Muhlleitner,M.Spira  |
#              |  Ref.:    Comput.Phys.Commun.108(1998)56           |
#              |           [hep-ph/9704448]                         |
#              |                                                    |
#              |                                                    |
#              |  If not stated otherwise all DRbar couplings and   |
#              |  soft SUSY breaking masses are given at the scale  |
#              |  Q=  0.50007698E+04
#              |                                                    |
#              ------------------------------------------------------
#
#
BLOCK DCINFO  # Decay Program information
     1   SDECAY/HDECAY # decay calculator
     2   1.3b  /3.4    # version number
#
BLOCK SPINFO  # Spectrum calculator information
     1    SOFTSUSY    # spectrum calculator                
     2    3.4.0       # version number                     
#
BLOCK MODSEL  # Model selection
     1     0   #  nonUniversal                                     
#
BLOCK SMINPUTS  # Standard Model inputs
         1     1.25778332E+02   # alpha_em^-1(M_Z)^MSbar
         2     1.16570000E-05   # G_F [GeV^-2]
         3     1.17200002E-01   # alpha_S(M_Z)^MSbar
         4     9.11876000E+01   # M_Z pole mass
         5     4.25000000E+00   # mb(mb)^MSbar
         6     1.72500000E+02   # mt pole mass
         7     1.77682000E+00   # mtau pole mass
#
BLOCK MINPAR  # Input parameters - minimal models
         3     1.00000000E+01   # tanb                
#
BLOCK EXTPAR  # Input parameters - non-minimal models
         0    -1.00000000E+00   # Set                 
         1     6.00000000E+01   # M_1(MX)             
         2     3.00000000E+03   # M_2(MX)             
         3     1.94902500E+03   # M_3(MX)             
        11     5.00000000E+03   # At(MX)              
        12     5.00000000E+03   # Ab(MX)              
        13     0.00000000E+00   # Atau(MX)            
        23    -2.82778000E+02   # mu(MX)              
        26     3.00000000E+03   # mA(pole)            
        31     5.00000000E+03   # meL(MX)             
        32     5.00000000E+03   # mmuL(MX)            
        33     5.00000000E+03   # mtauL(MX)           
        34     5.00000000E+03   # meR(MX)             
        35     5.00000000E+03   # mmuR(MX)            
        36     5.00000000E+03   # mtauR(MX)           
        41     5.00000000E+03   # mqL1(MX)            
        42     5.00000000E+03   # mqL2(MX)            
        43     5.00000000E+03   # mqL3(MX)            
        44     5.00000000E+03   # muR(MX)             
        45     5.00000000E+03   # mcR(MX)             
        46     5.00000000E+03   # mtR(MX)             
        47     5.00000000E+03   # mdR(MX)             
        48     5.00000000E+03   # msR(MX)             
        49     5.00000000E+03   # mbR(MX)             
#
BLOCK MASS  # Mass Spectrum
# PDG code           mass       particle
        24     8.00918050E+01   # W+
        25     1.24785595E+02   # h
        35     3.00008906E+03   # H
        36     2.99999971E+03   # A
        37     3.00146926E+03   # H+
         5     4.87878001E+00   # b-quark pole mass calculated from mb(mb)_Msbar
   1000001     5.07644324E+03   # ~d_L
   2000001     5.05858607E+03   # ~d_R
   1000002     5.07596958E+03   # ~u_L
   2000002     5.05827975E+03   # ~u_R
   1000003     5.07644324E+03   # ~s_L
   2000003     5.05858607E+03   # ~s_R
   1000004     5.07596958E+03   # ~c_L
   2000004     5.05827975E+03   # ~c_R
   1000005     5.02237623E+03   # ~b_1
   2000005     5.05671033E+03   # ~b_2
   1000006     4.91394056E+03   # ~t_1
   2000006     5.06550219E+03   # ~t_2
   1000011     5.01913809E+03   # ~e_L
   2000011     5.00595395E+03   # ~e_R
   1000012     5.01818658E+03   # ~nu_eL
   1000013     5.01913809E+03   # ~mu_L
   2000013     5.00595395E+03   # ~mu_R
   1000014     5.01818658E+03   # ~nu_muL
   1000015     5.00481630E+03   # ~tau_1
   2000015     5.01861955E+03   # ~tau_2
   1000016     5.01763278E+03   # ~nu_tauL
   1000021     2.30000063E+03   # ~g
   1000022     5.97919390E+01   # ~chi_10
   1000023     3.01966918E+02   # ~chi_20
   1000025    -3.03836193E+02   # ~chi_30
   1000035     3.07422718E+03   # ~chi_40
   1000024     3.00000479E+02   # ~chi_1+
   1000037     3.07439511E+03   # ~chi_2+
#
BLOCK NMIX  # Neutralino Mixing Matrix
  1  1     9.88607432E-01   # N_11
  1  2     6.01934797E-05   # N_12
  1  3    -1.49795295E-01   # N_13
  1  4    -1.47211193E-02   # N_14
  2  1     1.16360763E-01   # N_21
  2  2     1.76947260E-02   # N_22
  2  3     6.98596504E-01   # N_23
  2  4     7.05769080E-01   # N_24
  3  1    -9.54743957E-02   # N_31
  3  2     1.80271516E-02   # N_32
  3  3    -6.99660079E-01   # N_33
  3  4     7.07838566E-01   # N_34
  4  1    -3.97474967E-04   # N_41
  4  2     9.99680907E-01   # N_42
  4  3     2.60504428E-04   # N_43
  4  4    -2.52558765E-02   # N_44
#
BLOCK UMIX  # Chargino Mixing Matrix U
  1  1    -3.65862932E-04   # U_11
  1  2     9.99999933E-01   # U_12
  2  1    -9.99999933E-01   # U_21
  2  2    -3.65862932E-04   # U_22
#
BLOCK VMIX  # Chargino Mixing Matrix V
  1  1     3.57262531E-02   # V_11
  1  2    -9.99361614E-01   # V_12
  2  1    -9.99361614E-01   # V_21
  2  2    -3.57262531E-02   # V_22
#
BLOCK STOPMIX  # Stop Mixing Matrix
  1  1    -5.01664972E-01   # cos(theta_t)
  1  2     8.65061995E-01   # sin(theta_t)
  2  1    -8.65061995E-01   # -sin(theta_t)
  2  2    -5.01664972E-01   # cos(theta_t)
#
BLOCK SBOTMIX  # Sbottom Mixing Matrix
  1  1     9.99221265E-01   # cos(theta_b)
  1  2    -3.94571105E-02   # sin(theta_b)
  2  1     3.94571105E-02   # -sin(theta_b)
  2  2     9.99221265E-01   # cos(theta_b)
#
BLOCK STAUMIX  # Stau Mixing Matrix
  1  1    -3.37564163E-02   # cos(theta_tau)
  1  2     9.99430090E-01   # sin(theta_tau)
  2  1    -9.99430090E-01   # -sin(theta_tau)
  2  2    -3.37564163E-02   # cos(theta_tau)
#
BLOCK ALPHA  # Higgs mixing
          -1.05495804E-01   # Mixing angle in the neutral Higgs boson sector
#
BLOCK HMIX Q=  5.00076983E+03  # DRbar Higgs Parameters
         1    -2.87949934E+02   # mu(Q)MSSM           
         2     9.46853479E+00   # tan                 
         3     2.41695637E+02   # higgs               
         4     8.75177259E+06   # mA^2(Q)MSSM         
#
BLOCK GAUGE Q=  5.00076983E+03  # The gauge couplings
     1     3.71064467E-01   # gprime(Q) DRbar
     2     6.33883595E-01   # g(Q) DRbar
     3     9.96451688E-01   # g3(Q) DRbar
#
BLOCK AU Q=  5.00076983E+03  # The trilinear couplings
  1  1     5.00000001E+03   # A_u(Q) DRbar
  2  2     5.00000001E+03   # A_c(Q) DRbar
  3  3     5.00000002E+03   # A_t(Q) DRbar
#
BLOCK AD Q=  5.00076983E+03  # The trilinear couplings
  1  1     5.00000001E+03   # A_d(Q) DRbar
  2  2     5.00000001E+03   # A_s(Q) DRbar
  3  3     5.00000001E+03   # A_b(Q) DRbar
#
BLOCK AE Q=  5.00076983E+03  # The trilinear couplings
  1  1     0.00000000E+00   # A_e(Q) DRbar
  2  2     2.16319127E-07   # A_mu(Q) DRbar
  3  3     2.16123354E-07   # A_tau(Q) DRbar
#
BLOCK Yu Q=  5.00076983E+03  # The Yukawa couplings
  1  1     0.00000000E+00   # y_u(Q) DRbar
  2  2     0.00000000E+00   # y_c(Q) DRbar
  3  3     8.21159201E-01   # y_t(Q) DRbar
#
BLOCK Yd Q=  5.00076983E+03  # The Yukawa couplings
  1  1     0.00000000E+00   # y_d(Q) DRbar
  2  2     0.00000000E+00   # y_s(Q) DRbar
  3  3     1.29996582E-01   # y_b(Q) DRbar
#
BLOCK Ye Q=  5.00076983E+03  # The Yukawa couplings
  1  1     0.00000000E+00   # y_e(Q) DRbar
  2  2     0.00000000E+00   # y_mu(Q) DRbar
  3  3     9.72735853E-02   # y_tau(Q) DRbar
#
BLOCK MSOFT Q=  5.00076983E+03  # The soft SUSY breaking masses at the scale Q
         1     6.00000000E+01   # M_1(Q)              
         2     3.00000000E+03   # M_2(Q)              
         3     1.94902500E+03   # M_3(Q)              
        21     8.64846517E+06   # mH1^2(Q)            
        22     4.96836450E+05   # mH2^2(Q)            
        31     5.00000000E+03   # meL(Q)              
        32     5.00000000E+03   # mmuL(Q)             
        33     5.00000000E+03   # mtauL(Q)            
        34     5.00000000E+03   # meR(Q)              
        35     5.00000000E+03   # mmuR(Q)             
        36     5.00000000E+03   # mtauR(Q)            
        41     5.00000000E+03   # mqL1(Q)             
        42     5.00000000E+03   # mqL2(Q)             
        43     4.99999999E+03   # mqL3(Q)             
        44     5.00000000E+03   # muR(Q)              
        45     5.00000000E+03   # mcR(Q)              
        46     4.99999999E+03   # mtR(Q)              
        47     5.00000000E+03   # mdR(Q)              
        48     5.00000000E+03   # msR(Q)              
        49     5.00000000E+03   # mbR(Q)              
#
#
#
#                             =================
#                             |The decay table|
#                             =================
#
# - The QCD corrections to the decays gluino -> squark  + quark
#                                     squark -> gaugino + quark_prime
#                                     squark -> squark_prime + Higgs
#                                     squark -> gluino  + quark
#   are included.
#
# - The multi-body decays for the inos, stops and sbottoms are included.
#
# - The loop induced decays for the gluino, neutralinos and stops
#   are included.
#
# - The SUSY decays of the top quark are included.
#
#
#         PDG            Width
DECAY         6     1.40821326E+00   # top decays
#          BR         NDA      ID1       ID2
     1.00000000E+00    2           5        24   # BR(t ->  b    W+)
#
#         PDG            Width
DECAY   1000021     5.15266914E-03   # gluino decays
#          BR         NDA      ID1       ID2
     6.50480684E-07    2     1000022        21   # BR(~g -> ~chi_10 g)
     4.70578060E-03    2     1000023        21   # BR(~g -> ~chi_20 g)
     4.56284987E-03    2     1000025        21   # BR(~g -> ~chi_30 g)
#           BR         NDA      ID1       ID2       ID3
     9.23847550E-03    3     1000022         1        -1   # BR(~g -> ~chi_10 d  db)
     1.06204091E-04    3     1000023         1        -1   # BR(~g -> ~chi_20 d  db)
     9.06751823E-05    3     1000025         1        -1   # BR(~g -> ~chi_30 d  db)
     3.14925860E-02    3     1000022         2        -2   # BR(~g -> ~chi_10 u  ub)
     5.01720972E-04    3     1000023         2        -2   # BR(~g -> ~chi_20 u  ub)
     1.85785594E-04    3     1000025         2        -2   # BR(~g -> ~chi_30 u  ub)
     9.23847550E-03    3     1000022         3        -3   # BR(~g -> ~chi_10 s  sb)
     1.06204091E-04    3     1000023         3        -3   # BR(~g -> ~chi_20 s  sb)
     9.06751823E-05    3     1000025         3        -3   # BR(~g -> ~chi_30 s  sb)
     3.14925860E-02    3     1000022         4        -4   # BR(~g -> ~chi_10 c  cb)
     5.01720972E-04    3     1000023         4        -4   # BR(~g -> ~chi_20 c  cb)
     1.85785594E-04    3     1000025         4        -4   # BR(~g -> ~chi_30 c  cb)
     9.64731438E-03    3     1000022         5        -5   # BR(~g -> ~chi_10 b  bb)
     5.37213876E-03    3     1000023         5        -5   # BR(~g -> ~chi_20 b  bb)
     5.36396657E-03    3     1000025         5        -5   # BR(~g -> ~chi_30 b  bb)
     3.08632730E-02    3     1000022         6        -6   # BR(~g -> ~chi_10 t  tb)
     2.13241859E-01    3     1000023         6        -6   # BR(~g -> ~chi_20 t  tb)
     2.01940812E-01    3     1000025         6        -6   # BR(~g -> ~chi_30 t  tb)
     5.29402006E-05    3     1000024         1        -2   # BR(~g -> ~chi_1+ d  ub)
     5.29402006E-05    3    -1000024         2        -1   # BR(~g -> ~chi_1- u  db)
     5.29402006E-05    3     1000024         3        -4   # BR(~g -> ~chi_1+ s  cb)
     5.29402006E-05    3    -1000024         4        -3   # BR(~g -> ~chi_1- c  sb)
     2.20429350E-01    3     1000024         5        -6   # BR(~g -> ~chi_1+ b  tb)
     2.20429350E-01    3    -1000024         6        -5   # BR(~g -> ~chi_1- t  bb)
#
#         PDG            Width
DECAY   1000006     3.22701701E+02   # stop1 decays
#          BR         NDA      ID1       ID2
     2.62414523E-02    2     1000022         6   # BR(~t_1 -> ~chi_10 t )
     1.05090231E-01    2     1000023         6   # BR(~t_1 -> ~chi_20 t )
     9.66774806E-02    2     1000025         6   # BR(~t_1 -> ~chi_30 t )
     6.23428960E-03    2     1000035         6   # BR(~t_1 -> ~chi_40 t )
     1.50402393E-01    2     1000024         5   # BR(~t_1 -> ~chi_1+ b )
     1.24283206E-02    2     1000037         5   # BR(~t_1 -> ~chi_2+ b )
     6.02925833E-01    2     1000021         6   # BR(~t_1 -> ~g      t )
#
#         PDG            Width
DECAY   2000006     3.28078712E+02   # stop2 decays
#          BR         NDA      ID1       ID2
     1.11297782E-02    2     1000022         6   # BR(~t_2 -> ~chi_10 t )
     9.92836489E-02    2     1000023         6   # BR(~t_2 -> ~chi_20 t )
     1.08734541E-01    2     1000025         6   # BR(~t_2 -> ~chi_30 t )
     1.72791361E-02    2     1000035         6   # BR(~t_2 -> ~chi_40 t )
     5.88526443E-02    2     1000024         5   # BR(~t_2 -> ~chi_1+ b )
     3.44099735E-02    2     1000037         5   # BR(~t_2 -> ~chi_2+ b )
     6.66709031E-01    2     1000021         6   # BR(~t_2 -> ~g      t )
     8.39322382E-04    2     1000006        25   # BR(~t_2 -> ~t_1    h )
     2.76192513E-03    2     1000006        23   # BR(~t_2 -> ~t_1    Z )
#
#         PDG            Width
DECAY   1000005     3.02604823E+02   # sbottom1 decays
#          BR         NDA      ID1       ID2
     2.63935651E-03    2     1000022         5   # BR(~b_1 -> ~chi_10 b )
     2.66512039E-03    2     1000023         5   # BR(~b_1 -> ~chi_20 b )
     2.73415974E-03    2     1000025         5   # BR(~b_1 -> ~chi_30 b )
     2.52126564E-02    2     1000035         5   # BR(~b_1 -> ~chi_40 b )
     2.20989362E-01    2    -1000024         6   # BR(~b_1 -> ~chi_1- t )
     5.06157175E-02    2    -1000037         6   # BR(~b_1 -> ~chi_2- t )
     6.93354190E-01    2     1000021         5   # BR(~b_1 -> ~g      b )
     1.78943805E-03    2     1000006       -24   # BR(~b_1 -> ~t_1    W-)
#
#         PDG            Width
DECAY   2000005     2.19003896E+02   # sbottom2 decays
#          BR         NDA      ID1       ID2
     1.32687236E-02    2     1000022         5   # BR(~b_2 -> ~chi_10 b )
     4.02439038E-03    2     1000023         5   # BR(~b_2 -> ~chi_20 b )
     4.00769063E-03    2     1000025         5   # BR(~b_2 -> ~chi_30 b )
     4.75481264E-05    2     1000035         5   # BR(~b_2 -> ~chi_40 b )
     8.13863496E-03    2    -1000024         6   # BR(~b_2 -> ~chi_1- t )
     9.54790102E-05    2    -1000037         6   # BR(~b_2 -> ~chi_2- t )
     9.70401425E-01    2     1000021         5   # BR(~b_2 -> ~g      b )
     1.61083546E-05    2     1000006       -24   # BR(~b_2 -> ~t_1    W-)
#
#         PDG            Width
DECAY   1000002     2.38620718E+02   # sup_L decays
#          BR         NDA      ID1       ID2
     3.05958940E-03    2     1000022         2   # BR(~u_L -> ~chi_10 u)
     1.33288823E-04    2     1000023         2   # BR(~u_L -> ~chi_20 u)
     2.96455304E-08    2     1000025         2   # BR(~u_L -> ~chi_30 u)
     3.31613728E-02    2     1000035         2   # BR(~u_L -> ~chi_40 u)
     2.08485402E-04    2     1000024         1   # BR(~u_L -> ~chi_1+ d)
     6.62823471E-02    2     1000037         1   # BR(~u_L -> ~chi_2+ d)
     8.97154887E-01    2     1000021         2   # BR(~u_L -> ~g      u)
#
#         PDG            Width
DECAY   2000002     2.24462656E+02   # sup_R decays
#          BR         NDA      ID1       ID2
     5.18245355E-02    2     1000022         2   # BR(~u_R -> ~chi_10 u)
     7.13522866E-04    2     1000023         2   # BR(~u_R -> ~chi_20 u)
     4.80321530E-04    2     1000025         2   # BR(~u_R -> ~chi_30 u)
     3.35654310E-09    2     1000035         2   # BR(~u_R -> ~chi_40 u)
     9.46981617E-01    2     1000021         2   # BR(~u_R -> ~g      u)
#
#         PDG            Width
DECAY   1000001     2.38635602E+02   # sdown_L decays
#          BR         NDA      ID1       ID2
     3.05587210E-03    2     1000022         1   # BR(~d_L -> ~chi_10 d)
     2.05023410E-06    2     1000023         1   # BR(~d_L -> ~chi_20 d)
     1.09728905E-04    2     1000025         1   # BR(~d_L -> ~chi_30 d)
     3.31798171E-02    2     1000035         1   # BR(~d_L -> ~chi_40 d)
     2.18651322E-08    2    -1000024         2   # BR(~d_L -> ~chi_1- u)
     6.63833583E-02    2    -1000037         2   # BR(~d_L -> ~chi_2- u)
     8.97269152E-01    2     1000021         1   # BR(~d_L -> ~g      d)
#
#         PDG            Width
DECAY   2000001     2.15563646E+02   # sdown_R decays
#          BR         NDA      ID1       ID2
     1.34918260E-02    2     1000022         1   # BR(~d_R -> ~chi_10 d)
     1.85756290E-04    2     1000023         1   # BR(~d_R -> ~chi_20 d)
     1.25045392E-04    2     1000025         1   # BR(~d_R -> ~chi_30 d)
     8.73953481E-10    2     1000035         1   # BR(~d_R -> ~chi_40 d)
     9.86197371E-01    2     1000021         1   # BR(~d_R -> ~g      d)
#
#         PDG            Width
DECAY   1000004     2.38620718E+02   # scharm_L decays
#          BR         NDA      ID1       ID2
     3.05958940E-03    2     1000022         4   # BR(~c_L -> ~chi_10 c)
     1.33288823E-04    2     1000023         4   # BR(~c_L -> ~chi_20 c)
     2.96455304E-08    2     1000025         4   # BR(~c_L -> ~chi_30 c)
     3.31613728E-02    2     1000035         4   # BR(~c_L -> ~chi_40 c)
     2.08485402E-04    2     1000024         3   # BR(~c_L -> ~chi_1+ s)
     6.62823471E-02    2     1000037         3   # BR(~c_L -> ~chi_2+ s)
     8.97154887E-01    2     1000021         4   # BR(~c_L -> ~g      c)
#
#         PDG            Width
DECAY   2000004     2.24462656E+02   # scharm_R decays
#          BR         NDA      ID1       ID2
     5.18245355E-02    2     1000022         4   # BR(~c_R -> ~chi_10 c)
     7.13522866E-04    2     1000023         4   # BR(~c_R -> ~chi_20 c)
     4.80321530E-04    2     1000025         4   # BR(~c_R -> ~chi_30 c)
     3.35654310E-09    2     1000035         4   # BR(~c_R -> ~chi_40 c)
     9.46981617E-01    2     1000021         4   # BR(~c_R -> ~g      c)
#
#         PDG            Width
DECAY   1000003     2.38635602E+02   # sstrange_L decays
#          BR         NDA      ID1       ID2
     3.05587210E-03    2     1000022         3   # BR(~s_L -> ~chi_10 s)
     2.05023410E-06    2     1000023         3   # BR(~s_L -> ~chi_20 s)
     1.09728905E-04    2     1000025         3   # BR(~s_L -> ~chi_30 s)
     3.31798171E-02    2     1000035         3   # BR(~s_L -> ~chi_40 s)
     2.18651322E-08    2    -1000024         4   # BR(~s_L -> ~chi_1- c)
     6.63833583E-02    2    -1000037         4   # BR(~s_L -> ~chi_2- c)
     8.97269152E-01    2     1000021         3   # BR(~s_L -> ~g      s)
#
#         PDG            Width
DECAY   2000003     2.15563646E+02   # sstrange_R decays
#          BR         NDA      ID1       ID2
     1.34918260E-02    2     1000022         3   # BR(~s_R -> ~chi_10 s)
     1.85756290E-04    2     1000023         3   # BR(~s_R -> ~chi_20 s)
     1.25045392E-04    2     1000025         3   # BR(~s_R -> ~chi_30 s)
     8.73953481E-10    2     1000035         3   # BR(~s_R -> ~chi_40 s)
     9.86197371E-01    2     1000021         3   # BR(~s_R -> ~g      s)
#
#         PDG            Width
DECAY   1000011     3.03794543E+01   # selectron_L decays
#          BR         NDA      ID1       ID2
     2.21137741E-01    2     1000022        11   # BR(~e_L -> ~chi_10 e-)
     4.82722494E-03    2     1000023        11   # BR(~e_L -> ~chi_20 e-)
     9.39689610E-04    2     1000025        11   # BR(~e_L -> ~chi_30 e-)
     2.57531340E-01    2     1000035        11   # BR(~e_L -> ~chi_40 e-)
     1.75519948E-07    2    -1000024        12   # BR(~e_L -> ~chi_1- nu_e)
     5.15563828E-01    2    -1000037        12   # BR(~e_L -> ~chi_2- nu_e)
#
#         PDG            Width
DECAY   2000011     2.74127569E+01   # selectron_R decays
#          BR         NDA      ID1       ID2
     9.77500145E-01    2     1000022        11   # BR(~e_R -> ~chi_10 e-)
     1.34474471E-02    2     1000023        11   # BR(~e_R -> ~chi_20 e-)
     9.05234641E-03    2     1000025        11   # BR(~e_R -> ~chi_30 e-)
     6.13195226E-08    2     1000035        11   # BR(~e_R -> ~chi_40 e-)
#
#         PDG            Width
DECAY   1000013     3.03794543E+01   # smuon_L decays
#          BR         NDA      ID1       ID2
     2.21137741E-01    2     1000022        13   # BR(~mu_L -> ~chi_10 mu-)
     4.82722494E-03    2     1000023        13   # BR(~mu_L -> ~chi_20 mu-)
     9.39689610E-04    2     1000025        13   # BR(~mu_L -> ~chi_30 mu-)
     2.57531340E-01    2     1000035        13   # BR(~mu_L -> ~chi_40 mu-)
     1.75519948E-07    2    -1000024        14   # BR(~mu_L -> ~chi_1- nu_mu)
     5.15563828E-01    2    -1000037        14   # BR(~mu_L -> ~chi_2- nu_mu)
#
#         PDG            Width
DECAY   2000013     2.74127569E+01   # smuon_R decays
#          BR         NDA      ID1       ID2
     9.77500145E-01    2     1000022        13   # BR(~mu_R -> ~chi_10 mu-)
     1.34474471E-02    2     1000023        13   # BR(~mu_R -> ~chi_20 mu-)
     9.05234641E-03    2     1000025        13   # BR(~mu_R -> ~chi_30 mu-)
     6.13195226E-08    2     1000035        13   # BR(~mu_R -> ~chi_40 mu-)
#
#         PDG            Width
DECAY   1000015     2.92793428E+01   # stau_1 decays
#          BR         NDA      ID1       ID2
     9.15782240E-01    2     1000022        15   # BR(~tau_1 -> ~chi_10  tau-)
     2.78170788E-02    2     1000023        15   # BR(~tau_1 -> ~chi_20  tau-)
     2.35876986E-02    2     1000025        15   # BR(~tau_1 -> ~chi_30  tau-)
     3.02601310E-04    2     1000035        15   # BR(~tau_1 -> ~chi_40  tau-)
     3.19047326E-02    2    -1000024        16   # BR(~tau_1 -> ~chi_1-  nu_tau)
     6.05648649E-04    2    -1000037        16   # BR(~tau_1 -> ~chi_2-  nu_tau)
#
#         PDG            Width
DECAY   2000015     3.13062319E+01   # stau_2 decays
#          BR         NDA      ID1       ID2
     2.15166275E-01    2     1000022        15   # BR(~tau_2 -> ~chi_10  tau-)
     1.96416825E-02    2     1000023        15   # BR(~tau_2 -> ~chi_20  tau-)
     1.60653720E-02    2     1000025        15   # BR(~tau_2 -> ~chi_30  tau-)
     2.49533890E-01    2     1000035        15   # BR(~tau_2 -> ~chi_40  tau-)
     3.91310281E-05    2    -1000024        16   # BR(~tau_2 -> ~chi_1-  nu_tau)
     4.99553649E-01    2    -1000037        16   # BR(~tau_2 -> ~chi_2-  nu_tau)
#
#         PDG            Width
DECAY   1000012     3.03825828E+01   # snu_eL decays
#          BR         NDA      ID1       ID2
     2.20981071E-01    2     1000022        12   # BR(~nu_eL -> ~chi_10 nu_e)
     1.66613706E-03    2     1000023        12   # BR(~nu_eL -> ~chi_20 nu_e)
     3.58039215E-03    2     1000025        12   # BR(~nu_eL -> ~chi_30 nu_e)
     2.57578462E-01    2     1000035        12   # BR(~nu_eL -> ~chi_40 nu_e)
     1.67315570E-03    2     1000024        11   # BR(~nu_eL -> ~chi_1+ e-)
     5.14520783E-01    2     1000037        11   # BR(~nu_eL -> ~chi_2+ e-)
#
#         PDG            Width
DECAY   1000014     3.03825828E+01   # snu_muL decays
#          BR         NDA      ID1       ID2
     2.20981071E-01    2     1000022        14   # BR(~nu_muL -> ~chi_10 nu_mu)
     1.66613706E-03    2     1000023        14   # BR(~nu_muL -> ~chi_20 nu_mu)
     3.58039215E-03    2     1000025        14   # BR(~nu_muL -> ~chi_30 nu_mu)
     2.57578462E-01    2     1000035        14   # BR(~nu_muL -> ~chi_40 nu_mu)
     1.67315570E-03    2     1000024        13   # BR(~nu_muL -> ~chi_1+ mu-)
     5.14520783E-01    2     1000037        13   # BR(~nu_muL -> ~chi_2+ mu-)
#
#         PDG            Width
DECAY   1000016     3.13108125E+01   # snu_tauL decays
#          BR         NDA      ID1       ID2
     2.14406263E-01    2     1000022        16   # BR(~nu_tauL -> ~chi_10 nu_tau)
     1.61656231E-03    2     1000023        16   # BR(~nu_tauL -> ~chi_20 nu_tau)
     3.47386000E-03    2     1000025        16   # BR(~nu_tauL -> ~chi_30 nu_tau)
     2.49848511E-01    2     1000035        16   # BR(~nu_tauL -> ~chi_40 nu_tau)
     3.15751353E-02    2     1000024        15   # BR(~nu_tauL -> ~chi_1+ tau-)
     4.99079668E-01    2     1000037        15   # BR(~nu_tauL -> ~chi_2+ tau-)
#
#         PDG            Width
DECAY   1000024     1.63064353E-01   # chargino1+ decays
#          BR         NDA      ID1       ID2
     1.00000000E+00    2     1000022        24   # BR(~chi_1+ -> ~chi_10  W+)
#
#         PDG            Width
DECAY   1000037     2.28986198E+01   # chargino2+ decays
#          BR         NDA      ID1       ID2
     2.53648125E-01    2     1000024        23   # BR(~chi_2+ -> ~chi_1+  Z )
     1.47788323E-04    2     1000022        24   # BR(~chi_2+ -> ~chi_10  W+)
     2.45430196E-01    2     1000023        24   # BR(~chi_2+ -> ~chi_20  W+)
     2.44534635E-01    2     1000025        24   # BR(~chi_2+ -> ~chi_30  W+)
     2.56224122E-01    2     1000024        25   # BR(~chi_2+ -> ~chi_1+  h )
     1.51339203E-05    2     1000022        37   # BR(~chi_2+ -> ~chi_10  H+)
#
#         PDG            Width
DECAY   1000022     0.00000000E+00   # neutralino1 decays
#
#         PDG            Width
DECAY   1000023     1.53419460E-01   # neutralino2 decays
#          BR         NDA      ID1       ID2
     4.91756482E-01    2     1000022        23   # BR(~chi_20 -> ~chi_10   Z )
     5.08243518E-01    2     1000022        25   # BR(~chi_20 -> ~chi_10   h )
#
#         PDG            Width
DECAY   1000025     1.38271217E-01   # neutralino3 decays
#          BR         NDA      ID1       ID2
     6.71431859E-01    2     1000022        23   # BR(~chi_30 -> ~chi_10   Z )
     3.28568141E-01    2     1000022        25   # BR(~chi_30 -> ~chi_10   h )
#
#         PDG            Width
DECAY   1000035     2.29001132E+01   # neutralino4 decays
#          BR         NDA      ID1       ID2
     6.90248914E-05    2     1000022        23   # BR(~chi_40 -> ~chi_10   Z )
     1.29011406E-01    2     1000023        23   # BR(~chi_40 -> ~chi_20   Z )
     1.24402512E-01    2     1000025        23   # BR(~chi_40 -> ~chi_30   Z )
     2.45261430E-01    2     1000024       -24   # BR(~chi_40 -> ~chi_1+   W-)
     2.45261430E-01    2    -1000024        24   # BR(~chi_40 -> ~chi_1-   W+)
     6.83303960E-05    2     1000022        25   # BR(~chi_40 -> ~chi_10   h )
     1.46074352E-05    2     1000022        35   # BR(~chi_40 -> ~chi_10   H )
     1.54865472E-06    2     1000022        36   # BR(~chi_40 -> ~chi_10   A )
     1.26594682E-01    2     1000023        25   # BR(~chi_40 -> ~chi_20   h )
     1.29315029E-01    2     1000025        25   # BR(~chi_40 -> ~chi_30   h )
#
#         PDG            Width
DECAY        25     4.07699811E-03   # h decays
#          BR         NDA      ID1       ID2
     6.09628929E-01    2           5        -5   # BR(h -> b       bb     )
     6.36334918E-02    2         -15        15   # BR(h -> tau+    tau-   )
     2.25285644E-04    2         -13        13   # BR(h -> mu+     mu-    )
     4.77582277E-04    2           3        -3   # BR(h -> s       sb     )
     2.06916362E-02    2           4        -4   # BR(h -> c       cb     )
     6.69471354E-02    2          21        21   # BR(h -> g       g      )
     2.30024103E-03    2          22        22   # BR(h -> gam     gam    )
     1.48518206E-03    2          22        23   # BR(h -> Z       gam    )
     2.09634520E-01    2          24       -24   # BR(h -> W+      W-     )
     2.49737590E-02    2          23        23   # BR(h -> Z       Z      )
     2.23721642E-06    2     1000022   1000022   # BR(h -> ~chi_10 ~chi_10)
#
#         PDG            Width
DECAY        35     8.77958647E+00   # H decays
#          BR         NDA      ID1       ID2
     3.61479068E-01    2           5        -5   # BR(H -> b       bb     )
     6.34378515E-02    2         -15        15   # BR(H -> tau+    tau-   )
     2.24321282E-04    2         -13        13   # BR(H -> mu+     mu-    )
     2.74983394E-04    2           3        -3   # BR(H -> s       sb     )
     1.53923811E-06    2           4        -4   # BR(H -> c       cb     )
     1.53782087E-01    2           6        -6   # BR(H -> t       tb     )
     5.11683482E-05    2          21        21   # BR(H -> g       g      )
     1.38342792E-07    2          22        22   # BR(H -> gam     gam    )
     9.07268394E-08    2          23        22   # BR(H -> Z       gam    )
     7.48057475E-05    2          24       -24   # BR(H -> W+      W-     )
     3.73555179E-05    2          23        23   # BR(H -> Z       Z      )
     2.67528509E-04    2          25        25   # BR(H -> h       h      )
    -3.62372687E-23    2          36        36   # BR(H -> A       A      )
     1.11737778E-18    2          23        36   # BR(H -> Z       A      )
     3.40664778E-03    2     1000024  -1000024   # BR(H -> ~chi_1+ ~chi_1-)
     1.88137889E-02    2     1000022   1000022   # BR(H -> ~chi_10 ~chi_10)
     3.32951408E-03    2     1000023   1000023   # BR(H -> ~chi_20 ~chi_20)
     5.10595616E-03    2     1000025   1000025   # BR(H -> ~chi_30 ~chi_30)
     2.32124099E-01    2     1000022   1000023   # BR(H -> ~chi_10 ~chi_20)
     1.48078421E-01    2     1000022   1000025   # BR(H -> ~chi_10 ~chi_30)
     9.51063560E-03    2     1000023   1000025   # BR(H -> ~chi_20 ~chi_30)
#
#         PDG            Width
DECAY        36     8.78491798E+00   # A decays
#          BR         NDA      ID1       ID2
     3.61383390E-01    2           5        -5   # BR(A -> b       bb     )
     6.34012117E-02    2         -15        15   # BR(A -> tau+    tau-   )
     2.24191407E-04    2         -13        13   # BR(A -> mu+     mu-    )
     2.75025181E-04    2           3        -3   # BR(A -> s       sb     )
     1.54438590E-06    2           4        -4   # BR(A -> c       cb     )
     1.54211252E-01    2           6        -6   # BR(A -> t       tb     )
     1.52588813E-04    2          21        21   # BR(A -> g       g      )
     5.63920094E-07    2          22        22   # BR(A -> gam     gam    )
     1.84657765E-07    2          23        22   # BR(A -> Z       gam    )
     7.44771273E-05    2          23        25   # BR(A -> Z       h      )
     3.56191077E-03    2     1000024  -1000024   # BR(A -> ~chi_1+ ~chi_1-)
     1.80659575E-02    2     1000022   1000022   # BR(A -> ~chi_10 ~chi_10)
     2.25847559E-03    2     1000023   1000023   # BR(A -> ~chi_20 ~chi_20)
     8.17738704E-03    2     1000025   1000025   # BR(A -> ~chi_30 ~chi_30)
     1.51206883E-01    2     1000022   1000023   # BR(A -> ~chi_10 ~chi_20)
     2.28667705E-01    2     1000022   1000025   # BR(A -> ~chi_10 ~chi_30)
     8.33725301E-03    2     1000023   1000025   # BR(A -> ~chi_20 ~chi_30)
#
#         PDG            Width
DECAY        37     8.72599786E+00   # H+ decays
#          BR         NDA      ID1       ID2
     5.79288502E-04    2           4        -5   # BR(H+ -> c       bb     )
     6.38605794E-02    2         -15        16   # BR(H+ -> tau+    nu_tau )
     2.25815765E-04    2         -13        14   # BR(H+ -> mu+     nu_mu  )
     3.70742687E-06    2           2        -5   # BR(H+ -> u       bb     )
     1.32500578E-05    2           2        -3   # BR(H+ -> u       sb     )
     2.74012834E-04    2           4        -3   # BR(H+ -> c       sb     )
     5.14103498E-01    2           6        -5   # BR(H+ -> t       bb     )
     7.51386696E-05    2          24        25   # BR(H+ -> W+      h      )
     1.03209055E-12    2          24        36   # BR(H+ -> W+      A      )
     4.10047533E-01    2     1000024   1000022   # BR(H+ -> ~chi_1+ ~chi_10)
     9.11211369E-03    2     1000024   1000023   # BR(H+ -> ~chi_1+ ~chi_20)
     1.70506243E-03    2     1000024   1000025   # BR(H+ -> ~chi_1+ ~chi_30)
