#
#                              ======================
#                              | THE SUSYHIT OUTPUT |
#                              ======================
#
#
#              ------------------------------------------------------
#              |     This is the output of the SUSY-HIT package     |
#              |  created by A.Djouadi, M.Muehlleitner and M.Spira. |
#              |  In case of problems with SUSY-HIT email to        |
#              |           margarete.muehlleitner@cern.ch           |
#              |           michael.spira@psi.ch                     |
#              |           abdelhak.djouadi@cern.ch                 |
#              ------------------------------------------------------
#
#              ------------------------------------------------------
#              |  SUSY Les Houches Accord - MSSM Spectrum + Decays  |
#              |              based on the decay programs           |
#              |                                                    |
#              |                     SDECAY 1.3b                    |
#              |                                                    |
#              |  Authors: M.Muhlleitner, A.Djouadi and Y.Mambrini  |
#              |  Ref.:    Comput.Phys.Commun.168(2005)46           |
#              |           [hep-ph/0311167]                         |
#              |                                                    |
#              |                     HDECAY 3.4                     |
#              |                                                    |
#              |  By: A.Djouadi,J.Kalinowski,M.Muhlleitner,M.Spira  |
#              |  Ref.:    Comput.Phys.Commun.108(1998)56           |
#              |           [hep-ph/9704448]                         |
#              |                                                    |
#              |                                                    |
#              |  If not stated otherwise all DRbar couplings and   |
#              |  soft SUSY breaking masses are given at the scale  |
#              |  Q=  0.50007746E+04
#              |                                                    |
#              ------------------------------------------------------
#
#
BLOCK DCINFO  # Decay Program information
     1   SDECAY/HDECAY # decay calculator
     2   1.3b  /3.4    # version number
#
BLOCK SPINFO  # Spectrum calculator information
     1    SOFTSUSY    # spectrum calculator                
     2    3.4.0       # version number                     
#
BLOCK MODSEL  # Model selection
     1     0   #  nonUniversal                                     
#
BLOCK SMINPUTS  # Standard Model inputs
         1     1.25778332E+02   # alpha_em^-1(M_Z)^MSbar
         2     1.16570000E-05   # G_F [GeV^-2]
         3     1.17200002E-01   # alpha_S(M_Z)^MSbar
         4     9.11876000E+01   # M_Z pole mass
         5     4.25000000E+00   # mb(mb)^MSbar
         6     1.72500000E+02   # mt pole mass
         7     1.77682000E+00   # mtau pole mass
#
BLOCK MINPAR  # Input parameters - minimal models
         3     1.00000000E+01   # tanb                
#
BLOCK EXTPAR  # Input parameters - non-minimal models
         0    -1.00000000E+00   # Set                 
         1     6.00000000E+01   # M_1(MX)             
         2     3.00000000E+03   # M_2(MX)             
         3     2.13912900E+03   # M_3(MX)             
        11     5.00000000E+03   # At(MX)              
        12     5.00000000E+03   # Ab(MX)              
        13     0.00000000E+00   # Atau(MX)            
        23    -1.87267000E+02   # mu(MX)              
        26     3.00000000E+03   # mA(pole)            
        31     5.00000000E+03   # meL(MX)             
        32     5.00000000E+03   # mmuL(MX)            
        33     5.00000000E+03   # mtauL(MX)           
        34     5.00000000E+03   # meR(MX)             
        35     5.00000000E+03   # mmuR(MX)            
        36     5.00000000E+03   # mtauR(MX)           
        41     5.00000000E+03   # mqL1(MX)            
        42     5.00000000E+03   # mqL2(MX)            
        43     5.00000000E+03   # mqL3(MX)            
        44     5.00000000E+03   # muR(MX)             
        45     5.00000000E+03   # mcR(MX)             
        46     5.00000000E+03   # mtR(MX)             
        47     5.00000000E+03   # mdR(MX)             
        48     5.00000000E+03   # msR(MX)             
        49     5.00000000E+03   # mbR(MX)             
#
BLOCK MASS  # Mass Spectrum
# PDG code           mass       particle
        24     8.00910791E+01   # W+
        25     1.24799341E+02   # h
        35     3.00009112E+03   # H
        36     2.99999978E+03   # A
        37     3.00148184E+03   # H+
         5     4.87878001E+00   # b-quark pole mass calculated from mb(mb)_Msbar
   1000001     5.08004426E+03   # ~d_L
   2000001     5.06217559E+03   # ~d_R
   1000002     5.07957113E+03   # ~u_L
   2000002     5.06186628E+03   # ~u_R
   1000003     5.08004426E+03   # ~s_L
   2000003     5.06217559E+03   # ~s_R
   1000004     5.07957113E+03   # ~c_L
   2000004     5.06186628E+03   # ~c_R
   1000005     5.02604231E+03   # ~b_1
   2000005     5.06024731E+03   # ~b_2
   1000006     4.91800466E+03   # ~t_1
   2000006     5.06866001E+03   # ~t_2
   1000011     5.01916238E+03   # ~e_L
   2000011     5.00596007E+03   # ~e_R
   1000012     5.01820976E+03   # ~nu_eL
   1000013     5.01916238E+03   # ~mu_L
   2000013     5.00596007E+03   # ~mu_R
   1000014     5.01820976E+03   # ~nu_muL
   1000015     5.00483278E+03   # ~tau_1
   2000015     5.01862781E+03   # ~tau_2
   1000016     5.01765488E+03   # ~nu_tauL
   1000021     2.50000049E+03   # ~g
   1000022     5.87060027E+01   # ~chi_10
   1000023     2.04233269E+02   # ~chi_20
   1000025    -2.05083939E+02   # ~chi_30
   1000035     3.07430441E+03   # ~chi_40
   1000024     2.00000874E+02   # ~chi_1+
   1000037     3.07447254E+03   # ~chi_2+
#
BLOCK NMIX  # Neutralino Mixing Matrix
  1  1     9.72113010E-01   # N_11
  1  2    -5.01138171E-04   # N_12
  1  3    -2.30088246E-01   # N_13
  1  4    -4.53370081E-02   # N_14
  2  1     1.94541593E-01   # N_21
  2  2     1.71130332E-02   # N_22
  2  3     6.83258918E-01   # N_23
  2  4     7.03575130E-01   # N_24
  3  1    -1.30956856E-01   # N_31
  3  2     1.85831100E-02   # N_32
  3  3    -6.92975833E-01   # N_33
  3  4     7.08723829E-01   # N_34
  4  1    -4.08578596E-04   # N_41
  4  2     9.99680730E-01   # N_42
  4  3     1.07004920E-03   # N_43
  4  4    -2.52413764E-02   # N_44
#
BLOCK UMIX  # Chargino Mixing Matrix U
  1  1    -1.50933560E-03   # U_11
  1  2     9.99998861E-01   # U_12
  2  1    -9.99998861E-01   # U_21
  2  2    -1.50933560E-03   # U_22
#
BLOCK VMIX  # Chargino Mixing Matrix V
  1  1     3.57064300E-02   # V_11
  1  2    -9.99362322E-01   # V_12
  2  1    -9.99362322E-01   # V_21
  2  2    -3.57064300E-02   # V_22
#
BLOCK STOPMIX  # Stop Mixing Matrix
  1  1    -5.00348394E-01   # cos(theta_t)
  1  2     8.65824165E-01   # sin(theta_t)
  2  1    -8.65824165E-01   # -sin(theta_t)
  2  2    -5.00348394E-01   # cos(theta_t)
#
BLOCK SBOTMIX  # Sbottom Mixing Matrix
  1  1     9.99410910E-01   # cos(theta_b)
  1  2    -3.43195713E-02   # sin(theta_b)
  2  1     3.43195713E-02   # -sin(theta_b)
  2  2     9.99410910E-01   # cos(theta_b)
#
BLOCK STAUMIX  # Stau Mixing Matrix
  1  1    -2.21888193E-02   # cos(theta_tau)
  1  2     9.99753798E-01   # sin(theta_tau)
  2  1    -9.99753798E-01   # -sin(theta_tau)
  2  2    -2.21888193E-02   # cos(theta_tau)
#
BLOCK ALPHA  # Higgs mixing
          -1.05501244E-01   # Mixing angle in the neutral Higgs boson sector
#
BLOCK HMIX Q=  5.00077457E+03  # DRbar Higgs Parameters
         1    -1.90690806E+02   # mu(Q)MSSM           
         2     9.46816709E+00   # tan                 
         3     2.41663199E+02   # higgs               
         4     8.79016901E+06   # mA^2(Q)MSSM         
#
BLOCK GAUGE Q=  5.00077457E+03  # The gauge couplings
     1     3.71149317E-01   # gprime(Q) DRbar
     2     6.34327467E-01   # g(Q) DRbar
     3     9.95217615E-01   # g3(Q) DRbar
#
BLOCK AU Q=  5.00077457E+03  # The trilinear couplings
  1  1     5.00000002E+03   # A_u(Q) DRbar
  2  2     5.00000002E+03   # A_c(Q) DRbar
  3  3     5.00000002E+03   # A_t(Q) DRbar
#
BLOCK AD Q=  5.00077457E+03  # The trilinear couplings
  1  1     5.00000001E+03   # A_d(Q) DRbar
  2  2     5.00000001E+03   # A_s(Q) DRbar
  3  3     5.00000001E+03   # A_b(Q) DRbar
#
BLOCK AE Q=  5.00077457E+03  # The trilinear couplings
  1  1     0.00000000E+00   # A_e(Q) DRbar
  2  2     2.45112930E-07   # A_mu(Q) DRbar
  3  3     2.45030426E-07   # A_tau(Q) DRbar
#
BLOCK Yu Q=  5.00077457E+03  # The Yukawa couplings
  1  1     0.00000000E+00   # y_u(Q) DRbar
  2  2     0.00000000E+00   # y_c(Q) DRbar
  3  3     8.21650035E-01   # y_t(Q) DRbar
#
BLOCK Yd Q=  5.00077457E+03  # The Yukawa couplings
  1  1     0.00000000E+00   # y_d(Q) DRbar
  2  2     0.00000000E+00   # y_s(Q) DRbar
  3  3     1.29964903E-01   # y_b(Q) DRbar
#
BLOCK Ye Q=  5.00077457E+03  # The Yukawa couplings
  1  1     0.00000000E+00   # y_e(Q) DRbar
  2  2     0.00000000E+00   # y_mu(Q) DRbar
  3  3     9.73461537E-02   # y_tau(Q) DRbar
#
BLOCK MSOFT Q=  5.00077457E+03  # The soft SUSY breaking masses at the scale Q
         1     6.00000000E+01   # M_1(Q)              
         2     3.00000000E+03   # M_2(Q)              
         3     2.13912900E+03   # M_3(Q)              
        21     8.69792396E+06   # mH1^2(Q)            
        22     5.44986749E+05   # mH2^2(Q)            
        31     5.00000000E+03   # meL(Q)              
        32     5.00000000E+03   # mmuL(Q)             
        33     5.00000000E+03   # mtauL(Q)            
        34     5.00000000E+03   # meR(Q)              
        35     5.00000000E+03   # mmuR(Q)             
        36     5.00000000E+03   # mtauR(Q)            
        41     4.99999999E+03   # mqL1(Q)             
        42     4.99999999E+03   # mqL2(Q)             
        43     4.99999999E+03   # mqL3(Q)             
        44     4.99999999E+03   # muR(Q)              
        45     4.99999999E+03   # mcR(Q)              
        46     4.99999999E+03   # mtR(Q)              
        47     4.99999999E+03   # mdR(Q)              
        48     4.99999999E+03   # msR(Q)              
        49     4.99999999E+03   # mbR(Q)              
#
#
#
#                             =================
#                             |The decay table|
#                             =================
#
# - The QCD corrections to the decays gluino -> squark  + quark
#                                     squark -> gaugino + quark_prime
#                                     squark -> squark_prime + Higgs
#                                     squark -> gluino  + quark
#   are included.
#
# - The multi-body decays for the inos, stops and sbottoms are included.
#
# - The loop induced decays for the gluino, neutralinos and stops
#   are included.
#
# - The SUSY decays of the top quark are included.
#
#
#         PDG            Width
DECAY         6     1.41021804E+00   # top decays
#          BR         NDA      ID1       ID2
     1.00000000E+00    2           5        24   # BR(t ->  b    W+)
#
#         PDG            Width
DECAY   1000021     8.71041551E-03   # gluino decays
#          BR         NDA      ID1       ID2
     1.17322965E-05    2     1000022        21   # BR(~g -> ~chi_10 g)
     3.79121400E-03    2     1000023        21   # BR(~g -> ~chi_20 g)
     3.69103218E-03    2     1000025        21   # BR(~g -> ~chi_30 g)
#           BR         NDA      ID1       ID2       ID3
     8.24382479E-03    3     1000022         1        -1   # BR(~g -> ~chi_10 d  db)
     2.96605722E-04    3     1000023         1        -1   # BR(~g -> ~chi_20 d  db)
     1.64543643E-04    3     1000025         1        -1   # BR(~g -> ~chi_30 d  db)
     2.80609187E-02    3     1000022         2        -2   # BR(~g -> ~chi_10 u  ub)
     1.24794188E-03    3     1000023         2        -2   # BR(~g -> ~chi_20 u  ub)
     3.81326745E-04    3     1000025         2        -2   # BR(~g -> ~chi_30 u  ub)
     8.24382479E-03    3     1000022         3        -3   # BR(~g -> ~chi_10 s  sb)
     2.96605722E-04    3     1000023         3        -3   # BR(~g -> ~chi_20 s  sb)
     1.64543643E-04    3     1000025         3        -3   # BR(~g -> ~chi_30 s  sb)
     2.80609187E-02    3     1000022         4        -4   # BR(~g -> ~chi_10 c  cb)
     1.24794188E-03    3     1000023         4        -4   # BR(~g -> ~chi_20 c  cb)
     3.81326745E-04    3     1000025         4        -4   # BR(~g -> ~chi_30 c  cb)
     8.97792164E-03    3     1000022         5        -5   # BR(~g -> ~chi_10 b  bb)
     5.30924967E-03    3     1000023         5        -5   # BR(~g -> ~chi_20 b  bb)
     5.32450708E-03    3     1000025         5        -5   # BR(~g -> ~chi_30 b  bb)
     2.74500490E-02    3     1000022         6        -6   # BR(~g -> ~chi_10 t  tb)
     2.17192039E-01    3     1000023         6        -6   # BR(~g -> ~chi_20 t  tb)
     2.06573241E-01    3     1000025         6        -6   # BR(~g -> ~chi_30 t  tb)
     5.25425258E-05    3     1000024         1        -2   # BR(~g -> ~chi_1+ d  ub)
     5.25425258E-05    3    -1000024         2        -1   # BR(~g -> ~chi_1- u  db)
     5.25425258E-05    3     1000024         3        -4   # BR(~g -> ~chi_1+ s  cb)
     5.25425258E-05    3    -1000024         4        -3   # BR(~g -> ~chi_1- c  sb)
     2.22339260E-01    3     1000024         5        -6   # BR(~g -> ~chi_1+ b  tb)
     2.22339260E-01    3    -1000024         6        -5   # BR(~g -> ~chi_1- t  bb)
#
#         PDG            Width
DECAY   1000006     3.03867036E+02   # stop1 decays
#          BR         NDA      ID1       ID2
     2.56747162E-02    2     1000022         6   # BR(~t_1 -> ~chi_10 t )
     1.15168354E-01    2     1000023         6   # BR(~t_1 -> ~chi_20 t )
     1.02191621E-01    2     1000025         6   # BR(~t_1 -> ~chi_30 t )
     6.58359625E-03    2     1000035         6   # BR(~t_1 -> ~chi_40 t )
     1.60863599E-01    2     1000024         5   # BR(~t_1 -> ~chi_1+ b )
     1.31248613E-02    2     1000037         5   # BR(~t_1 -> ~chi_2+ b )
     5.76393252E-01    2     1000021         6   # BR(~t_1 -> ~g      t )
#
#         PDG            Width
DECAY   2000006     3.09677614E+02   # stop2 decays
#          BR         NDA      ID1       ID2
     1.34778352E-02    2     1000022         6   # BR(~t_2 -> ~chi_10 t )
     1.02054320E-01    2     1000023         6   # BR(~t_2 -> ~chi_20 t )
     1.17375405E-01    2     1000025         6   # BR(~t_2 -> ~chi_30 t )
     1.84314748E-02    2     1000035         6   # BR(~t_2 -> ~chi_40 t )
     6.20476364E-02    2     1000024         5   # BR(~t_2 -> ~chi_1+ b )
     3.67055859E-02    2     1000037         5   # BR(~t_2 -> ~chi_2+ b )
     6.46167152E-01    2     1000021         6   # BR(~t_2 -> ~g      t )
     8.73853229E-04    2     1000006        25   # BR(~t_2 -> ~t_1    h )
     2.86673752E-03    2     1000006        23   # BR(~t_2 -> ~t_1    Z )
#
#         PDG            Width
DECAY   1000005     2.84009536E+02   # sbottom1 decays
#          BR         NDA      ID1       ID2
     2.95717400E-03    2     1000022         5   # BR(~b_1 -> ~chi_10 b )
     2.71650883E-03    2     1000023         5   # BR(~b_1 -> ~chi_20 b )
     2.89869426E-03    2     1000025         5   # BR(~b_1 -> ~chi_30 b )
     2.69688796E-02    2     1000035         5   # BR(~b_1 -> ~chi_40 b )
     2.36437867E-01    2    -1000024         6   # BR(~b_1 -> ~chi_1- t )
     5.41404849E-02    2    -1000037         6   # BR(~b_1 -> ~chi_2- t )
     6.72001744E-01    2     1000021         5   # BR(~b_1 -> ~g      b )
     1.87864686E-03    2     1000006       -24   # BR(~b_1 -> ~t_1    W-)
#
#         PDG            Width
DECAY   2000005     2.00082156E+02   # sbottom2 decays
#          BR         NDA      ID1       ID2
     1.42510822E-02    2     1000022         5   # BR(~b_2 -> ~chi_10 b )
     4.63897201E-03    2     1000023         5   # BR(~b_2 -> ~chi_20 b )
     4.44551672E-03    2     1000025         5   # BR(~b_2 -> ~chi_30 b )
     3.71307897E-05    2     1000035         5   # BR(~b_2 -> ~chi_40 b )
     8.80135920E-03    2    -1000024         6   # BR(~b_2 -> ~chi_1- t )
     7.45717631E-05    2    -1000037         6   # BR(~b_2 -> ~chi_2- t )
     9.67738128E-01    2     1000021         5   # BR(~b_2 -> ~g      b )
     1.32393222E-05    2     1000006       -24   # BR(~b_2 -> ~t_1    W-)
#
#         PDG            Width
DECAY   1000002     2.19852887E+02   # sup_L decays
#          BR         NDA      ID1       ID2
     3.19141831E-03    2     1000022         2   # BR(~u_L -> ~chi_10 u)
     2.69855823E-04    2     1000023         2   # BR(~u_L -> ~chi_20 u)
     4.31027372E-06    2     1000025         2   # BR(~u_L -> ~chi_30 u)
     3.61150634E-02    2     1000035         2   # BR(~u_L -> ~chi_40 u)
     2.27041020E-04    2     1000024         1   # BR(~u_L -> ~chi_1+ d)
     7.21865793E-02    2     1000037         1   # BR(~u_L -> ~chi_2+ d)
     8.88005732E-01    2     1000021         2   # BR(~u_L -> ~g      u)
#
#         PDG            Width
DECAY   2000002     2.05578100E+02   # sup_R decays
#          BR         NDA      ID1       ID2
     5.47031723E-02    2     1000022         2   # BR(~u_R -> ~chi_10 u)
     2.18526645E-03    2     1000023         2   # BR(~u_R -> ~chi_20 u)
     9.90205260E-04    2     1000025         2   # BR(~u_R -> ~chi_30 u)
     3.88212520E-09    2     1000035         2   # BR(~u_R -> ~chi_40 u)
     9.42121352E-01    2     1000021         2   # BR(~u_R -> ~g      u)
#
#         PDG            Width
DECAY   1000001     2.19868426E+02   # sdown_L decays
#          BR         NDA      ID1       ID2
     3.22541756E-03    2     1000022         1   # BR(~d_L -> ~chi_10 d)
     3.86276091E-05    2     1000023         1   # BR(~d_L -> ~chi_20 d)
     1.73334966E-04    2     1000025         1   # BR(~d_L -> ~chi_30 d)
     3.61351234E-02    2     1000035         1   # BR(~d_L -> ~chi_40 d)
     4.05689546E-07    2    -1000024         2   # BR(~d_L -> ~chi_1- u)
     7.22956607E-02    2    -1000037         2   # BR(~d_L -> ~chi_2- u)
     8.88131430E-01    2     1000021         1   # BR(~d_L -> ~g      d)
#
#         PDG            Width
DECAY   2000001     1.96681456E+02   # sdown_R decays
#          BR         NDA      ID1       ID2
     1.42952910E-02    2     1000022         1   # BR(~d_R -> ~chi_10 d)
     5.71064310E-04    2     1000023         1   # BR(~d_R -> ~chi_20 d)
     2.58765188E-04    2     1000025         1   # BR(~d_R -> ~chi_30 d)
     1.01463808E-09    2     1000035         1   # BR(~d_R -> ~chi_40 d)
     9.84874878E-01    2     1000021         1   # BR(~d_R -> ~g      d)
#
#         PDG            Width
DECAY   1000004     2.19852887E+02   # scharm_L decays
#          BR         NDA      ID1       ID2
     3.19141831E-03    2     1000022         4   # BR(~c_L -> ~chi_10 c)
     2.69855823E-04    2     1000023         4   # BR(~c_L -> ~chi_20 c)
     4.31027372E-06    2     1000025         4   # BR(~c_L -> ~chi_30 c)
     3.61150634E-02    2     1000035         4   # BR(~c_L -> ~chi_40 c)
     2.27041020E-04    2     1000024         3   # BR(~c_L -> ~chi_1+ s)
     7.21865793E-02    2     1000037         3   # BR(~c_L -> ~chi_2+ s)
     8.88005732E-01    2     1000021         4   # BR(~c_L -> ~g      c)
#
#         PDG            Width
DECAY   2000004     2.05578100E+02   # scharm_R decays
#          BR         NDA      ID1       ID2
     5.47031723E-02    2     1000022         4   # BR(~c_R -> ~chi_10 c)
     2.18526645E-03    2     1000023         4   # BR(~c_R -> ~chi_20 c)
     9.90205260E-04    2     1000025         4   # BR(~c_R -> ~chi_30 c)
     3.88212520E-09    2     1000035         4   # BR(~c_R -> ~chi_40 c)
     9.42121352E-01    2     1000021         4   # BR(~c_R -> ~g      c)
#
#         PDG            Width
DECAY   1000003     2.19868426E+02   # sstrange_L decays
#          BR         NDA      ID1       ID2
     3.22541756E-03    2     1000022         3   # BR(~s_L -> ~chi_10 s)
     3.86276091E-05    2     1000023         3   # BR(~s_L -> ~chi_20 s)
     1.73334966E-04    2     1000025         3   # BR(~s_L -> ~chi_30 s)
     3.61351234E-02    2     1000035         3   # BR(~s_L -> ~chi_40 s)
     4.05689546E-07    2    -1000024         4   # BR(~s_L -> ~chi_1- c)
     7.22956607E-02    2    -1000037         4   # BR(~s_L -> ~chi_2- c)
     8.88131430E-01    2     1000021         3   # BR(~s_L -> ~g      s)
#
#         PDG            Width
DECAY   2000003     1.96681456E+02   # sstrange_R decays
#          BR         NDA      ID1       ID2
     1.42952910E-02    2     1000022         3   # BR(~s_R -> ~chi_10 s)
     5.71064310E-04    2     1000023         3   # BR(~s_R -> ~chi_20 s)
     2.58765188E-04    2     1000025         3   # BR(~s_R -> ~chi_30 s)
     1.01463808E-09    2     1000035         3   # BR(~s_R -> ~chi_40 s)
     9.84874878E-01    2     1000021         3   # BR(~s_R -> ~g      s)
#
#         PDG            Width
DECAY   1000011     3.04147896E+01   # selectron_L decays
#          BR         NDA      ID1       ID2
     2.13251929E-01    2     1000022        11   # BR(~e_L -> ~chi_10 e-)
     1.12871217E-02    2     1000023        11   # BR(~e_L -> ~chi_20 e-)
     2.21761725E-03    2     1000025        11   # BR(~e_L -> ~chi_30 e-)
     2.57577837E-01    2     1000035        11   # BR(~e_L -> ~chi_40 e-)
     2.99981851E-06    2    -1000024        12   # BR(~e_L -> ~chi_1- nu_e)
     5.15662496E-01    2    -1000037        12   # BR(~e_L -> ~chi_2- nu_e)
#
#         PDG            Width
DECAY   2000011     2.74253537E+01   # selectron_R decays
#          BR         NDA      ID1       ID2
     9.45162893E-01    2     1000022        11   # BR(~e_R -> ~chi_10 e-)
     3.77372804E-02    2     1000023        11   # BR(~e_R -> ~chi_20 e-)
     1.70997615E-02    2     1000025        11   # BR(~e_R -> ~chi_30 e-)
     6.47895388E-08    2     1000035        11   # BR(~e_R -> ~chi_40 e-)
#
#         PDG            Width
DECAY   1000013     3.04147896E+01   # smuon_L decays
#          BR         NDA      ID1       ID2
     2.13251929E-01    2     1000022        13   # BR(~mu_L -> ~chi_10 mu-)
     1.12871217E-02    2     1000023        13   # BR(~mu_L -> ~chi_20 mu-)
     2.21761725E-03    2     1000025        13   # BR(~mu_L -> ~chi_30 mu-)
     2.57577837E-01    2     1000035        13   # BR(~mu_L -> ~chi_40 mu-)
     2.99981851E-06    2    -1000024        14   # BR(~mu_L -> ~chi_1- nu_mu)
     5.15662496E-01    2    -1000037        14   # BR(~mu_L -> ~chi_2- nu_mu)
#
#         PDG            Width
DECAY   2000013     2.74253537E+01   # smuon_R decays
#          BR         NDA      ID1       ID2
     9.45162893E-01    2     1000022        13   # BR(~mu_R -> ~chi_10 mu-)
     3.77372804E-02    2     1000023        13   # BR(~mu_R -> ~chi_20 mu-)
     1.70997615E-02    2     1000025        13   # BR(~mu_R -> ~chi_30 mu-)
     6.47895388E-08    2     1000035        13   # BR(~mu_R -> ~chi_40 mu-)
#
#         PDG            Width
DECAY   1000015     2.93008113E+01   # stau_1 decays
#          BR         NDA      ID1       ID2
     8.86706316E-01    2     1000022        15   # BR(~tau_1 -> ~chi_10  tau-)
     4.98503445E-02    2     1000023        15   # BR(~tau_1 -> ~chi_20  tau-)
     3.09747487E-02    2     1000025        15   # BR(~tau_1 -> ~chi_30  tau-)
     1.33169738E-04    2     1000035        15   # BR(~tau_1 -> ~chi_40  tau-)
     3.20689691E-02    2    -1000024        16   # BR(~tau_1 -> ~chi_1-  nu_tau)
     2.66451976E-04    2    -1000037        16   # BR(~tau_1 -> ~chi_2-  nu_tau)
#
#         PDG            Width
DECAY   2000015     3.13480084E+01   # stau_2 decays
#          BR         NDA      ID1       ID2
     2.07976973E-01    2     1000022        15   # BR(~tau_2 -> ~chi_10  tau-)
     2.54113677E-02    2     1000023        15   # BR(~tau_2 -> ~chi_20  tau-)
     1.70084106E-02    2     1000025        15   # BR(~tau_2 -> ~chi_30  tau-)
     2.49693651E-01    2     1000035        15   # BR(~tau_2 -> ~chi_40  tau-)
     3.08493415E-05    2    -1000024        16   # BR(~tau_2 -> ~chi_1-  nu_tau)
     4.99878748E-01    2    -1000037        16   # BR(~tau_2 -> ~chi_2-  nu_tau)
#
#         PDG            Width
DECAY   1000012     3.04177303E+01   # snu_eL decays
#          BR         NDA      ID1       ID2
     2.13943481E-01    2     1000022        12   # BR(~nu_eL -> ~chi_10 nu_e)
     6.15592284E-03    2     1000023        12   # BR(~nu_eL -> ~chi_20 nu_e)
     5.96531978E-03    2     1000025        12   # BR(~nu_eL -> ~chi_30 nu_e)
     2.57632971E-01    2     1000035        12   # BR(~nu_eL -> ~chi_40 nu_e)
     1.67838374E-03    2     1000024        11   # BR(~nu_eL -> ~chi_1+ e-)
     5.14623921E-01    2     1000037        11   # BR(~nu_eL -> ~chi_2+ e-)
#
#         PDG            Width
DECAY   1000014     3.04177303E+01   # snu_muL decays
#          BR         NDA      ID1       ID2
     2.13943481E-01    2     1000022        14   # BR(~nu_muL -> ~chi_10 nu_mu)
     6.15592284E-03    2     1000023        14   # BR(~nu_muL -> ~chi_20 nu_mu)
     5.96531978E-03    2     1000025        14   # BR(~nu_muL -> ~chi_30 nu_mu)
     2.57632971E-01    2     1000035        14   # BR(~nu_muL -> ~chi_40 nu_mu)
     1.67838374E-03    2     1000024        13   # BR(~nu_muL -> ~chi_1+ mu-)
     5.14623921E-01    2     1000037        13   # BR(~nu_muL -> ~chi_2+ mu-)
#
#         PDG            Width
DECAY   1000016     3.13510766E+01   # snu_tauL decays
#          BR         NDA      ID1       ID2
     2.07551250E-01    2     1000022        16   # BR(~nu_tauL -> ~chi_10 nu_tau)
     5.97199136E-03    2     1000023        16   # BR(~nu_tauL -> ~chi_20 nu_tau)
     5.78708325E-03    2     1000025        16   # BR(~nu_tauL -> ~chi_30 nu_tau)
     2.49868973E-01    2     1000035        16   # BR(~nu_tauL -> ~chi_40 nu_tau)
     3.17055869E-02    2     1000024        15   # BR(~nu_tauL -> ~chi_1+ tau-)
     4.99115115E-01    2     1000037        15   # BR(~nu_tauL -> ~chi_2+ tau-)
#
#         PDG            Width
DECAY   1000024     8.35922003E-02   # chargino1+ decays
#          BR         NDA      ID1       ID2
     1.00000000E+00    2     1000022        24   # BR(~chi_1+ -> ~chi_10  W+)
#
#         PDG            Width
DECAY   1000037     2.32983795E+01   # chargino2+ decays
#          BR         NDA      ID1       ID2
     2.53775140E-01    2     1000024        23   # BR(~chi_2+ -> ~chi_1+  Z )
     7.55828796E-04    2     1000022        24   # BR(~chi_2+ -> ~chi_10  W+)
     2.44842447E-01    2     1000023        24   # BR(~chi_2+ -> ~chi_20  W+)
     2.44866015E-01    2     1000025        24   # BR(~chi_2+ -> ~chi_30  W+)
     2.55723078E-01    2     1000024        25   # BR(~chi_2+ -> ~chi_1+  h )
     3.74907713E-05    2     1000022        37   # BR(~chi_2+ -> ~chi_10  H+)
#
#         PDG            Width
DECAY   1000022     0.00000000E+00   # neutralino1 decays
#
#         PDG            Width
DECAY   1000023     6.58275884E-02   # neutralino2 decays
#          BR         NDA      ID1       ID2
     5.81887789E-01    2     1000022        23   # BR(~chi_20 -> ~chi_10   Z )
     4.18112211E-01    2     1000022        25   # BR(~chi_20 -> ~chi_10   h )
#
#         PDG            Width
DECAY   1000025     4.88156696E-02   # neutralino3 decays
#          BR         NDA      ID1       ID2
     9.02199874E-01    2     1000022        23   # BR(~chi_30 -> ~chi_10   Z )
     9.78001257E-02    2     1000022        25   # BR(~chi_30 -> ~chi_10   h )
#
#         PDG            Width
DECAY   1000035     2.33006137E+01   # neutralino4 decays
#          BR         NDA      ID1       ID2
     7.78252552E-04    2     1000022        23   # BR(~chi_40 -> ~chi_10   Z )
     1.35970126E-01    2     1000023        23   # BR(~chi_40 -> ~chi_20   Z )
     1.16844307E-01    2     1000025        23   # BR(~chi_40 -> ~chi_30   Z )
     2.45444913E-01    2     1000024       -24   # BR(~chi_40 -> ~chi_1+   W-)
     2.45444913E-01    2    -1000024        24   # BR(~chi_40 -> ~chi_1-   W+)
     1.15433405E-05    2     1000022        25   # BR(~chi_40 -> ~chi_10   h )
     3.59695007E-05    2     1000022        35   # BR(~chi_40 -> ~chi_10   H )
     3.92476227E-06    2     1000022        36   # BR(~chi_40 -> ~chi_10   A )
     1.18327664E-01    2     1000023        25   # BR(~chi_40 -> ~chi_20   h )
     1.37138388E-01    2     1000025        25   # BR(~chi_40 -> ~chi_30   h )
#
#         PDG            Width
DECAY        25     4.08565559E-03   # h decays
#          BR         NDA      ID1       ID2
     6.08825024E-01    2           5        -5   # BR(h -> b       bb     )
     6.35073116E-02    2         -15        15   # BR(h -> tau+    tau-   )
     2.24838860E-04    2         -13        13   # BR(h -> mu+     mu-    )
     4.76624751E-04    2           3        -3   # BR(h -> s       sb     )
     2.06496150E-02    2           4        -4   # BR(h -> c       cb     )
     6.68270713E-02    2          21        21   # BR(h -> g       g      )
     2.29508259E-03    2          22        22   # BR(h -> gam     gam    )
     1.48383373E-03    2          22        23   # BR(h -> Z       gam    )
     2.09525416E-01    2          24       -24   # BR(h -> W+      W-     )
     2.49639192E-02    2          23        23   # BR(h -> Z       Z      )
     1.22126382E-03    2     1000022   1000022   # BR(h -> ~chi_10 ~chi_10)
#
#         PDG            Width
DECAY        35     8.81365715E+00   # H decays
#          BR         NDA      ID1       ID2
     3.59040670E-01    2           5        -5   # BR(H -> b       bb     )
     6.31877386E-02    2         -15        15   # BR(H -> tau+    tau-   )
     2.23436863E-04    2         -13        13   # BR(H -> mu+     mu-    )
     2.73899201E-04    2           3        -3   # BR(H -> s       sb     )
     1.53344770E-06    2           4        -4   # BR(H -> c       cb     )
     1.53203581E-01    2           6        -6   # BR(H -> t       tb     )
     5.09864988E-05    2          21        21   # BR(H -> g       g      )
     1.46827261E-07    2          22        22   # BR(H -> gam     gam    )
     9.03706477E-08    2          23        22   # BR(H -> Z       gam    )
     7.52742933E-05    2          24       -24   # BR(H -> W+      W-     )
     3.75894913E-05    2          23        23   # BR(H -> Z       Z      )
     2.67227996E-04    2          25        25   # BR(H -> h       h      )
     5.35298715E-24    2          36        36   # BR(H -> A       A      )
     6.28325298E-19    2          23        36   # BR(H -> Z       A      )
     3.48424328E-03    2     1000024  -1000024   # BR(H -> ~chi_1+ ~chi_1-)
     4.37422054E-02    2     1000022   1000022   # BR(H -> ~chi_10 ~chi_10)
     1.24657511E-02    2     1000023   1000023   # BR(H -> ~chi_20 ~chi_20)
     8.49128558E-03    2     1000025   1000025   # BR(H -> ~chi_30 ~chi_30)
     2.02455610E-01    2     1000022   1000023   # BR(H -> ~chi_10 ~chi_20)
     1.31785872E-01    2     1000022   1000025   # BR(H -> ~chi_10 ~chi_30)
     2.12128582E-02    2     1000023   1000025   # BR(H -> ~chi_20 ~chi_30)
#
#         PDG            Width
DECAY        36     8.81864188E+00   # A decays
#          BR         NDA      ID1       ID2
     3.58960731E-01    2           5        -5   # BR(A -> b       bb     )
     6.31538515E-02    2         -15        15   # BR(A -> tau+    tau-   )
     2.23316723E-04    2         -13        13   # BR(A -> mu+     mu-    )
     2.73952178E-04    2           3        -3   # BR(A -> s       sb     )
     1.53859945E-06    2           4        -4   # BR(A -> c       cb     )
     1.53633458E-01    2           6        -6   # BR(A -> t       tb     )
     1.52012187E-04    2          21        21   # BR(A -> g       g      )
     5.33898336E-07    2          22        22   # BR(A -> gam     gam    )
     1.83930285E-07    2          23        22   # BR(A -> Z       gam    )
     7.49464963E-05    2          23        25   # BR(A -> Z       h      )
     3.60932065E-03    2     1000024  -1000024   # BR(A -> ~chi_1+ ~chi_1-)
     4.02836368E-02    2     1000022   1000022   # BR(A -> ~chi_10 ~chi_10)
     8.19795784E-03    2     1000023   1000023   # BR(A -> ~chi_20 ~chi_20)
     1.33533616E-02    2     1000025   1000025   # BR(A -> ~chi_30 ~chi_30)
     1.28603359E-01    2     1000022   1000023   # BR(A -> ~chi_10 ~chi_20)
     2.08693002E-01    2     1000022   1000025   # BR(A -> ~chi_10 ~chi_30)
     2.07848370E-02    2     1000023   1000025   # BR(A -> ~chi_20 ~chi_30)
#
#         PDG            Width
DECAY        37     8.75771223E+00   # H+ decays
#          BR         NDA      ID1       ID2
     5.75146152E-04    2           4        -5   # BR(H+ -> c       bb     )
     6.36246454E-02    2         -15        16   # BR(H+ -> tau+    nu_tau )
     2.24981485E-04    2         -13        14   # BR(H+ -> mu+     nu_mu  )
     3.68091591E-06    2           2        -5   # BR(H+ -> u       bb     )
     1.32010981E-05    2           2        -3   # BR(H+ -> u       sb     )
     2.73000572E-04    2           4        -3   # BR(H+ -> c       sb     )
     5.10978176E-01    2           6        -5   # BR(H+ -> t       bb     )
     7.56285581E-05    2          24        25   # BR(H+ -> W+      h      )
     1.07287100E-12    2          24        36   # BR(H+ -> W+      A      )
     3.98202948E-01    2     1000024   1000022   # BR(H+ -> ~chi_1+ ~chi_10)
     2.17831692E-02    2     1000024   1000023   # BR(H+ -> ~chi_1+ ~chi_20)
     4.24542233E-03    2     1000024   1000025   # BR(H+ -> ~chi_1+ ~chi_30)
