#
#                              ======================
#                              | THE SUSYHIT OUTPUT |
#                              ======================
#
#
#              ------------------------------------------------------
#              |     This is the output of the SUSY-HIT package     |
#              |  created by A.Djouadi, M.Muehlleitner and M.Spira. |
#              |  In case of problems with SUSY-HIT email to        |
#              |           margarete.muehlleitner@cern.ch           |
#              |           michael.spira@psi.ch                     |
#              |           abdelhak.djouadi@cern.ch                 |
#              ------------------------------------------------------
#
#              ------------------------------------------------------
#              |  SUSY Les Houches Accord - MSSM Spectrum + Decays  |
#              |              based on the decay programs           |
#              |                                                    |
#              |                     SDECAY 1.3b                    |
#              |                                                    |
#              |  Authors: M.Muhlleitner, A.Djouadi and Y.Mambrini  |
#              |  Ref.:    Comput.Phys.Commun.168(2005)46           |
#              |           [hep-ph/0311167]                         |
#              |                                                    |
#              |                     HDECAY 3.4                     |
#              |                                                    |
#              |  By: A.Djouadi,J.Kalinowski,M.Muhlleitner,M.Spira  |
#              |  Ref.:    Comput.Phys.Commun.108(1998)56           |
#              |           [hep-ph/9704448]                         |
#              |                                                    |
#              |                                                    |
#              |  If not stated otherwise all DRbar couplings and   |
#              |  soft SUSY breaking masses are given at the scale  |
#              |  Q=  0.50007493E+04
#              |                                                    |
#              ------------------------------------------------------
#
#
BLOCK DCINFO  # Decay Program information
     1   SDECAY/HDECAY # decay calculator
     2   1.3b  /3.4    # version number
#
BLOCK SPINFO  # Spectrum calculator information
     1    SOFTSUSY    # spectrum calculator                
     2    3.4.0       # version number                     
#
BLOCK MODSEL  # Model selection
     1     0   #  nonUniversal                                     
#
BLOCK SMINPUTS  # Standard Model inputs
         1     1.25778332E+02   # alpha_em^-1(M_Z)^MSbar
         2     1.16570000E-05   # G_F [GeV^-2]
         3     1.17200002E-01   # alpha_S(M_Z)^MSbar
         4     9.11876000E+01   # M_Z pole mass
         5     4.25000000E+00   # mb(mb)^MSbar
         6     1.72500000E+02   # mt pole mass
         7     1.77682000E+00   # mtau pole mass
#
BLOCK MINPAR  # Input parameters - minimal models
         3     1.00000000E+01   # tanb                
#
BLOCK EXTPAR  # Input parameters - non-minimal models
         0    -1.00000000E+00   # Set                 
         1     6.00000000E+01   # M_1(MX)             
         2     3.00000000E+03   # M_2(MX)             
         3     1.85478200E+03   # M_3(MX)             
        11     5.00000000E+03   # At(MX)              
        12     5.00000000E+03   # Ab(MX)              
        13     0.00000000E+00   # Atau(MX)            
        23    -7.64827000E+02   # mu(MX)              
        26     3.00000000E+03   # mA(pole)            
        31     5.00000000E+03   # meL(MX)             
        32     5.00000000E+03   # mmuL(MX)            
        33     5.00000000E+03   # mtauL(MX)           
        34     5.00000000E+03   # meR(MX)             
        35     5.00000000E+03   # mmuR(MX)            
        36     5.00000000E+03   # mtauR(MX)           
        41     5.00000000E+03   # mqL1(MX)            
        42     5.00000000E+03   # mqL2(MX)            
        43     5.00000000E+03   # mqL3(MX)            
        44     5.00000000E+03   # muR(MX)             
        45     5.00000000E+03   # mcR(MX)             
        46     5.00000000E+03   # mtR(MX)             
        47     5.00000000E+03   # mdR(MX)             
        48     5.00000000E+03   # msR(MX)             
        49     5.00000000E+03   # mbR(MX)             
#
BLOCK MASS  # Mass Spectrum
# PDG code           mass       particle
        24     8.00946102E+01   # W+
        25     1.24791021E+02   # h
        35     3.00008290E+03   # H
        36     2.99999757E+03   # A
        37     3.00136082E+03   # H+
         5     4.87878001E+00   # b-quark pole mass calculated from mb(mb)_Msbar
   1000001     5.07477630E+03   # ~d_L
   2000001     5.05697223E+03   # ~d_R
   1000002     5.07430331E+03   # ~u_L
   2000002     5.05668140E+03   # ~u_R
   1000003     5.07477630E+03   # ~s_L
   2000003     5.05697223E+03   # ~s_R
   1000004     5.07430331E+03   # ~c_L
   2000004     5.05668140E+03   # ~c_R
   1000005     5.02048839E+03   # ~b_1
   2000005     5.05536090E+03   # ~b_2
   1000006     4.91176008E+03   # ~t_1
   2000006     5.06470976E+03   # ~t_2
   1000011     5.01908200E+03   # ~e_L
   2000011     5.00593133E+03   # ~e_R
   1000012     5.01813297E+03   # ~nu_eL
   1000013     5.01908200E+03   # ~mu_L
   2000013     5.00593133E+03   # ~mu_R
   1000014     5.01813297E+03   # ~nu_muL
   1000015     5.00468711E+03   # ~tau_1
   2000015     5.01869769E+03   # ~tau_2
   1000016     5.01758455E+03   # ~nu_tauL
   1000021     2.20000001E+03   # ~g
   1000022     6.02875099E+01   # ~chi_10
   1000023     7.99841794E+02   # ~chi_20
   1000025    -8.02072504E+02   # ~chi_30
   1000035     3.07421131E+03   # ~chi_40
   1000024     8.00000050E+02   # ~chi_1+
   1000037     3.07437882E+03   # ~chi_2+
#
BLOCK NMIX  # Neutralino Mixing Matrix
  1  1     9.98452026E-01   # N_11
  1  2     2.07819703E-04   # N_12
  1  3    -5.55963604E-02   # N_13
  1  4     1.59768184E-03   # N_14
  2  1     3.81983827E-02   # N_21
  2  2     2.14529895E-02   # N_22
  2  3     7.06384849E-01   # N_23
  2  4     7.06470875E-01   # N_24
  3  1    -4.04262323E-02   # N_31
  3  2     1.56881450E-02   # N_32
  3  3    -7.05629430E-01   # N_33
  3  4     7.07252931E-01   # N_34
  4  1    -3.92893705E-04   # N_41
  4  2     9.99646742E-01   # N_42
  4  3    -4.07393507E-03   # N_43
  4  4    -2.62610077E-02   # N_44
#
BLOCK UMIX  # Chargino Mixing Matrix U
  1  1     5.77220091E-03   # U_11
  1  2     9.99983341E-01   # U_12
  2  1    -9.99983341E-01   # U_21
  2  2     5.77220091E-03   # U_22
#
BLOCK VMIX  # Chargino Mixing Matrix V
  1  1     3.71669141E-02   # V_11
  1  2    -9.99309072E-01   # V_12
  2  1    -9.99309072E-01   # V_21
  2  2    -3.71669141E-02   # V_22
#
BLOCK STOPMIX  # Stop Mixing Matrix
  1  1    -5.04779029E-01   # cos(theta_t)
  1  2     8.63248592E-01   # sin(theta_t)
  2  1    -8.63248592E-01   # -sin(theta_t)
  2  2    -5.04779029E-01   # cos(theta_t)
#
BLOCK SBOTMIX  # Sbottom Mixing Matrix
  1  1     9.97861066E-01   # cos(theta_b)
  1  2    -6.53704288E-02   # sin(theta_b)
  2  1     6.53704288E-02   # -sin(theta_b)
  2  2     9.97861066E-01   # cos(theta_b)
#
BLOCK STAUMIX  # Stau Mixing Matrix
  1  1    -9.13563202E-02   # cos(theta_tau)
  1  2     9.95818268E-01   # sin(theta_tau)
  2  1    -9.95818268E-01   # -sin(theta_tau)
  2  2    -9.13563202E-02   # cos(theta_tau)
#
BLOCK ALPHA  # Higgs mixing
          -1.05482228E-01   # Mixing angle in the neutral Higgs boson sector
#
BLOCK HMIX Q=  5.00074932E+03  # DRbar Higgs Parameters
         1    -7.78855329E+02   # mu(Q)MSSM           
         2     9.46927179E+00   # tan                 
         3     2.41811573E+02   # higgs               
         4     8.57762400E+06   # mA^2(Q)MSSM         
#
BLOCK GAUGE Q=  5.00074932E+03  # The gauge couplings
     1     3.70845033E-01   # gprime(Q) DRbar
     2     6.32792792E-01   # g(Q) DRbar
     3     9.97103849E-01   # g3(Q) DRbar
#
BLOCK AU Q=  5.00074932E+03  # The trilinear couplings
  1  1     5.00000001E+03   # A_u(Q) DRbar
  2  2     5.00000001E+03   # A_c(Q) DRbar
  3  3     5.00000002E+03   # A_t(Q) DRbar
#
BLOCK AD Q=  5.00074932E+03  # The trilinear couplings
  1  1     5.00000001E+03   # A_d(Q) DRbar
  2  2     5.00000001E+03   # A_s(Q) DRbar
  3  3     5.00000001E+03   # A_b(Q) DRbar
#
BLOCK AE Q=  5.00074932E+03  # The trilinear couplings
  1  1     0.00000000E+00   # A_e(Q) DRbar
  2  2     2.03904899E-07   # A_mu(Q) DRbar
  3  3     2.03659534E-07   # A_tau(Q) DRbar
#
BLOCK Yu Q=  5.00074932E+03  # The Yukawa couplings
  1  1     0.00000000E+00   # y_u(Q) DRbar
  2  2     0.00000000E+00   # y_c(Q) DRbar
  3  3     8.20562093E-01   # y_t(Q) DRbar
#
BLOCK Yd Q=  5.00074932E+03  # The Yukawa couplings
  1  1     0.00000000E+00   # y_d(Q) DRbar
  2  2     0.00000000E+00   # y_s(Q) DRbar
  3  3     1.30535520E-01   # y_b(Q) DRbar
#
BLOCK Ye Q=  5.00074932E+03  # The Yukawa couplings
  1  1     0.00000000E+00   # y_e(Q) DRbar
  2  2     0.00000000E+00   # y_mu(Q) DRbar
  3  3     9.69583767E-02   # y_tau(Q) DRbar
#
BLOCK MSOFT Q=  5.00074932E+03  # The soft SUSY breaking masses at the scale Q
         1     6.00000000E+01   # M_1(Q)              
         2     3.00000000E+03   # M_2(Q)              
         3     1.85478200E+03   # M_3(Q)              
        21     8.10270247E+06   # mH1^2(Q)            
        22    -3.62741278E+04   # mH2^2(Q)            
        31     5.00000000E+03   # meL(Q)              
        32     5.00000000E+03   # mmuL(Q)             
        33     5.00000000E+03   # mtauL(Q)            
        34     5.00000000E+03   # meR(Q)              
        35     5.00000000E+03   # mmuR(Q)             
        36     5.00000000E+03   # mtauR(Q)            
        41     5.00000000E+03   # mqL1(Q)             
        42     5.00000000E+03   # mqL2(Q)             
        43     4.99999999E+03   # mqL3(Q)             
        44     5.00000000E+03   # muR(Q)              
        45     5.00000000E+03   # mcR(Q)              
        46     4.99999999E+03   # mtR(Q)              
        47     5.00000000E+03   # mdR(Q)              
        48     5.00000000E+03   # msR(Q)              
        49     5.00000000E+03   # mbR(Q)              
#
#
#
#                             =================
#                             |The decay table|
#                             =================
#
# - The QCD corrections to the decays gluino -> squark  + quark
#                                     squark -> gaugino + quark_prime
#                                     squark -> squark_prime + Higgs
#                                     squark -> gluino  + quark
#   are included.
#
# - The multi-body decays for the inos, stops and sbottoms are included.
#
# - The loop induced decays for the gluino, neutralinos and stops
#   are included.
#
# - The SUSY decays of the top quark are included.
#
#
#         PDG            Width
DECAY         6     1.40324813E+00   # top decays
#          BR         NDA      ID1       ID2
     1.00000000E+00    2           5        24   # BR(t ->  b    W+)
#
#         PDG            Width
DECAY   1000021     2.06138817E-03   # gluino decays
#          BR         NDA      ID1       ID2
     1.66631932E-06    2     1000022        21   # BR(~g -> ~chi_10 g)
     7.06063759E-03    2     1000023        21   # BR(~g -> ~chi_20 g)
     6.91829482E-03    2     1000025        21   # BR(~g -> ~chi_30 g)
#           BR         NDA      ID1       ID2       ID3
     1.86159334E-02    3     1000022         1        -1   # BR(~g -> ~chi_10 d  db)
     2.18791655E-05    3     1000023         1        -1   # BR(~g -> ~chi_20 d  db)
     1.82427180E-05    3     1000025         1        -1   # BR(~g -> ~chi_30 d  db)
     6.34809123E-02    3     1000022         2        -2   # BR(~g -> ~chi_10 u  ub)
     9.02989209E-05    3     1000023         2        -2   # BR(~g -> ~chi_20 u  ub)
     2.42132196E-05    3     1000025         2        -2   # BR(~g -> ~chi_30 u  ub)
     1.86159334E-02    3     1000022         3        -3   # BR(~g -> ~chi_10 s  sb)
     2.18791655E-05    3     1000023         3        -3   # BR(~g -> ~chi_20 s  sb)
     1.82427180E-05    3     1000025         3        -3   # BR(~g -> ~chi_30 s  sb)
     6.34809123E-02    3     1000022         4        -4   # BR(~g -> ~chi_10 c  cb)
     9.02989209E-05    3     1000023         4        -4   # BR(~g -> ~chi_20 c  cb)
     2.42132196E-05    3     1000025         4        -4   # BR(~g -> ~chi_30 c  cb)
     1.89172272E-02    3     1000022         5        -5   # BR(~g -> ~chi_10 b  bb)
     4.92123439E-03    3     1000023         5        -5   # BR(~g -> ~chi_20 b  bb)
     4.87330410E-03    3     1000025         5        -5   # BR(~g -> ~chi_30 b  bb)
     6.30589533E-02    3     1000022         6        -6   # BR(~g -> ~chi_10 t  tb)
     1.82366934E-01    3     1000023         6        -6   # BR(~g -> ~chi_20 t  tb)
     1.64995166E-01    3     1000025         6        -6   # BR(~g -> ~chi_30 t  tb)
     5.89711514E-05    3     1000024         1        -2   # BR(~g -> ~chi_1+ d  ub)
     5.89711514E-05    3    -1000024         2        -1   # BR(~g -> ~chi_1- u  db)
     5.89711514E-05    3     1000024         3        -4   # BR(~g -> ~chi_1+ s  cb)
     5.89711514E-05    3    -1000024         4        -3   # BR(~g -> ~chi_1- c  sb)
     1.91073869E-01    3     1000024         5        -6   # BR(~g -> ~chi_1+ b  tb)
     1.91073869E-01    3    -1000024         6        -5   # BR(~g -> ~chi_1- t  bb)
#
#         PDG            Width
DECAY   1000006     3.26613173E+02   # stop1 decays
#          BR         NDA      ID1       ID2
     2.71455878E-02    2     1000022         6   # BR(~t_1 -> ~chi_10 t )
     9.63741896E-02    2     1000023         6   # BR(~t_1 -> ~chi_20 t )
     9.23513564E-02    2     1000025         6   # BR(~t_1 -> ~chi_30 t )
     6.25783865E-03    2     1000035         6   # BR(~t_1 -> ~chi_40 t )
     1.40826010E-01    2     1000024         5   # BR(~t_1 -> ~chi_1+ b )
     1.24713485E-02    2     1000037         5   # BR(~t_1 -> ~chi_2+ b )
     6.24573669E-01    2     1000021         6   # BR(~t_1 -> ~g      t )
#
#         PDG            Width
DECAY   2000006     3.33569324E+02   # stop2 decays
#          BR         NDA      ID1       ID2
     1.03402930E-02    2     1000022         6   # BR(~t_2 -> ~chi_10 t )
     9.60536888E-02    2     1000023         6   # BR(~t_2 -> ~chi_20 t )
     1.00419047E-01    2     1000025         6   # BR(~t_2 -> ~chi_30 t )
     1.68021641E-02    2     1000035         6   # BR(~t_2 -> ~chi_40 t )
     5.63276560E-02    2     1000024         5   # BR(~t_2 -> ~chi_1+ b )
     3.34428500E-02    2     1000037         5   # BR(~t_2 -> ~chi_2+ b )
     6.82931629E-01    2     1000021         6   # BR(~t_2 -> ~g      t )
     8.45885230E-04    2     1000006        25   # BR(~t_2 -> ~t_1    h )
     2.83678702E-03    2     1000006        23   # BR(~t_2 -> ~t_1    Z )
#
#         PDG            Width
DECAY   1000005     3.08433437E+02   # sbottom1 decays
#          BR         NDA      ID1       ID2
     2.50103547E-03    2     1000022         5   # BR(~b_1 -> ~chi_10 b )
     2.63592576E-03    2     1000023         5   # BR(~b_1 -> ~chi_20 b )
     2.59060760E-03    2     1000025         5   # BR(~b_1 -> ~chi_30 b )
     2.45526194E-02    2     1000035         5   # BR(~b_1 -> ~chi_40 b )
     2.06614314E-01    2    -1000024         6   # BR(~b_1 -> ~chi_1- t )
     4.93134605E-02    2    -1000037         6   # BR(~b_1 -> ~chi_2- t )
     7.10004364E-01    2     1000021         5   # BR(~b_1 -> ~g      b )
     1.78767362E-03    2     1000006       -24   # BR(~b_1 -> ~t_1    W-)
#
#         PDG            Width
DECAY   2000005     2.28302808E+02   # sbottom2 decays
#          BR         NDA      ID1       ID2
     1.28599265E-02    2     1000022         5   # BR(~b_2 -> ~chi_10 b )
     3.59521027E-03    2     1000023         5   # BR(~b_2 -> ~chi_20 b )
     3.67098415E-03    2     1000025         5   # BR(~b_2 -> ~chi_30 b )
     1.39387679E-04    2     1000035         5   # BR(~b_2 -> ~chi_40 b )
     8.26849019E-03    2    -1000024         6   # BR(~b_2 -> ~chi_1- t )
     2.79946481E-04    2    -1000037         6   # BR(~b_2 -> ~chi_2- t )
     9.71142397E-01    2     1000021         5   # BR(~b_2 -> ~g      b )
     4.36582348E-05    2     1000006       -24   # BR(~b_2 -> ~t_1    W-)
#
#         PDG            Width
DECAY   1000002     2.47653651E+02   # sup_L decays
#          BR         NDA      ID1       ID2
     3.00883785E-03    2     1000022         2   # BR(~u_L -> ~chi_10 u)
     6.28629316E-05    2     1000023         2   # BR(~u_L -> ~chi_20 u)
     4.56254740E-06    2     1000025         2   # BR(~u_L -> ~chi_30 u)
     3.18084505E-02    2     1000035         2   # BR(~u_L -> ~chi_40 u)
     2.07722339E-04    2     1000024         1   # BR(~u_L -> ~chi_1+ d)
     6.35757184E-02    2     1000037         1   # BR(~u_L -> ~chi_2+ d)
     9.01331845E-01    2     1000021         2   # BR(~u_L -> ~g      u)
#
#         PDG            Width
DECAY   2000002     2.33614625E+02   # sup_R decays
#          BR         NDA      ID1       ID2
     5.07464037E-02    2     1000022         2   # BR(~u_R -> ~chi_10 u)
     7.07362122E-05    2     1000023         2   # BR(~u_R -> ~chi_20 u)
     7.92055120E-05    2     1000025         2   # BR(~u_R -> ~chi_30 u)
     3.14440972E-09    2     1000035         2   # BR(~u_R -> ~chi_40 u)
     9.49103651E-01    2     1000021         2   # BR(~u_R -> ~g      u)
#
#         PDG            Width
DECAY   1000001     2.47668683E+02   # sdown_L decays
#          BR         NDA      ID1       ID2
     2.99614311E-03    2     1000022         1   # BR(~d_L -> ~chi_10 d)
     1.47185490E-05    2     1000023         1   # BR(~d_L -> ~chi_20 d)
     4.18147764E-05    2     1000025         1   # BR(~d_L -> ~chi_30 d)
     3.18260889E-02    2     1000035         1   # BR(~d_L -> ~chi_40 d)
     5.01039243E-06    2    -1000024         2   # BR(~d_L -> ~chi_1- u)
     6.36772857E-02    2    -1000037         2   # BR(~d_L -> ~chi_2- u)
     9.01438939E-01    2     1000021         1   # BR(~d_L -> ~g      d)
#
#         PDG            Width
DECAY   2000001     2.24721861E+02   # sdown_R decays
#          BR         NDA      ID1       ID2
     1.31894088E-02    2     1000022         1   # BR(~d_R -> ~chi_10 d)
     1.83850288E-05    2     1000023         1   # BR(~d_R -> ~chi_20 d)
     2.05862828E-05    2     1000025         1   # BR(~d_R -> ~chi_30 d)
     8.17366811E-10    2     1000035         1   # BR(~d_R -> ~chi_40 d)
     9.86771619E-01    2     1000021         1   # BR(~d_R -> ~g      d)
#
#         PDG            Width
DECAY   1000004     2.47653651E+02   # scharm_L decays
#          BR         NDA      ID1       ID2
     3.00883785E-03    2     1000022         4   # BR(~c_L -> ~chi_10 c)
     6.28629316E-05    2     1000023         4   # BR(~c_L -> ~chi_20 c)
     4.56254740E-06    2     1000025         4   # BR(~c_L -> ~chi_30 c)
     3.18084505E-02    2     1000035         4   # BR(~c_L -> ~chi_40 c)
     2.07722339E-04    2     1000024         3   # BR(~c_L -> ~chi_1+ s)
     6.35757184E-02    2     1000037         3   # BR(~c_L -> ~chi_2+ s)
     9.01331845E-01    2     1000021         4   # BR(~c_L -> ~g      c)
#
#         PDG            Width
DECAY   2000004     2.33614625E+02   # scharm_R decays
#          BR         NDA      ID1       ID2
     5.07464037E-02    2     1000022         4   # BR(~c_R -> ~chi_10 c)
     7.07362122E-05    2     1000023         4   # BR(~c_R -> ~chi_20 c)
     7.92055120E-05    2     1000025         4   # BR(~c_R -> ~chi_30 c)
     3.14440972E-09    2     1000035         4   # BR(~c_R -> ~chi_40 c)
     9.49103651E-01    2     1000021         4   # BR(~c_R -> ~g      c)
#
#         PDG            Width
DECAY   1000003     2.47668683E+02   # sstrange_L decays
#          BR         NDA      ID1       ID2
     2.99614311E-03    2     1000022         3   # BR(~s_L -> ~chi_10 s)
     1.47185490E-05    2     1000023         3   # BR(~s_L -> ~chi_20 s)
     4.18147764E-05    2     1000025         3   # BR(~s_L -> ~chi_30 s)
     3.18260889E-02    2     1000035         3   # BR(~s_L -> ~chi_40 s)
     5.01039243E-06    2    -1000024         4   # BR(~s_L -> ~chi_1- c)
     6.36772857E-02    2    -1000037         4   # BR(~s_L -> ~chi_2- c)
     9.01438939E-01    2     1000021         3   # BR(~s_L -> ~g      s)
#
#         PDG            Width
DECAY   2000003     2.24721861E+02   # sstrange_R decays
#          BR         NDA      ID1       ID2
     1.31894088E-02    2     1000022         3   # BR(~s_R -> ~chi_10 s)
     1.83850288E-05    2     1000023         3   # BR(~s_R -> ~chi_20 s)
     2.05862828E-05    2     1000025         3   # BR(~s_R -> ~chi_30 s)
     8.17366811E-10    2     1000035         3   # BR(~s_R -> ~chi_40 s)
     9.86771619E-01    2     1000021         3   # BR(~s_R -> ~g      s)
#
#         PDG            Width
DECAY   1000011     3.02905495E+01   # selectron_L decays
#          BR         NDA      ID1       ID2
     2.26068334E-01    2     1000022        11   # BR(~e_L -> ~chi_10 e-)
     1.20480702E-03    2     1000023        11   # BR(~e_L -> ~chi_20 e-)
     4.01443585E-05    2     1000025        11   # BR(~e_L -> ~chi_30 e-)
     2.57376099E-01    2     1000035        11   # BR(~e_L -> ~chi_40 e-)
     4.17735061E-05    2    -1000024        12   # BR(~e_L -> ~chi_1- nu_e)
     5.15268843E-01    2    -1000037        12   # BR(~e_L -> ~chi_2- nu_e)
#
#         PDG            Width
DECAY   2000011     2.73801851E+01   # selectron_R decays
#          BR         NDA      ID1       ID2
     9.97061616E-01    2     1000022        11   # BR(~e_R -> ~chi_10 e-)
     1.38618479E-03    2     1000023        11   # BR(~e_R -> ~chi_20 e-)
     1.55213896E-03    2     1000025        11   # BR(~e_R -> ~chi_30 e-)
     5.99143135E-08    2     1000035        11   # BR(~e_R -> ~chi_40 e-)
#
#         PDG            Width
DECAY   1000013     3.02905495E+01   # smuon_L decays
#          BR         NDA      ID1       ID2
     2.26068334E-01    2     1000022        13   # BR(~mu_L -> ~chi_10 mu-)
     1.20480702E-03    2     1000023        13   # BR(~mu_L -> ~chi_20 mu-)
     4.01443585E-05    2     1000025        13   # BR(~mu_L -> ~chi_30 mu-)
     2.57376099E-01    2     1000035        13   # BR(~mu_L -> ~chi_40 mu-)
     4.17735061E-05    2    -1000024        14   # BR(~mu_L -> ~chi_1- nu_mu)
     5.15268843E-01    2    -1000037        14   # BR(~mu_L -> ~chi_2- nu_mu)
#
#         PDG            Width
DECAY   2000013     2.73801851E+01   # smuon_R decays
#          BR         NDA      ID1       ID2
     9.97061616E-01    2     1000022        13   # BR(~mu_R -> ~chi_10 mu-)
     1.38618479E-03    2     1000023        13   # BR(~mu_R -> ~chi_20 mu-)
     1.55213896E-03    2     1000025        13   # BR(~mu_R -> ~chi_30 mu-)
     5.99143135E-08    2     1000035        13   # BR(~mu_R -> ~chi_40 mu-)
#
#         PDG            Width
DECAY   1000015     2.91724723E+01   # stau_1 decays
#          BR         NDA      ID1       ID2
     9.30691202E-01    2     1000022        15   # BR(~tau_1 -> ~chi_10  tau-)
     1.64850768E-02    2     1000023        15   # BR(~tau_1 -> ~chi_20  tau-)
     1.59001837E-02    2     1000025        15   # BR(~tau_1 -> ~chi_30  tau-)
     2.16635051E-03    2     1000035        15   # BR(~tau_1 -> ~chi_40  tau-)
     3.04203512E-02    2    -1000024        16   # BR(~tau_1 -> ~chi_1-  nu_tau)
     4.33683609E-03    2    -1000037        16   # BR(~tau_1 -> ~chi_2-  nu_tau)
#
#         PDG            Width
DECAY   2000015     3.11526164E+01   # stau_2 decays
#          BR         NDA      ID1       ID2
     2.24564824E-01    2     1000022        15   # BR(~tau_2 -> ~chi_10  tau-)
     1.54684441E-02    2     1000023        15   # BR(~tau_2 -> ~chi_20  tau-)
     1.49632925E-02    2     1000025        15   # BR(~tau_2 -> ~chi_30  tau-)
     2.48140585E-01    2     1000035        15   # BR(~tau_2 -> ~chi_40  tau-)
     8.29580447E-05    2    -1000024        16   # BR(~tau_2 -> ~chi_1-  nu_tau)
     4.96779897E-01    2    -1000037        16   # BR(~tau_2 -> ~chi_2-  nu_tau)
#
#         PDG            Width
DECAY   1000012     3.02935582E+01   # snu_eL decays
#          BR         NDA      ID1       ID2
     2.25682270E-01    2     1000022        12   # BR(~nu_eL -> ~chi_10 nu_e)
     5.45517106E-07    2     1000023        12   # BR(~nu_eL -> ~chi_20 nu_e)
     9.71588331E-04    2     1000025        12   # BR(~nu_eL -> ~chi_30 nu_e)
     2.57422075E-01    2     1000035        12   # BR(~nu_eL -> ~chi_40 nu_e)
     1.73139928E-03    2     1000024        11   # BR(~nu_eL -> ~chi_1+ e-)
     5.14192122E-01    2     1000037        11   # BR(~nu_eL -> ~chi_2+ e-)
#
#         PDG            Width
DECAY   1000014     3.02935582E+01   # snu_muL decays
#          BR         NDA      ID1       ID2
     2.25682270E-01    2     1000022        14   # BR(~nu_muL -> ~chi_10 nu_mu)
     5.45517106E-07    2     1000023        14   # BR(~nu_muL -> ~chi_20 nu_mu)
     9.71588331E-04    2     1000025        14   # BR(~nu_muL -> ~chi_30 nu_mu)
     2.57422075E-01    2     1000035        14   # BR(~nu_muL -> ~chi_40 nu_mu)
     1.73139928E-03    2     1000024        13   # BR(~nu_muL -> ~chi_1+ mu-)
     5.14192122E-01    2     1000037        13   # BR(~nu_muL -> ~chi_2+ mu-)
#
#         PDG            Width
DECAY   1000016     3.11754216E+01   # snu_tauL decays
#          BR         NDA      ID1       ID2
     2.19274385E-01    2     1000022        16   # BR(~nu_tauL -> ~chi_10 nu_tau)
     5.30022017E-07    2     1000023        16   # BR(~nu_tauL -> ~chi_20 nu_tau)
     9.43990879E-04    2     1000025        16   # BR(~nu_tauL -> ~chi_30 nu_tau)
     2.50047310E-01    2     1000035        16   # BR(~nu_tauL -> ~chi_40 nu_tau)
     3.02730788E-02    2     1000024        15   # BR(~nu_tauL -> ~chi_1+ tau-)
     4.99460705E-01    2     1000037        15   # BR(~nu_tauL -> ~chi_2+ tau-)
#
#         PDG            Width
DECAY   1000024     4.83316896E-01   # chargino1+ decays
#          BR         NDA      ID1       ID2
     1.00000000E+00    2     1000022        24   # BR(~chi_1+ -> ~chi_10  W+)
#
#         PDG            Width
DECAY   1000037     2.11138485E+01   # chargino2+ decays
#          BR         NDA      ID1       ID2
     2.53358522E-01    2     1000024        23   # BR(~chi_2+ -> ~chi_1+  Z )
     1.84735362E-04    2     1000022        24   # BR(~chi_2+ -> ~chi_10  W+)
     2.44405012E-01    2     1000023        24   # BR(~chi_2+ -> ~chi_20  W+)
     2.44221358E-01    2     1000025        24   # BR(~chi_2+ -> ~chi_30  W+)
     2.57828449E-01    2     1000024        25   # BR(~chi_2+ -> ~chi_1+  h )
     1.92330043E-06    2     1000022        37   # BR(~chi_2+ -> ~chi_10  H+)
#
#         PDG            Width
DECAY   1000022     0.00000000E+00   # neutralino1 decays
#
#         PDG            Width
DECAY   1000023     5.01703274E-01   # neutralino2 decays
#          BR         NDA      ID1       ID2
     5.29408236E-01    2     1000022        23   # BR(~chi_20 -> ~chi_10   Z )
     4.70591764E-01    2     1000022        25   # BR(~chi_20 -> ~chi_10   h )
#
#         PDG            Width
DECAY   1000025     5.01498548E-01   # neutralino3 decays
#          BR         NDA      ID1       ID2
     4.69500828E-01    2     1000022        23   # BR(~chi_30 -> ~chi_10   Z )
     5.30499172E-01    2     1000022        25   # BR(~chi_30 -> ~chi_10   h )
#
#         PDG            Width
DECAY   1000035     2.11296043E+01   # neutralino4 decays
#          BR         NDA      ID1       ID2
     3.18515692E-05    2     1000022        23   # BR(~chi_40 -> ~chi_10   Z )
     8.82310796E-02    2     1000023        23   # BR(~chi_40 -> ~chi_20   Z )
     1.64467339E-01    2     1000025        23   # BR(~chi_40 -> ~chi_30   Z )
     2.44942081E-01    2     1000024       -24   # BR(~chi_40 -> ~chi_1+   W-)
     2.44942081E-01    2    -1000024        24   # BR(~chi_40 -> ~chi_1-   W+)
     1.51489933E-04    2     1000022        25   # BR(~chi_40 -> ~chi_10   h )
     1.83185347E-06    2     1000022        35   # BR(~chi_40 -> ~chi_10   H )
     2.13652784E-07    2     1000022        36   # BR(~chi_40 -> ~chi_10   A )
     1.68736826E-01    2     1000023        25   # BR(~chi_40 -> ~chi_20   h )
     8.84952061E-02    2     1000025        25   # BR(~chi_40 -> ~chi_30   h )
#
#         PDG            Width
DECAY        25     4.06403580E-03   # h decays
#          BR         NDA      ID1       ID2
     6.08250108E-01    2           5        -5   # BR(h -> b       bb     )
     6.38326920E-02    2         -15        15   # BR(h -> tau+    tau-   )
     2.25990862E-04    2         -13        13   # BR(h -> mu+     mu-    )
     4.79073852E-04    2           3        -3   # BR(h -> s       sb     )
     2.07583829E-02    2           4        -4   # BR(h -> c       cb     )
     6.71689052E-02    2          21        21   # BR(h -> g       g      )
     2.30958194E-03    2          22        22   # BR(h -> gam     gam    )
     1.49079753E-03    2          22        23   # BR(h -> Z       gam    )
     2.10341666E-01    2          24       -24   # BR(h -> W+      W-     )
     2.50705011E-02    2          23        23   # BR(h -> Z       Z      )
     7.23011067E-05    2     1000022   1000022   # BR(h -> ~chi_10 ~chi_10)
#
#         PDG            Width
DECAY        35     8.36757214E+00   # H decays
#          BR         NDA      ID1       ID2
     3.84110643E-01    2           5        -5   # BR(H -> b       bb     )
     6.65717967E-02    2         -15        15   # BR(H -> tau+    tau-   )
     2.35403161E-04    2         -13        13   # BR(H -> mu+     mu-    )
     2.88568170E-04    2           3        -3   # BR(H -> s       sb     )
     1.61460954E-06    2           4        -4   # BR(H -> c       cb     )
     1.61312283E-01    2           6        -6   # BR(H -> t       tb     )
     5.36234264E-05    2          21        21   # BR(H -> g       g      )
     2.09634520E-07    2          22        22   # BR(H -> gam     gam    )
     9.52339988E-08    2          23        22   # BR(H -> Z       gam    )
     7.53869168E-05    2          24       -24   # BR(H -> W+      W-     )
     3.76457457E-05    2          23        23   # BR(H -> Z       Z      )
     2.77101414E-04    2          25        25   # BR(H -> h       h      )
    -5.66727715E-24    2          36        36   # BR(H -> A       A      )
     6.14194888E-19    2          23        36   # BR(H -> Z       A      )
     2.57765931E-03    2     1000024  -1000024   # BR(H -> ~chi_1+ ~chi_1-)
     2.69811481E-03    2     1000022   1000022   # BR(H -> ~chi_10 ~chi_10)
     4.86876666E-07    2     1000023   1000023   # BR(H -> ~chi_20 ~chi_20)
     1.01758091E-03    2     1000025   1000025   # BR(H -> ~chi_30 ~chi_30)
     2.28943386E-01    2     1000022   1000023   # BR(H -> ~chi_10 ~chi_20)
     1.50735823E-01    2     1000022   1000025   # BR(H -> ~chi_10 ~chi_30)
     1.06257869E-03    2     1000023   1000025   # BR(H -> ~chi_20 ~chi_30)
#
#         PDG            Width
DECAY        36     8.37949733E+00   # A decays
#          BR         NDA      ID1       ID2
     3.83694086E-01    2           5        -5   # BR(A -> b       bb     )
     6.64790184E-02    2         -15        15   # BR(A -> tau+    tau-   )
     2.35074761E-04    2         -13        13   # BR(A -> mu+     mu-    )
     2.88376264E-04    2           3        -3   # BR(A -> s       sb     )
     1.61885406E-06    2           4        -4   # BR(A -> c       cb     )
     1.61647105E-01    2           6        -6   # BR(A -> t       tb     )
     1.59956908E-04    2          21        21   # BR(A -> g       g      )
     5.96184634E-07    2          22        22   # BR(A -> gam     gam    )
     1.93698579E-07    2          23        22   # BR(A -> Z       gam    )
     7.49947329E-05    2          23        25   # BR(A -> Z       h      )
     3.36861133E-03    2     1000024  -1000024   # BR(A -> ~chi_1+ ~chi_1-)
     2.73171214E-03    2     1000022   1000022   # BR(A -> ~chi_10 ~chi_10)
     4.44335210E-07    2     1000023   1000023   # BR(A -> ~chi_20 ~chi_20)
     2.17787199E-03    2     1000025   1000025   # BR(A -> ~chi_30 ~chi_30)
     1.53032889E-01    2     1000022   1000023   # BR(A -> ~chi_10 ~chi_20)
     2.25618873E-01    2     1000022   1000025   # BR(A -> ~chi_10 ~chi_30)
     4.88577628E-04    2     1000023   1000025   # BR(A -> ~chi_20 ~chi_30)
#
#         PDG            Width
DECAY        37     8.33733475E+00   # H+ decays
#          BR         NDA      ID1       ID2
     6.17225452E-04    2           4        -5   # BR(H+ -> c       bb     )
     6.68455702E-02    2         -15        16   # BR(H+ -> tau+    nu_tau )
     2.36370915E-04    2         -13        14   # BR(H+ -> mu+     nu_mu  )
     3.95022236E-06    2           2        -5   # BR(H+ -> u       bb     )
     1.38694610E-05    2           2        -3   # BR(H+ -> u       sb     )
     2.86821683E-04    2           4        -3   # BR(H+ -> c       sb     )
     5.44862096E-01    2           6        -5   # BR(H+ -> t       bb     )
     7.55253996E-05    2          24        25   # BR(H+ -> W+      h      )
     7.42113610E-13    2          24        36   # BR(H+ -> W+      A      )
     3.85594406E-01    2     1000024   1000022   # BR(H+ -> ~chi_1+ ~chi_10)
     1.44000953E-03    2     1000024   1000023   # BR(H+ -> ~chi_1+ ~chi_20)
     2.41549190E-05    2     1000024   1000025   # BR(H+ -> ~chi_1+ ~chi_30)
