#
#                              ======================
#                              | THE SUSYHIT OUTPUT |
#                              ======================
#
#
#              ------------------------------------------------------
#              |     This is the output of the SUSY-HIT package     |
#              |  created by A.Djouadi, M.Muehlleitner and M.Spira. |
#              |  In case of problems with SUSY-HIT email to        |
#              |           margarete.muehlleitner@cern.ch           |
#              |           michael.spira@psi.ch                     |
#              |           abdelhak.djouadi@cern.ch                 |
#              ------------------------------------------------------
#
#              ------------------------------------------------------
#              |  SUSY Les Houches Accord - MSSM Spectrum + Decays  |
#              |              based on the decay programs           |
#              |                                                    |
#              |                     SDECAY 1.3b                    |
#              |                                                    |
#              |  Authors: M.Muhlleitner, A.Djouadi and Y.Mambrini  |
#              |  Ref.:    Comput.Phys.Commun.168(2005)46           |
#              |           [hep-ph/0311167]                         |
#              |                                                    |
#              |                     HDECAY 3.4                     |
#              |                                                    |
#              |  By: A.Djouadi,J.Kalinowski,M.Muhlleitner,M.Spira  |
#              |  Ref.:    Comput.Phys.Commun.108(1998)56           |
#              |           [hep-ph/9704448]                         |
#              |                                                    |
#              |                                                    |
#              |  If not stated otherwise all DRbar couplings and   |
#              |  soft SUSY breaking masses are given at the scale  |
#              |  Q=  0.50007664E+04
#              |                                                    |
#              ------------------------------------------------------
#
#
BLOCK DCINFO  # Decay Program information
     1   SDECAY/HDECAY # decay calculator
     2   1.3b  /3.4    # version number
#
BLOCK SPINFO  # Spectrum calculator information
     1    SOFTSUSY    # spectrum calculator                
     2    3.4.0       # version number                     
#
BLOCK MODSEL  # Model selection
     1     0   #  nonUniversal                                     
#
BLOCK SMINPUTS  # Standard Model inputs
         1     1.25778332E+02   # alpha_em^-1(M_Z)^MSbar
         2     1.16570000E-05   # G_F [GeV^-2]
         3     1.17200002E-01   # alpha_S(M_Z)^MSbar
         4     9.11876000E+01   # M_Z pole mass
         5     4.25000000E+00   # mb(mb)^MSbar
         6     1.72500000E+02   # mt pole mass
         7     1.77682000E+00   # mtau pole mass
#
BLOCK MINPAR  # Input parameters - minimal models
         3     1.00000000E+01   # tanb                
#
BLOCK EXTPAR  # Input parameters - non-minimal models
         0    -1.00000000E+00   # Set                 
         1     6.00000000E+01   # M_1(MX)             
         2     3.00000000E+03   # M_2(MX)             
         3     2.04381300E+03   # M_3(MX)             
        11     5.00000000E+03   # At(MX)              
        12     5.00000000E+03   # Ab(MX)              
        13     0.00000000E+00   # Atau(MX)            
        23    -3.78676000E+02   # mu(MX)              
        26     3.00000000E+03   # mA(pole)            
        31     5.00000000E+03   # meL(MX)             
        32     5.00000000E+03   # mmuL(MX)            
        33     5.00000000E+03   # mtauL(MX)           
        34     5.00000000E+03   # meR(MX)             
        35     5.00000000E+03   # mmuR(MX)            
        36     5.00000000E+03   # mtauR(MX)           
        41     5.00000000E+03   # mqL1(MX)            
        42     5.00000000E+03   # mqL2(MX)            
        43     5.00000000E+03   # mqL3(MX)            
        44     5.00000000E+03   # muR(MX)             
        45     5.00000000E+03   # mcR(MX)             
        46     5.00000000E+03   # mtR(MX)             
        47     5.00000000E+03   # mdR(MX)             
        48     5.00000000E+03   # msR(MX)             
        49     5.00000000E+03   # mbR(MX)             
#
BLOCK MASS  # Mass Spectrum
# PDG code           mass       particle
        24     8.00926241E+01   # W+
        25     1.24794975E+02   # h
        35     3.00008736E+03   # H
        36     2.99999960E+03   # A
        37     3.00145191E+03   # H+
         5     4.87878001E+00   # b-quark pole mass calculated from mb(mb)_Msbar
   1000001     5.07814797E+03   # ~d_L
   2000001     5.06031498E+03   # ~d_R
   1000002     5.07767524E+03   # ~u_L
   2000002     5.06001225E+03   # ~u_R
   1000003     5.07814797E+03   # ~s_L
   2000003     5.06031498E+03   # ~s_R
   1000004     5.07767524E+03   # ~c_L
   2000004     5.06001225E+03   # ~c_R
   1000005     5.02400866E+03   # ~b_1
   2000005     5.05848538E+03   # ~b_2
   1000006     4.91569830E+03   # ~t_1
   2000006     5.06715431E+03   # ~t_2
   1000011     5.01912052E+03   # ~e_L
   2000011     5.00594852E+03   # ~e_R
   1000012     5.01816981E+03   # ~nu_eL
   1000013     5.01912052E+03   # ~mu_L
   2000013     5.00594852E+03   # ~mu_R
   1000014     5.01816981E+03   # ~nu_muL
   1000015     5.00479690E+03   # ~tau_1
   2000015     5.01862161E+03   # ~tau_2
   1000016     5.01761712E+03   # ~nu_tauL
   1000021     2.40000077E+03   # ~g
   1000022     6.00913655E+01   # ~chi_10
   1000023     4.01022566E+02   # ~chi_20
   1000025    -4.03142294E+02   # ~chi_30
   1000035     3.07418860E+03   # ~chi_40
   1000024     4.00001018E+02   # ~chi_1+
   1000037     3.07435639E+03   # ~chi_2+
#
BLOCK NMIX  # Neutralino Mixing Matrix
  1  1     9.93745876E-01   # N_11
  1  2     1.92582434E-04   # N_12
  1  3    -1.11538674E-01   # N_13
  1  4    -5.31227800E-03   # N_14
  2  1     8.26699722E-02   # N_21
  2  2     1.83216695E-02   # N_22
  2  3     7.02939956E-01   # N_23
  2  4     7.06190774E-01   # N_24
  3  1    -7.50643402E-02   # N_31
  3  2     1.75060733E-02   # N_32
  3  3    -7.02448737E-01   # N_33
  3  4     7.07548341E-01   # N_34
  4  1    -3.92073976E-04   # N_41
  4  2     9.99678857E-01   # N_42
  4  3    -5.60614118E-04   # N_43
  4  4    -2.53320992E-02   # N_44
#
BLOCK UMIX  # Chargino Mixing Matrix U
  1  1     7.96402018E-04   # U_11
  1  2     9.99999683E-01   # U_12
  2  1    -9.99999683E-01   # U_21
  2  2     7.96402018E-04   # U_22
#
BLOCK VMIX  # Chargino Mixing Matrix V
  1  1     3.58402331E-02   # V_11
  1  2    -9.99357532E-01   # V_12
  2  1    -9.99357532E-01   # V_21
  2  2    -3.58402331E-02   # V_22
#
BLOCK STOPMIX  # Stop Mixing Matrix
  1  1    -5.01754776E-01   # cos(theta_t)
  1  2     8.65009910E-01   # sin(theta_t)
  2  1    -8.65009910E-01   # -sin(theta_t)
  2  2    -5.01754776E-01   # cos(theta_t)
#
BLOCK SBOTMIX  # Sbottom Mixing Matrix
  1  1     9.99011387E-01   # cos(theta_b)
  1  2    -4.44550182E-02   # sin(theta_b)
  2  1     4.44550182E-02   # -sin(theta_b)
  2  2     9.99011387E-01   # cos(theta_b)
#
BLOCK STAUMIX  # Stau Mixing Matrix
  1  1    -4.53443080E-02   # cos(theta_tau)
  1  2     9.98971418E-01   # sin(theta_tau)
  2  1    -9.98971418E-01   # -sin(theta_tau)
  2  2    -4.53443080E-02   # cos(theta_tau)
#
BLOCK ALPHA  # Higgs mixing
          -1.05494185E-01   # Mixing angle in the neutral Higgs boson sector
#
BLOCK HMIX Q=  5.00076638E+03  # DRbar Higgs Parameters
         1    -3.85614780E+02   # mu(Q)MSSM           
         2     9.46857351E+00   # tan                 
         3     2.41722921E+02   # higgs               
         4     8.71457774E+06   # mA^2(Q)MSSM         
#
BLOCK GAUGE Q=  5.00076638E+03  # The gauge couplings
     1     3.70998285E-01   # gprime(Q) DRbar
     2     6.33555396E-01   # g(Q) DRbar
     3     9.95821597E-01   # g3(Q) DRbar
#
BLOCK AU Q=  5.00076638E+03  # The trilinear couplings
  1  1     5.00000002E+03   # A_u(Q) DRbar
  2  2     5.00000002E+03   # A_c(Q) DRbar
  3  3     5.00000002E+03   # A_t(Q) DRbar
#
BLOCK AD Q=  5.00076638E+03  # The trilinear couplings
  1  1     5.00000001E+03   # A_d(Q) DRbar
  2  2     5.00000001E+03   # A_s(Q) DRbar
  3  3     5.00000001E+03   # A_b(Q) DRbar
#
BLOCK AE Q=  5.00076638E+03  # The trilinear couplings
  1  1     0.00000000E+00   # A_e(Q) DRbar
  2  2     2.31614615E-07   # A_mu(Q) DRbar
  3  3     2.31480107E-07   # A_tau(Q) DRbar
#
BLOCK Yu Q=  5.00076638E+03  # The Yukawa couplings
  1  1     0.00000000E+00   # y_u(Q) DRbar
  2  2     0.00000000E+00   # y_c(Q) DRbar
  3  3     8.21268945E-01   # y_t(Q) DRbar
#
BLOCK Yd Q=  5.00076638E+03  # The Yukawa couplings
  1  1     0.00000000E+00   # y_d(Q) DRbar
  2  2     0.00000000E+00   # y_s(Q) DRbar
  3  3     1.30152486E-01   # y_b(Q) DRbar
#
BLOCK Ye Q=  5.00076638E+03  # The Yukawa couplings
  1  1     0.00000000E+00   # y_e(Q) DRbar
  2  2     0.00000000E+00   # y_mu(Q) DRbar
  3  3     9.72023425E-02   # y_tau(Q) DRbar
#
BLOCK MSOFT Q=  5.00076638E+03  # The soft SUSY breaking masses at the scale Q
         1     6.00000000E+01   # M_1(Q)              
         2     3.00000000E+03   # M_2(Q)              
         3     2.04381300E+03   # M_3(Q)              
        21     8.57927341E+06   # mH1^2(Q)            
        22     4.30156523E+05   # mH2^2(Q)            
        31     5.00000000E+03   # meL(Q)              
        32     5.00000000E+03   # mmuL(Q)             
        33     5.00000000E+03   # mtauL(Q)            
        34     5.00000000E+03   # meR(Q)              
        35     5.00000000E+03   # mmuR(Q)             
        36     5.00000000E+03   # mtauR(Q)            
        41     5.00000000E+03   # mqL1(Q)             
        42     5.00000000E+03   # mqL2(Q)             
        43     4.99999999E+03   # mqL3(Q)             
        44     5.00000000E+03   # muR(Q)              
        45     5.00000000E+03   # mcR(Q)              
        46     4.99999999E+03   # mtR(Q)              
        47     5.00000000E+03   # mdR(Q)              
        48     5.00000000E+03   # msR(Q)              
        49     5.00000000E+03   # mbR(Q)              
#
#
#
#                             =================
#                             |The decay table|
#                             =================
#
# - The QCD corrections to the decays gluino -> squark  + quark
#                                     squark -> gaugino + quark_prime
#                                     squark -> squark_prime + Higgs
#                                     squark -> gluino  + quark
#   are included.
#
# - The multi-body decays for the inos, stops and sbottoms are included.
#
# - The loop induced decays for the gluino, neutralinos and stops
#   are included.
#
# - The SUSY decays of the top quark are included.
#
#
#         PDG            Width
DECAY         6     1.40671948E+00   # top decays
#          BR         NDA      ID1       ID2
     1.00000000E+00    2           5        24   # BR(t ->  b    W+)
#
#         PDG            Width
DECAY   1000021     6.08261147E-03   # gluino decays
#          BR         NDA      ID1       ID2
     3.43194145E-08    2     1000022        21   # BR(~g -> ~chi_10 g)
     4.45633686E-03    2     1000023        21   # BR(~g -> ~chi_20 g)
     4.32602665E-03    2     1000025        21   # BR(~g -> ~chi_30 g)
#           BR         NDA      ID1       ID2       ID3
     9.90507772E-03    3     1000022         1        -1   # BR(~g -> ~chi_10 d  db)
     5.42944459E-05    3     1000023         1        -1   # BR(~g -> ~chi_20 d  db)
     5.88793278E-05    3     1000025         1        -1   # BR(~g -> ~chi_30 d  db)
     3.37772044E-02    3     1000022         2        -2   # BR(~g -> ~chi_10 u  ub)
     2.76948661E-04    3     1000023         2        -2   # BR(~g -> ~chi_20 u  ub)
     1.08051281E-04    3     1000025         2        -2   # BR(~g -> ~chi_30 u  ub)
     9.90507772E-03    3     1000022         3        -3   # BR(~g -> ~chi_10 s  sb)
     5.42944459E-05    3     1000023         3        -3   # BR(~g -> ~chi_20 s  sb)
     5.88793278E-05    3     1000025         3        -3   # BR(~g -> ~chi_30 s  sb)
     3.37772044E-02    3     1000022         4        -4   # BR(~g -> ~chi_10 c  cb)
     2.76948661E-04    3     1000023         4        -4   # BR(~g -> ~chi_20 c  cb)
     1.08051281E-04    3     1000025         4        -4   # BR(~g -> ~chi_30 c  cb)
     1.02021407E-02    3     1000022         5        -5   # BR(~g -> ~chi_10 b  bb)
     5.34281750E-03    3     1000023         5        -5   # BR(~g -> ~chi_20 b  bb)
     5.32565739E-03    3     1000025         5        -5   # BR(~g -> ~chi_30 b  bb)
     3.38141839E-02    3     1000022         6        -6   # BR(~g -> ~chi_10 t  tb)
     2.10979667E-01    3     1000023         6        -6   # BR(~g -> ~chi_20 t  tb)
     2.00357713E-01    3     1000025         6        -6   # BR(~g -> ~chi_30 t  tb)
     5.33858298E-05    3     1000024         1        -2   # BR(~g -> ~chi_1+ d  ub)
     5.33858298E-05    3    -1000024         2        -1   # BR(~g -> ~chi_1- u  db)
     5.33858298E-05    3     1000024         3        -4   # BR(~g -> ~chi_1+ s  cb)
     5.33858298E-05    3    -1000024         4        -3   # BR(~g -> ~chi_1- c  sb)
     2.18310484E-01    3     1000024         5        -6   # BR(~g -> ~chi_1+ b  tb)
     2.18310484E-01    3    -1000024         6        -5   # BR(~g -> ~chi_1- t  bb)
#
#         PDG            Width
DECAY   1000006     3.12327792E+02   # stop1 decays
#          BR         NDA      ID1       ID2
     2.78868529E-02    2     1000022         6   # BR(~t_1 -> ~chi_10 t )
     1.06557411E-01    2     1000023         6   # BR(~t_1 -> ~chi_20 t )
     9.98056201E-02    2     1000025         6   # BR(~t_1 -> ~chi_30 t )
     6.43479350E-03    2     1000035         6   # BR(~t_1 -> ~chi_40 t )
     1.54484667E-01    2     1000024         5   # BR(~t_1 -> ~chi_1+ b )
     1.28279489E-02    2     1000037         5   # BR(~t_1 -> ~chi_2+ b )
     5.92002707E-01    2     1000021         6   # BR(~t_1 -> ~g      t )
#
#         PDG            Width
DECAY   2000006     3.18342802E+02   # stop2 decays
#          BR         NDA      ID1       ID2
     1.09873323E-02    2     1000022         6   # BR(~t_2 -> ~chi_10 t )
     1.03051515E-01    2     1000023         6   # BR(~t_2 -> ~chi_20 t )
     1.10532417E-01    2     1000025         6   # BR(~t_2 -> ~chi_30 t )
     1.78158572E-02    2     1000035         6   # BR(~t_2 -> ~chi_40 t )
     6.02355790E-02    2     1000024         5   # BR(~t_2 -> ~chi_1+ b )
     3.54770557E-02    2     1000037         5   # BR(~t_2 -> ~chi_2+ b )
     6.58187905E-01    2     1000021         6   # BR(~t_2 -> ~g      t )
     8.63649842E-04    2     1000006        25   # BR(~t_2 -> ~t_1    h )
     2.84868972E-03    2     1000006        23   # BR(~t_2 -> ~t_1    Z )
#
#         PDG            Width
DECAY   1000005     2.92748334E+02   # sbottom1 decays
#          BR         NDA      ID1       ID2
     2.67505526E-03    2     1000022         5   # BR(~b_1 -> ~chi_10 b )
     2.79366255E-03    2     1000023         5   # BR(~b_1 -> ~chi_20 b )
     2.82107628E-03    2     1000025         5   # BR(~b_1 -> ~chi_30 b )
     2.60502418E-02    2     1000035         5   # BR(~b_1 -> ~chi_40 b )
     2.26958982E-01    2    -1000024         6   # BR(~b_1 -> ~chi_1- t )
     5.22993264E-02    2    -1000037         6   # BR(~b_1 -> ~chi_2- t )
     6.84556821E-01    2     1000021         5   # BR(~b_1 -> ~g      b )
     1.84483518E-03    2     1000006       -24   # BR(~b_1 -> ~t_1    W-)
#
#         PDG            Width
DECAY   2000005     2.09668307E+02   # sbottom2 decays
#          BR         NDA      ID1       ID2
     1.39361092E-02    2     1000022         5   # BR(~b_2 -> ~chi_10 b )
     4.11983620E-03    2     1000023         5   # BR(~b_2 -> ~chi_20 b )
     4.14686916E-03    2     1000025         5   # BR(~b_2 -> ~chi_30 b )
     6.45652050E-05    2     1000035         5   # BR(~b_2 -> ~chi_40 b )
     8.58973824E-03    2    -1000024         6   # BR(~b_2 -> ~chi_1- t )
     1.29645712E-04    2    -1000037         6   # BR(~b_2 -> ~chi_2- t )
     9.68991751E-01    2     1000021         5   # BR(~b_2 -> ~g      b )
     2.14850164E-05    2     1000006       -24   # BR(~b_2 -> ~t_1    W-)
#
#         PDG            Width
DECAY   1000002     2.29277044E+02   # sup_L decays
#          BR         NDA      ID1       ID2
     3.21966857E-03    2     1000022         2   # BR(~u_L -> ~chi_10 u)
     1.00265774E-04    2     1000023         2   # BR(~u_L -> ~chi_20 u)
     6.87717239E-07    2     1000025         2   # BR(~u_L -> ~chi_30 u)
     3.45121498E-02    2     1000035         2   # BR(~u_L -> ~chi_40 u)
     2.16951362E-04    2     1000024         1   # BR(~u_L -> ~chi_1+ d)
     6.89818521E-02    2     1000037         1   # BR(~u_L -> ~chi_2+ d)
     8.92968425E-01    2     1000021         2   # BR(~u_L -> ~g      u)
#
#         PDG            Width
DECAY   2000002     2.15097473E+02   # sup_R decays
#          BR         NDA      ID1       ID2
     5.46077608E-02    2     1000022         2   # BR(~u_R -> ~chi_10 u)
     3.73648226E-04    2     1000023         2   # BR(~u_R -> ~chi_20 u)
     3.08019900E-04    2     1000025         2   # BR(~u_R -> ~chi_30 u)
     3.41049962E-09    2     1000035         2   # BR(~u_R -> ~chi_40 u)
     9.44710568E-01    2     1000021         2   # BR(~u_R -> ~g      u)
#
#         PDG            Width
DECAY   1000001     2.29292484E+02   # sdown_L decays
#          BR         NDA      ID1       ID2
     3.20699542E-03    2     1000022         1   # BR(~d_L -> ~chi_10 d)
     4.03162983E-07    2     1000023         1   # BR(~d_L -> ~chi_20 d)
     8.73180411E-05    2     1000025         1   # BR(~d_L -> ~chi_30 d)
     3.45310001E-02    2     1000035         1   # BR(~d_L -> ~chi_40 d)
     1.07126824E-07    2    -1000024         2   # BR(~d_L -> ~chi_1- u)
     6.90871003E-02    2    -1000037         2   # BR(~d_L -> ~chi_2- u)
     8.93087076E-01    2     1000021         1   # BR(~d_L -> ~g      d)
#
#         PDG            Width
DECAY   2000001     2.06204464E+02   # sdown_R decays
#          BR         NDA      ID1       ID2
     1.42415765E-02    2     1000022         1   # BR(~d_R -> ~chi_10 d)
     9.74467161E-05    2     1000023         1   # BR(~d_R -> ~chi_20 d)
     8.03309799E-05    2     1000025         1   # BR(~d_R -> ~chi_30 d)
     8.89573112E-10    2     1000035         1   # BR(~d_R -> ~chi_40 d)
     9.85580645E-01    2     1000021         1   # BR(~d_R -> ~g      d)
#
#         PDG            Width
DECAY   1000004     2.29277044E+02   # scharm_L decays
#          BR         NDA      ID1       ID2
     3.21966857E-03    2     1000022         4   # BR(~c_L -> ~chi_10 c)
     1.00265774E-04    2     1000023         4   # BR(~c_L -> ~chi_20 c)
     6.87717239E-07    2     1000025         4   # BR(~c_L -> ~chi_30 c)
     3.45121498E-02    2     1000035         4   # BR(~c_L -> ~chi_40 c)
     2.16951362E-04    2     1000024         3   # BR(~c_L -> ~chi_1+ s)
     6.89818521E-02    2     1000037         3   # BR(~c_L -> ~chi_2+ s)
     8.92968425E-01    2     1000021         4   # BR(~c_L -> ~g      c)
#
#         PDG            Width
DECAY   2000004     2.15097473E+02   # scharm_R decays
#          BR         NDA      ID1       ID2
     5.46077608E-02    2     1000022         4   # BR(~c_R -> ~chi_10 c)
     3.73648226E-04    2     1000023         4   # BR(~c_R -> ~chi_20 c)
     3.08019900E-04    2     1000025         4   # BR(~c_R -> ~chi_30 c)
     3.41049962E-09    2     1000035         4   # BR(~c_R -> ~chi_40 c)
     9.44710568E-01    2     1000021         4   # BR(~c_R -> ~g      c)
#
#         PDG            Width
DECAY   1000003     2.29292484E+02   # sstrange_L decays
#          BR         NDA      ID1       ID2
     3.20699542E-03    2     1000022         3   # BR(~s_L -> ~chi_10 s)
     4.03162983E-07    2     1000023         3   # BR(~s_L -> ~chi_20 s)
     8.73180411E-05    2     1000025         3   # BR(~s_L -> ~chi_30 s)
     3.45310001E-02    2     1000035         3   # BR(~s_L -> ~chi_40 s)
     1.07126824E-07    2    -1000024         4   # BR(~s_L -> ~chi_1- c)
     6.90871003E-02    2    -1000037         4   # BR(~s_L -> ~chi_2- c)
     8.93087076E-01    2     1000021         3   # BR(~s_L -> ~g      s)
#
#         PDG            Width
DECAY   2000003     2.06204464E+02   # sstrange_R decays
#          BR         NDA      ID1       ID2
     1.42415765E-02    2     1000022         3   # BR(~s_R -> ~chi_10 s)
     9.74467161E-05    2     1000023         3   # BR(~s_R -> ~chi_20 s)
     8.03309799E-05    2     1000025         3   # BR(~s_R -> ~chi_30 s)
     8.89573112E-10    2     1000035         3   # BR(~s_R -> ~chi_40 s)
     9.85580645E-01    2     1000021         3   # BR(~s_R -> ~g      s)
#
#         PDG            Width
DECAY   1000011     3.03529797E+01   # selectron_L decays
#          BR         NDA      ID1       ID2
     2.23657682E-01    2     1000022        11   # BR(~e_L -> ~chi_10 e-)
     2.90266504E-03    2     1000023        11   # BR(~e_L -> ~chi_20 e-)
     4.55965586E-04    2     1000025        11   # BR(~e_L -> ~chi_30 e-)
     2.57494351E-01    2     1000035        11   # BR(~e_L -> ~chi_40 e-)
     8.26905751E-07    2    -1000024        12   # BR(~e_L -> ~chi_1- nu_e)
     5.15488510E-01    2    -1000037        12   # BR(~e_L -> ~chi_2- nu_e)
#
#         PDG            Width
DECAY   2000011     2.74029323E+01   # selectron_R decays
#          BR         NDA      ID1       ID2
     9.87685769E-01    2     1000022        11   # BR(~e_R -> ~chi_10 e-)
     6.74989085E-03    2     1000023        11   # BR(~e_R -> ~chi_20 e-)
     5.56428086E-03    2     1000025        11   # BR(~e_R -> ~chi_30 e-)
     5.96660885E-08    2     1000035        11   # BR(~e_R -> ~chi_40 e-)
#
#         PDG            Width
DECAY   1000013     3.03529797E+01   # smuon_L decays
#          BR         NDA      ID1       ID2
     2.23657682E-01    2     1000022        13   # BR(~mu_L -> ~chi_10 mu-)
     2.90266504E-03    2     1000023        13   # BR(~mu_L -> ~chi_20 mu-)
     4.55965586E-04    2     1000025        13   # BR(~mu_L -> ~chi_30 mu-)
     2.57494351E-01    2     1000035        13   # BR(~mu_L -> ~chi_40 mu-)
     8.26905751E-07    2    -1000024        14   # BR(~mu_L -> ~chi_1- nu_mu)
     5.15488510E-01    2    -1000037        14   # BR(~mu_L -> ~chi_2- nu_mu)
#
#         PDG            Width
DECAY   2000013     2.74029323E+01   # smuon_R decays
#          BR         NDA      ID1       ID2
     9.87685769E-01    2     1000022        13   # BR(~mu_R -> ~chi_10 mu-)
     6.74989085E-03    2     1000023        13   # BR(~mu_R -> ~chi_20 mu-)
     5.56428086E-03    2     1000025        13   # BR(~mu_R -> ~chi_30 mu-)
     5.96660885E-08    2     1000035        13   # BR(~mu_R -> ~chi_40 mu-)
#
#         PDG            Width
DECAY   1000015     2.92585340E+01   # stau_1 decays
#          BR         NDA      ID1       ID2
     9.24677559E-01    2     1000022        15   # BR(~tau_1 -> ~chi_10  tau-)
     2.17161882E-02    2     1000023        15   # BR(~tau_1 -> ~chi_20  tau-)
     2.02892861E-02    2     1000025        15   # BR(~tau_1 -> ~chi_30  tau-)
     5.41058082E-04    2     1000035        15   # BR(~tau_1 -> ~chi_40  tau-)
     3.16928899E-02    2    -1000024        16   # BR(~tau_1 -> ~chi_1-  nu_tau)
     1.08301865E-03    2    -1000037        16   # BR(~tau_1 -> ~chi_2-  nu_tau)
#
#         PDG            Width
DECAY   2000015     3.12710793E+01   # stau_2 decays
#          BR         NDA      ID1       ID2
     2.17965687E-01    2     1000022        15   # BR(~tau_2 -> ~chi_10  tau-)
     1.78035137E-02    2     1000023        15   # BR(~tau_2 -> ~chi_20  tau-)
     1.56819759E-02    2     1000025        15   # BR(~tau_2 -> ~chi_30  tau-)
     2.49338800E-01    2     1000035        15   # BR(~tau_2 -> ~chi_40  tau-)
     4.80341822E-05    2    -1000024        16   # BR(~tau_2 -> ~chi_1-  nu_tau)
     4.99161989E-01    2    -1000037        16   # BR(~tau_2 -> ~chi_2-  nu_tau)
#
#         PDG            Width
DECAY   1000012     3.03561744E+01   # snu_eL decays
#          BR         NDA      ID1       ID2
     2.23295970E-01    2     1000022        12   # BR(~nu_eL -> ~chi_10 nu_e)
     5.89928069E-04    2     1000023        12   # BR(~nu_eL -> ~chi_20 nu_e)
     2.46128603E-03    2     1000025        12   # BR(~nu_eL -> ~chi_30 nu_e)
     2.57537846E-01    2     1000035        12   # BR(~nu_eL -> ~chi_40 nu_e)
     1.67418280E-03    2     1000024        11   # BR(~nu_eL -> ~chi_1+ e-)
     5.14440788E-01    2     1000037        11   # BR(~nu_eL -> ~chi_2+ e-)
#
#         PDG            Width
DECAY   1000014     3.03561744E+01   # snu_muL decays
#          BR         NDA      ID1       ID2
     2.23295970E-01    2     1000022        14   # BR(~nu_muL -> ~chi_10 nu_mu)
     5.89928069E-04    2     1000023        14   # BR(~nu_muL -> ~chi_20 nu_mu)
     2.46128603E-03    2     1000025        14   # BR(~nu_muL -> ~chi_30 nu_mu)
     2.57537846E-01    2     1000035        14   # BR(~nu_muL -> ~chi_40 nu_mu)
     1.67418280E-03    2     1000024        13   # BR(~nu_muL -> ~chi_1+ mu-)
     5.14440788E-01    2     1000037        13   # BR(~nu_muL -> ~chi_2+ mu-)
#
#         PDG            Width
DECAY   1000016     3.12778399E+01   # snu_tauL decays
#          BR         NDA      ID1       ID2
     2.16692215E-01    2     1000022        16   # BR(~nu_tauL -> ~chi_10 nu_tau)
     5.72479951E-04    2     1000023        16   # BR(~nu_tauL -> ~chi_20 nu_tau)
     2.38848928E-03    2     1000025        16   # BR(~nu_tauL -> ~chi_30 nu_tau)
     2.49855286E-01    2     1000035        16   # BR(~nu_tauL -> ~chi_40 nu_tau)
     3.13973416E-02    2     1000024        15   # BR(~nu_tauL -> ~chi_1+ tau-)
     4.99094188E-01    2     1000037        15   # BR(~nu_tauL -> ~chi_2+ tau-)
#
#         PDG            Width
DECAY   1000024     2.29922946E-01   # chargino1+ decays
#          BR         NDA      ID1       ID2
     1.00000000E+00    2     1000022        24   # BR(~chi_1+ -> ~chi_10  W+)
#
#         PDG            Width
DECAY   1000037     2.25229158E+01   # chargino2+ decays
#          BR         NDA      ID1       ID2
     2.53606371E-01    2     1000024        23   # BR(~chi_2+ -> ~chi_1+  Z )
     1.38119306E-04    2     1000022        24   # BR(~chi_2+ -> ~chi_10  W+)
     2.45210746E-01    2     1000023        24   # BR(~chi_2+ -> ~chi_20  W+)
     2.44430695E-01    2     1000025        24   # BR(~chi_2+ -> ~chi_30  W+)
     2.56605834E-01    2     1000024        25   # BR(~chi_2+ -> ~chi_1+  h )
     8.23406932E-06    2     1000022        37   # BR(~chi_2+ -> ~chi_10  H+)
#
#         PDG            Width
DECAY   1000022     0.00000000E+00   # neutralino1 decays
#
#         PDG            Width
DECAY   1000023     2.27172347E-01   # neutralino2 decays
#          BR         NDA      ID1       ID2
     4.94363710E-01    2     1000022        23   # BR(~chi_20 -> ~chi_10   Z )
     5.05636290E-01    2     1000022        25   # BR(~chi_20 -> ~chi_10   h )
#
#         PDG            Width
DECAY   1000025     2.16595531E-01   # neutralino3 decays
#          BR         NDA      ID1       ID2
     5.81761255E-01    2     1000022        23   # BR(~chi_30 -> ~chi_10   Z )
     4.18238745E-01    2     1000022        25   # BR(~chi_30 -> ~chi_10   h )
#
#         PDG            Width
DECAY   1000035     2.25297900E+01   # neutralino4 decays
#          BR         NDA      ID1       ID2
     2.15552455E-06    2     1000022        23   # BR(~chi_40 -> ~chi_10   Z )
     1.20957471E-01    2     1000023        23   # BR(~chi_40 -> ~chi_20   Z )
     1.32332505E-01    2     1000025        23   # BR(~chi_40 -> ~chi_30   Z )
     2.45203751E-01    2     1000024       -24   # BR(~chi_40 -> ~chi_1+   W-)
     2.45203751E-01    2    -1000024        24   # BR(~chi_40 -> ~chi_1-   W+)
     1.25390082E-04    2     1000022        25   # BR(~chi_40 -> ~chi_10   h )
     7.94144073E-06    2     1000022        35   # BR(~chi_40 -> ~chi_10   H )
     8.50754463E-07    2     1000022        36   # BR(~chi_40 -> ~chi_10   A )
     1.34949413E-01    2     1000023        25   # BR(~chi_40 -> ~chi_20   h )
     1.21216771E-01    2     1000025        25   # BR(~chi_40 -> ~chi_30   h )
#
#         PDG            Width
DECAY        25     4.07461893E-03   # h decays
#          BR         NDA      ID1       ID2
     6.09100936E-01    2           5        -5   # BR(h -> b       bb     )
     6.36740132E-02    2         -15        15   # BR(h -> tau+    tau-   )
     2.25429064E-04    2         -13        13   # BR(h -> mu+     mu-    )
     4.77879455E-04    2           3        -3   # BR(h -> s       sb     )
     2.07049757E-02    2           4        -4   # BR(h -> c       cb     )
     6.70010529E-02    2          21        21   # BR(h -> g       g      )
     2.30295476E-03    2          22        22   # BR(h -> gam     gam    )
     1.48734980E-03    2          22        23   # BR(h -> Z       gam    )
     2.09946109E-01    2          24       -24   # BR(h -> W+      W-     )
     2.50178106E-02    2          23        23   # BR(h -> Z       Z      )
     6.14885715E-05    2     1000022   1000022   # BR(h -> ~chi_10 ~chi_10)
#
#         PDG            Width
DECAY        35     8.72781945E+00   # H decays
#          BR         NDA      ID1       ID2
     3.64523587E-01    2           5        -5   # BR(H -> b       bb     )
     6.38146202E-02    2         -15        15   # BR(H -> tau+    tau-   )
     2.25653566E-04    2         -13        13   # BR(H -> mu+     mu-    )
     2.76616593E-04    2           3        -3   # BR(H -> s       sb     )
     1.54831950E-06    2           4        -4   # BR(H -> c       cb     )
     1.54689387E-01    2           6        -6   # BR(H -> t       tb     )
     5.14613124E-05    2          21        21   # BR(H -> g       g      )
     1.39986974E-07    2          22        22   # BR(H -> gam     gam    )
     9.12818271E-08    2          23        22   # BR(H -> Z       gam    )
     7.45934631E-05    2          24       -24   # BR(H -> W+      W-     )
     3.72495132E-05    2          23        23   # BR(H -> Z       Z      )
     2.68456955E-04    2          25        25   # BR(H -> h       h      )
     3.05896453E-23    2          36        36   # BR(H -> A       A      )
     1.00790673E-18    2          23        36   # BR(H -> Z       A      )
     3.30516039E-03    2     1000024  -1000024   # BR(H -> ~chi_1+ ~chi_1-)
     1.04839958E-02    2     1000022   1000022   # BR(H -> ~chi_10 ~chi_10)
     1.10148760E-03    2     1000023   1000023   # BR(H -> ~chi_20 ~chi_20)
     3.42890493E-03    2     1000025   1000025   # BR(H -> ~chi_30 ~chi_30)
     2.38984702E-01    2     1000022   1000023   # BR(H -> ~chi_10 ~chi_20)
     1.53413495E-01    2     1000022   1000025   # BR(H -> ~chi_10 ~chi_30)
     5.31884970E-03    2     1000023   1000025   # BR(H -> ~chi_20 ~chi_30)
#
#         PDG            Width
DECAY        36     8.73383219E+00   # A decays
#          BR         NDA      ID1       ID2
     3.64397179E-01    2           5        -5   # BR(A -> b       bb     )
     6.37725763E-02    2         -15        15   # BR(A -> tau+    tau-   )
     2.25504580E-04    2         -13        13   # BR(A -> mu+     mu-    )
     2.76636108E-04    2           3        -3   # BR(A -> s       sb     )
     1.55340655E-06    2           4        -4   # BR(A -> c       cb     )
     1.55111988E-01    2           6        -6   # BR(A -> t       tb     )
     1.53480601E-04    2          21        21   # BR(A -> g       g      )
     5.82712719E-07    2          22        22   # BR(A -> gam     gam    )
     1.85772662E-07    2          23        22   # BR(A -> Z       gam    )
     7.42597822E-05    2          23        25   # BR(A -> Z       h      )
     3.52257056E-03    2     1000024  -1000024   # BR(A -> ~chi_1+ ~chi_1-)
     1.02846152E-02    2     1000022   1000022   # BR(A -> ~chi_10 ~chi_10)
     7.73868242E-04    2     1000023   1000023   # BR(A -> ~chi_20 ~chi_20)
     5.66496473E-03    2     1000025   1000025   # BR(A -> ~chi_30 ~chi_30)
     1.57104361E-01    2     1000022   1000023   # BR(A -> ~chi_10 ~chi_20)
     2.34424170E-01    2     1000022   1000025   # BR(A -> ~chi_10 ~chi_30)
     4.21150499E-03    2     1000023   1000025   # BR(A -> ~chi_20 ~chi_30)
#
#         PDG            Width
DECAY        37     8.67956203E+00   # H+ decays
#          BR         NDA      ID1       ID2
     5.84688445E-04    2           4        -5   # BR(H+ -> c       bb     )
     6.42023887E-02    2         -15        16   # BR(H+ -> tau+    nu_tau )
     2.27024429E-04    2         -13        14   # BR(H+ -> mu+     nu_mu  )
     3.74198638E-06    2           2        -5   # BR(H+ -> u       bb     )
     1.33209878E-05    2           2        -3   # BR(H+ -> u       sb     )
     2.75479651E-04    2           4        -3   # BR(H+ -> c       sb     )
     5.18287761E-01    2           6        -5   # BR(H+ -> t       bb     )
     7.48809145E-05    2          24        25   # BR(H+ -> W+      h      )
     9.78159468E-13    2          24        36   # BR(H+ -> W+      A      )
     4.10362127E-01    2     1000024   1000022   # BR(H+ -> ~chi_1+ ~chi_10)
     5.22197485E-03    2     1000024   1000023   # BR(H+ -> ~chi_1+ ~chi_20)
     7.46611949E-04    2     1000024   1000025   # BR(H+ -> ~chi_1+ ~chi_30)
