#
#                              ======================
#                              | THE SUSYHIT OUTPUT |
#                              ======================
#
#
#              ------------------------------------------------------
#              |     This is the output of the SUSY-HIT package     |
#              |  created by A.Djouadi, M.Muehlleitner and M.Spira. |
#              |  In case of problems with SUSY-HIT email to        |
#              |           margarete.muehlleitner@cern.ch           |
#              |           michael.spira@psi.ch                     |
#              |           abdelhak.djouadi@cern.ch                 |
#              ------------------------------------------------------
#
#              ------------------------------------------------------
#              |  SUSY Les Houches Accord - MSSM Spectrum + Decays  |
#              |              based on the decay programs           |
#              |                                                    |
#              |                     SDECAY 1.3b                    |
#              |                                                    |
#              |  Authors: M.Muhlleitner, A.Djouadi and Y.Mambrini  |
#              |  Ref.:    Comput.Phys.Commun.168(2005)46           |
#              |           [hep-ph/0311167]                         |
#              |                                                    |
#              |                     HDECAY 3.4                     |
#              |                                                    |
#              |  By: A.Djouadi,J.Kalinowski,M.Muhlleitner,M.Spira  |
#              |  Ref.:    Comput.Phys.Commun.108(1998)56           |
#              |           [hep-ph/9704448]                         |
#              |                                                    |
#              |                                                    |
#              |  If not stated otherwise all DRbar couplings and   |
#              |  soft SUSY breaking masses are given at the scale  |
#              |  Q=  0.50007619E+04
#              |                                                    |
#              ------------------------------------------------------
#
#
BLOCK DCINFO  # Decay Program information
     1   SDECAY/HDECAY # decay calculator
     2   1.3b  /3.4    # version number
#
BLOCK SPINFO  # Spectrum calculator information
     1    SOFTSUSY    # spectrum calculator                
     2    3.4.0       # version number                     
#
BLOCK MODSEL  # Model selection
     1     0   #  nonUniversal                                     
#
BLOCK SMINPUTS  # Standard Model inputs
         1     1.25778332E+02   # alpha_em^-1(M_Z)^MSbar
         2     1.16570000E-05   # G_F [GeV^-2]
         3     1.17200002E-01   # alpha_S(M_Z)^MSbar
         4     9.11876000E+01   # M_Z pole mass
         5     4.25000000E+00   # mb(mb)^MSbar
         6     1.72500000E+02   # mt pole mass
         7     1.77682000E+00   # mtau pole mass
#
BLOCK MINPAR  # Input parameters - minimal models
         3     1.00000000E+01   # tanb                
#
BLOCK EXTPAR  # Input parameters - non-minimal models
         0    -1.00000000E+00   # Set                 
         1     6.00000000E+01   # M_1(MX)             
         2     3.00000000E+03   # M_2(MX)             
         3     1.94902600E+03   # M_3(MX)             
        11     5.00000000E+03   # At(MX)              
        12     5.00000000E+03   # Ab(MX)              
        13     0.00000000E+00   # Atau(MX)            
        23    -4.74882000E+02   # mu(MX)              
        26     3.00000000E+03   # mA(pole)            
        31     5.00000000E+03   # meL(MX)             
        32     5.00000000E+03   # mmuL(MX)            
        33     5.00000000E+03   # mtauL(MX)           
        34     5.00000000E+03   # meR(MX)             
        35     5.00000000E+03   # mmuR(MX)            
        36     5.00000000E+03   # mtauR(MX)           
        41     5.00000000E+03   # mqL1(MX)            
        42     5.00000000E+03   # mqL2(MX)            
        43     5.00000000E+03   # mqL3(MX)            
        44     5.00000000E+03   # muR(MX)             
        45     5.00000000E+03   # mcR(MX)             
        46     5.00000000E+03   # mtR(MX)             
        47     5.00000000E+03   # mdR(MX)             
        48     5.00000000E+03   # msR(MX)             
        49     5.00000000E+03   # mbR(MX)             
#
BLOCK MASS  # Mass Spectrum
# PDG code           mass       particle
        24     8.00932161E+01   # W+
        25     1.24790889E+02   # h
        35     3.00008588E+03   # H
        36     2.99999945E+03   # A
        37     3.00143012E+03   # H+
         5     4.87878001E+00   # b-quark pole mass calculated from mb(mb)_Msbar
   1000001     5.07640919E+03   # ~d_L
   2000001     5.05858310E+03   # ~d_R
   1000002     5.07593620E+03   # ~u_L
   2000002     5.05828340E+03   # ~u_R
   1000003     5.07640919E+03   # ~s_L
   2000003     5.05858310E+03   # ~s_R
   1000004     5.07593620E+03   # ~c_L
   2000004     5.05828340E+03   # ~c_R
   1000005     5.02221843E+03   # ~b_1
   2000005     5.05680690E+03   # ~b_2
   1000006     4.91370025E+03   # ~t_1
   2000006     5.06570978E+03   # ~t_2
   1000011     5.01910793E+03   # ~e_L
   2000011     5.00594374E+03   # ~e_R
   1000012     5.01815779E+03   # ~nu_eL
   1000013     5.01910793E+03   # ~mu_L
   2000013     5.00594374E+03   # ~mu_R
   1000014     5.01815779E+03   # ~nu_muL
   1000015     5.00477443E+03   # ~tau_1
   2000015     5.01863222E+03   # ~tau_2
   1000016     5.01760615E+03   # ~nu_tauL
   1000021     2.30000035E+03   # ~g
   1000022     6.02023517E+01   # ~chi_10
   1000023     5.00512748E+02   # ~chi_20
   1000025    -5.02707347E+02   # ~chi_30
   1000035     3.07417744E+03   # ~chi_40
   1000024     5.00000442E+02   # ~chi_1+
   1000037     3.07434513E+03   # ~chi_2+
#
BLOCK NMIX  # Neutralino Mixing Matrix
  1  1     9.96029284E-01   # N_11
  1  2     2.24959229E-04   # N_12
  1  3    -8.90129162E-02   # N_13
  1  4    -1.52181847E-03   # N_14
  2  1     6.40535829E-02   # N_21
  2  2     1.90064927E-02   # N_22
  2  3     7.04713461E-01   # N_23
  2  4     7.06339033E-01   # N_24
  3  1    -6.18276026E-02   # N_31
  3  2     1.70141146E-02   # N_32
  3  3    -7.03884709E-01   # N_33
  3  4     7.07413729E-01   # N_34
  4  1    -3.89684840E-04   # N_41
  4  2     9.99674558E-01   # N_42
  4  3    -1.39858704E-03   # N_43
  4  4    -2.54689922E-02   # N_44
#
BLOCK UMIX  # Chargino Mixing Matrix U
  1  1     1.98315194E-03   # U_11
  1  2     9.99998034E-01   # U_12
  2  1    -9.99998034E-01   # U_21
  2  2     1.98315194E-03   # U_22
#
BLOCK VMIX  # Chargino Mixing Matrix V
  1  1     3.60388646E-02   # V_11
  1  2    -9.99350389E-01   # V_12
  2  1    -9.99350389E-01   # V_21
  2  2    -3.60388646E-02   # V_22
#
BLOCK STOPMIX  # Stop Mixing Matrix
  1  1    -5.02674220E-01   # cos(theta_t)
  1  2     8.64475927E-01   # sin(theta_t)
  2  1    -8.64475927E-01   # -sin(theta_t)
  2  2    -5.02674220E-01   # cos(theta_t)
#
BLOCK SBOTMIX  # Sbottom Mixing Matrix
  1  1     9.98767382E-01   # cos(theta_b)
  1  2    -4.96358404E-02   # sin(theta_b)
  2  1     4.96358404E-02   # -sin(theta_b)
  2  2     9.98767382E-01   # cos(theta_b)
#
BLOCK STAUMIX  # Stau Mixing Matrix
  1  1    -5.69185749E-02   # cos(theta_tau)
  1  2     9.98378824E-01   # sin(theta_tau)
  2  1    -9.98378824E-01   # -sin(theta_tau)
  2  2    -5.69185749E-02   # cos(theta_tau)
#
BLOCK ALPHA  # Higgs mixing
          -1.05490440E-01   # Mixing angle in the neutral Higgs boson sector
#
BLOCK HMIX Q=  5.00076194E+03  # DRbar Higgs Parameters
         1    -4.83584859E+02   # mu(Q)MSSM           
         2     9.46880679E+00   # tan                 
         3     2.41746804E+02   # higgs               
         4     8.67832909E+06   # mA^2(Q)MSSM         
#
BLOCK GAUGE Q=  5.00076194E+03  # The gauge couplings
     1     3.70950082E-01   # gprime(Q) DRbar
     2     6.33312764E-01   # g(Q) DRbar
     3     9.96450326E-01   # g3(Q) DRbar
#
BLOCK AU Q=  5.00076194E+03  # The trilinear couplings
  1  1     5.00000001E+03   # A_u(Q) DRbar
  2  2     5.00000001E+03   # A_c(Q) DRbar
  3  3     5.00000002E+03   # A_t(Q) DRbar
#
BLOCK AD Q=  5.00076194E+03  # The trilinear couplings
  1  1     5.00000001E+03   # A_d(Q) DRbar
  2  2     5.00000001E+03   # A_s(Q) DRbar
  3  3     5.00000001E+03   # A_b(Q) DRbar
#
BLOCK AE Q=  5.00076194E+03  # The trilinear couplings
  1  1     0.00000000E+00   # A_e(Q) DRbar
  2  2     2.17353381E-07   # A_mu(Q) DRbar
  3  3     2.17162267E-07   # A_tau(Q) DRbar
#
BLOCK Yu Q=  5.00076194E+03  # The Yukawa couplings
  1  1     0.00000000E+00   # y_u(Q) DRbar
  2  2     0.00000000E+00   # y_c(Q) DRbar
  3  3     8.20989928E-01   # y_t(Q) DRbar
#
BLOCK Yd Q=  5.00076194E+03  # The Yukawa couplings
  1  1     0.00000000E+00   # y_d(Q) DRbar
  2  2     0.00000000E+00   # y_s(Q) DRbar
  3  3     1.30224757E-01   # y_b(Q) DRbar
#
BLOCK Ye Q=  5.00076194E+03  # The Yukawa couplings
  1  1     0.00000000E+00   # y_e(Q) DRbar
  2  2     0.00000000E+00   # y_mu(Q) DRbar
  3  3     9.71371694E-02   # y_tau(Q) DRbar
#
BLOCK MSOFT Q=  5.00076194E+03  # The soft SUSY breaking masses at the scale Q
         1     6.00000000E+01   # M_1(Q)              
         2     3.00000000E+03   # M_2(Q)              
         3     1.94902600E+03   # M_3(Q)              
        21     8.49015949E+06   # mH1^2(Q)            
        22     3.43099124E+05   # mH2^2(Q)            
        31     5.00000000E+03   # meL(Q)              
        32     5.00000000E+03   # mmuL(Q)             
        33     5.00000000E+03   # mtauL(Q)            
        34     5.00000000E+03   # meR(Q)              
        35     5.00000000E+03   # mmuR(Q)             
        36     5.00000000E+03   # mtauR(Q)            
        41     5.00000000E+03   # mqL1(Q)             
        42     5.00000000E+03   # mqL2(Q)             
        43     4.99999999E+03   # mqL3(Q)             
        44     5.00000000E+03   # muR(Q)              
        45     5.00000000E+03   # mcR(Q)              
        46     4.99999999E+03   # mtR(Q)              
        47     5.00000000E+03   # mdR(Q)              
        48     5.00000000E+03   # msR(Q)              
        49     5.00000000E+03   # mbR(Q)              
#
#
#
#                             =================
#                             |The decay table|
#                             =================
#
# - The QCD corrections to the decays gluino -> squark  + quark
#                                     squark -> gaugino + quark_prime
#                                     squark -> squark_prime + Higgs
#                                     squark -> gluino  + quark
#   are included.
#
# - The multi-body decays for the inos, stops and sbottoms are included.
#
# - The loop induced decays for the gluino, neutralinos and stops
#   are included.
#
# - The SUSY decays of the top quark are included.
#
#
#         PDG            Width
DECAY         6     1.40561629E+00   # top decays
#          BR         NDA      ID1       ID2
     1.00000000E+00    2           5        24   # BR(t ->  b    W+)
#
#         PDG            Width
DECAY   1000021     4.27793795E-03   # gluino decays
#          BR         NDA      ID1       ID2
     3.78474145E-07    2     1000022        21   # BR(~g -> ~chi_10 g)
     5.17683784E-03    2     1000023        21   # BR(~g -> ~chi_20 g)
     5.03669051E-03    2     1000025        21   # BR(~g -> ~chi_30 g)
#           BR         NDA      ID1       ID2       ID3
     1.12871628E-02    3     1000022         1        -1   # BR(~g -> ~chi_10 d  db)
     3.56339991E-05    3     1000023         1        -1   # BR(~g -> ~chi_20 d  db)
     4.10459037E-05    3     1000025         1        -1   # BR(~g -> ~chi_30 d  db)
     3.84925133E-02    3     1000022         2        -2   # BR(~g -> ~chi_10 u  ub)
     1.85924257E-04    3     1000023         2        -2   # BR(~g -> ~chi_20 u  ub)
     6.83167084E-05    3     1000025         2        -2   # BR(~g -> ~chi_30 u  ub)
     1.12871628E-02    3     1000022         3        -3   # BR(~g -> ~chi_10 s  sb)
     3.56339991E-05    3     1000023         3        -3   # BR(~g -> ~chi_20 s  sb)
     4.10459037E-05    3     1000025         3        -3   # BR(~g -> ~chi_30 s  sb)
     3.84925133E-02    3     1000022         4        -4   # BR(~g -> ~chi_10 c  cb)
     1.85924257E-04    3     1000023         4        -4   # BR(~g -> ~chi_20 c  cb)
     6.83167084E-05    3     1000025         4        -4   # BR(~g -> ~chi_30 c  cb)
     1.15515369E-02    3     1000022         5        -5   # BR(~g -> ~chi_10 b  bb)
     5.31015295E-03    3     1000023         5        -5   # BR(~g -> ~chi_20 b  bb)
     5.28279343E-03    3     1000025         5        -5   # BR(~g -> ~chi_30 b  bb)
     3.84153396E-02    3     1000022         6        -6   # BR(~g -> ~chi_10 t  tb)
     2.06286257E-01    3     1000023         6        -6   # BR(~g -> ~chi_20 t  tb)
     1.94018473E-01    3     1000025         6        -6   # BR(~g -> ~chi_30 t  tb)
     5.46859387E-05    3     1000024         1        -2   # BR(~g -> ~chi_1+ d  ub)
     5.46859387E-05    3    -1000024         2        -1   # BR(~g -> ~chi_1- u  db)
     5.46859387E-05    3     1000024         3        -4   # BR(~g -> ~chi_1+ s  cb)
     5.46859387E-05    3    -1000024         4        -3   # BR(~g -> ~chi_1- c  sb)
     2.14240801E-01    3     1000024         5        -6   # BR(~g -> ~chi_1+ b  tb)
     2.14240801E-01    3    -1000024         6        -5   # BR(~g -> ~chi_1- t  bb)
#
#         PDG            Width
DECAY   1000006     3.21027565E+02   # stop1 decays
#          BR         NDA      ID1       ID2
     2.74111482E-02    2     1000022         6   # BR(~t_1 -> ~chi_10 t )
     1.02223528E-01    2     1000023         6   # BR(~t_1 -> ~chi_20 t )
     9.67105490E-02    2     1000025         6   # BR(~t_1 -> ~chi_30 t )
     6.28882494E-03    2     1000035         6   # BR(~t_1 -> ~chi_40 t )
     1.48849770E-01    2     1000024         5   # BR(~t_1 -> ~chi_1+ b )
     1.25364832E-02    2     1000037         5   # BR(~t_1 -> ~chi_2+ b )
     6.05979697E-01    2     1000021         6   # BR(~t_1 -> ~g      t )
#
#         PDG            Width
DECAY   2000006     3.27028079E+02   # stop2 decays
#          BR         NDA      ID1       ID2
     1.05796873E-02    2     1000022         6   # BR(~t_2 -> ~chi_10 t )
     1.00268726E-01    2     1000023         6   # BR(~t_2 -> ~chi_20 t )
     1.06346568E-01    2     1000025         6   # BR(~t_2 -> ~chi_30 t )
     1.72721709E-02    2     1000035         6   # BR(~t_2 -> ~chi_40 t )
     5.85553264E-02    2     1000024         5   # BR(~t_2 -> ~chi_1+ b )
     3.43915707E-02    2     1000037         5   # BR(~t_2 -> ~chi_2+ b )
     6.68924215E-01    2     1000021         6   # BR(~t_2 -> ~g      t )
     8.49397279E-04    2     1000006        25   # BR(~t_2 -> ~t_1    h )
     2.81233832E-03    2     1000006        23   # BR(~t_2 -> ~t_1    Z )
#
#         PDG            Width
DECAY   1000005     3.01573660E+02   # sbottom1 decays
#          BR         NDA      ID1       ID2
     2.57544111E-03    2     1000022         5   # BR(~b_1 -> ~chi_10 b )
     2.72342957E-03    2     1000023         5   # BR(~b_1 -> ~chi_20 b )
     2.72427361E-03    2     1000025         5   # BR(~b_1 -> ~chi_30 b )
     2.52284718E-02    2     1000035         5   # BR(~b_1 -> ~chi_40 b )
     2.18619016E-01    2    -1000024         6   # BR(~b_1 -> ~chi_1- t )
     5.06530538E-02    2    -1000037         6   # BR(~b_1 -> ~chi_2- t )
     6.95669597E-01    2     1000021         5   # BR(~b_1 -> ~g      b )
     1.80671744E-03    2     1000006       -24   # BR(~b_1 -> ~t_1    W-)
#
#         PDG            Width
DECAY   2000005     2.19057141E+02   # sbottom2 decays
#          BR         NDA      ID1       ID2
     1.33750781E-02    2     1000022         5   # BR(~b_2 -> ~chi_10 b )
     3.89113390E-03    2     1000023         5   # BR(~b_2 -> ~chi_20 b )
     3.93719439E-03    2     1000025         5   # BR(~b_2 -> ~chi_30 b )
     7.94178190E-05    2     1000035         5   # BR(~b_2 -> ~chi_40 b )
     8.32050528E-03    2    -1000024         6   # BR(~b_2 -> ~chi_1- t )
     1.59469551E-04    2    -1000037         6   # BR(~b_2 -> ~chi_2- t )
     9.70211393E-01    2     1000021         5   # BR(~b_2 -> ~g      b )
     2.58082149E-05    2     1000006       -24   # BR(~b_2 -> ~t_1    W-)
#
#         PDG            Width
DECAY   1000002     2.38574158E+02   # sup_L decays
#          BR         NDA      ID1       ID2
     3.10960900E-03    2     1000022         2   # BR(~u_L -> ~chi_10 u)
     7.99999679E-05    2     1000023         2   # BR(~u_L -> ~chi_20 u)
     1.96778683E-06    2     1000025         2   # BR(~u_L -> ~chi_30 u)
     3.31083263E-02    2     1000035         2   # BR(~u_L -> ~chi_40 u)
     2.09272754E-04    2     1000024         1   # BR(~u_L -> ~chi_1+ d)
     6.61754895E-02    2     1000037         1   # BR(~u_L -> ~chi_2+ d)
     8.97315335E-01    2     1000021         2   # BR(~u_L -> ~g      u)
#
#         PDG            Width
DECAY   2000002     2.24454947E+02   # sup_R decays
#          BR         NDA      ID1       ID2
     5.25748727E-02    2     1000022         2   # BR(~u_R -> ~chi_10 u)
     2.13493244E-04    2     1000023         2   # BR(~u_R -> ~chi_20 u)
     1.98878880E-04    2     1000025         2   # BR(~u_R -> ~chi_30 u)
     3.22451361E-09    2     1000035         2   # BR(~u_R -> ~chi_40 u)
     9.47012752E-01    2     1000021         2   # BR(~u_R -> ~g      u)
#
#         PDG            Width
DECAY   1000001     2.38589276E+02   # sdown_L decays
#          BR         NDA      ID1       ID2
     3.09535048E-03    2     1000022         1   # BR(~d_L -> ~chi_10 d)
     3.40429641E-06    2     1000023         1   # BR(~d_L -> ~chi_20 d)
     6.81427723E-05    2     1000025         1   # BR(~d_L -> ~chi_30 d)
     3.31264982E-02    2     1000035         1   # BR(~d_L -> ~chi_40 d)
     6.33720165E-07    2    -1000024         2   # BR(~d_L -> ~chi_1- u)
     6.62774800E-02    2    -1000037         2   # BR(~d_L -> ~chi_2- u)
     8.97428491E-01    2     1000021         1   # BR(~d_L -> ~g      d)
#
#         PDG            Width
DECAY   2000001     2.15560913E+02   # sdown_R decays
#          BR         NDA      ID1       ID2
     1.36868515E-02    2     1000022         1   # BR(~d_R -> ~chi_10 d)
     5.55789579E-05    2     1000023         1   # BR(~d_R -> ~chi_20 d)
     5.17743837E-05    2     1000025         1   # BR(~d_R -> ~chi_30 d)
     8.39554706E-10    2     1000035         1   # BR(~d_R -> ~chi_40 d)
     9.86205794E-01    2     1000021         1   # BR(~d_R -> ~g      d)
#
#         PDG            Width
DECAY   1000004     2.38574158E+02   # scharm_L decays
#          BR         NDA      ID1       ID2
     3.10960900E-03    2     1000022         4   # BR(~c_L -> ~chi_10 c)
     7.99999679E-05    2     1000023         4   # BR(~c_L -> ~chi_20 c)
     1.96778683E-06    2     1000025         4   # BR(~c_L -> ~chi_30 c)
     3.31083263E-02    2     1000035         4   # BR(~c_L -> ~chi_40 c)
     2.09272754E-04    2     1000024         3   # BR(~c_L -> ~chi_1+ s)
     6.61754895E-02    2     1000037         3   # BR(~c_L -> ~chi_2+ s)
     8.97315335E-01    2     1000021         4   # BR(~c_L -> ~g      c)
#
#         PDG            Width
DECAY   2000004     2.24454947E+02   # scharm_R decays
#          BR         NDA      ID1       ID2
     5.25748727E-02    2     1000022         4   # BR(~c_R -> ~chi_10 c)
     2.13493244E-04    2     1000023         4   # BR(~c_R -> ~chi_20 c)
     1.98878880E-04    2     1000025         4   # BR(~c_R -> ~chi_30 c)
     3.22451361E-09    2     1000035         4   # BR(~c_R -> ~chi_40 c)
     9.47012752E-01    2     1000021         4   # BR(~c_R -> ~g      c)
#
#         PDG            Width
DECAY   1000003     2.38589276E+02   # sstrange_L decays
#          BR         NDA      ID1       ID2
     3.09535048E-03    2     1000022         3   # BR(~s_L -> ~chi_10 s)
     3.40429641E-06    2     1000023         3   # BR(~s_L -> ~chi_20 s)
     6.81427723E-05    2     1000025         3   # BR(~s_L -> ~chi_30 s)
     3.31264982E-02    2     1000035         3   # BR(~s_L -> ~chi_40 s)
     6.33720165E-07    2    -1000024         4   # BR(~s_L -> ~chi_1- c)
     6.62774800E-02    2    -1000037         4   # BR(~s_L -> ~chi_2- c)
     8.97428491E-01    2     1000021         3   # BR(~s_L -> ~g      s)
#
#         PDG            Width
DECAY   2000003     2.15560913E+02   # sstrange_R decays
#          BR         NDA      ID1       ID2
     1.36868515E-02    2     1000022         3   # BR(~s_R -> ~chi_10 s)
     5.55789579E-05    2     1000023         3   # BR(~s_R -> ~chi_20 s)
     5.17743837E-05    2     1000025         3   # BR(~s_R -> ~chi_30 s)
     8.39554706E-10    2     1000035         3   # BR(~s_R -> ~chi_40 s)
     9.86205794E-01    2     1000021         3   # BR(~s_R -> ~g      s)
#
#         PDG            Width
DECAY   1000011     3.03332348E+01   # selectron_L decays
#          BR         NDA      ID1       ID2
     2.24798289E-01    2     1000022        11   # BR(~e_L -> ~chi_10 e-)
     2.06746555E-03    2     1000023        11   # BR(~e_L -> ~chi_20 e-)
     2.38504224E-04    2     1000025        11   # BR(~e_L -> ~chi_30 e-)
     2.57463171E-01    2     1000035        11   # BR(~e_L -> ~chi_40 e-)
     5.09006654E-06    2    -1000024        12   # BR(~e_L -> ~chi_1- nu_e)
     5.15427480E-01    2    -1000037        12   # BR(~e_L -> ~chi_2- nu_e)
#
#         PDG            Width
DECAY   2000011     2.73957745E+01   # selectron_R decays
#          BR         NDA      ID1       ID2
     9.92229298E-01    2     1000022        11   # BR(~e_R -> ~chi_10 e-)
     4.02303276E-03    2     1000023        11   # BR(~e_R -> ~chi_20 e-)
     3.74761045E-03    2     1000025        11   # BR(~e_R -> ~chi_30 e-)
     5.89415492E-08    2     1000035        11   # BR(~e_R -> ~chi_40 e-)
#
#         PDG            Width
DECAY   1000013     3.03332348E+01   # smuon_L decays
#          BR         NDA      ID1       ID2
     2.24798289E-01    2     1000022        13   # BR(~mu_L -> ~chi_10 mu-)
     2.06746555E-03    2     1000023        13   # BR(~mu_L -> ~chi_20 mu-)
     2.38504224E-04    2     1000025        13   # BR(~mu_L -> ~chi_30 mu-)
     2.57463171E-01    2     1000035        13   # BR(~mu_L -> ~chi_40 mu-)
     5.09006654E-06    2    -1000024        14   # BR(~mu_L -> ~chi_1- nu_mu)
     5.15427480E-01    2    -1000037        14   # BR(~mu_L -> ~chi_2- nu_mu)
#
#         PDG            Width
DECAY   2000013     2.73957745E+01   # smuon_R decays
#          BR         NDA      ID1       ID2
     9.92229298E-01    2     1000022        13   # BR(~mu_R -> ~chi_10 mu-)
     4.02303276E-03    2     1000023        13   # BR(~mu_R -> ~chi_20 mu-)
     3.74761045E-03    2     1000025        13   # BR(~mu_R -> ~chi_30 mu-)
     5.89415492E-08    2     1000035        13   # BR(~mu_R -> ~chi_40 mu-)
#
#         PDG            Width
DECAY   1000015     2.92384932E+01   # stau_1 decays
#          BR         NDA      ID1       ID2
     9.28347948E-01    2     1000022        15   # BR(~tau_1 -> ~chi_10  tau-)
     1.91866097E-02    2     1000023        15   # BR(~tau_1 -> ~chi_20  tau-)
     1.84828609E-02    2     1000025        15   # BR(~tau_1 -> ~chi_30  tau-)
     8.47894867E-04    2     1000035        15   # BR(~tau_1 -> ~chi_40  tau-)
     3.14374061E-02    2    -1000024        16   # BR(~tau_1 -> ~chi_1-  nu_tau)
     1.69728063E-03    2    -1000037        16   # BR(~tau_1 -> ~chi_2-  nu_tau)
#
#         PDG            Width
DECAY   2000015     3.12405312E+01   # stau_2 decays
#          BR         NDA      ID1       ID2
     2.19787096E-01    2     1000022        15   # BR(~tau_2 -> ~chi_10  tau-)
     1.68943680E-02    2     1000023        15   # BR(~tau_2 -> ~chi_20  tau-)
     1.54638798E-02    2     1000025        15   # BR(~tau_2 -> ~chi_30  tau-)
     2.49104008E-01    2     1000035        15   # BR(~tau_2 -> ~chi_40  tau-)
     5.72532952E-05    2    -1000024        16   # BR(~tau_2 -> ~chi_1-  nu_tau)
     4.98693395E-01    2    -1000037        16   # BR(~tau_2 -> ~chi_2-  nu_tau)
#
#         PDG            Width
DECAY   1000012     3.03364307E+01   # snu_eL decays
#          BR         NDA      ID1       ID2
     2.24385674E-01    2     1000022        12   # BR(~nu_eL -> ~chi_10 nu_e)
     2.21676618E-04    2     1000023        12   # BR(~nu_eL -> ~chi_20 nu_e)
     1.83249200E-03    2     1000025        12   # BR(~nu_eL -> ~chi_30 nu_e)
     2.57505351E-01    2     1000035        12   # BR(~nu_eL -> ~chi_40 nu_e)
     1.68043767E-03    2     1000024        11   # BR(~nu_eL -> ~chi_1+ e-)
     5.14374369E-01    2     1000037        11   # BR(~nu_eL -> ~chi_2+ e-)
#
#         PDG            Width
DECAY   1000014     3.03364307E+01   # snu_muL decays
#          BR         NDA      ID1       ID2
     2.24385674E-01    2     1000022        14   # BR(~nu_muL -> ~chi_10 nu_mu)
     2.21676618E-04    2     1000023        14   # BR(~nu_muL -> ~chi_20 nu_mu)
     1.83249200E-03    2     1000025        14   # BR(~nu_muL -> ~chi_30 nu_mu)
     2.57505351E-01    2     1000035        14   # BR(~nu_muL -> ~chi_40 nu_mu)
     1.68043767E-03    2     1000024        13   # BR(~nu_muL -> ~chi_1+ mu-)
     5.14374369E-01    2     1000037        13   # BR(~nu_muL -> ~chi_2+ mu-)
#
#         PDG            Width
DECAY   1000016     3.12501921E+01   # snu_tauL decays
#          BR         NDA      ID1       ID2
     2.17800636E-01    2     1000022        16   # BR(~nu_tauL -> ~chi_10 nu_tau)
     2.15170146E-04    2     1000023        16   # BR(~nu_tauL -> ~chi_20 nu_tau)
     1.77870611E-03    2     1000025        16   # BR(~nu_tauL -> ~chi_30 nu_tau)
     2.49882335E-01    2     1000035        16   # BR(~nu_tauL -> ~chi_40 nu_tau)
     3.11764872E-02    2     1000024        15   # BR(~nu_tauL -> ~chi_1+ tau-)
     4.99146665E-01    2     1000037        15   # BR(~nu_tauL -> ~chi_2+ tau-)
#
#         PDG            Width
DECAY   1000024     2.94071874E-01   # chargino1+ decays
#          BR         NDA      ID1       ID2
     1.00000000E+00    2     1000022        24   # BR(~chi_1+ -> ~chi_10  W+)
#
#         PDG            Width
DECAY   1000037     2.21619158E+01   # chargino2+ decays
#          BR         NDA      ID1       ID2
     2.53559302E-01    2     1000024        23   # BR(~chi_2+ -> ~chi_1+  Z )
     1.56234320E-04    2     1000022        24   # BR(~chi_2+ -> ~chi_10  W+)
     2.44967236E-01    2     1000023        24   # BR(~chi_2+ -> ~chi_20  W+)
     2.44373229E-01    2     1000025        24   # BR(~chi_2+ -> ~chi_30  W+)
     2.56938818E-01    2     1000024        25   # BR(~chi_2+ -> ~chi_1+  h )
     5.18033435E-06    2     1000022        37   # BR(~chi_2+ -> ~chi_10  H+)
#
#         PDG            Width
DECAY   1000022     0.00000000E+00   # neutralino1 decays
#
#         PDG            Width
DECAY   1000023     2.97404820E-01   # neutralino2 decays
#          BR         NDA      ID1       ID2
     5.04343535E-01    2     1000022        23   # BR(~chi_20 -> ~chi_10   Z )
     4.95656465E-01    2     1000022        25   # BR(~chi_20 -> ~chi_10   h )
#
#         PDG            Width
DECAY   1000025     2.90306421E-01   # neutralino3 decays
#          BR         NDA      ID1       ID2
     5.33684331E-01    2     1000022        23   # BR(~chi_30 -> ~chi_10   Z )
     4.66315669E-01    2     1000022        25   # BR(~chi_30 -> ~chi_10   h )
#
#         PDG            Width
DECAY   1000035     2.21728693E+01   # neutralino4 decays
#          BR         NDA      ID1       ID2
     3.09986706E-06    2     1000022        23   # BR(~chi_40 -> ~chi_10   Z )
     1.12719927E-01    2     1000023        23   # BR(~chi_40 -> ~chi_20   Z )
     1.40400622E-01    2     1000025        23   # BR(~chi_40 -> ~chi_30   Z )
     2.45150198E-01    2     1000024       -24   # BR(~chi_40 -> ~chi_1+   W-)
     2.45150198E-01    2    -1000024        24   # BR(~chi_40 -> ~chi_1-   W+)
     1.45582927E-04    2     1000022        25   # BR(~chi_40 -> ~chi_10   h )
     4.98354370E-06    2     1000022        35   # BR(~chi_40 -> ~chi_10   H )
     5.43896862E-07    2     1000022        36   # BR(~chi_40 -> ~chi_10   A )
     1.43426340E-01    2     1000023        25   # BR(~chi_40 -> ~chi_20   h )
     1.12998505E-01    2     1000025        25   # BR(~chi_40 -> ~chi_30   h )
#
#         PDG            Width
DECAY        25     4.07192034E-03   # h decays
#          BR         NDA      ID1       ID2
     6.08953848E-01    2           5        -5   # BR(h -> b       bb     )
     6.37127186E-02    2         -15        15   # BR(h -> tau+    tau-   )
     2.25566113E-04    2         -13        13   # BR(h -> mu+     mu-    )
     4.78173169E-04    2           3        -3   # BR(h -> s       sb     )
     2.07181569E-02    2           4        -4   # BR(h -> c       cb     )
     6.70388896E-02    2          21        21   # BR(h -> g       g      )
     2.30454571E-03    2          22        22   # BR(h -> gam     gam    )
     1.48781901E-03    2          22        23   # BR(h -> Z       gam    )
     2.09973847E-01    2          24       -24   # BR(h -> W+      W-     )
     2.50215416E-02    2          23        23   # BR(h -> Z       Z      )
     8.48953445E-05    2     1000022   1000022   # BR(h -> ~chi_10 ~chi_10)
#
#         PDG            Width
DECAY        35     8.66069058E+00   # H decays
#          BR         NDA      ID1       ID2
     3.68327622E-01    2           5        -5   # BR(H -> b       bb     )
     6.43123994E-02    2         -15        15   # BR(H -> tau+    tau-   )
     2.27413753E-04    2         -13        13   # BR(H -> mu+     mu-    )
     2.78774334E-04    2           3        -3   # BR(H -> s       sb     )
     1.56020861E-06    2           4        -4   # BR(H -> c       cb     )
     1.55877202E-01    2           6        -6   # BR(H -> t       tb     )
     5.18462487E-05    2          21        21   # BR(H -> g       g      )
     1.49152507E-07    2          22        22   # BR(H -> gam     gam    )
     9.19954353E-08    2          23        22   # BR(H -> Z       gam    )
     7.45245720E-05    2          24       -24   # BR(H -> W+      W-     )
     3.72151136E-05    2          23        23   # BR(H -> Z       Z      )
     2.69821863E-04    2          25        25   # BR(H -> h       h      )
    -2.25879410E-24    2          36        36   # BR(H -> A       A      )
     7.13176189E-19    2          23        36   # BR(H -> Z       A      )
     3.17454741E-03    2     1000024  -1000024   # BR(H -> ~chi_1+ ~chi_1-)
     6.71511799E-03    2     1000022   1000022   # BR(H -> ~chi_10 ~chi_10)
     3.68920971E-04    2     1000023   1000023   # BR(H -> ~chi_20 ~chi_20)
     2.44850014E-03    2     1000025   1000025   # BR(H -> ~chi_30 ~chi_30)
     2.39568018E-01    2     1000022   1000023   # BR(H -> ~chi_10 ~chi_20)
     1.54942289E-01    2     1000022   1000025   # BR(H -> ~chi_10 ~chi_30)
     3.32398558E-03    2     1000023   1000025   # BR(H -> ~chi_20 ~chi_30)
#
#         PDG            Width
DECAY        36     8.66772008E+00   # A decays
#          BR         NDA      ID1       ID2
     3.68154553E-01    2           5        -5   # BR(A -> b       bb     )
     6.42621579E-02    2         -15        15   # BR(A -> tau+    tau-   )
     2.27235777E-04    2         -13        13   # BR(A -> mu+     mu-    )
     2.78759837E-04    2           3        -3   # BR(A -> s       sb     )
     1.56517780E-06    2           4        -4   # BR(A -> c       cb     )
     1.56287380E-01    2           6        -6   # BR(A -> t       tb     )
     1.54646806E-04    2          21        21   # BR(A -> g       g      )
     5.93833772E-07    2          22        22   # BR(A -> gam     gam    )
     1.87209188E-07    2          23        22   # BR(A -> Z       gam    )
     7.41822294E-05    2          23        25   # BR(A -> Z       h      )
     3.48648289E-03    2     1000024  -1000024   # BR(A -> ~chi_1+ ~chi_1-)
     6.67226128E-03    2     1000022   1000022   # BR(A -> ~chi_10 ~chi_10)
     2.71056193E-04    2     1000023   1000023   # BR(A -> ~chi_20 ~chi_20)
     4.22323421E-03    2     1000025   1000025   # BR(A -> ~chi_30 ~chi_30)
     1.58343513E-01    2     1000022   1000023   # BR(A -> ~chi_10 ~chi_20)
     2.35199466E-01    2     1000022   1000025   # BR(A -> ~chi_10 ~chi_30)
     2.36272466E-03    2     1000023   1000025   # BR(A -> ~chi_20 ~chi_30)
#
#         PDG            Width
DECAY        37     8.61605835E+00   # H+ decays
#          BR         NDA      ID1       ID2
     5.91051217E-04    2           4        -5   # BR(H+ -> c       bb     )
     6.46783025E-02    2         -15        16   # BR(H+ -> tau+    nu_tau )
     2.28707295E-04    2         -13        14   # BR(H+ -> mu+     nu_mu  )
     3.78270796E-06    2           2        -5   # BR(H+ -> u       bb     )
     1.34197451E-05    2           2        -3   # BR(H+ -> u       sb     )
     2.77521814E-04    2           4        -3   # BR(H+ -> c       sb     )
     5.23380610E-01    2           6        -5   # BR(H+ -> t       bb     )
     7.47820059E-05    2          24        25   # BR(H+ -> W+      h      )
     9.14122271E-13    2          24        36   # BR(H+ -> W+      A      )
     4.06956573E-01    2     1000024   1000022   # BR(H+ -> ~chi_1+ ~chi_10)
     3.46552959E-03    2     1000024   1000023   # BR(H+ -> ~chi_1+ ~chi_20)
     3.29720386E-04    2     1000024   1000025   # BR(H+ -> ~chi_1+ ~chi_30)
