#
#                              ======================
#                              | THE SUSYHIT OUTPUT |
#                              ======================
#
#
#              ------------------------------------------------------
#              |     This is the output of the SUSY-HIT package     |
#              |  created by A.Djouadi, M.Muehlleitner and M.Spira. |
#              |  In case of problems with SUSY-HIT email to        |
#              |           margarete.muehlleitner@cern.ch           |
#              |           michael.spira@psi.ch                     |
#              |           abdelhak.djouadi@cern.ch                 |
#              ------------------------------------------------------
#
#              ------------------------------------------------------
#              |  SUSY Les Houches Accord - MSSM Spectrum + Decays  |
#              |              based on the decay programs           |
#              |                                                    |
#              |                     SDECAY 1.3b                    |
#              |                                                    |
#              |  Authors: M.Muhlleitner, A.Djouadi and Y.Mambrini  |
#              |  Ref.:    Comput.Phys.Commun.168(2005)46           |
#              |           [hep-ph/0311167]                         |
#              |                                                    |
#              |                     HDECAY 3.4                     |
#              |                                                    |
#              |  By: A.Djouadi,J.Kalinowski,M.Muhlleitner,M.Spira  |
#              |  Ref.:    Comput.Phys.Commun.108(1998)56           |
#              |           [hep-ph/9704448]                         |
#              |                                                    |
#              |                                                    |
#              |  If not stated otherwise all DRbar couplings and   |
#              |  soft SUSY breaking masses are given at the scale  |
#              |  Q=  0.91187600E+02
#              |                                                    |
#              ------------------------------------------------------
#
#
BLOCK DCINFO  # Decay Program information
     1   SDECAY/HDECAY # decay calculator
     2   1.3b  /3.4    # version number
#
BLOCK SPINFO  # Spectrum calculator information
     1   SuSpect     # RGE +Spectrum calculator            
     2   2.41         # version number                     
#
BLOCK MODSEL  # Model selection
     1     0   # #general MSSM low scale                           
#
BLOCK SMINPUTS  # Standard Model inputs
         1     1.27934000E+02   # alpha_em^-1(M_Z)^MSbar
         2     1.16639000E-05   # G_F [GeV^-2]
         3     1.17200000E-01   # alpha_S(M_Z)^MSbar
         4     9.11870000E+01   # M_Z pole mass
         5     4.25000000E+00   # mb(mb)^MSbar
         6     1.72500000E+02   # mt pole mass
         7     1.77700000E+00   # mtau pole mass
#
BLOCK MINPAR  # Input parameters - minimal models
#
BLOCK EXTPAR  # Input parameters - non-minimal models
         0     9.11876000E+01   # EWSB                
         1     1.00000000E+01   # M_1                 
         2     1.00000000E+05   # M_2                 
         3     1.50000000E+03   # M_3                 
        11     0.00000000E+00   # A_t                 
        12     0.00000000E+00   # A_b                 
        13     0.00000000E+00   # A_tau               
        14     0.00000000E+00   # A_u                 
        15     0.00000000E+00   # A_d                 
        16     0.00000000E+00   # A_e                 
        23     1.00000000E+05   # mu(EWSB)            
        25     1.50000000E+00   # tanbeta(in)         
        26     2.00000000E+03   # MA_pole             
        31     1.00000000E+05   # M_eL                
        32     1.00000000E+05   # M_muL               
        33     1.00000000E+05   # M_tauL              
        34     1.00000000E+05   # M_eR                
        35     1.00000000E+05   # M_muR               
        36     1.00000000E+05   # M_tauR              
        41     3.00000000E+03   # M_q1L               
        42     3.00000000E+03   # M_q2L               
        43     3.00000000E+03   # M_q3L               
        44     1.00000000E+05   # M_uR                
        45     1.00000000E+05   # M_cR                
        46     1.00000000E+05   # M_tR                
        47     3.00000000E+03   # M_dR                
        48     3.00000000E+03   # M_sR                
        49     3.00000000E+03   # M_bR                
#
BLOCK MASS  # Mass Spectrum
# PDG code           mass       particle
        24     8.05648346E+01   # W+
        25     1.25000000E+02   # h
        35     2.01376061E+03   # H
        36     2.00000000E+03   # A
        37     2.02283534E+03   # H+
         5     4.87877839E+00   # b-quark pole mass calculated from mb(mb)_Msbar
   1000001     3.00021850E+03   # ~d_L
   2000001     3.00004275E+03   # ~d_R
   1000002     2.99982423E+03   # ~u_L
   2000002     9.99999974E+04   # ~u_R
   1000003     3.00021850E+03   # ~s_L
   2000003     3.00004275E+03   # ~s_R
   1000004     2.99982423E+03   # ~c_L
   2000004     9.99999974E+04   # ~c_R
   1000005     2.94834765E+03   # ~b_1
   2000005     3.05103623E+03   # ~b_2
   1000006     3.00184357E+03   # ~t_1
   2000006     1.00000155E+05   # ~t_2
   1000011     1.00000004E+05   # ~e_L
   2000011     1.00000004E+05   # ~e_R
   1000012     9.99999922E+04   # ~nu_eL
   1000013     1.00000004E+05   # ~mu_L
   2000013     1.00000004E+05   # ~mu_R
   1000014     9.99999922E+04   # ~nu_muL
   1000015     9.99986687E+04   # ~tau_1
   2000015     1.00001339E+05   # ~tau_2
   1000016     9.99999922E+04   # ~nu_tauL
   1000021     1.50000000E+03   # ~g
   1000022     9.98153193E+00   # ~chi_10
   1000023     9.99231068E+04   # ~chi_20
   1000025    -1.00000002E+05   # ~chi_30
   1000035     1.00076914E+05   # ~chi_40
   1000024     9.99230978E+04   # ~chi_1+
   1000037     1.00076905E+05   # ~chi_2+
   1000039     1.00000000E-09   # ~gravitino
#
BLOCK NMIX  # Neutralino Mixing Matrix
  1  1     9.99999900E-01   # N_11
  1  2    -3.23861252E-07   # N_12
  1  3     3.72174739E-04   # N_13
  1  4    -2.48137109E-04   # N_14
  2  1     3.10371470E-04   # N_21
  2  2     7.07148282E-01   # N_22
  2  3    -5.00009062E-01   # N_23
  2  4     4.99932144E-01   # N_24
  3  1     8.77077576E-05   # N_31
  3  2    -7.69034258E-05   # N_32
  3  3    -7.07106742E-01   # N_33
  3  4    -7.07106811E-01   # N_34
  4  1     3.09940329E-04   # N_41
  4  2    -7.07065279E-01   # N_42
  4  3    -4.99990851E-01   # N_43
  4  4     5.00067740E-01   # N_44
#
BLOCK UMIX  # Chargino Mixing Matrix U
  1  1    -7.07052400E-01   # U_11
  1  2     7.07161158E-01   # U_12
  2  1     7.07161158E-01   # U_21
  2  2     7.07052400E-01   # U_22
#
BLOCK VMIX  # Chargino Mixing Matrix V
  1  1    -7.07161158E-01   # V_11
  1  2     7.07052400E-01   # V_12
  2  1     7.07052400E-01   # V_21
  2  2     7.07161158E-01   # V_22
#
BLOCK STOPMIX  # Stop Mixing Matrix
  1  1     9.99999514E-01   # cos(theta_t)
  1  2     9.85900484E-04   # sin(theta_t)
  2  1    -9.85900484E-04   # -sin(theta_t)
  2  2     9.99999514E-01   # cos(theta_t)
#
BLOCK SBOTMIX  # Sbottom Mixing Matrix
  1  1     7.06501306E-01   # cos(theta_b)
  1  2     7.07711738E-01   # sin(theta_b)
  2  1    -7.07711738E-01   # -sin(theta_b)
  2  2     7.06501306E-01   # cos(theta_b)
#
BLOCK STAUMIX  # Stau Mixing Matrix
  1  1     7.07087783E-01   # cos(theta_tau)
  1  2     7.07125779E-01   # sin(theta_tau)
  2  1    -7.07125779E-01   # -sin(theta_tau)
  2  2     7.07087783E-01   # cos(theta_tau)
#
BLOCK ALPHA  # Higgs mixing
          -3.95293723E-01   # Mixing angle in the neutral Higgs boson sector
#
BLOCK HMIX Q=  9.11876000E+01  # DRbar Higgs Parameters
         1     1.00000000E+05   # mu(Q)               
         2     1.49999982E+00   # tanbeta(Q)          
         3     2.55538082E+02   # vev(Q)              
         4    -2.16994730E+09   # MA^2(Q)             
#
BLOCK GAUGE Q=  9.11876000E+01  # The gauge couplings
     1     3.50125117E-01   # gprime(Q) DRbar
     2     6.13928097E-01   # g(Q) DRbar
     3     1.07935707E+00   # g3(Q) DRbar
#
BLOCK AU Q=  9.11876000E+01  # The trilinear couplings
  1  1     0.00000000E+00   # A_u(Q) DRbar
  2  2     0.00000000E+00   # A_c(Q) DRbar
  3  3     0.00000000E+00   # A_t(Q) DRbar
#
BLOCK AD Q=  9.11876000E+01  # The trilinear couplings
  1  1     0.00000000E+00   # A_d(Q) DRbar
  2  2     0.00000000E+00   # A_s(Q) DRbar
  3  3     0.00000000E+00   # A_b(Q) DRbar
#
BLOCK AE Q=  9.11876000E+01  # The trilinear couplings
  1  1     0.00000000E+00   # A_e(Q) DRbar
  2  2     0.00000000E+00   # A_mu(Q) DRbar
  3  3     0.00000000E+00   # A_tau(Q) DRbar
#
BLOCK Yu Q=  9.11876000E+01  # The Yukawa couplings
  1  1     0.00000000E+00   # y_u(Q) DRbar
  2  2     0.00000000E+00   # y_c(Q) DRbar
  3  3     9.82932165E-01   # y_t(Q) DRbar
#
BLOCK Yd Q=  9.11876000E+01  # The Yukawa couplings
  1  1     0.00000000E+00   # y_d(Q) DRbar
  2  2     0.00000000E+00   # y_s(Q) DRbar
  3  3     2.04922075E-02   # y_b(Q) DRbar
#
BLOCK Ye Q=  9.11876000E+01  # The Yukawa couplings
  1  1     0.00000000E+00   # y_e(Q) DRbar
  2  2     0.00000000E+00   # y_mu(Q) DRbar
  3  3     1.77653380E-02   # y_tau(Q) DRbar
#
BLOCK MSOFT Q=  9.11876000E+01  # The soft SUSY breaking masses at the scale Q
         1     1.00000000E+01   # M_1                 
         2     1.00000000E+05   # M_2                 
         3     1.50000000E+03   # M_3                 
        14     0.00000000E+00   # A_u                 
        15     0.00000000E+00   # A_d                 
        16     0.00000000E+00   # A_e                 
        21    -1.06571361E+10   # M^2_Hd              
        22    -1.00558837E+10   # M^2_Hu              
        31     1.00000000E+05   # M_eL                
        32     1.00000000E+05   # M_muL               
        33     1.00000000E+05   # M_tauL              
        34     1.00000000E+05   # M_eR                
        35     1.00000000E+05   # M_muR               
        36     1.00000000E+05   # M_tauR              
        41     3.00000000E+03   # M_q1L               
        42     3.00000000E+03   # M_q2L               
        43     3.00000000E+03   # M_q3L               
        44     1.00000000E+05   # M_uR                
        45     1.00000000E+05   # M_cR                
        46     1.00000000E+05   # M_tR                
        47     3.00000000E+03   # M_dR                
        48     3.00000000E+03   # M_sR                
        49     3.00000000E+03   # M_bR                
#
#
#
#                             =================
#                             |The decay table|
#                             =================
#
# - The QCD corrections to the decays gluino -> squark  + quark
#                                     squark -> gaugino + quark_prime
#                                     squark -> squark_prime + Higgs
#                                     squark -> gluino  + quark
#   are included.
#
# - The multi-body decays for the inos, stops and sbottoms are included.
#
# - The loop induced decays for the gluino, neutralinos and stops
#   are included.
#
# - The SUSY decays of the top quark are included.
#
# - Possible decays of the NLSP in GMSB models are included.
#
#
#         PDG            Width
DECAY         6     1.30162010E+00   # top decays
#          BR         NDA      ID1       ID2
     1.00000000E+00    2           5        24   # BR(t ->  b    W+)
#
#         PDG            Width
DECAY   1000021     1.E-04   # gluino decays (OJ Mods)
#          BR         NDA      ID1       ID2
     4.05381766E-02    2     1000022        21   # BR(~g -> ~chi_10 g)
#          BR         NDA      ID1       ID2
     4.55352650E-02    2     1000039        21   # BR(~g -> ~G      g)
#           BR         NDA      ID1       ID2       ID3
     2.56468641E-01    3     1000022         1        -1   # BR(~g -> ~chi_10 d  db)
     5.13135096E-02    3     1000022         2        -2   # BR(~g -> ~chi_10 u  ub)
     2.56468641E-01    3     1000022         3        -3   # BR(~g -> ~chi_10 s  sb)
     5.13135096E-02    3     1000022         4        -4   # BR(~g -> ~chi_10 c  cb)
     2.57334460E-01    3     1000022         5        -5   # BR(~g -> ~chi_10 b  bb)
     4.10277975E-02    3     1000022         6        -6   # BR(~g -> ~chi_10 t  tb)
#
#         PDG            Width
DECAY   1000006     1.08147938E+02   # stop1 decays
#          BR         NDA      ID1       ID2
     3.58817699E-03    2     1000022         6   # BR(~t_1 -> ~chi_10 t )
     9.96411823E-01    2     1000021         6   # BR(~t_1 -> ~g      t )
#
#         PDG            Width
DECAY   2000006     4.90856026E+03   # stop2 decays
#          BR         NDA      ID1       ID2
     4.27908862E-02    2     1000022         6   # BR(~t_2 -> ~chi_10 t )
     3.14401492E-07    2     1000024         5   # BR(~t_2 -> ~chi_1+ b )
     5.61511739E-01    2     1000021         6   # BR(~t_2 -> ~g      t )
     9.96081544E-03    2     1000006        25   # BR(~t_2 -> ~t_1    h )
     6.17292305E-02    2     1000006        35   # BR(~t_2 -> ~t_1    H )
     5.05028551E-02    2     1000006        36   # BR(~t_2 -> ~t_1    A )
     5.02439222E-02    2     1000005        37   # BR(~t_2 -> ~b_1    H+)
     5.07820906E-02    2     2000005        37   # BR(~t_2 -> ~b_2    H+)
     5.70287882E-02    2     1000006        23   # BR(~t_2 -> ~t_1    Z )
     5.74909216E-02    2     1000005        24   # BR(~t_2 -> ~b_1    W+)
     5.79584365E-02    2     2000005        24   # BR(~t_2 -> ~b_2    W+)
#
#         PDG            Width
DECAY   1000005     1.05607162E+02   # sbottom1 decays
#          BR         NDA      ID1       ID2
     9.08676417E-03    2     1000022         5   # BR(~b_1 -> ~chi_10 b )
     9.90913236E-01    2     1000021         5   # BR(~b_1 -> ~g      b )
#
#         PDG            Width
DECAY   2000005     1.12919919E+02   # sbottom2 decays
#          BR         NDA      ID1       ID2
     8.75574188E-03    2     1000022         5   # BR(~b_2 -> ~chi_10 b )
     9.90607409E-01    2     1000021         5   # BR(~b_2 -> ~g      b )
     6.36848907E-04    2     1000005        23   # BR(~b_2 -> ~b_1    Z )
#
#         PDG            Width
DECAY   1000002     6.53627057E+01   # sup_L decays
#          BR         NDA      ID1       ID2
     5.96211901E-03    2     1000022         2   # BR(~u_L -> ~chi_10 u)
     9.94037881E-01    2     1000021         2   # BR(~u_L -> ~g      u)
#
#         PDG            Width
DECAY   2000002     4.05908951E+03   # sup_R decays
#          BR         NDA      ID1       ID2
     5.17464943E-02    2     1000022         2   # BR(~u_R -> ~chi_10 u)
     6.37152879E-13    2     1000023         2   # BR(~u_R -> ~chi_20 u)
     9.48253506E-01    2     1000021         2   # BR(~u_R -> ~g      u)
#
#         PDG            Width
DECAY   1000001     6.53826877E+01   # sdown_L decays
#          BR         NDA      ID1       ID2
     5.96113894E-03    2     1000022         1   # BR(~d_L -> ~chi_10 d)
     9.94038861E-01    2     1000021         1   # BR(~d_L -> ~g      d)
#
#         PDG            Width
DECAY   2000001     6.65429722E+01   # sdown_R decays
#          BR         NDA      ID1       ID2
     2.34273034E-02    2     1000022         1   # BR(~d_R -> ~chi_10 d)
     9.76572697E-01    2     1000021         1   # BR(~d_R -> ~g      d)
#
#         PDG            Width
DECAY   1000004     6.53627057E+01   # scharm_L decays
#          BR         NDA      ID1       ID2
     5.96211901E-03    2     1000022         4   # BR(~c_L -> ~chi_10 c)
     9.94037881E-01    2     1000021         4   # BR(~c_L -> ~g      c)
#
#         PDG            Width
DECAY   2000004     4.05908951E+03   # scharm_R decays
#          BR         NDA      ID1       ID2
     5.17464943E-02    2     1000022         4   # BR(~c_R -> ~chi_10 c)
     6.37152879E-13    2     1000023         4   # BR(~c_R -> ~chi_20 c)
     9.48253506E-01    2     1000021         4   # BR(~c_R -> ~g      c)
#
#         PDG            Width
DECAY   1000003     6.53826877E+01   # sstrange_L decays
#          BR         NDA      ID1       ID2
     5.96113894E-03    2     1000022         3   # BR(~s_L -> ~chi_10 s)
     9.94038861E-01    2     1000021         3   # BR(~s_L -> ~g      s)
#
#         PDG            Width
DECAY   2000003     6.65429722E+01   # sstrange_R decays
#          BR         NDA      ID1       ID2
     2.34273034E-02    2     1000022         3   # BR(~s_R -> ~chi_10 s)
     9.76572697E-01    2     1000021         3   # BR(~s_R -> ~g      s)
#
#         PDG            Width
DECAY   1000011     1.21941307E+02   # selectron_L decays
#          BR         NDA      ID1       ID2
     9.99989097E-01    2     1000022        11   # BR(~e_L -> ~chi_10 e-)
     3.63554642E-06    2     1000023        11   # BR(~e_L -> ~chi_20 e-)
     3.55527513E-24    2     1000025        11   # BR(~e_L -> ~chi_30 e-)
     7.26718365E-06    2    -1000024        12   # BR(~e_L -> ~chi_1- nu_e)
#
#         PDG            Width
DECAY   2000011     4.87760465E+02   # selectron_R decays
#          BR         NDA      ID1       ID2
     1.00000000E+00    2     1000022        11   # BR(~e_R -> ~chi_10 e-)
     2.27672547E-13    2     1000023        11   # BR(~e_R -> ~chi_20 e-)
     1.23082428E-23    2     1000025        11   # BR(~e_R -> ~chi_30 e-)
#
#         PDG            Width
DECAY   1000013     1.21941307E+02   # smuon_L decays
#          BR         NDA      ID1       ID2
     9.99989097E-01    2     1000022        13   # BR(~mu_L -> ~chi_10 mu-)
     3.63554642E-06    2     1000023        13   # BR(~mu_L -> ~chi_20 mu-)
     3.55527513E-24    2     1000025        13   # BR(~mu_L -> ~chi_30 mu-)
     7.26718365E-06    2    -1000024        14   # BR(~mu_L -> ~chi_1- nu_mu)
#
#         PDG            Width
DECAY   2000013     4.87760465E+02   # smuon_R decays
#          BR         NDA      ID1       ID2
     1.00000000E+00    2     1000022        13   # BR(~mu_R -> ~chi_10 mu-)
     2.27672547E-13    2     1000023        13   # BR(~mu_R -> ~chi_20 mu-)
     1.23082428E-23    2     1000025        13   # BR(~mu_R -> ~chi_30 mu-)
#
#         PDG            Width
DECAY   1000015     1.18170380E+04   # stau_1 decays
#          BR         NDA      ID1       ID2
     2.57982785E-02    2     1000022        15   # BR(~tau_1 -> ~chi_10  tau-)
     1.91590452E-08    2     1000023        15   # BR(~tau_1 -> ~chi_20  tau-)
     3.83297402E-08    2    -1000024        16   # BR(~tau_1 -> ~chi_1-  nu_tau)
     9.74201664E-01    2     1000039        15   # BR(~tau_1 -> ~G       tau-)
#
#         PDG            Width
DECAY   2000015     3.04841854E+02   # stau_2 decays
#          BR         NDA      ID1       ID2
     9.99997872E-01    2     1000022        15   # BR(~tau_2 -> ~chi_10  tau-)
     7.09202575E-07    2     1000023        15   # BR(~tau_2 -> ~chi_20  tau-)
     1.41861488E-06    2    -1000024        16   # BR(~tau_2 -> ~chi_1-  nu_tau)
#
#         PDG            Width
DECAY   1000012     1.21941569E+02   # snu_eL decays
#          BR         NDA      ID1       ID2
     9.99989102E-01    2     1000022        12   # BR(~nu_eL -> ~chi_10 nu_e)
     3.63078669E-06    2     1000023        12   # BR(~nu_eL -> ~chi_20 nu_e)
     7.26717501E-06    2     1000024        11   # BR(~nu_eL -> ~chi_1+ e-)
#
#         PDG            Width
DECAY   1000014     1.21941569E+02   # snu_muL decays
#          BR         NDA      ID1       ID2
     9.99989102E-01    2     1000022        14   # BR(~nu_muL -> ~chi_10 nu_mu)
     3.63078669E-06    2     1000023        14   # BR(~nu_muL -> ~chi_20 nu_mu)
     7.26717501E-06    2     1000024        13   # BR(~nu_muL -> ~chi_1+ mu-)
#
#         PDG            Width
DECAY   1000016     1.21941569E+02   # snu_tauL decays
#          BR         NDA      ID1       ID2
     9.99989108E-01    2     1000022        16   # BR(~nu_tauL -> ~chi_10 nu_tau)
     3.63078671E-06    2     1000023        16   # BR(~nu_tauL -> ~chi_20 nu_tau)
     7.26160320E-06    2     1000024        15   # BR(~nu_tauL -> ~chi_1+ tau-)
#
#         PDG            Width
DECAY   1000024     3.92123893E+03   # chargino1+ decays
#          BR         NDA      ID1       ID2
     3.53486629E-02    2     1000002        -1   # BR(~chi_1+ -> ~u_L     db)
     3.53377779E-02    2    -1000001         2   # BR(~chi_1+ -> ~d_L*    u )
     3.53486629E-02    2     1000004        -3   # BR(~chi_1+ -> ~c_L     sb)
     3.53377779E-02    2    -1000003         4   # BR(~chi_1+ -> ~s_L*    c )
     3.20391678E-02    2     1000006        -5   # BR(~chi_1+ -> ~t_1     bb)
     3.94376771E-02    2    -1000005         6   # BR(~chi_1+ -> ~b_1*    t )
     3.81596235E-02    2    -2000005         6   # BR(~chi_1+ -> ~b_2*    t )
     1.87910817E-03    2     1000022        24   # BR(~chi_1+ -> ~chi_10  W+)
     1.98132478E-03    2     1000022        37   # BR(~chi_1+ -> ~chi_10  H+)
     5.59065286E-01    2     1000039        24   # BR(~chi_1+ -> ~G       W+)
     1.86064931E-01    2     1000039        37   # BR(~chi_1+ -> ~G       H+)
#
#         PDG            Width
DECAY   1000037     3.92542683E+03   # chargino2+ decays
#          BR         NDA      ID1       ID2
     3.51803525E-02    2     1000002        -1   # BR(~chi_2+ -> ~u_L     db)
     3.51911634E-02    2    -1000001         2   # BR(~chi_2+ -> ~d_L*    u )
     3.51803525E-02    2     1000004        -3   # BR(~chi_2+ -> ~c_L     sb)
     3.51911634E-02    2    -1000003         4   # BR(~chi_2+ -> ~s_L*    c )
     3.17984466E-02    2     1000006        -5   # BR(~chi_2+ -> ~t_1     bb)
     2.33673535E-07    2     2000006        -5   # BR(~chi_2+ -> ~t_2     bb)
     3.76076882E-02    2    -1000005         6   # BR(~chi_2+ -> ~b_1*    t )
     3.94759175E-02    2    -2000005         6   # BR(~chi_2+ -> ~b_2*    t )
     2.86097403E-08    2     1000012       -11   # BR(~chi_2+ -> ~nu_eL   e+  )
     2.86097403E-08    2     1000014       -13   # BR(~chi_2+ -> ~nu_muL  mu+ )
     2.85878000E-08    2     1000016       -15   # BR(~chi_2+ -> ~nu_tau1 tau+)
     2.86097651E-08    2    -1000011        12   # BR(~chi_2+ -> ~e_L+    nu_e)
     2.86097651E-08    2    -1000013        14   # BR(~chi_2+ -> ~mu_L+   nu_mu)
     1.39606311E-08    2    -1000015        16   # BR(~chi_2+ -> ~tau_1+  nu_tau)
     1.46242957E-08    2    -2000015        16   # BR(~chi_2+ -> ~tau_2+  nu_tau)
     7.31906564E-05    2     1000024        23   # BR(~chi_2+ -> ~chi_1+  Z )
     1.86564338E-03    2     1000022        24   # BR(~chi_2+ -> ~chi_10  W+)
     8.37488629E-05    2     1000023        24   # BR(~chi_2+ -> ~chi_20  W+)
     2.51562243E-12    2     1000024        25   # BR(~chi_2+ -> ~chi_1+  h )
     1.96573777E-03    2     1000022        37   # BR(~chi_2+ -> ~chi_10  H+)
     5.60028988E-01    2     1000039        24   # BR(~chi_2+ -> ~G       W+)
     1.86357202E-01    2     1000039        37   # BR(~chi_2+ -> ~G       H+)
#
#         PDG            Width
DECAY   1000022     1.E-08   # neutralino1 decays (OJ Mods)
#          BR         NDA      ID1       ID2
     1.00000000E+00    2     1000039        22   # BR(~chi_10 -> ~G        gam)
#
#         PDG            Width
DECAY   1000023     1.E-08   # neutralino2 decays (OJ Mods)
#          BR         NDA      ID1       ID2
     7.45588122E-05    2     1000022        23   # BR(~chi_20 -> ~chi_10   Z )
     1.69577825E-03    2     1000022        25   # BR(~chi_20 -> ~chi_10   h )
     2.86843094E-04    2     1000022        35   # BR(~chi_20 -> ~chi_10   H )
     1.90448294E-03    2     1000022        36   # BR(~chi_20 -> ~chi_10   A )
     1.71162740E-02    2     1000002        -2   # BR(~chi_20 -> ~u_L      ub)
     1.71162740E-02    2    -1000002         2   # BR(~chi_20 -> ~u_L*     u )
     1.71105583E-02    2     1000001        -1   # BR(~chi_20 -> ~d_L      db)
     1.71105583E-02    2    -1000001         1   # BR(~chi_20 -> ~d_L*     d )
     4.76549814E-10    2     2000001        -1   # BR(~chi_20 -> ~d_R      db)
     4.76549814E-10    2    -2000001         1   # BR(~chi_20 -> ~d_R*     d )
     1.71162740E-02    2     1000004        -4   # BR(~chi_20 -> ~c_L      cb)
     1.71162740E-02    2    -1000004         4   # BR(~chi_20 -> ~c_L*     c )
     1.71105583E-02    2     1000003        -3   # BR(~chi_20 -> ~s_L      sb)
     1.71105583E-02    2    -1000003         3   # BR(~chi_20 -> ~s_L*     s )
     4.76549814E-10    2     2000003        -3   # BR(~chi_20 -> ~s_R      sb)
     4.76549814E-10    2    -2000003         3   # BR(~chi_20 -> ~s_R*     s )
     3.88003649E-02    2     1000006        -6   # BR(~chi_20 -> ~t_1      tb)
     3.88003649E-02    2    -1000006         6   # BR(~chi_20 -> ~t_1*     t )
     8.37017865E-03    2     1000005        -5   # BR(~chi_20 -> ~b_1      bb)
     8.37017865E-03    2    -1000005         5   # BR(~chi_20 -> ~b_1*     b )
     7.63194874E-03    2     2000005        -5   # BR(~chi_20 -> ~b_2      bb)
     7.63194874E-03    2    -2000005         5   # BR(~chi_20 -> ~b_2*     b )
     9.16127524E-02    2     1000039        22   # BR(~chi_20 -> ~G        gam)
     4.60237653E-01    2     1000039        23   # BR(~chi_20 -> ~G        Z)
     2.69335590E-02    2     1000039        25   # BR(~chi_20 -> ~G        h)
     1.59119391E-01    2     1000039        35   # BR(~chi_20 -> ~G        H)
     7.15986599E-03    2     1000039        36   # BR(~chi_20 -> ~G        A)
#
#         PDG            Width
DECAY   1000025     1.52292669E+03   # neutralino3 decays
#          BR         NDA      ID1       ID2
     4.41292738E-03    2     1000022        23   # BR(~chi_30 -> ~chi_10   Z )
     6.76781778E-04    2     1000022        25   # BR(~chi_30 -> ~chi_10   h )
     3.99981283E-03    2     1000022        35   # BR(~chi_30 -> ~chi_10   H )
     1.79921470E-04    2     1000022        36   # BR(~chi_30 -> ~chi_10   A )
     1.46771878E-10    2     1000002        -2   # BR(~chi_30 -> ~u_L      ub)
     1.46771878E-10    2    -1000002         2   # BR(~chi_30 -> ~u_L*     u )
     2.78055391E-18    2     2000002        -2   # BR(~chi_30 -> ~u_R      ub)
     2.78055391E-18    2    -2000002         2   # BR(~chi_30 -> ~u_R*     u )
     3.54284177E-10    2     1000001        -1   # BR(~chi_30 -> ~d_L      db)
     3.54284177E-10    2    -1000001         1   # BR(~chi_30 -> ~d_L*     d )
     4.49904967E-11    2     2000001        -1   # BR(~chi_30 -> ~d_R      db)
     4.49904967E-11    2    -2000001         1   # BR(~chi_30 -> ~d_R*     d )
     1.46771878E-10    2     1000004        -4   # BR(~chi_30 -> ~c_L      cb)
     1.46771878E-10    2    -1000004         4   # BR(~chi_30 -> ~c_L*     c )
     2.78055391E-18    2     2000004        -4   # BR(~chi_30 -> ~c_R      cb)
     2.78055391E-18    2    -2000004         4   # BR(~chi_30 -> ~c_R*     c )
     3.54284177E-10    2     1000003        -3   # BR(~chi_30 -> ~s_L      sb)
     3.54284177E-10    2    -1000003         3   # BR(~chi_30 -> ~s_L*     s )
     4.49904967E-11    2     2000003        -3   # BR(~chi_30 -> ~s_R      sb)
     4.49904967E-11    2    -2000003         3   # BR(~chi_30 -> ~s_R*     s )
     5.37837747E-02    2     1000006        -6   # BR(~chi_30 -> ~t_1      tb)
     5.37837747E-02    2    -1000006         6   # BR(~chi_30 -> ~t_1*     t )
     1.99835049E-05    2     1000005        -5   # BR(~chi_30 -> ~b_1      bb)
     1.99835049E-05    2    -1000005         5   # BR(~chi_30 -> ~b_1*     b )
     2.03218940E-05    2     2000005        -5   # BR(~chi_30 -> ~b_2      bb)
     2.03218940E-05    2    -2000005         5   # BR(~chi_30 -> ~b_2*     b )
     8.90639214E-24    2     1000012       -12   # BR(~chi_30 -> ~nu_eL    nu_eb)
     8.90639214E-24    2    -1000012        12   # BR(~chi_30 -> ~nu_eL*   nu_e )
     8.90639214E-24    2     1000014       -14   # BR(~chi_30 -> ~nu_muL   nu_mub)
     8.90639214E-24    2    -1000014        14   # BR(~chi_30 -> ~nu_muL*  nu_mu )
     8.90639214E-24    2     1000016       -16   # BR(~chi_30 -> ~nu_tau1  nu_taub)
     8.90639214E-24    2    -1000016        16   # BR(~chi_30 -> ~nu_tau1* nu_tau )
     1.28239001E-09    2     1000039        22   # BR(~chi_30 -> ~G        gam)
     1.69974127E-02    2     1000039        23   # BR(~chi_30 -> ~G        Z)
     3.78020577E-01    2     1000039        25   # BR(~chi_30 -> ~G        h)
     6.38074030E-02    2     1000039        35   # BR(~chi_30 -> ~G        H)
     4.24257000E-01    2     1000039        36   # BR(~chi_30 -> ~G        A)
#
#         PDG            Width
DECAY   1000035     3.92665280E+03   # neutralino4 decays
#          BR         NDA      ID1       ID2
     7.43597002E-05    2     1000022        23   # BR(~chi_40 -> ~chi_10   Z )
     2.77900647E-19    2     1000023        23   # BR(~chi_40 -> ~chi_20   Z )
     8.37208214E-05    2     1000024       -24   # BR(~chi_40 -> ~chi_1+   W-)
     8.37208214E-05    2    -1000024        24   # BR(~chi_40 -> ~chi_1-   W+)
     1.68410217E-03    2     1000022        25   # BR(~chi_40 -> ~chi_10   h )
     2.84122357E-04    2     1000022        35   # BR(~chi_40 -> ~chi_10   H )
     1.89030925E-03    2     1000022        36   # BR(~chi_40 -> ~chi_10   A )
     7.58018085E-13    2     1000023        25   # BR(~chi_40 -> ~chi_20   h )
     1.70307007E-02    2     1000002        -2   # BR(~chi_40 -> ~u_L      ub)
     1.70307007E-02    2    -1000002         2   # BR(~chi_40 -> ~u_L*     u )
     4.95226570E-13    2     2000002        -2   # BR(~chi_40 -> ~u_R      ub)
     4.95226570E-13    2    -2000002         2   # BR(~chi_40 -> ~u_R*     u )
     1.70363742E-02    2     1000001        -1   # BR(~chi_40 -> ~d_L      db)
     1.70363742E-02    2    -1000001         1   # BR(~chi_40 -> ~d_L*     d )
     4.73119659E-10    2     2000001        -1   # BR(~chi_40 -> ~d_R      db)
     4.73119659E-10    2    -2000001         1   # BR(~chi_40 -> ~d_R*     d )
     1.70307007E-02    2     1000004        -4   # BR(~chi_40 -> ~c_L      cb)
     1.70307007E-02    2    -1000004         4   # BR(~chi_40 -> ~c_L*     c )
     4.95226570E-13    2     2000004        -4   # BR(~chi_40 -> ~c_R      cb)
     4.95226570E-13    2    -2000004         4   # BR(~chi_40 -> ~c_R*     c )
     1.70363742E-02    2     1000003        -3   # BR(~chi_40 -> ~s_L      sb)
     1.70363742E-02    2    -1000003         3   # BR(~chi_40 -> ~s_L*     s )
     4.73119659E-10    2     2000003        -3   # BR(~chi_40 -> ~s_R      sb)
     4.73119659E-10    2    -2000003         3   # BR(~chi_40 -> ~s_R*     s )
     3.84927350E-02    2     1000006        -6   # BR(~chi_40 -> ~t_1      tb)
     3.84927350E-02    2    -1000006         6   # BR(~chi_40 -> ~t_1*     t )
     7.54893149E-03    2     1000005        -5   # BR(~chi_40 -> ~b_1      bb)
     7.54893149E-03    2    -1000005         5   # BR(~chi_40 -> ~b_1*     b )
     8.38487833E-03    2     2000005        -5   # BR(~chi_40 -> ~b_2      bb)
     8.38487833E-03    2    -2000005         5   # BR(~chi_40 -> ~b_2*     b )
     1.42955659E-08    2     1000011       -11   # BR(~chi_40 -> ~e_L-     e+)
     1.42955659E-08    2    -1000011        11   # BR(~chi_40 -> ~e_L+     e-)
     3.57542096E-15    2     2000011       -11   # BR(~chi_40 -> ~e_R-     e+)
     3.57542096E-15    2    -2000011        11   # BR(~chi_40 -> ~e_R+     e-)
     1.42955659E-08    2     1000013       -13   # BR(~chi_40 -> ~mu_L-    mu+)
     1.42955659E-08    2    -1000013        13   # BR(~chi_40 -> ~mu_L+    mu-)
     3.57542096E-15    2     2000013       -13   # BR(~chi_40 -> ~mu_R-    mu+)
     3.57542096E-15    2    -2000013        13   # BR(~chi_40 -> ~mu_R+    mu-)
     6.97046073E-09    2     1000015       -15   # BR(~chi_40 -> ~tau_1-   tau+)
     6.97046073E-09    2    -1000015        15   # BR(~chi_40 -> ~tau_1+   tau-)
     7.30172714E-09    2     2000015       -15   # BR(~chi_40 -> ~tau_2-   tau+)
     7.30172714E-09    2    -2000015        15   # BR(~chi_40 -> ~tau_2+   tau-)
     1.43142578E-08    2     1000012       -12   # BR(~chi_40 -> ~nu_eL    nu_eb)
     1.43142578E-08    2    -1000012        12   # BR(~chi_40 -> ~nu_eL*   nu_e )
     1.43142578E-08    2     1000014       -14   # BR(~chi_40 -> ~nu_muL   nu_mub)
     1.43142578E-08    2    -1000014        14   # BR(~chi_40 -> ~nu_muL*  nu_mu )
     1.43142578E-08    2     1000016       -16   # BR(~chi_40 -> ~nu_tau1  nu_taub)
     1.43142578E-08    2    -1000016        16   # BR(~chi_40 -> ~nu_tau1* nu_tau )
     9.14657797E-02    2     1000039        22   # BR(~chi_40 -> ~G        gam)
     4.61292229E-01    2     1000039        23   # BR(~chi_40 -> ~G        Z)
     2.70060689E-02    2     1000039        25   # BR(~chi_40 -> ~G        h)
     1.59409080E-01    2     1000039        35   # BR(~chi_40 -> ~G        H)
     7.16278255E-03    2     1000039        36   # BR(~chi_40 -> ~G        A)
#
#
#
#
