# SUSY Les Houches Accord 2 - MSSM spectrum + Decays
# SPheno v3.3.6  
# W. Porod, Comput. Phys. Commun. 153 (2003) 275-315, hep-ph/0301101
# in case of problems send email to porod@physik.uni-wuerzburg.de
# Created: 06.12.2016,  13:43
Block SPINFO         # Program information
     1   SPheno      # spectrum calculator
     2   v3.3.6      # version number
#
Block SPhenoINFO     # SPheno specific information
    1      2         # using 2-loop RGEs
    2      1         # using running masses for boundary conditions at mZ
Block MODSEL  # Model selection
    1    2    # mGMSB model
Block MINPAR  # Input parameters
    1    2.50000000E+05  # Lambda, scale of SUSY breaking
    2    5.00000000E+05  # M_M, messenger mass scale
    3    1.00000000E+01  # tanb at m_Z   
    4    1.00000000E+00  # Sign(mu)
    5    3.00000000E+00  # N_5 number of effective five-plets
    6    1.00000000E+05  # c_grav, Gravitino mass factor
Block gauge Q=  5.00000000E+05  # (GMSB scale)
   1    4.95528910E-01  # g'(Q)^DRbar
   2    6.45403264E-01  # g(Q)^DRbar
   3    9.16146490E-01  # g3(Q)^DRbar
Block SMINPUTS  # SM parameters
         1     1.27931150E+02  # alpha_em^-1(MZ)^MSbar
         2     1.16637900E-05  # G_mu [GeV^-2]
         3     1.18400000E-01  # alpha_s(MZ)^MSbar
         4     9.11876000E+01  # m_Z(pole)
         5     4.18000000E+00  # m_b(m_b), MSbar
         6     1.73100000E+02  # m_t(pole)
         7     1.77682000E+00  # m_tau(pole)
         8     0.00000000E+00  # m_nu_3
        11     5.10998930E-04  # m_e(pole)
        12     0.00000000E+00  # m_nu_1
        13     1.05658372E-01  # m_muon(pole)
        14     0.00000000E+00  # m_nu_2
        21     5.00000000E-03  # m_d(2 GeV), MSbar
        22     2.50000000E-03  # m_u(2 GeV), MSbar
        23     9.50000000E-02  # m_s(2 GeV), MSbar
        24     1.27000000E+00  # m_c(m_c), MSbar
Block gauge Q=  4.38892564E+03  # (SUSY scale)
   1    3.66179951E-01  # g'(Q)^DRbar
   2    6.36089604E-01  # g(Q)^DRbar
   3    9.91635011E-01  # g3(Q)^DRbar
Block Yu Q=  4.38892564E+03  # (SUSY scale)
#   1  1     6.73466937E-06   # Y_u(Q)^DRbar
  1  1     0.0   # Y_u(Q)^DRbar
#   2  2     3.42121252E-03   # Y_c(Q)^DRbar
  2  2     0.0   # Y_c(Q)^DRbar
#   3  3     8.27756779E-01   # Y_t(Q)^DRbar
  3  3     0.0   # Y_t(Q)^DRbar
Block Yd Q=  4.38892564E+03  # (SUSY scale)
#   1  1     1.26659143E-04   # Y_d(Q)^DRbar
  1  1     0.0   # Y_d(Q)^DRbar
#   2  2     2.40652256E-03   # Y_s(Q)^DRbar
  2  2     0.0   # Y_s(Q)^DRbar
#   3  3     1.23866432E-01   # Y_b(Q)^DRbar
  3  3     0.0   # Y_b(Q)^DRbar
Block Ye Q=  4.38892564E+03  # (SUSY scale)
#   1  1     2.83316411E-05   # Y_e(Q)^DRbar
  1  1     0.0   # Y_e(Q)^DRbar
#   2  2     5.85808803E-03   # Y_mu(Q)^DRbar
  2  2     0.0   # Y_mu(Q)^DRbar
#   3  3     9.85290303E-02   # Y_tau(Q)^DRbar
  3  3     0.0   # Y_tau(Q)^DRbar
Block Au Q=  4.38892564E+03  # (SUSY scale)
#   1  1    -1.37499224E+03   # A_u(Q)^DRbar
  1  1    0.0   # A_u(Q)^DRbar
#   2  2    -1.37499074E+03   # A_c(Q)^DRbar
  2  2    0.0   # A_c(Q)^DRbar
#   3  3    -1.29983410E+03   # A_t(Q)^DRbar
  3  3    0.0   # A_t(Q)^DRbar
Block Ad Q=  4.38892564E+03  # (SUSY scale)
#   1  1    -1.45961599E+03   # A_d(Q)^DRbar
  1  1    0.0   # A_d(Q)^DRbar
#   2  2    -1.45961491E+03   # A_s(Q)^DRbar
  2  2    0.0   # A_s(Q)^DRbar
#   3  3    -1.43362210E+03   # A_b(Q)^DRbar
  3  3    0.0   # A_b(Q)^DRbar
Block Ae Q=  4.38892564E+03  # (SUSY scale)
#   1  1    -1.74511105E+02   # A_e(Q)^DRbar
  1  1    0.0   # A_e(Q)^DRbar
#   2  2    -1.74510509E+02   # A_mu(Q)^DRbar
  2  2    0.0   # A_mu(Q)^DRbar
#   3  3    -1.74342635E+02   # A_tau(Q)^DRbar
  3  3    0.0   # A_tau(Q)^DRbar
Block MSOFT Q=  4.38892564E+03  # soft SUSY breaking masses at Q
   1    1.10426063E+03  # M_1
   2    1.99304111E+03  # M_2
   3    4.86367440E+03  # M_3
  21    2.30016317E+06  # M^2_(H,d)
  22   -1.83063226E+06  # M^2_(H,u)
  31    1.54884206E+03  # M_(L,11)
  32    1.54883886E+03  # M_(L,22)
  33    1.54793666E+03  # M_(L,33)
  34    7.63365358E+02  # M_(E,11)
  35    7.63352152E+02  # M_(E,22)
  36    7.59620604E+02  # M_(E,33)
  41    4.71733968E+03  # M_(Q,11)
  42    4.71733609E+03  # M_(Q,22)
  43    4.57520238E+03  # M_(Q,33)
  44    4.50742528E+03  # M_(U,11)
  45    4.50742026E+03  # M_(U,22)
  46    4.20604534E+03  # M_(U,33)
  47    4.48612387E+03  # M_(D,11)
  48    4.48612131E+03  # M_(D,22)
  49    4.47938971E+03  # M_(D,33)
Block MASS  # Mass spectrum
#   PDG code      mass          particle
         6     1.73100000E+02  # m_t(pole)
        23     9.11876000E+01  # m_Z(pole)
        24     8.04100818E+01  # W+
        15     1.77682000E+00  # m_tau(pole)
        25     1.23173975E+02  # h0
        35     2.18389276E+03  # H0
        36     2.18373803E+03  # A0
        37     2.18505282E+03  # H+
   1000001     4.89620911E+03  # ~d_L
   2000001     4.65487050E+03  # ~d_R
   1000002     4.89556536E+03  # ~u_L
   2000002     4.67508256E+03  # ~u_R
   1000003     4.89620484E+03  # ~s_L
   2000003     4.65486739E+03  # ~s_R
   1000004     4.89556117E+03  # ~c_L
   2000004     4.67507660E+03  # ~c_R
   1000005     4.64650477E+03  # ~b_1
   2000005     4.72645263E+03  # ~b_2
   1000006     4.31985761E+03  # ~t_1
   2000006     4.72972285E+03  # ~t_2
   1000011     1.58102329E+03  # ~e_L-
   2000011     7.90381510E+02  # ~e_R-
   1000012     1.57863615E+03  # ~nu_eL
   1000013     1.58101925E+03  # ~mu_L-
   2000013     7.90364190E+02  # ~mu_R-
   1000014     1.57863168E+03  # ~nu_muL
   1000015     7.85469804E+02  # ~tau_1-
   2000015     1.57988038E+03  # ~tau_2-
   1000016     1.57737124E+03  # ~nu_tauL
   1000021     5.09528107E+03  # ~g
   1000022     1.07808128E+03  # ~chi_10
   1000023     1.52572282E+03  # ~chi_20
   1000025    -1.53098969E+03  # ~chi_30
   1000035     2.04479681E+03  # ~chi_40
   1000024     1.52364461E+03  # ~chi_1+
   1000037     2.04489466E+03  # ~chi_2+
   1000039     3.00000000E-03  # ~G
# Higgs mixing
Block alpha # Effective Higgs mixing angle
          -1.05757526E-01   # alpha
Block Hmix Q=  4.38892564E+03  # Higgs mixing parameters
   1    1.50960030E+03  # mu
   2    9.46680548E+00  # tan[beta](Q)
   3    2.42925789E+02  # v(Q)
   4    4.21607238E+06  # m^2_A(Q)
Block stopmix # stop mixing matrix
   1  1     6.67418589E-02   # Re[R_st(1,1)]
   1  2     9.97770276E-01   # Re[R_st(1,2)]
   2  1    -9.97770276E-01   # Re[R_st(2,1)]
   2  2     6.67418589E-02   # Re[R_st(2,2)]
Block sbotmix # sbottom mixing matrix
   1  1     4.98616015E-02   # Re[R_sb(1,1)]
   1  2     9.98756137E-01   # Re[R_sb(1,2)]
   2  1    -9.98756137E-01   # Re[R_sb(2,1)]
   2  2     4.98616015E-02   # Re[R_sb(2,2)]
Block staumix # stau mixing matrix
   1  1     1.40371073E-02   # Re[R_sta(1,1)]
   1  2     9.99901475E-01   # Re[R_sta(1,2)]
   2  1    -9.99901475E-01   # Re[R_sta(2,1)]
   2  2     1.40371073E-02   # Re[R_sta(2,2)]
Block Nmix # neutralino mixing matrix
   1  1    -9.96921757E-01   # Re[N(1,1)]
   1  2     4.32716550E-03   # Re[N(1,2)]
   1  3    -6.24222928E-02   # Re[N(1,3)]
   1  4     4.72413355E-02   # Re[N(1,4)]
   2  1    -7.75329974E-02   # Re[N(2,1)]
   2  2    -1.17186165E-01   # Re[N(2,2)]
   2  3     7.00929896E-01   # Re[N(2,3)]
   2  4    -6.99251970E-01   # Re[N(2,4)]
   3  1    -1.06753716E-02   # Re[N(3,1)]
   3  2     1.38810187E-02   # Re[N(3,2)]
   3  3     7.06721681E-01   # Re[N(3,3)]
   3  4     7.07274925E-01   # Re[N(3,4)]
   4  1    -4.65634216E-03   # Re[N(4,1)]
   4  2     9.93003522E-01   # Re[N(4,2)]
   4  3     7.31109000E-02   # Re[N(4,3)]
   4  4    -9.26127373E-02   # Re[N(4,4)]
Block Umix # chargino mixing matrix
   1  1    -1.03447761E-01   # Re[U(1,1)]
   1  2     9.94634888E-01   # Re[U(1,2)]
   2  1     9.94634888E-01   # Re[U(2,1)]
   2  2     1.03447761E-01   # Re[U(2,2)]
Block Vmix # chargino mixing matrix
   1  1    -1.31009655E-01   # Re[V(1,1)]
   1  2     9.91381092E-01   # Re[V(1,2)]
   2  1     9.91381092E-01   # Re[V(2,1)]
   2  2     1.31009655E-01   # Re[V(2,2)]
DECAY        23     2.49520000E+00   # Z
DECAY        24     2.08500000E+00   # W
DECAY   2000011     7.15014386E-14   # ~e^-_R
#    BR                NDA      ID1      ID2
     5.49261552E-07    2     1000039        11   # BR(~e^-_R -> ~G e^-)
#    BR                NDA      ID1      ID2       ID3
     3.48265574E-01    3     1000015        11       -15   # BR(~e^-_R -> ~tau^-_1 e^- tau^+)
     6.51733877E-01    3    -1000015        15        11   # BR(~e^-_R -> ~tau^+_1 tau^- e^-)
     7.28606817E-12    3     1000015        12       -16   # BR(~e^-_R -> ~tau^-_1 nu_e nu_bar_tau)
DECAY   1000011     5.92401306E-01   # ~e^-_L
#    BR                NDA      ID1      ID2
     9.97501099E-01    2     1000022        11   # BR(~e^-_L -> chi^0_1 e^-)
     1.32873634E-03    2     1000023        11   # BR(~e^-_L -> chi^0_2 e^-)
     2.49403328E-06    2     1000025        11   # BR(~e^-_L -> chi^0_3 e^-)
     1.16764152E-03    2    -1000024        12   # BR(~e^-_L -> chi^-_1 nu_e)
     1.45207512E-08    2     2000011        23   # BR(~e^-_L -> ~e^-_R Z)
     1.45650101E-08    2     2000011        25   # BR(~e^-_L -> ~e^-_R h^0)
#    BR                NDA      ID1      ID2       ID3
     1.03099501E-10    3     1000012         1        -2   # BR(~e^-_L -> ~nu_e d u_bar)
     2.47482154E-11    3     1000012         3        -4   # BR(~e^-_L -> ~nu_e s c_bar)
DECAY   2000013     6.96846095E-14   # ~mu^-_R
#    BR                NDA      ID1      ID2
     5.63520205E-07    2     1000039        13   # BR(~mu^-_R -> ~G mu^-)
#    BR                NDA      ID1      ID2       ID3
     3.48247667E-01    3     1000015        13       -15   # BR(~mu^-_R -> ~tau^-_1 mu^- tau^+)
     6.51751456E-01    3    -1000015        15        13   # BR(~mu^-_R -> ~tau^+_1 tau^- mu^-)
     3.14033246E-07    3     1000015        14       -16   # BR(~mu^-_R -> ~tau^-_1 nu_mu nu_bar_tau)
DECAY   1000013     5.93136246E-01   # ~mu^-_L
#    BR                NDA      ID1      ID2
     9.96255352E-01    2     1000022        13   # BR(~mu^-_L -> chi^0_1 mu^-)
     1.33078313E-03    2     1000023        13   # BR(~mu^-_L -> chi^0_2 mu^-)
     6.01716089E-06    2     1000025        13   # BR(~mu^-_L -> chi^0_3 mu^-)
     1.16586283E-03    2    -1000024        14   # BR(~mu^-_L -> chi^-_1 nu_mu)
     6.20047828E-04    2     2000013        23   # BR(~mu^-_L -> ~mu^-_R Z)
     6.21936848E-04    2     2000013        25   # BR(~mu^-_L -> ~mu^-_R h^0)
#    BR                NDA      ID1      ID2       ID3
     1.03064915E-10    3     1000014         1        -2   # BR(~mu^-_L -> ~nu_mu d u_bar)
     2.47542185E-11    3     1000014         3        -4   # BR(~mu^-_L -> ~nu_mu s c_bar)
DECAY   1000015     3.80670042E-20   # ~tau^-_1
#    BR                NDA      ID1      ID2
     1.00000000E+00    2     1000039        15   # BR(~tau^-_1 -> ~G tau^-)
DECAY   2000015     8.01064884E-01   # ~tau^-_2
#    BR                NDA      ID1      ID2
     7.35622387E-01    2     1000022        15   # BR(~tau^-_2 -> chi^0_1 tau^-)
     1.72371864E-03    2     1000023        15   # BR(~tau^-_2 -> chi^0_2 tau^-)
     7.06977432E-04    2     1000025        15   # BR(~tau^-_2 -> chi^0_3 tau^-)
     7.96096829E-04    2    -1000024        16   # BR(~tau^-_2 -> chi^-_1 nu_tau)
     1.30402274E-01    2     1000015        23   # BR(~tau^-_2 -> ~tau^-_1 Z)
     1.30748547E-01    2     1000015        25   # BR(~tau^-_2 -> ~tau^-_1 h^0)
#    BR                NDA      ID1      ID2       ID3
     9.77968304E-11    3     1000016         1        -2   # BR(~tau^-_2 -> ~nu_tau d u_bar)
     2.72507891E-11    3     1000016         3        -4   # BR(~tau^-_2 -> ~nu_tau s c_bar)
DECAY   1000012     6.06076878E-01   # ~nu_e
#    BR                NDA      ID1      ID2
     9.98058998E-01    2     1000022        12   # BR(~nu_e -> chi^0_1 nu_e)
     2.39740509E-04    2     1000023        12   # BR(~nu_e -> chi^0_2 nu_e)
     1.48611574E-05    2     1000025        12   # BR(~nu_e -> chi^0_3 nu_e)
     1.68637259E-03    2     1000024        11   # BR(~nu_e -> chi^+_1 e^-)
     2.73456493E-08    2     2000011        24   # BR(~nu_e -> ~e^-_R W^+)
DECAY   1000014     6.06782276E-01   # ~nu_mu
#    BR                NDA      ID1      ID2
     9.96886033E-01    2     1000022        14   # BR(~nu_mu -> chi^0_1 nu_mu)
     2.39422664E-04    2     1000023        14   # BR(~nu_mu -> chi^0_2 nu_mu)
     1.48411774E-05    2     1000025        14   # BR(~nu_mu -> chi^0_3 nu_mu)
     1.69193299E-03    2     1000024        13   # BR(~nu_mu -> chi^+_1 mu^-)
     1.16777005E-03    2     2000013        24   # BR(~nu_mu -> ~mu^-_R W^+)
DECAY   1000016     8.06345568E-01   # ~nu_tau
#    BR                NDA      ID1      ID2
     7.47473389E-01    2     1000022        16   # BR(~nu_tau -> chi^0_1 nu_tau)
     1.71957914E-04    2     1000023        16   # BR(~nu_tau -> chi^0_2 nu_tau)
     1.06017929E-05    2     1000025        16   # BR(~nu_tau -> chi^0_3 nu_tau)
     2.79351521E-03    2     1000024        15   # BR(~nu_tau -> chi^+_1 tau^-)
     2.49550537E-01    2     1000015        24   # BR(~nu_tau -> ~tau^-_1 W^+)
DECAY   2000001     2.46962533E+00   # ~d_R
#    BR                NDA      ID1      ID2
     9.94530943E-01    2     1000022         1   # BR(~d_R -> chi^0_1 d)
     5.35128191E-03    2     1000023         1   # BR(~d_R -> chi^0_2 d)
     1.01514493E-04    2     1000025         1   # BR(~d_R -> chi^0_3 d)
     1.57781715E-05    2     1000035         1   # BR(~d_R -> chi^0_4 d)
     4.82738120E-07    2    -1000024         2   # BR(~d_R -> chi^-_1 u)
     1.58189669E-10    2    -1000037         2   # BR(~d_R -> chi^-_2 u)
DECAY   1000001     4.10413035E+01   # ~d_L
#    BR                NDA      ID1      ID2
     1.66368007E-02    2     1000022         1   # BR(~d_L -> chi^0_1 d)
     4.09708808E-03    2     1000023         1   # BR(~d_L -> chi^0_2 d)
     9.91927199E-05    2     1000025         1   # BR(~d_L -> chi^0_3 d)
     3.23283382E-01    2     1000035         1   # BR(~d_L -> chi^0_4 d)
     8.38259874E-03    2    -1000024         2   # BR(~d_L -> chi^-_1 u)
     6.47500938E-01    2    -1000037         2   # BR(~d_L -> chi^-_2 u)
     1.07011506E-12    2     2000002       -24   # BR(~d_L -> ~u_R W^-)
     1.81021652E-10    2     2000001        23   # BR(~d_L -> ~d_R Z)
     1.78980843E-10    2     2000001        25   # BR(~d_L -> ~d_R h^0)
DECAY   2000003     2.47048008E+00   # ~s_R
#    BR                NDA      ID1      ID2
     9.94187525E-01    2     1000022         3   # BR(~s_R -> chi^0_1 s)
     5.43522566E-03    2     1000023         3   # BR(~s_R -> chi^0_2 s)
     1.87185460E-04    2     1000025         3   # BR(~s_R -> chi^0_3 s)
     1.57990252E-05    2     1000035         3   # BR(~s_R -> chi^0_4 s)
     1.74207798E-04    2    -1000024         4   # BR(~s_R -> chi^-_1 c)
     5.70843147E-08    2    -1000037         4   # BR(~s_R -> chi^-_2 c)
DECAY   1000003     4.10426324E+01   # ~s_L
#    BR                NDA      ID1      ID2
     1.66362443E-02    2     1000022         3   # BR(~s_L -> chi^0_1 s)
     4.10236836E-03    2     1000023         3   # BR(~s_L -> chi^0_2 s)
     1.04780044E-04    2     1000025         3   # BR(~s_L -> chi^0_3 s)
     3.23272497E-01    2     1000035         3   # BR(~s_L -> chi^0_4 s)
     8.40423764E-03    2    -1000024         4   # BR(~s_L -> chi^-_1 c)
     6.47479466E-01    2    -1000037         4   # BR(~s_L -> chi^-_2 c)
     2.76151667E-07    2     2000004       -24   # BR(~s_L -> ~c_R W^-)
     6.53462763E-08    2     2000003        23   # BR(~s_L -> ~s_R Z)
     6.46095934E-08    2     2000003        25   # BR(~s_L -> ~s_R h^0)
DECAY   1000005     4.92242204E+00   # ~b_1
#    BR                NDA      ID1      ID2
     5.01291509E-01    2     1000022         5   # BR(~b_1 -> chi^0_1 b)
     1.19661428E-01    2     1000023         5   # BR(~b_1 -> chi^0_2 b)
     1.13241046E-01    2     1000025         5   # BR(~b_1 -> chi^0_3 b)
     2.14346818E-03    2     1000035         5   # BR(~b_1 -> chi^0_4 b)
     2.58614049E-01    2    -1000024         6   # BR(~b_1 -> chi^-_1 t)
     4.72920177E-03    2    -1000037         6   # BR(~b_1 -> chi^-_2 t)
     3.19298325E-04    2     1000006       -24   # BR(~b_1 -> ~t_1 W^-)
DECAY   2000005     9.20161439E+01   # ~b_2
#    BR                NDA      ID1      ID2
     7.03080029E-03    2     1000022         5   # BR(~b_2 -> chi^0_1 b)
     7.67848680E-03    2     1000023         5   # BR(~b_2 -> chi^0_2 b)
     6.37888338E-03    2     1000025         5   # BR(~b_2 -> chi^0_3 b)
     1.34922750E-01    2     1000035         5   # BR(~b_2 -> chi^0_4 b)
     5.50144666E-01    2    -1000024         6   # BR(~b_2 -> chi^-_1 t)
     2.80502431E-01    2    -1000037         6   # BR(~b_2 -> chi^-_2 t)
     1.33419824E-02    2     1000006       -24   # BR(~b_2 -> ~t_1 W^-)
DECAY   2000002     9.93115176E+00   # ~u_R
#    BR                NDA      ID1      ID2
     9.94525887E-01    2     1000022         2   # BR(~u_R -> chi^0_1 u)
     5.35689558E-03    2     1000023         2   # BR(~u_R -> chi^0_2 u)
     1.01388895E-04    2     1000025         2   # BR(~u_R -> chi^0_3 u)
     1.58277021E-05    2     1000035         2   # BR(~u_R -> chi^0_4 u)
     3.42213383E-10    2     1000024         1   # BR(~u_R -> chi^+_1 d)
     3.14853767E-13    2     1000037         1   # BR(~u_R -> chi^+_2 d)
DECAY   1000002     4.10690636E+01   # ~u_L
#    BR                NDA      ID1      ID2
     1.51847000E-02    2     1000022         2   # BR(~u_L -> chi^0_1 u)
     6.82097152E-03    2     1000023         2   # BR(~u_L -> chi^0_2 u)
     5.46744581E-05    2     1000025         2   # BR(~u_L -> chi^0_3 u)
     3.21826079E-01    2     1000035         2   # BR(~u_L -> chi^0_4 u)
     1.34328713E-02    2     1000024         1   # BR(~u_L -> chi^+_1 d)
     6.42680704E-01    2     1000037         1   # BR(~u_L -> chi^+_2 d)
     3.65833340E-10    2     2000001        24   # BR(~u_L -> ~d_R W^+)
     5.12418496E-13    2     2000002        23   # BR(~u_L -> ~u_R Z)
     3.83131345E-13    2     2000002        25   # BR(~u_L -> ~u_R h^0)
DECAY   2000004     9.93288427E+00   # ~c_R
#    BR                NDA      ID1      ID2
     9.94350947E-01    2     1000022         4   # BR(~c_R -> chi^0_1 c)
     5.39954602E-03    2     1000023         4   # BR(~c_R -> chi^0_2 c)
     1.45265774E-04    2     1000025         4   # BR(~c_R -> chi^0_3 c)
     1.58624344E-05    2     1000035         4   # BR(~c_R -> chi^0_4 c)
     8.82973771E-05    2     1000024         3   # BR(~c_R -> chi^+_1 s)
     8.12421108E-08    2     1000037         3   # BR(~c_R -> chi^+_2 s)
DECAY   1000004     4.10703834E+01   # ~c_L
#    BR                NDA      ID1      ID2
     1.51842207E-02    2     1000022         4   # BR(~c_L -> chi^0_1 c)
     6.83154619E-03    2     1000023         4   # BR(~c_L -> chi^0_2 c)
     6.59388245E-05    2     1000025         4   # BR(~c_L -> chi^0_3 c)
     3.21815600E-01    2     1000035         4   # BR(~c_L -> chi^0_4 c)
     1.34428830E-02    2     1000024         3   # BR(~c_L -> chi^+_1 s)
     6.42659448E-01    2     1000037         3   # BR(~c_L -> chi^+_2 s)
     1.32060924E-07    2     2000003        24   # BR(~c_L -> ~s_R W^+)
     1.32234001E-07    2     2000004        23   # BR(~c_L -> ~c_R Z)
     9.88702513E-08    2     2000004        25   # BR(~c_L -> ~c_R h^0)
DECAY   1000006     9.89072269E+01   # ~t_1
#    BR                NDA      ID1      ID2
     3.35282946E-08    2     1000022         4   # BR(~t_1 -> chi^0_1 c)
     9.16166653E-02    2     1000022         6   # BR(~t_1 -> chi^0_1 t)
     1.45723659E-08    2     1000023         4   # BR(~t_1 -> chi^0_2 c)
     2.23924941E-01    2     1000023         6   # BR(~t_1 -> chi^0_2 t)
     2.28297191E-01    2     1000025         6   # BR(~t_1 -> chi^0_3 t)
     1.13327347E-03    2     1000035         6   # BR(~t_1 -> chi^0_4 t)
     4.52735123E-01    2     1000024         5   # BR(~t_1 -> chi^+_1 b)
     2.28694688E-03    2     1000037         5   # BR(~t_1 -> chi^+_2 b)
#    BR                NDA      ID1      ID2       ID3
     5.81153519E-06    3     1000022        24         5   # BR(~t_1 -> chi^0_1 W^+ b)
DECAY   2000006     9.21537204E+01   # ~t_2
#    BR                NDA      ID1      ID2
     7.12967177E-03    2     1000022         6   # BR(~t_2 -> chi^0_1 t)
     2.73975682E-01    2     1000023         6   # BR(~t_2 -> chi^0_2 t)
     2.78136961E-01    2     1000025         6   # BR(~t_2 -> chi^0_3 t)
     1.42111008E-01    2     1000035         6   # BR(~t_2 -> chi^0_4 t)
     1.30499744E-02    2     1000024         5   # BR(~t_2 -> chi^+_1 b)
     2.73537428E-01    2     1000037         5   # BR(~t_2 -> chi^+_2 b)
     1.28264701E-06    2     1000005        24   # BR(~t_2 -> ~b_1 W^+)
     6.92872560E-03    2     1000006        23   # BR(~t_2 -> ~t_1 Z)
     5.12926564E-03    2     1000006        25   # BR(~t_2 -> ~t_1 h^0)
DECAY   1000024     8.96511295E-01   # chi^+_1
#    BR                NDA      ID1      ID2
     7.30781693E-09    2    -2000011        12   # BR(chi^+_1 -> ~e^+_R nu_e)
     3.12442160E-04    2    -2000013        14   # BR(chi^+_1 -> ~mu^+_R nu_mu)
     8.91706550E-02    2    -1000015        16   # BR(chi^+_1 -> ~tau^+_1 nu_tau)
     9.05369929E-01    2     1000022        24   # BR(chi^+_1 -> chi^0_1 W^+)
#    BR                NDA      ID1      ID2       ID3
     5.98360680E-10    3     1000022        -1         2   # BR(chi^+_1 -> chi^0_1 d_bar u)
     6.34917148E-10    3     1000022        -3         4   # BR(chi^+_1 -> chi^0_1 s_bar c)
     5.13985517E-03    3     1000022        -5         6   # BR(chi^+_1 -> chi^0_1 b_bar t)
     1.85578691E-06    3     1000022       -11        12   # BR(chi^+_1 -> chi^0_1 e^+ nu_e)
     1.86118535E-06    3     1000022       -13        14   # BR(chi^+_1 -> chi^0_1 mu^+ nu_mu)
     3.39298702E-06    3     1000022       -15        16   # BR(chi^+_1 -> chi^0_1 tau^+ nu_tau)
DECAY   1000037     2.04407687E+01   # chi^+_2
#    BR                NDA      ID1      ID2
     6.44443963E-02    2    -1000011        12   # BR(chi^+_2 -> ~e^+_L nu_e)
     4.24119201E-09    2    -2000013        14   # BR(chi^+_2 -> ~mu^+_R nu_mu)
     6.44454337E-02    2    -1000013        14   # BR(chi^+_2 -> ~mu^+_L nu_mu)
     1.24220291E-06    2    -1000015        16   # BR(chi^+_2 -> ~tau^+_1 nu_tau)
     6.47380515E-02    2    -2000015        16   # BR(chi^+_2 -> ~tau^+_2 nu_tau)
     6.45989444E-02    2     1000012       -11   # BR(chi^+_2 -> ~nu_e e^+)
     6.46000511E-02    2     1000014       -13   # BR(chi^+_2 -> ~nu_mu mu^+)
     6.49121805E-02    2     1000016       -15   # BR(chi^+_2 -> ~nu_tau tau^+)
     7.42789950E-06    2     1000022        24   # BR(chi^+_2 -> chi^0_1 W^+)
     1.51294098E-01    2     1000023        24   # BR(chi^+_2 -> chi^0_2 W^+)
     1.48670163E-01    2     1000025        24   # BR(chi^+_2 -> chi^0_3 W^+)
     1.55796674E-01    2     1000024        23   # BR(chi^+_2 -> chi^+_1 Z)
     1.53455912E-01    2     1000024        25   # BR(chi^+_2 -> chi^+_1 h^0)
#    BR                NDA      ID1      ID2       ID3
     1.00535419E-09    3     1000024         2        -2   # BR(chi^+_2 -> chi^+_1 u u_bar)
     1.00775194E-09    3     1000024         4        -4   # BR(chi^+_2 -> chi^+_1 c c_bar)
     6.29938478E-04    3     1000024         6        -6   # BR(chi^+_2 -> chi^+_1 t t_bar)
     1.60295799E-09    3     1000024         1        -1   # BR(chi^+_2 -> chi^+_1 d d_bar)
     1.63039478E-09    3     1000024         3        -3   # BR(chi^+_2 -> chi^+_1 s s_bar)
     7.67410995E-08    3     1000024         5        -5   # BR(chi^+_2 -> chi^+_1 b b_bar)
     4.14984285E-11    3     1000024        13       -13   # BR(chi^+_2 -> chi^+_1 mu^- mu^+)
     1.17381310E-08    3     1000024        15       -15   # BR(chi^+_2 -> chi^+_1 tau^- tau^+)
     2.19833425E-13    3     1000024        12       -12   # BR(chi^+_2 -> chi^+_1 nu_e nu_bar_e)
     6.66242924E-08    3     1000022        -1         2   # BR(chi^+_2 -> chi^0_1 d_bar u)
     6.66239085E-08    3     1000022        -3         4   # BR(chi^+_2 -> chi^0_1 s_bar c)
     1.58287424E-07    3     1000022        -5         6   # BR(chi^+_2 -> chi^0_1 b_bar t)
     1.59731999E-12    3     1000022       -13        14   # BR(chi^+_2 -> chi^0_1 mu^+ nu_mu)
     4.57140446E-10    3     1000022       -15        16   # BR(chi^+_2 -> chi^0_1 tau^+ nu_tau)
     6.75354634E-10    3     1000023        -1         2   # BR(chi^+_2 -> chi^0_2 d_bar u)
     6.87323432E-10    3     1000023        -3         4   # BR(chi^+_2 -> chi^0_2 s_bar c)
     1.23045901E-03    3     1000023        -5         6   # BR(chi^+_2 -> chi^0_2 b_bar t)
     2.09726211E-11    3     1000023       -13        14   # BR(chi^+_2 -> chi^0_2 mu^+ nu_mu)
     5.93266521E-09    3     1000023       -15        16   # BR(chi^+_2 -> chi^0_2 tau^+ nu_tau)
     2.54645041E-11    3     1000025        -1         2   # BR(chi^+_2 -> chi^0_3 d_bar u)
     3.64384775E-11    3     1000025        -3         4   # BR(chi^+_2 -> chi^0_3 s_bar c)
     1.17462445E-03    3     1000025        -5         6   # BR(chi^+_2 -> chi^0_3 b_bar t)
     1.96588809E-11    3     1000025       -13        14   # BR(chi^+_2 -> chi^0_3 mu^+ nu_mu)
     5.56155732E-09    3     1000025       -15        16   # BR(chi^+_2 -> chi^0_3 tau^+ nu_tau)
DECAY   1000022     3.70434728E+00   # chi^0_1
#    BR                NDA      ID1      ID2
     1.65052889E-01    2     2000011       -11   # BR(chi^0_1 -> ~e^-_R e^+)
     1.65052889E-01    2    -2000011        11   # BR(chi^0_1 -> ~e^+_R e^-)
     1.65069830E-01    2     2000013       -13   # BR(chi^0_1 -> ~mu^-_R mu^+)
     1.65069830E-01    2    -2000013        13   # BR(chi^0_1 -> ~mu^+_R mu^-)
     1.69877281E-01    2     1000015       -15   # BR(chi^0_1 -> ~tau^-_1 tau^+)
     1.69877281E-01    2    -1000015        15   # BR(chi^0_1 -> ~tau^+_1 tau^-)
DECAY   1000023     1.03975809E+00   # chi^0_2
#    BR                NDA      ID1      ID2
     1.25958493E-02    2     2000011       -11   # BR(chi^0_2 -> ~e^-_R e^+)
     1.25958493E-02    2    -2000011        11   # BR(chi^0_2 -> ~e^+_R e^-)
     1.27292656E-02    2     2000013       -13   # BR(chi^0_2 -> ~mu^-_R mu^+)
     1.27292656E-02    2    -2000013        13   # BR(chi^0_2 -> ~mu^+_R mu^-)
     5.06833426E-02    2     1000015       -15   # BR(chi^0_2 -> ~tau^-_1 tau^+)
     5.06833426E-02    2    -1000015        15   # BR(chi^0_2 -> ~tau^+_1 tau^-)
     1.68041886E-02    2     1000022        23   # BR(chi^0_2 -> chi^0_1 Z)
     8.30869547E-01    2     1000022        25   # BR(chi^0_2 -> chi^0_1 h^0)
     2.40784604E-07    2     1000022        22   # BR(chi^0_2 -> chi^0_1 photon)
#    BR                NDA      ID1      ID2       ID3
     1.64994761E-09    3     1000022         2        -2   # BR(chi^0_2 -> chi^0_1 u u_bar)
     1.65670931E-09    3     1000022         4        -4   # BR(chi^0_2 -> chi^0_1 c c_bar)
     2.99766674E-04    3     1000022         6        -6   # BR(chi^0_2 -> chi^0_1 t t_bar)
     2.95108643E-10    3     1000022         1        -1   # BR(chi^0_2 -> chi^0_1 d d_bar)
     3.34048033E-10    3     1000022         3        -3   # BR(chi^0_2 -> chi^0_1 s s_bar)
     1.04241254E-07    3     1000022         5        -5   # BR(chi^0_2 -> chi^0_1 b b_bar)
     2.38037523E-06    3     1000022        11       -11   # BR(chi^0_2 -> chi^0_1 e^- e^+)
     2.38438233E-06    3     1000022        13       -13   # BR(chi^0_2 -> chi^0_1 mu^- mu^+)
     3.49600068E-06    3     1000022        15       -15   # BR(chi^0_2 -> chi^0_1 tau^- tau^+)
     9.72844702E-07    3     1000022        12       -12   # BR(chi^0_2 -> chi^0_1 nu_e nu_bar_e)
     1.50036686E-11    3     1000024         1        -2   # BR(chi^0_2 -> chi^+_1 d u_bar)
     1.50036686E-11    3    -1000024        -1         2   # BR(chi^0_2 -> chi^-_1 d_bar u)
     2.09691217E-12    3     1000024         3        -4   # BR(chi^0_2 -> chi^+_1 s c_bar)
     2.09691217E-12    3    -1000024        -3         4   # BR(chi^0_2 -> chi^-_1 s_bar c)
     5.00623924E-12    3     1000024        11       -12   # BR(chi^0_2 -> chi^+_1 e^- nu_bar_e)
     5.00623924E-12    3    -1000024       -11        12   # BR(chi^0_2 -> chi^-_1 e^+ nu_e)
     4.94239896E-12    3     1000024        13       -14   # BR(chi^0_2 -> chi^+_1 mu^- nu_bar_mu)
     4.94239896E-12    3    -1000024       -13        14   # BR(chi^0_2 -> chi^-_1 mu^+ nu_mu)
DECAY   1000025     9.37326059E-01   # chi^0_3
#    BR                NDA      ID1      ID2
     2.67146602E-04    2     2000011       -11   # BR(chi^0_3 -> ~e^-_R e^+)
     2.67146602E-04    2    -2000011        11   # BR(chi^0_3 -> ~e^+_R e^-)
     4.16505287E-04    2     2000013       -13   # BR(chi^0_3 -> ~mu^-_R mu^+)
     4.16505287E-04    2    -2000013        13   # BR(chi^0_3 -> ~mu^+_R mu^-)
     4.28965040E-02    2     1000015       -15   # BR(chi^0_3 -> ~tau^-_1 tau^+)
     4.28965040E-02    2    -1000015        15   # BR(chi^0_3 -> ~tau^+_1 tau^-)
     8.94492504E-01    2     1000022        23   # BR(chi^0_3 -> chi^0_1 Z)
     1.71612525E-02    2     1000022        25   # BR(chi^0_3 -> chi^0_1 h^0)
     5.40584344E-07    2     1000022        22   # BR(chi^0_3 -> chi^0_1 photon)
     4.40182480E-11    2     1000023        22   # BR(chi^0_3 -> chi^0_2 photon)
#    BR                NDA      ID1      ID2       ID3
     1.12709398E-11    3     1000022         2        -2   # BR(chi^0_3 -> chi^0_1 u u_bar)
     2.09322767E-11    3     1000022         4        -4   # BR(chi^0_3 -> chi^0_1 c c_bar)
     1.18376345E-03    3     1000022         6        -6   # BR(chi^0_3 -> chi^0_1 t t_bar)
     2.84440896E-12    3     1000022         1        -1   # BR(chi^0_3 -> chi^0_1 d d_bar)
     4.78821055E-11    3     1000022         3        -3   # BR(chi^0_3 -> chi^0_1 s s_bar)
     1.20244365E-07    3     1000022         5        -5   # BR(chi^0_3 -> chi^0_1 b b_bar)
     8.82138776E-09    3     1000022        11       -11   # BR(chi^0_3 -> chi^0_1 e^- e^+)
     1.37291111E-08    3     1000022        13       -13   # BR(chi^0_3 -> chi^0_1 mu^- mu^+)
     1.38919730E-06    3     1000022        15       -15   # BR(chi^0_3 -> chi^0_1 tau^- tau^+)
     4.31640439E-08    3     1000022        12       -12   # BR(chi^0_3 -> chi^0_1 nu_e nu_bar_e)
     4.97130245E-10    3     1000023         2        -2   # BR(chi^0_3 -> chi^0_2 u u_bar)
     3.20666362E-10    3     1000023         4        -4   # BR(chi^0_3 -> chi^0_2 c c_bar)
     6.46004660E-10    3     1000023         1        -1   # BR(chi^0_3 -> chi^0_2 d d_bar)
     6.44309271E-10    3     1000023         3        -3   # BR(chi^0_3 -> chi^0_2 s s_bar)
     1.48865601E-10    3     1000023        11       -11   # BR(chi^0_3 -> chi^0_2 e^- e^+)
     1.48561865E-10    3     1000023        13       -13   # BR(chi^0_3 -> chi^0_2 mu^- mu^+)
     5.51324696E-11    3     1000023        15       -15   # BR(chi^0_3 -> chi^0_2 tau^- tau^+)
     8.93376019E-10    3     1000023        12       -12   # BR(chi^0_3 -> chi^0_2 nu_e nu_bar_e)
     8.85900374E-09    3     1000024         1        -2   # BR(chi^0_3 -> chi^+_1 d u_bar)
     8.85900374E-09    3    -1000024        -1         2   # BR(chi^0_3 -> chi^-_1 d_bar u)
     7.66197120E-09    3     1000024         3        -4   # BR(chi^0_3 -> chi^+_1 s c_bar)
     7.66197120E-09    3    -1000024        -3         4   # BR(chi^0_3 -> chi^-_1 s_bar c)
     2.95322777E-09    3     1000024        11       -12   # BR(chi^0_3 -> chi^+_1 e^- nu_bar_e)
     2.95322777E-09    3    -1000024       -11        12   # BR(chi^0_3 -> chi^-_1 e^+ nu_e)
     2.95016770E-09    3     1000024        13       -14   # BR(chi^0_3 -> chi^+_1 mu^- nu_bar_mu)
     2.95016770E-09    3    -1000024       -13        14   # BR(chi^0_3 -> chi^-_1 mu^+ nu_mu)
     2.22900214E-09    3     1000024        15       -16   # BR(chi^0_3 -> chi^+_1 tau^- nu_bar_tau)
     2.22900214E-09    3    -1000024       -15        16   # BR(chi^0_3 -> chi^-_1 tau^+ nu_tau)
DECAY   1000035     2.04638214E+01   # chi^0_4
#    BR                NDA      ID1      ID2
     4.18133799E-06    2     2000011       -11   # BR(chi^0_4 -> ~e^-_R e^+)
     4.18133799E-06    2    -2000011        11   # BR(chi^0_4 -> ~e^+_R e^-)
     3.18968400E-02    2     1000011       -11   # BR(chi^0_4 -> ~e^-_L e^+)
     3.18968400E-02    2    -1000011        11   # BR(chi^0_4 -> ~e^+_L e^-)
     4.18236233E-06    2     2000013       -13   # BR(chi^0_4 -> ~mu^-_R mu^+)
     4.18236233E-06    2    -2000013        13   # BR(chi^0_4 -> ~mu^+_R mu^-)
     3.18973670E-02    2     1000013       -13   # BR(chi^0_4 -> ~mu^-_L mu^+)
     3.18973670E-02    2    -1000013        13   # BR(chi^0_4 -> ~mu^+_L mu^-)
     4.49969512E-06    2     1000015       -15   # BR(chi^0_4 -> ~tau^-_1 tau^+)
     4.49969512E-06    2    -1000015        15   # BR(chi^0_4 -> ~tau^+_1 tau^-)
     3.20460619E-02    2     2000015       -15   # BR(chi^0_4 -> ~tau^-_2 tau^+)
     3.20460619E-02    2    -2000015        15   # BR(chi^0_4 -> ~tau^+_2 tau^-)
     3.25330170E-02    2     1000012       -12   # BR(chi^0_4 -> ~nu_e nu_bar_e)
     3.25330170E-02    2    -1000012        12   # BR(chi^0_4 -> ~nu^*_e nu_e)
     3.25335611E-02    2     1000014       -14   # BR(chi^0_4 -> ~nu_mu nu_bar_mu)
     3.25335611E-02    2    -1000014        14   # BR(chi^0_4 -> ~nu^*_mu nu_mu)
     3.26869778E-02    2     1000016       -16   # BR(chi^0_4 -> ~nu_tau nu_bar_tau)
     3.26869778E-02    2    -1000016        16   # BR(chi^0_4 -> ~nu^*_tau nu_tau)
     1.52096849E-01    2     1000024       -24   # BR(chi^0_4 -> chi^+_1 W^-)
     1.52096849E-01    2    -1000024        24   # BR(chi^0_4 -> chi^-_1 W^+)
     1.82397093E-06    2     1000022        23   # BR(chi^0_4 -> chi^0_1 Z)
     2.23582027E-03    2     1000023        23   # BR(chi^0_4 -> chi^0_2 Z)
     1.49603534E-01    2     1000025        23   # BR(chi^0_4 -> chi^0_3 Z)
     6.42608593E-06    2     1000022        25   # BR(chi^0_4 -> chi^0_1 h^0)
     1.51724817E-01    2     1000023        25   # BR(chi^0_4 -> chi^0_2 h^0)
     1.98659081E-03    2     1000025        25   # BR(chi^0_4 -> chi^0_3 h^0)
     9.87071613E-08    2     1000022        22   # BR(chi^0_4 -> chi^0_1 photon)
     2.92508343E-07    2     1000023        22   # BR(chi^0_4 -> chi^0_2 photon)
     4.84153986E-07    2     1000025        22   # BR(chi^0_4 -> chi^0_3 photon)
#    BR                NDA      ID1      ID2       ID3
     3.17229070E-08    3     1000022         2        -2   # BR(chi^0_4 -> chi^0_1 u u_bar)
     3.17222259E-08    3     1000022         4        -4   # BR(chi^0_4 -> chi^0_1 c c_bar)
     8.00376797E-08    3     1000022         6        -6   # BR(chi^0_4 -> chi^0_1 t t_bar)
     3.48235035E-08    3     1000022         1        -1   # BR(chi^0_4 -> chi^0_1 d d_bar)
     3.48238502E-08    3     1000022         3        -3   # BR(chi^0_4 -> chi^0_1 s s_bar)
     4.13529774E-08    3     1000022         5        -5   # BR(chi^0_4 -> chi^0_1 b b_bar)
     1.98134258E-09    3     1000022        11       -11   # BR(chi^0_4 -> chi^0_1 e^- e^+)
     1.98229388E-09    3     1000022        13       -13   # BR(chi^0_4 -> chi^0_1 mu^- mu^+)
     2.25542557E-09    3     1000022        15       -15   # BR(chi^0_4 -> chi^0_1 tau^- tau^+)
     1.19040578E-09    3     1000023         2        -2   # BR(chi^0_4 -> chi^0_2 u u_bar)
     1.19074250E-09    3     1000023         4        -4   # BR(chi^0_4 -> chi^0_2 c c_bar)
     1.78231194E-04    3     1000023         6        -6   # BR(chi^0_4 -> chi^0_2 t t_bar)
     7.16584781E-10    3     1000023         1        -1   # BR(chi^0_4 -> chi^0_2 d d_bar)
     7.29885720E-10    3     1000023         3        -3   # BR(chi^0_4 -> chi^0_2 s s_bar)
     3.69738708E-08    3     1000023         5        -5   # BR(chi^0_4 -> chi^0_2 b b_bar)
     3.59012496E-13    3     1000023        11       -11   # BR(chi^0_4 -> chi^0_2 e^- e^+)
     2.01373394E-11    3     1000023        13       -13   # BR(chi^0_4 -> chi^0_2 mu^- mu^+)
     5.59780734E-09    3     1000023        15       -15   # BR(chi^0_4 -> chi^0_2 tau^- tau^+)
     3.13364590E-12    3     1000025         2        -2   # BR(chi^0_4 -> chi^0_3 u u_bar)
     4.09403362E-12    3     1000025         4        -4   # BR(chi^0_4 -> chi^0_3 c c_bar)
     4.05634392E-04    3     1000025         6        -6   # BR(chi^0_4 -> chi^0_3 t t_bar)
     5.73290520E-12    3     1000025         1        -1   # BR(chi^0_4 -> chi^0_3 d d_bar)
     1.88927182E-11    3     1000025         3        -3   # BR(chi^0_4 -> chi^0_3 s s_bar)
     3.57831483E-08    3     1000025         5        -5   # BR(chi^0_4 -> chi^0_3 b b_bar)
     1.96257805E-11    3     1000025        13       -13   # BR(chi^0_4 -> chi^0_3 mu^- mu^+)
     5.55450006E-09    3     1000025        15       -15   # BR(chi^0_4 -> chi^0_3 tau^- tau^+)
     6.82837954E-10    3     1000024         1        -2   # BR(chi^0_4 -> chi^+_1 d u_bar)
     6.82837954E-10    3    -1000024        -1         2   # BR(chi^0_4 -> chi^-_1 d_bar u)
     6.97811516E-10    3     1000024         3        -4   # BR(chi^0_4 -> chi^+_1 s c_bar)
     6.97811516E-10    3    -1000024        -3         4   # BR(chi^0_4 -> chi^-_1 s_bar c)
     1.22440478E-03    3     1000024         5        -6   # BR(chi^0_4 -> chi^+_1 b t_bar)
     1.22440478E-03    3    -1000024        -5         6   # BR(chi^0_4 -> chi^-_1 b_bar t)
     2.12945473E-11    3     1000024        13       -14   # BR(chi^0_4 -> chi^+_1 mu^- nu_bar_mu)
     2.12945473E-11    3    -1000024       -13        14   # BR(chi^0_4 -> chi^-_1 mu^+ nu_mu)
     6.02050905E-09    3     1000024        15       -16   # BR(chi^0_4 -> chi^+_1 tau^- nu_bar_tau)
     6.02050905E-09    3    -1000024       -15        16   # BR(chi^0_4 -> chi^-_1 tau^+ nu_tau)
DECAY   1000021     2.68276087E+01   # ~g
#    BR                NDA      ID1      ID2
     4.64566531E-02    2     2000002        -2   # BR(~g -> ~u_R u_bar)
     4.64566531E-02    2    -2000002         2   # BR(~g -> ~u^*_R u)
     1.09735323E-02    2     1000002        -2   # BR(~g -> ~u_L u_bar)
     1.09735323E-02    2    -1000002         2   # BR(~g -> ~u^*_L u)
     4.64575644E-02    2     2000004        -4   # BR(~g -> ~c_R c_bar)
     4.64575644E-02    2    -2000004         4   # BR(~g -> ~c^*_R c)
     1.09738457E-02    2     1000004        -4   # BR(~g -> ~c_L c_bar)
     1.09738457E-02    2    -1000004         4   # BR(~g -> ~c^*_L c)
     9.11543065E-07    2     1000006        -4   # BR(~g -> ~t_1 c_bar)
     9.11543065E-07    2    -1000006         4   # BR(~g -> ~t^*_1 c)
     1.39157834E-01    2     1000006        -6   # BR(~g -> ~t_1 t_bar)
     1.39157834E-01    2    -1000006         6   # BR(~g -> ~t^*_1 t)
     3.36203667E-02    2     2000006        -6   # BR(~g -> ~t_2 t_bar)
     3.36203667E-02    2    -2000006         6   # BR(~g -> ~t^*_2 t)
     5.08224556E-02    2     2000001        -1   # BR(~g -> ~d_R d_bar)
     5.08224556E-02    2    -2000001         1   # BR(~g -> ~d^*_R d)
     1.09043091E-02    2     1000001        -1   # BR(~g -> ~d_L d_bar)
     1.09043091E-02    2    -1000001         1   # BR(~g -> ~d^*_L d)
     5.08231330E-02    2     2000003        -3   # BR(~g -> ~s_R s_bar)
     5.08231330E-02    2    -2000003         3   # BR(~g -> ~s^*_R s)
     1.09047697E-02    2     1000003        -3   # BR(~g -> ~s_L s_bar)
     1.09047697E-02    2    -1000003         3   # BR(~g -> ~s^*_L s)
     5.26278503E-02    2     1000005        -5   # BR(~g -> ~b_1 b_bar)
     5.26278503E-02    2    -1000005         5   # BR(~g -> ~b^*_1 b)
     3.62097110E-02    2     2000005        -5   # BR(~g -> ~b_2 b_bar)
     3.62097110E-02    2    -2000005         5   # BR(~g -> ~b^*_2 b)
     1.62992974E-07    2     1000039        21   # BR(~g -> ~G g)
     3.54499979E-06    2     1000022        21   # BR(~g -> chi^0_1 g)
     6.37892235E-05    2     1000023        21   # BR(~g -> chi^0_2 g)
     6.51182823E-05    2     1000025        21   # BR(~g -> chi^0_3 g)
     1.51263402E-06    2     1000035        21   # BR(~g -> chi^0_4 g)
DECAY        25     3.13152624E-03   # h^0
#    BR                NDA      ID1      ID2
     7.49500111E-09    2          11       -11   # BR(h^0 -> e^- e^+)
     3.20432092E-04    2          13       -13   # BR(h^0 -> mu^- mu^+)
     9.04105858E-02    2          15       -15   # BR(h^0 -> tau^- tau^+)
     6.35226957E-07    2           1        -1   # BR(h^0 -> d d_bar)
     2.29316392E-04    2           3        -3   # BR(h^0 -> s s_bar)
     5.84979532E-01    2           5        -5   # BR(h^0 -> b b_bar)
     1.45057199E-07    2           2        -2   # BR(h^0 -> u u_bar)
     3.74265078E-02    2           4        -4   # BR(h^0 -> c c_bar)
     9.19716223E-02    2          21        21   # BR(h^0 -> g g)
     3.30473908E-03    2          22        22   # BR(h^0 -> photon photon)
# writing decays into V V* as 3-body decays
#    BR                NDA      ID1      ID2       ID3
     8.64756932E-03    3          24        11        12   # BR(h^0 -> W^+ e^- nu_e)
     8.64756932E-03    3          24        13        14   # BR(h^0 -> W^+ mu^- nu_mu)
     8.64756932E-03    3          24        15        16   # BR(h^0 -> W^+ tau^- nu_tau)
     3.02664926E-02    3          24         1        -2   # BR(h^0 -> W^+ d u_bar)
     3.02664926E-02    3          24         3        -4   # BR(h^0 -> W^+ s c_bar)
     8.64756932E-03    3         -24       -11       -12   # BR(h^0 -> W^- e^+ nu_bar_e)
     8.64756932E-03    3         -24       -13       -14   # BR(h^0 -> W^- mu^+ nu_bar_mu)
     8.64756932E-03    3         -24       -15       -16   # BR(h^0 -> W^- tau^+ nu_bar_tau)
     3.02664926E-02    3         -24        -1         2   # BR(h^0 -> W^- d_bar u)
     3.02664926E-02    3         -24        -3         4   # BR(h^0 -> W^- s_bar c)
     6.18411047E-04    3          23        11       -11   # BR(h^0 -> Z e^- e^+)
     6.18411047E-04    3          23        13       -13   # BR(h^0 -> Z mu^- mu^+)
     6.22092065E-04    3          23        15       -15   # BR(h^0 -> Z tau^- tau^+)
     3.68101813E-03    3          23        12       -12   # BR(h^0 -> Z nu_e nu_bar_e)
     2.87119415E-03    3          23         1        -1   # BR(h^0 -> Z d d_bar)
     2.87119415E-03    3          23         3        -3   # BR(h^0 -> Z s s_bar)
     2.77916869E-03    3          23         5        -5   # BR(h^0 -> Z b b_bar)
     2.13499052E-03    3          23         2        -2   # BR(h^0 -> Z u u_bar)
     2.20861088E-03    3          23         4        -4   # BR(h^0 -> Z c c_bar)
DECAY        35     3.97277874E+00   # H^0
#    BR                NDA      ID1      ID2
     8.68048559E-09    2          11       -11   # BR(H^0 -> e^- e^+)
     3.71118274E-04    2          13       -13   # BR(H^0 -> mu^- mu^+)
     1.04985000E-01    2          15       -15   # BR(H^0 -> tau^- tau^+)
     5.92605321E-07    2           1        -1   # BR(H^0 -> d d_bar)
     2.13930356E-04    2           3        -3   # BR(H^0 -> s s_bar)
     5.66762155E-01    2           5        -5   # BR(H^0 -> b b_bar)
     1.88796840E-11    2           2        -2   # BR(H^0 -> u u_bar)
     4.87216785E-06    2           4        -4   # BR(H^0 -> c c_bar)
     2.79850700E-01    2           6        -6   # BR(H^0 -> t t_bar)
     1.93645063E-05    2     2000011  -2000011   # BR(H^0 -> ~e^-_R ~e^+_R)
     1.93564463E-05    2     2000013  -2000013   # BR(H^0 -> ~mu^-_R ~mu^+_R)
     1.71387788E-05    2     1000015  -1000015   # BR(H^0 -> ~tau^-_1 ~tau^+_1)
     1.93264258E-05    2     1000022   1000022   # BR(H^0 -> chi^0_1 chi^0_1)
     1.64250060E-02    2          23        23   # BR(H^0 -> Z Z)
     3.07206177E-02    2          24       -24   # BR(H^0 -> W^+ W^-)
     5.03939370E-04    2          25        25   # BR(H^0 -> h^0 h^0)
     8.56095344E-05    2          21        21   # BR(H^0 -> g g)
     1.26435894E-06    2          22        22   # BR(H^0 -> photon photon)
DECAY        36     3.79417189E+00   # A^0
#    BR                NDA      ID1      ID2
     9.08945922E-09    2          11       -11   # BR(A^0 -> e^- e^+)
     3.88603197E-04    2          13       -13   # BR(A^0 -> mu^- mu^+)
     1.09931569E-01    2          15       -15   # BR(A^0 -> tau^- tau^+)
     6.20525280E-07    2           1        -1   # BR(A^0 -> d d_bar)
     2.24009333E-04    2           3        -3   # BR(A^0 -> s s_bar)
     5.93464090E-01    2           5        -5   # BR(A^0 -> b b_bar)
     1.95754462E-11    2           2        -2   # BR(A^0 -> u u_bar)
     5.05172363E-06    2           4        -4   # BR(A^0 -> c c_bar)
     2.94593583E-01    2           6        -6   # BR(A^0 -> t t_bar)
     1.10283908E-03    2     1000022   1000022   # BR(A^0 -> chi^0_1 chi^0_1)
     2.31591433E-04    2          25        23   # BR(A^0 -> h^0 Z)
     5.75686463E-05    2          21        21   # BR(A^0 -> g g)
     4.65350413E-07    2          22        22   # BR(A^0 -> photon photon)
DECAY        37     3.34731728E+00   # H^+
#    BR                NDA      ID1      ID2
     1.03090719E-08    2         -11        12   # BR(H^+ -> e^+ nu_e)
     4.40745507E-04    2         -13        12   # BR(H^+ -> mu^+ nu_e)
     1.24682055E-01    2         -15        12   # BR(H^+ -> tau^+ nu_e)
     6.18136162E-07    2          -1         2   # BR(H^+ -> d_bar u)
     2.28171858E-04    2          -3         4   # BR(H^+ -> s_bar c)
     8.74394076E-01    2          -5         6   # BR(H^+ -> b_bar t)
     2.54323761E-04    2          25        24   # BR(H^+ -> h^0 W^+)
DECAY         6     2.43000000E+00   # top
#    BR                NDA      ID1      ID2
     1.00000000E+00    2           5        24   # BR(t -> b W)
Block HiggsBoundsInputHiggsCouplingsFermions
# ScalarNormEffCoupSq PseudoSNormEffCoupSq NP IP1 IP2 IP2
    1.00978478E+00    0.00000000E+00        3  25   5   5  # h0-b-b eff. coupling^2, normalised to SM
    8.96106211E+01    0.00000000E+00        3  35   5   5  # H0-b-b eff. coupling^2, normalised to SM
    0.00000000E+00    8.96204059E+01        3  36   5   5  # A0-b-b eff. coupling^2, normalised to SM
#
    9.99890820E-01    0.00000000E+00        3  25   6   6  # h0-t-t eff. coupling^2, normalised to SM
    1.12673533E-02    0.00000000E+00        3  35   6   6  # H0-t-t eff. coupling^2, normalised to SM
    0.00000000E+00    1.11581731E-02        3  36   6   6  # A0-t-t eff. coupling^2, normalised to SM
#
    1.00978478E+00    0.00000000E+00        3  25  15  15  # h0-tau-tau eff. coupling^2, normalised to SM
    8.96106211E+01    0.00000000E+00        3  35  15  15  # H0-tau-tau eff. coupling^2, normalised to SM
    0.00000000E+00    8.96204059E+01        3  36  15  15  # A0-tau-tau eff. coupling^2, normalised to SM
#
Block HiggsBoundsInputHiggsCouplingsBosons
    9.99999734E-01        3  25  24  24  # h0-W-W eff. coupling^2, normalised to SM
    2.65791814E-07        3  35  24  24  # H0-W-W eff. coupling^2, normalised to SM
    0.00000000E+00        3  36  24  24  # A0-W-W eff. coupling^2, normalised to SM
#
    9.99999734E-01        3  25  23  23  # h0-Z-Z eff. coupling^2, normalised to SM
    2.65791814E-07        3  35  23  23  # H0-Z-Z eff. coupling^2, normalised to SM
    0.00000000E+00        3  36  23  23  # A0-Z-Z eff. coupling^2, normalised to SM
#
    1.15085754E+00        3  25  21  21  # h0-g-g eff. coupling^2, normalised to SM
    7.43614040E-03        3  35  21  21  # H0-g-g eff. coupling^2, normalised to SM
    1.28582347E-01        3  36  21  21  # A0-g-g eff. coupling^2, normalised to SM
#
    0.00000000E+00        3  25  25  23  # h0-h0-Z eff. coupling^2, normalised to SM
    0.00000000E+00        3  35  25  23  # H0-h0-Z eff. coupling^2, normalised to SM
    2.65791814E-07        3  36  25  23  # A0-h0-Z eff. coupling^2, normalised to SM
    0.00000000E+00        3  35  35  23  # H0-H0-Z eff. coupling^2, normalised to SM
    9.99999734E-01        3  36  35  23  # A0-H0-Z eff. coupling^2, normalised to SM
    0.00000000E+00        3  36  36  23  # A0-A0-Z eff. coupling^2, normalised to SM
#
    0.00000000E+00        4  25  21  21  23  # h0-g-g-Z eff. coupling^2, normalised to SM
    0.00000000E+00        4  35  21  21  23  # H0-g-g-Z eff. coupling^2, normalised to SM
    0.00000000E+00        4  36  21  21  23  # A0-g-g-Z eff. coupling^2, normalised to SM
Block SPhenoLowEnergy  # low energy observables
    1    3.27010708E-04   # BR(b -> s gamma)
    2    1.59016975E-06   # BR(b -> s mu+ mu-)
    3    3.52878758E-05   # BR(b -> s nu nu)
    4    2.06496401E-15   # BR(Bd -> e+ e-)
    5    8.82129178E-11   # BR(Bd -> mu+ mu-)
    6    1.84643395E-08   # BR(Bd -> tau+ tau-)
    7    6.95981655E-14   # BR(Bs -> e+ e-)
    8    2.97323140E-09   # BR(Bs -> mu+ mu-)
    9    6.30571428E-07   # BR(Bs -> tau+ tau-)
   10    9.67189285E-05   # BR(B_u -> tau nu)
   11    9.99219691E-01   # BR(B_u -> tau nu)/BR(B_u -> tau nu)_SM
   12    5.41504839E-01   # |Delta(M_Bd)| [ps^-1] 
   13    1.93484094E+01   # |Delta(M_Bs)| [ps^-1] 
   16    2.15491505E-03   # epsilon_K
   17    2.28163334E-15   # Delta(M_K)
   18    2.48233085E-11   # BR(K^0 -> pi^0 nu nu)
   19    8.29610816E-11   # BR(K^+ -> pi^+ nu nu)
   20    9.51437819E-16   # Delta(g-2)_electron/2
   21    4.06772822E-11   # Delta(g-2)_muon/2
   22    1.15313101E-08   # Delta(g-2)_tau/2
   23    0.00000000E+00   # electric dipole moment of the electron
   24    0.00000000E+00   # electric dipole moment of the muon
   25    0.00000000E+00   # electric dipole moment of the tau
   26    0.00000000E+00   # Br(mu -> e gamma)
   27    0.00000000E+00   # Br(tau -> e gamma)
   28    0.00000000E+00   # Br(tau -> mu gamma)
   29    0.00000000E+00   # Br(mu -> 3 e)
   30    0.00000000E+00   # Br(tau -> 3 e)
   31    0.00000000E+00   # Br(tau -> 3 mu)
   39   -4.84016036E-05   # Delta(rho_parameter)
   40    0.00000000E+00   # BR(Z -> e mu)
   41    0.00000000E+00   # BR(Z -> e tau)
   42    0.00000000E+00   # BR(Z -> mu tau)
Block FWCOEF Q=  1.60000000E+02  # Wilson coefficients at scale Q
#    id        order  M        value         comment
     0305 4422   00   0    -1.88848269E-01   # C7
     0305 4422   00   2    -1.95693071E-01   # C7
     0305 4322   00   2    -1.36621179E-04   # C7'
     0305 6421   00   0    -9.52371033E-02   # C8
     0305 6421   00   2    -1.04446360E-01   # C8
     0305 6321   00   2    -1.82579668E-04   # C8'
 03051111 4133   00   0     1.16406071E+00   # C9 e+e-
 03051111 4133   00   2     1.16428882E+00   # C9 e+e-
 03051111 4233   00   2     4.04077663E-07   # C9' e+e-
 03051111 4137   00   0    -3.98822554E+00   # C10 e+e-
 03051111 4137   00   2    -3.98809721E+00   # C10 e+e-
 03051111 4237   00   2    -1.15776442E-05   # C10' e+e-
 03051313 4133   00   0     1.16406071E+00   # C9 mu+mu-
 03051313 4133   00   2     1.16428878E+00   # C9 mu+mu-
 03051313 4233   00   2     4.04074107E-07   # C9' mu+mu-
 03051313 4137   00   0    -3.98822554E+00   # C10 mu+mu-
 03051313 4137   00   2    -3.98809725E+00   # C10 mu+mu-
 03051313 4237   00   2    -1.15776426E-05   # C10' mu+mu-
 03051212 4137   00   0     1.50577074E+00   # C11 nu_1 nu_1
 03051212 4137   00   2     1.50574142E+00   # C11 nu_1 nu_1
 03051212 4237   00   2     2.79407707E-06   # C11' nu_1 nu_1
 03051414 4137   00   0     1.50577074E+00   # C11 nu_2 nu_2
 03051414 4137   00   2     1.50574142E+00   # C11 nu_2 nu_2
 03051414 4237   00   2     2.79407779E-06   # C11' nu_2 nu_2
 03051616 4137   00   0     1.50577074E+00   # C11 nu_3 nu_3
 03051616 4137   00   2     1.50574142E+00   # C11 nu_3 nu_3
 03051616 4237   00   2     2.79428153E-06   # C11' nu_3 nu_3
Block IMFWCOEF Q=  1.60000000E+02  # Im(Wilson coefficients) at scale Q
#    id        order  M        value         comment
     0305 4422   00   0     3.86017307E-07   # C7
     0305 4422   00   2     1.21485035E-06   # C7
     0305 4322   00   2     1.98561025E-07   # C7'
     0305 6421   00   0     3.30649258E-07   # C8
     0305 6421   00   2     3.73324875E-07   # C8
     0305 6321   00   2     7.53740538E-08   # C8'
 03051111 4133   00   2     5.63728137E-09   # C9 e+e-
 03051111 4233   00   2     2.39350777E-08   # C9' e+e-
 03051111 4137   00   2    -4.94730914E-07   # C10 e+e-
 03051111 4237   00   2    -6.89041638E-07   # C10' e+e-
 03051313 4133   00   2     5.63704227E-09   # C9 mu+mu-
 03051313 4233   00   2     2.39350678E-08   # C9' mu+mu-
 03051313 4137   00   2    -4.94730917E-07   # C10 mu+mu-
 03051313 4237   00   2    -6.89041665E-07   # C10' mu+mu-
 03051212 4137   00   2     1.48555276E-07   # C11 nu_1 nu_1
 03051212 4237   00   2     1.66289060E-07   # C11' nu_1 nu_1
 03051414 4137   00   2     1.48555265E-07   # C11 nu_2 nu_2
 03051414 4237   00   2     1.66289060E-07   # C11' nu_2 nu_2
 03051616 4137   00   2     1.48552268E-07   # C11 nu_3 nu_3
 03051616 4237   00   2     1.66289060E-07   # C11' nu_3 nu_3
