# SUSY Les Houches Accord 2 - MSSM spectrum + Decays
# SPheno v3.3.6  
# W. Porod, Comput. Phys. Commun. 153 (2003) 275-315, hep-ph/0301101
# in case of problems send email to porod@physik.uni-wuerzburg.de
# Created: 06.12.2016,  13:43
Block SPINFO         # Program information
     1   SPheno      # spectrum calculator
     2   v3.3.6      # version number
#
Block SPhenoINFO     # SPheno specific information
    1      2         # using 2-loop RGEs
    2      1         # using running masses for boundary conditions at mZ
Block MODSEL  # Model selection
    1    2    # mGMSB model
Block MINPAR  # Input parameters
    1    2.80000000E+05  # Lambda, scale of SUSY breaking
    2    5.00000000E+05  # M_M, messenger mass scale
    3    1.00000000E+01  # tanb at m_Z   
    4    1.00000000E+00  # Sign(mu)
    5    3.00000000E+00  # N_5 number of effective five-plets
    6    1.00000000E+05  # c_grav, Gravitino mass factor
Block gauge Q=  5.00000000E+05  # (GMSB scale)
   1    4.95316344E-01  # g'(Q)^DRbar
   2    6.44611550E-01  # g(Q)^DRbar
   3    9.13892796E-01  # g3(Q)^DRbar
Block SMINPUTS  # SM parameters
         1     1.27931119E+02  # alpha_em^-1(MZ)^MSbar
         2     1.16637900E-05  # G_mu [GeV^-2]
         3     1.18400000E-01  # alpha_s(MZ)^MSbar
         4     9.11876000E+01  # m_Z(pole)
         5     4.18000000E+00  # m_b(m_b), MSbar
         6     1.73100000E+02  # m_t(pole)
         7     1.77682000E+00  # m_tau(pole)
         8     0.00000000E+00  # m_nu_3
        11     5.10998930E-04  # m_e(pole)
        12     0.00000000E+00  # m_nu_1
        13     1.05658372E-01  # m_muon(pole)
        14     0.00000000E+00  # m_nu_2
        21     5.00000000E-03  # m_d(2 GeV), MSbar
        22     2.50000000E-03  # m_u(2 GeV), MSbar
        23     9.50000000E-02  # m_s(2 GeV), MSbar
        24     1.27000000E+00  # m_c(m_c), MSbar
Block gauge Q=  4.89241514E+03  # (SUSY scale)
   1    3.66416123E-01  # g'(Q)^DRbar
   2    6.35547744E-01  # g(Q)^DRbar
   3    9.86866141E-01  # g3(Q)^DRbar
Block Yu Q=  4.89241514E+03  # (SUSY scale)
#   1  1     6.71008604E-06   # Y_u(Q)^DRbar
  1  1     0.0   # Y_u(Q)^DRbar
#   2  2     3.40872422E-03   # Y_c(Q)^DRbar
  2  2     0.0   # Y_c(Q)^DRbar
#   3  3     8.25219447E-01   # Y_t(Q)^DRbar
  3  3     0.0   # Y_t(Q)^DRbar
Block Yd Q=  4.89241514E+03  # (SUSY scale)
#   1  1     1.26154368E-04   # Y_d(Q)^DRbar
  1  1     0.0   # Y_d(Q)^DRbar
#   2  2     2.39693180E-03   # Y_s(Q)^DRbar
  2  2     0.0   # Y_s(Q)^DRbar
#   3  3     1.23271801E-01   # Y_b(Q)^DRbar
  3  3     0.0   # Y_b(Q)^DRbar
Block Ye Q=  4.89241514E+03  # (SUSY scale)
#   1  1     2.83012501E-05   # Y_e(Q)^DRbar
  1  1     0.0   # Y_e(Q)^DRbar
#   2  2     5.85180412E-03   # Y_mu(Q)^DRbar
  2  2     0.0   # Y_mu(Q)^DRbar
#   3  3     9.84232631E-02   # Y_tau(Q)^DRbar
  3  3     0.0   # Y_tau(Q)^DRbar
Block Au Q=  4.89241514E+03  # (SUSY scale)
#   1  1    -1.50634279E+03   # A_u(Q)^DRbar
  1  1    0.0   # A_u(Q)^DRbar
#   2  2    -1.50634118E+03   # A_c(Q)^DRbar
  2  2    0.0   # A_c(Q)^DRbar
#   3  3    -1.42605429E+03   # A_t(Q)^DRbar
  3  3    0.0   # A_t(Q)^DRbar
Block Ad Q=  4.89241514E+03  # (SUSY scale)
#   1  1    -1.59676682E+03   # A_d(Q)^DRbar
  1  1    0.0   # A_d(Q)^DRbar
#   2  2    -1.59676567E+03   # A_s(Q)^DRbar
  2  2    0.0   # A_s(Q)^DRbar
#   3  3    -1.56901467E+03   # A_b(Q)^DRbar
  3  3    0.0   # A_b(Q)^DRbar
Block Ae Q=  4.89241514E+03  # (SUSY scale)
#   1  1    -1.92920825E+02   # A_e(Q)^DRbar
  1  1    0.0   # A_e(Q)^DRbar
#   2  2    -1.92920182E+02   # A_mu(Q)^DRbar
  2  2    0.0   # A_mu(Q)^DRbar
#   3  3    -1.92738760E+02   # A_tau(Q)^DRbar
  3  3    0.0   # A_tau(Q)^DRbar
Block MSOFT Q=  4.89241514E+03  # soft SUSY breaking masses at Q
   1    1.25484352E+03  # M_1
   2    2.25828842E+03  # M_2
   3    5.46662751E+03  # M_3
  21    2.87786906E+06  # M^2_(H,d)
  22   -2.12834503E+06  # M^2_(H,u)
  31    1.73121923E+03  # M_(L,11)
  32    1.73121574E+03  # M_(L,22)
  33    1.73023105E+03  # M_(L,33)
  34    8.54703342E+02  # M_(E,11)
  35    8.54688949E+02  # M_(E,22)
  36    8.50622443E+02  # M_(E,33)
  41    5.25366852E+03  # M_(Q,11)
  42    5.25366463E+03  # M_(Q,22)
  43    5.09907668E+03  # M_(Q,33)
  44    5.01815236E+03  # M_(U,11)
  45    5.01814690E+03  # M_(U,22)
  46    4.69036986E+03  # M_(U,33)
  47    4.99417556E+03  # M_(D,11)
  48    4.99417279E+03  # M_(D,22)
  49    4.98687348E+03  # M_(D,33)
Block MASS  # Mass spectrum
#   PDG code      mass          particle
         6     1.73100000E+02  # m_t(pole)
        23     9.11876000E+01  # m_Z(pole)
        24     8.04123006E+01  # W+
        15     1.77682000E+00  # m_tau(pole)
        25     1.23802485E+02  # h0
        35     2.40714989E+03  # H0
        36     2.40700389E+03  # A0
        37     2.40818877E+03  # H+
   1000001     5.45266380E+03  # ~d_L
   2000001     5.18145947E+03  # ~d_R
   1000002     5.45208357E+03  # ~u_L
   2000002     5.20430011E+03  # ~u_R
   1000003     5.45265913E+03  # ~s_L
   2000003     5.18145609E+03  # ~s_R
   1000004     5.45207897E+03  # ~c_L
   2000004     5.20429362E+03  # ~c_R
   1000005     5.17240642E+03  # ~b_1
   2000005     5.26701372E+03  # ~b_2
   1000006     4.81613110E+03  # ~t_1
   2000006     5.26988733E+03  # ~t_2
   1000011     1.76773556E+03  # ~e_L-
   2000011     8.84771702E+02  # ~e_R-
   1000012     1.76555798E+03  # ~nu_eL
   1000013     1.76773100E+03  # ~mu_L-
   2000013     8.84752926E+02  # ~mu_R-
   1000014     1.76555306E+03  # ~nu_muL
   1000015     8.79447470E+02  # ~tau_1-
   2000015     1.76644650E+03  # ~tau_2-
   1000016     1.76416566E+03  # ~nu_tauL
   1000021     5.71468705E+03  # ~g
   1000022     1.22515325E+03  # ~chi_10
   1000023     1.65744958E+03  # ~chi_20
   1000025    -1.66103655E+03  # ~chi_30
   1000035     2.31392753E+03  # ~chi_40
   1000024     1.65520444E+03  # ~chi_1+
   1000037     2.31397774E+03  # ~chi_2+
   1000039     3.36000000E-03  # ~G
# Higgs mixing
Block alpha # Effective Higgs mixing angle
          -1.05798808E-01   # alpha
Block Hmix Q=  4.89241514E+03  # Higgs mixing parameters
   1    1.63759416E+03  # mu
   2    9.45511116E+00  # tan[beta](Q)
   3    2.42880332E+02  # v(Q)
   4    5.11154102E+06  # m^2_A(Q)
Block stopmix # stop mixing matrix
   1  1     5.90792777E-02   # Re[R_st(1,1)]
   1  2     9.98253294E-01   # Re[R_st(1,2)]
   2  1    -9.98253294E-01   # Re[R_st(2,1)]
   2  2     5.90792777E-02   # Re[R_st(2,2)]
Block sbotmix # sbottom mixing matrix
   1  1     4.08053123E-02   # Re[R_sb(1,1)]
   1  2     9.99167116E-01   # Re[R_sb(1,2)]
   2  1    -9.99167116E-01   # Re[R_sb(2,1)]
   2  2     4.08053123E-02   # Re[R_sb(2,2)]
Block staumix # stau mixing matrix
   1  1     1.21840976E-02   # Re[R_sta(1,1)]
   1  2     9.99925771E-01   # Re[R_sta(1,2)]
   2  1    -9.99925771E-01   # Re[R_sta(2,1)]
   2  2     1.21840976E-02   # Re[R_sta(2,2)]
Block Nmix # neutralino mixing matrix
   1  1    -9.96691169E-01   # Re[N(1,1)]
   1  2     4.05057357E-03   # Re[N(1,2)]
   1  3    -6.38482974E-02   # Re[N(1,3)]
   1  4     5.01368307E-02   # Re[N(1,4)]
   2  1    -8.06389170E-02   # Re[N(2,1)]
   2  2    -9.24396548E-02   # Re[N(2,2)]
   2  3     7.02258173E-01   # Re[N(2,3)]
   2  4    -7.01274364E-01   # Re[N(2,4)]
   3  1    -9.64960807E-03   # Re[N(3,1)]
   3  2     1.24677635E-02   # Re[N(3,2)]
   3  3     7.06790015E-01   # Re[N(3,3)]
   3  4     7.07247703E-01   # Re[N(3,4)]
   4  1    -3.31121715E-03   # Re[N(4,1)]
   4  2     9.95631989E-01   # Re[N(4,2)]
   4  3     5.66103091E-02   # Re[N(4,3)]
   4  4    -7.41704174E-02   # Re[N(4,4)]
Block Umix # chargino mixing matrix
   1  1    -8.00849436E-02   # Re[U(1,1)]
   1  2     9.96788043E-01   # Re[U(1,2)]
   2  1     9.96788043E-01   # Re[U(2,1)]
   2  2     8.00849436E-02   # Re[U(2,2)]
Block Vmix # chargino mixing matrix
   1  1    -1.04908201E-01   # Re[V(1,1)]
   1  2     9.94481910E-01   # Re[V(1,2)]
   2  1     9.94481910E-01   # Re[V(2,1)]
   2  2     1.04908201E-01   # Re[V(2,2)]
DECAY        23     2.49520000E+00   # Z
DECAY        24     2.08500000E+00   # W
DECAY   2000011     6.74441234E-14   # ~e^-_R
#    BR                NDA      ID1      ID2
     8.15992335E-07    2     1000039        11   # BR(~e^-_R -> ~G e^-)
#    BR                NDA      ID1      ID2       ID3
     3.41514892E-01    3     1000015        11       -15   # BR(~e^-_R -> ~tau^-_1 e^- tau^+)
     6.58484292E-01    3    -1000015        15        11   # BR(~e^-_R -> ~tau^+_1 tau^- e^-)
     8.62231957E-12    3     1000015        12       -16   # BR(~e^-_R -> ~tau^-_1 nu_e nu_bar_tau)
DECAY   1000011     6.27826415E-01   # ~e^-_L
#    BR                NDA      ID1      ID2
     9.94596834E-01    2     1000022        11   # BR(~e^-_L -> chi^0_1 e^-)
     3.19088685E-03    2     1000023        11   # BR(~e^-_L -> chi^0_2 e^-)
     7.39222587E-06    2     1000025        11   # BR(~e^-_L -> chi^0_3 e^-)
     2.20485794E-03    2    -1000024        12   # BR(~e^-_L -> chi^-_1 nu_e)
     1.44421078E-08    2     2000011        23   # BR(~e^-_L -> ~e^-_R Z)
     1.44666885E-08    2     2000011        25   # BR(~e^-_L -> ~e^-_R h^0)
#    BR                NDA      ID1      ID2       ID3
     6.12523826E-11    3     1000012         1        -2   # BR(~e^-_L -> ~nu_e d u_bar)
     1.05306978E-11    3     1000012         3        -4   # BR(~e^-_L -> ~nu_e s c_bar)
DECAY   2000013     6.58236505E-14   # ~mu^-_R
#    BR                NDA      ID1      ID2
     8.35992001E-07    2     1000039        13   # BR(~mu^-_R -> ~G mu^-)
#    BR                NDA      ID1      ID2       ID3
     3.41497574E-01    3     1000015        13       -15   # BR(~mu^-_R -> ~tau^-_1 mu^- tau^+)
     6.58501219E-01    3    -1000015        15        13   # BR(~mu^-_R -> ~tau^+_1 tau^- mu^-)
     3.71098665E-07    3     1000015        14       -16   # BR(~mu^-_R -> ~tau^-_1 nu_mu nu_bar_tau)
DECAY   1000013     6.28611908E-01   # ~mu^-_L
#    BR                NDA      ID1      ID2
     9.93343538E-01    2     1000022        13   # BR(~mu^-_L -> chi^0_1 mu^-)
     3.19996227E-03    2     1000023        13   # BR(~mu^-_L -> chi^0_2 mu^-)
     2.05170168E-05    2     1000025        13   # BR(~mu^-_L -> chi^0_3 mu^-)
     2.20156805E-03    2    -1000024        14   # BR(~mu^-_L -> chi^-_1 nu_mu)
     6.16682814E-04    2     2000013        23   # BR(~mu^-_L -> ~mu^-_R Z)
     6.17732066E-04    2     2000013        25   # BR(~mu^-_L -> ~mu^-_R h^0)
#    BR                NDA      ID1      ID2       ID3
     6.12272205E-11    3     1000014         1        -2   # BR(~mu^-_L -> ~nu_mu d u_bar)
     1.05336719E-11    3     1000014         3        -4   # BR(~mu^-_L -> ~nu_mu s c_bar)
DECAY   1000015     5.33969561E-20   # ~tau^-_1
#    BR                NDA      ID1      ID2
     1.00000000E+00    2     1000039        15   # BR(~tau^-_1 -> ~G tau^-)
DECAY   2000015     8.50768476E-01   # ~tau^-_2
#    BR                NDA      ID1      ID2
     7.31774035E-01    2     1000022        15   # BR(~tau^-_2 -> chi^0_1 tau^-)
     5.02465313E-03    2     1000023        15   # BR(~tau^-_2 -> chi^0_2 tau^-)
     2.68738843E-03    2     1000025        15   # BR(~tau^-_2 -> chi^0_3 tau^-)
     1.51815623E-03    2    -1000024        16   # BR(~tau^-_2 -> chi^-_1 nu_tau)
     1.29398089E-01    2     1000015        23   # BR(~tau^-_2 -> ~tau^-_1 Z)
     1.29597678E-01    2     1000015        25   # BR(~tau^-_2 -> ~tau^-_1 h^0)
#    BR                NDA      ID1      ID2       ID3
     5.69746046E-11    3     1000016         1        -2   # BR(~tau^-_2 -> ~nu_tau d u_bar)
     1.17153897E-11    3     1000016         3        -4   # BR(~tau^-_2 -> ~nu_tau s c_bar)
DECAY   1000012     6.41108120E-01   # ~nu_e
#    BR                NDA      ID1      ID2
     9.96051460E-01    2     1000022        12   # BR(~nu_e -> chi^0_1 nu_e)
     3.29226718E-04    2     1000023        12   # BR(~nu_e -> chi^0_2 nu_e)
     4.74898016E-05    2     1000025        12   # BR(~nu_e -> chi^0_3 nu_e)
     3.57179583E-03    2     1000024        11   # BR(~nu_e -> chi^+_1 e^-)
     2.72386070E-08    2     2000011        24   # BR(~nu_e -> ~e^-_R W^+)
DECAY   1000014     6.41863249E-01   # ~nu_mu
#    BR                NDA      ID1      ID2
     9.94866560E-01    2     1000022        14   # BR(~nu_mu -> chi^0_1 nu_mu)
     3.28811246E-04    2     1000023        14   # BR(~nu_mu -> chi^0_2 nu_mu)
     4.74297231E-05    2     1000025        14   # BR(~nu_mu -> chi^0_3 nu_mu)
     3.59401712E-03    2     1000024        13   # BR(~nu_mu -> chi^+_1 mu^-)
     1.16318212E-03    2     2000013        24   # BR(~nu_mu -> ~mu^-_R W^+)
DECAY   1000016     8.55404015E-01   # ~nu_tau
#    BR                NDA      ID1      ID2
     7.43745589E-01    2     1000022        16   # BR(~nu_tau -> chi^0_1 nu_tau)
     2.40807688E-04    2     1000023        16   # BR(~nu_tau -> chi^0_2 nu_tau)
     3.47045969E-05    2     1000025        16   # BR(~nu_tau -> chi^0_3 nu_tau)
     8.15082060E-03    2     1000024        15   # BR(~nu_tau -> chi^+_1 tau^-)
     2.47828079E-01    2     1000015        24   # BR(~nu_tau -> ~tau^-_1 W^+)
DECAY   2000001     2.73950078E+00   # ~d_R
#    BR                NDA      ID1      ID2
     9.94024297E-01    2     1000022         1   # BR(~d_R -> chi^0_1 d)
     5.88293425E-03    2     1000023         1   # BR(~d_R -> chi^0_2 d)
     8.43946564E-05    2     1000025         1   # BR(~d_R -> chi^0_3 d)
     7.88895477E-06    2     1000035         1   # BR(~d_R -> chi^0_4 d)
     4.85389531E-07    2    -1000024         2   # BR(~d_R -> chi^-_1 u)
     2.20023165E-11    2    -1000037         2   # BR(~d_R -> chi^-_2 u)
DECAY   1000001     4.49823160E+01   # ~d_L
#    BR                NDA      ID1      ID2
     1.67986771E-02    2     1000022         1   # BR(~d_L -> chi^0_1 d)
     2.37514681E-03    2     1000023         1   # BR(~d_L -> chi^0_2 d)
     8.22384086E-05    2     1000025         1   # BR(~d_L -> chi^0_3 d)
     3.24976345E-01    2     1000035         1   # BR(~d_L -> chi^0_4 d)
     5.14902811E-03    2    -1000024         2   # BR(~d_L -> chi^-_1 u)
     6.50618564E-01    2    -1000037         2   # BR(~d_L -> chi^-_2 u)
     1.09626465E-12    2     2000002       -24   # BR(~d_L -> ~u_R W^-)
     1.84413690E-10    2     2000001        23   # BR(~d_L -> ~d_R Z)
     1.79152965E-10    2     2000001        25   # BR(~d_L -> ~d_R h^0)
DECAY   2000003     2.74045445E+00   # ~s_R
#    BR                NDA      ID1      ID2
     9.93679012E-01    2     1000022         3   # BR(~s_R -> chi^0_1 s)
     5.96712320E-03    2     1000023         3   # BR(~s_R -> chi^0_2 s)
     1.70803255E-04    2     1000025         3   # BR(~s_R -> chi^0_3 s)
     7.88915318E-06    2     1000035         3   # BR(~s_R -> chi^0_4 s)
     1.75164275E-04    2    -1000024         4   # BR(~s_R -> chi^-_1 c)
     7.93943151E-09    2    -1000037         4   # BR(~s_R -> chi^-_2 c)
DECAY   1000003     4.49838046E+01   # ~s_L
#    BR                NDA      ID1      ID2
     1.67981105E-02    2     1000022         3   # BR(~s_L -> chi^0_1 s)
     2.38063744E-03    2     1000023         3   # BR(~s_L -> chi^0_2 s)
     8.79303625E-05    2     1000025         3   # BR(~s_L -> chi^0_3 s)
     3.24965131E-01    2     1000035         3   # BR(~s_L -> chi^0_4 s)
     5.17145095E-03    2    -1000024         4   # BR(~s_L -> chi^-_1 c)
     6.50596326E-01    2    -1000037         4   # BR(~s_L -> chi^-_2 c)
     2.82899337E-07    2     2000004       -24   # BR(~s_L -> ~c_R W^-)
     6.65707421E-08    2     2000003        23   # BR(~s_L -> ~s_R Z)
     6.46717164E-08    2     2000003        25   # BR(~s_L -> ~s_R h^0)
DECAY   1000005     5.40011417E+00   # ~b_1
#    BR                NDA      ID1      ID2
     5.06420749E-01    2     1000022         5   # BR(~b_1 -> chi^0_1 b)
     1.20237698E-01    2     1000023         5   # BR(~b_1 -> chi^0_2 b)
     1.15520162E-01    2     1000025         5   # BR(~b_1 -> chi^0_3 b)
     1.55679118E-03    2     1000035         5   # BR(~b_1 -> chi^0_4 b)
     2.52755446E-01    2    -1000024         6   # BR(~b_1 -> chi^-_1 t)
     3.30781227E-03    2    -1000037         6   # BR(~b_1 -> chi^-_2 t)
     2.01342044E-04    2     1000006       -24   # BR(~b_1 -> ~t_1 W^-)
DECAY   2000005     1.02266665E+02   # ~b_2
#    BR                NDA      ID1      ID2
     7.02019888E-03    2     1000022         5   # BR(~b_2 -> chi^0_1 b)
     7.10244882E-03    2     1000023         5   # BR(~b_2 -> chi^0_2 b)
     6.38920948E-03    2     1000025         5   # BR(~b_2 -> chi^0_3 b)
     1.33741493E-01    2     1000035         5   # BR(~b_2 -> chi^0_4 b)
     5.58391575E-01    2    -1000024         6   # BR(~b_2 -> chi^-_1 t)
     2.74384096E-01    2    -1000037         6   # BR(~b_2 -> chi^-_2 t)
     1.29703265E-02    2     1000006       -24   # BR(~b_2 -> ~t_1 W^-)
     6.52411218E-07    2     1000005        23   # BR(~b_2 -> ~b_1 Z)
DECAY   2000002     1.10177804E+01   # ~u_R
#    BR                NDA      ID1      ID2
     9.94019540E-01    2     1000022         2   # BR(~u_R -> chi^0_1 u)
     5.88830865E-03    2     1000023         2   # BR(~u_R -> chi^0_2 u)
     8.42357583E-05    2     1000025         2   # BR(~u_R -> chi^0_3 u)
     7.91515810E-06    2     1000035         2   # BR(~u_R -> chi^0_4 u)
     3.44223085E-10    2     1000024         1   # BR(~u_R -> chi^+_1 d)
     1.05157387E-13    2     1000037         1   # BR(~u_R -> chi^+_2 d)
DECAY   1000002     4.50070907E+01   # ~u_L
#    BR                NDA      ID1      ID2
     1.54254613E-02    2     1000022         2   # BR(~u_L -> chi^0_1 u)
     4.67077077E-03    2     1000023         2   # BR(~u_L -> chi^0_2 u)
     4.51200126E-05    2     1000025         2   # BR(~u_L -> chi^0_3 u)
     3.23903396E-01    2     1000035         2   # BR(~u_L -> chi^0_4 u)
     8.82957606E-03    2     1000024         1   # BR(~u_L -> chi^+_1 d)
     6.47125676E-01    2     1000037         1   # BR(~u_L -> chi^+_2 d)
     3.68471255E-10    2     2000001        24   # BR(~u_L -> ~d_R W^+)
     5.35054709E-13    2     2000002        23   # BR(~u_L -> ~u_R Z)
     3.93070989E-13    2     2000002        25   # BR(~u_L -> ~u_R h^0)
DECAY   2000004     1.10197149E+01   # ~c_R
#    BR                NDA      ID1      ID2
     9.93843669E-01    2     1000022         4   # BR(~c_R -> chi^0_1 c)
     5.93113632E-03    2     1000023         4   # BR(~c_R -> chi^0_2 c)
     1.28426282E-04    2     1000025         4   # BR(~c_R -> chi^0_3 c)
     7.92579954E-06    2     1000035         4   # BR(~c_R -> chi^0_4 c)
     8.88158342E-05    2     1000024         3   # BR(~c_R -> chi^+_1 s)
     2.71344473E-08    2     1000037         3   # BR(~c_R -> chi^+_2 s)
DECAY   1000004     4.50085711E+01   # ~c_L
#    BR                NDA      ID1      ID2
     1.54249626E-02    2     1000022         4   # BR(~c_L -> chi^0_1 c)
     4.68179095E-03    2     1000023         4   # BR(~c_L -> chi^0_2 c)
     5.66168128E-05    2     1000025         4   # BR(~c_L -> chi^0_3 c)
     3.23892468E-01    2     1000035         4   # BR(~c_L -> chi^0_4 c)
     8.84015940E-03    2     1000024         3   # BR(~c_L -> chi^+_1 s)
     6.47103629E-01    2     1000037         3   # BR(~c_L -> chi^+_2 s)
     1.33013099E-07    2     2000003        24   # BR(~c_L -> ~s_R W^+)
     1.38075159E-07    2     2000004        23   # BR(~c_L -> ~c_R Z)
     1.01435069E-07    2     2000004        25   # BR(~c_L -> ~c_R h^0)
DECAY   1000006     1.11170232E+02   # ~t_1
#    BR                NDA      ID1      ID2
     2.55359623E-08    2     1000022         4   # BR(~t_1 -> chi^0_1 c)
     9.06961186E-02    2     1000022         6   # BR(~t_1 -> chi^0_1 t)
     7.51831821E-09    2     1000023         4   # BR(~t_1 -> chi^0_2 c)
     2.24895536E-01    2     1000023         6   # BR(~t_1 -> chi^0_2 t)
     2.28338822E-01    2     1000025         6   # BR(~t_1 -> chi^0_3 t)
     6.09851968E-04    2     1000035         6   # BR(~t_1 -> chi^0_4 t)
     4.54225715E-01    2     1000024         5   # BR(~t_1 -> chi^+_1 b)
     1.22838631E-03    2     1000037         5   # BR(~t_1 -> chi^+_2 b)
#    BR                NDA      ID1      ID2       ID3
     5.53724903E-06    3     1000022        24         5   # BR(~t_1 -> chi^0_1 W^+ b)
DECAY   2000006     1.02334524E+02   # ~t_2
#    BR                NDA      ID1      ID2
     7.30705438E-03    2     1000022         6   # BR(~t_2 -> chi^0_1 t)
     2.78305482E-01    2     1000023         6   # BR(~t_2 -> chi^0_2 t)
     2.81221369E-01    2     1000025         6   # BR(~t_2 -> chi^0_3 t)
     1.38520735E-01    2     1000035         6   # BR(~t_2 -> chi^0_4 t)
     1.27928668E-02    2     1000024         5   # BR(~t_2 -> chi^+_1 b)
     2.70126304E-01    2     1000037         5   # BR(~t_2 -> chi^+_2 b)
     1.31137099E-05    2     1000005        24   # BR(~t_2 -> ~b_1 W^+)
     6.73553616E-03    2     1000006        23   # BR(~t_2 -> ~t_1 Z)
     4.97753806E-03    2     1000006        25   # BR(~t_2 -> ~t_1 h^0)
DECAY   1000024     9.10989496E-01   # chi^+_1
#    BR                NDA      ID1      ID2
     7.43126701E-09    2    -2000011        12   # BR(chi^+_1 -> ~e^+_R nu_e)
     3.17720813E-04    2    -2000013        14   # BR(chi^+_1 -> ~mu^+_R nu_mu)
     9.07256542E-02    2    -1000015        16   # BR(chi^+_1 -> ~tau^+_1 nu_tau)
     9.04260054E-01    2     1000022        24   # BR(chi^+_1 -> chi^0_1 W^+)
#    BR                NDA      ID1      ID2       ID3
     2.11945396E-10    3     1000022        -1         2   # BR(chi^+_1 -> chi^0_1 d_bar u)
     2.33033728E-10    3     1000022        -3         4   # BR(chi^+_1 -> chi^0_1 s_bar c)
     4.69414095E-03    3     1000022        -5         6   # BR(chi^+_1 -> chi^0_1 b_bar t)
     5.31920532E-07    3     1000022       -11        12   # BR(chi^+_1 -> chi^0_1 e^+ nu_e)
     5.34848249E-07    3     1000022       -13        14   # BR(chi^+_1 -> chi^0_1 mu^+ nu_mu)
     1.35509702E-06    3     1000022       -15        16   # BR(chi^+_1 -> chi^0_1 tau^+ nu_tau)
DECAY   1000037     2.50745699E+01   # chi^+_2
#    BR                NDA      ID1      ID2
     6.38773056E-02    2    -1000011        12   # BR(chi^+_2 -> ~e^+_L nu_e)
     5.05866550E-11    2    -2000013        14   # BR(chi^+_2 -> ~mu^+_R nu_mu)
     6.38782639E-02    2    -1000013        14   # BR(chi^+_2 -> ~mu^+_L nu_mu)
     1.78376870E-08    2    -1000015        16   # BR(chi^+_2 -> ~tau^+_1 nu_tau)
     6.41485387E-02    2    -2000015        16   # BR(chi^+_2 -> ~tau^+_2 nu_tau)
     6.40216595E-02    2     1000012       -11   # BR(chi^+_2 -> ~nu_e e^+)
     6.40226681E-02    2     1000014       -13   # BR(chi^+_2 -> ~nu_mu mu^+)
     6.43071006E-02    2     1000016       -15   # BR(chi^+_2 -> ~nu_tau tau^+)
     3.10808011E-05    2     1000022        24   # BR(chi^+_2 -> chi^0_1 W^+)
     1.50478193E-01    2     1000023        24   # BR(chi^+_2 -> chi^0_2 W^+)
     1.49097133E-01    2     1000025        24   # BR(chi^+_2 -> chi^0_3 W^+)
     1.55537497E-01    2     1000024        23   # BR(chi^+_2 -> chi^+_1 Z)
     1.55437299E-01    2     1000024        25   # BR(chi^+_2 -> chi^+_1 h^0)
#    BR                NDA      ID1      ID2       ID3
     9.76414076E-10    3     1000024         2        -2   # BR(chi^+_2 -> chi^+_1 u u_bar)
     9.80861551E-10    3     1000024         4        -4   # BR(chi^+_2 -> chi^+_1 c c_bar)
     1.51537106E-03    3     1000024         6        -6   # BR(chi^+_2 -> chi^+_1 t t_bar)
     1.66873394E-09    3     1000024         1        -1   # BR(chi^+_2 -> chi^+_1 d d_bar)
     1.71574091E-09    3     1000024         3        -3   # BR(chi^+_2 -> chi^+_1 s s_bar)
     1.29600794E-07    3     1000024         5        -5   # BR(chi^+_2 -> chi^+_1 b b_bar)
     7.20678770E-11    3     1000024        13       -13   # BR(chi^+_2 -> chi^+_1 mu^- mu^+)
     2.03857523E-08    3     1000024        15       -15   # BR(chi^+_2 -> chi^+_1 tau^- tau^+)
     6.51268893E-08    3     1000022        -1         2   # BR(chi^+_2 -> chi^0_1 d_bar u)
     6.51269360E-08    3     1000022        -3         4   # BR(chi^+_2 -> chi^0_1 s_bar c)
     9.19141288E-07    3     1000022        -5         6   # BR(chi^+_2 -> chi^0_1 b_bar t)
     9.37559512E-13    3     1000022       -13        14   # BR(chi^+_2 -> chi^0_1 mu^+ nu_mu)
     2.68124430E-10    3     1000022       -15        16   # BR(chi^+_2 -> chi^0_1 tau^+ nu_tau)
     7.10556635E-10    3     1000023        -1         2   # BR(chi^+_2 -> chi^0_2 d_bar u)
     7.30716668E-10    3     1000023        -3         4   # BR(chi^+_2 -> chi^0_2 s_bar c)
     1.84446292E-03    3     1000023        -5         6   # BR(chi^+_2 -> chi^0_2 b_bar t)
     3.61074839E-11    3     1000023       -13        14   # BR(chi^+_2 -> chi^0_2 mu^+ nu_mu)
     1.02137591E-08    3     1000023       -15        16   # BR(chi^+_2 -> chi^0_2 tau^+ nu_tau)
     3.40800423E-11    3     1000025        -1         2   # BR(chi^+_2 -> chi^0_3 d_bar u)
     5.32667708E-11    3     1000025        -3         4   # BR(chi^+_2 -> chi^0_3 s_bar c)
     1.80218244E-03    3     1000025        -5         6   # BR(chi^+_2 -> chi^0_3 b_bar t)
     3.48340459E-11    3     1000025       -13        14   # BR(chi^+_2 -> chi^0_3 mu^+ nu_mu)
     9.85386565E-09    3     1000025       -15        16   # BR(chi^+_2 -> chi^0_3 tau^+ nu_tau)
DECAY   1000022     4.50496685E+00   # chi^0_1
#    BR                NDA      ID1      ID2
     1.65197586E-01    2     2000011       -11   # BR(chi^0_1 -> ~e^-_R e^+)
     1.65197586E-01    2    -2000011        11   # BR(chi^0_1 -> ~e^+_R e^-)
     1.65213017E-01    2     2000013       -13   # BR(chi^0_1 -> ~mu^-_R mu^+)
     1.65213017E-01    2    -2000013        13   # BR(chi^0_1 -> ~mu^+_R mu^-)
     1.69589397E-01    2     1000015       -15   # BR(chi^0_1 -> ~tau^-_1 tau^+)
     1.69589397E-01    2    -1000015        15   # BR(chi^0_1 -> ~tau^+_1 tau^-)
DECAY   1000023     1.06458657E+00   # chi^0_2
#    BR                NDA      ID1      ID2
     1.38258061E-02    2     2000011       -11   # BR(chi^0_2 -> ~e^-_R e^+)
     1.38258061E-02    2    -2000011        11   # BR(chi^0_2 -> ~e^+_R e^-)
     1.39604891E-02    2     2000013       -13   # BR(chi^0_2 -> ~mu^-_R mu^+)
     1.39604891E-02    2    -2000013        13   # BR(chi^0_2 -> ~mu^+_R mu^-)
     5.22927803E-02    2     1000015       -15   # BR(chi^0_2 -> ~tau^-_1 tau^+)
     5.22927803E-02    2    -1000015        15   # BR(chi^0_2 -> ~tau^+_1 tau^-)
     1.27941695E-02    2     1000022        23   # BR(chi^0_2 -> chi^0_1 Z)
     8.26840678E-01    2     1000022        25   # BR(chi^0_2 -> chi^0_1 h^0)
     1.87553005E-07    2     1000022        22   # BR(chi^0_2 -> chi^0_1 photon)
#    BR                NDA      ID1      ID2       ID3
     9.38654962E-10    3     1000022         2        -2   # BR(chi^0_2 -> chi^0_1 u u_bar)
     9.42282466E-10    3     1000022         4        -4   # BR(chi^0_2 -> chi^0_1 c c_bar)
     2.02786721E-04    3     1000022         6        -6   # BR(chi^0_2 -> chi^0_1 t t_bar)
     1.19221224E-10    3     1000022         1        -1   # BR(chi^0_2 -> chi^0_1 d d_bar)
     1.41533088E-10    3     1000022         3        -3   # BR(chi^0_2 -> chi^0_1 s s_bar)
     5.95505151E-08    3     1000022         5        -5   # BR(chi^0_2 -> chi^0_1 b b_bar)
     1.06063172E-06    3     1000022        11       -11   # BR(chi^0_2 -> chi^0_1 e^- e^+)
     1.06283596E-06    3     1000022        13       -13   # BR(chi^0_2 -> chi^0_1 mu^- mu^+)
     1.66553635E-06    3     1000022        15       -15   # BR(chi^0_2 -> chi^0_1 tau^- tau^+)
     1.76898860E-07    3     1000022        12       -12   # BR(chi^0_2 -> chi^0_1 nu_e nu_bar_e)
     2.12597707E-11    3     1000024         1        -2   # BR(chi^0_2 -> chi^+_1 d u_bar)
     2.12597707E-11    3    -1000024        -1         2   # BR(chi^0_2 -> chi^-_1 d_bar u)
     4.12321196E-12    3     1000024         3        -4   # BR(chi^0_2 -> chi^+_1 s c_bar)
     4.12321196E-12    3    -1000024        -3         4   # BR(chi^0_2 -> chi^-_1 s_bar c)
     7.08869656E-12    3     1000024        11       -12   # BR(chi^0_2 -> chi^+_1 e^- nu_bar_e)
     7.08869656E-12    3    -1000024       -11        12   # BR(chi^0_2 -> chi^-_1 e^+ nu_e)
     7.01110974E-12    3     1000024        13       -14   # BR(chi^0_2 -> chi^+_1 mu^- nu_bar_mu)
     7.01110974E-12    3    -1000024       -13        14   # BR(chi^0_2 -> chi^-_1 mu^+ nu_mu)
     1.48692861E-13    3     1000024        15       -16   # BR(chi^0_2 -> chi^+_1 tau^- nu_bar_tau)
     1.48692861E-13    3    -1000024       -15        16   # BR(chi^0_2 -> chi^-_1 tau^+ nu_tau)
DECAY   1000025     9.47854665E-01   # chi^0_3
#    BR                NDA      ID1      ID2
     2.23613220E-04    2     2000011       -11   # BR(chi^0_3 -> ~e^-_R e^+)
     2.23613220E-04    2    -2000011        11   # BR(chi^0_3 -> ~e^+_R e^-)
     3.76238884E-04    2     2000013       -13   # BR(chi^0_3 -> ~mu^-_R mu^+)
     3.76238884E-04    2    -2000013        13   # BR(chi^0_3 -> ~mu^+_R mu^-)
     4.38076590E-02    2     1000015       -15   # BR(chi^0_3 -> ~tau^-_1 tau^+)
     4.38076590E-02    2    -1000015        15   # BR(chi^0_3 -> ~tau^+_1 tau^-)
     8.97333911E-01    2     1000022        23   # BR(chi^0_3 -> chi^0_1 Z)
     1.29557475E-02    2     1000022        25   # BR(chi^0_3 -> chi^0_1 h^0)
     4.78730664E-07    2     1000022        22   # BR(chi^0_3 -> chi^0_1 photon)
     1.31784344E-11    2     1000023        22   # BR(chi^0_3 -> chi^0_2 photon)
#    BR                NDA      ID1      ID2       ID3
     5.15896781E-12    3     1000022         2        -2   # BR(chi^0_3 -> chi^0_1 u u_bar)
     1.05641433E-11    3     1000022         4        -4   # BR(chi^0_3 -> chi^0_1 c c_bar)
     8.93985787E-04    3     1000022         6        -6   # BR(chi^0_3 -> chi^0_1 t t_bar)
     1.30162903E-12    3     1000022         1        -1   # BR(chi^0_3 -> chi^0_1 d d_bar)
     2.71496087E-11    3     1000022         3        -3   # BR(chi^0_3 -> chi^0_1 s s_bar)
     6.88783838E-08    3     1000022         5        -5   # BR(chi^0_3 -> chi^0_1 b b_bar)
     3.85089559E-09    3     1000022        11       -11   # BR(chi^0_3 -> chi^0_1 e^- e^+)
     6.50462687E-09    3     1000022        13       -13   # BR(chi^0_3 -> chi^0_1 mu^- mu^+)
     7.46090854E-07    3     1000022        15       -15   # BR(chi^0_3 -> chi^0_1 tau^- tau^+)
     1.36799880E-08    3     1000022        12       -12   # BR(chi^0_3 -> chi^0_1 nu_e nu_bar_e)
     7.22370147E-11    3     1000023         2        -2   # BR(chi^0_3 -> chi^0_2 u u_bar)
     2.12790273E-11    3     1000023         4        -4   # BR(chi^0_3 -> chi^0_2 c c_bar)
     9.38880851E-11    3     1000023         1        -1   # BR(chi^0_3 -> chi^0_2 d d_bar)
     9.33588068E-11    3     1000023         3        -3   # BR(chi^0_3 -> chi^0_2 s s_bar)
     2.16519813E-11    3     1000023        11       -11   # BR(chi^0_3 -> chi^0_2 e^- e^+)
     2.15569228E-11    3     1000023        13       -13   # BR(chi^0_3 -> chi^0_2 mu^- mu^+)
     1.29920119E-10    3     1000023        12       -12   # BR(chi^0_3 -> chi^0_2 nu_e nu_bar_e)
     2.76995714E-09    3     1000024         1        -2   # BR(chi^0_3 -> chi^+_1 d u_bar)
     2.76995714E-09    3    -1000024        -1         2   # BR(chi^0_3 -> chi^-_1 d_bar u)
     2.20285752E-09    3     1000024         3        -4   # BR(chi^0_3 -> chi^+_1 s c_bar)
     2.20285752E-09    3    -1000024        -3         4   # BR(chi^0_3 -> chi^-_1 s_bar c)
     9.23341204E-10    3     1000024        11       -12   # BR(chi^0_3 -> chi^+_1 e^- nu_bar_e)
     9.23341204E-10    3    -1000024       -11        12   # BR(chi^0_3 -> chi^-_1 e^+ nu_e)
     9.21827606E-10    3     1000024        13       -14   # BR(chi^0_3 -> chi^+_1 mu^- nu_bar_mu)
     9.21827606E-10    3    -1000024       -13        14   # BR(chi^0_3 -> chi^-_1 mu^+ nu_mu)
     5.92304479E-10    3     1000024        15       -16   # BR(chi^0_3 -> chi^+_1 tau^- nu_bar_tau)
     5.92304479E-10    3    -1000024       -15        16   # BR(chi^0_3 -> chi^-_1 tau^+ nu_tau)
DECAY   1000035     2.50955804E+01   # chi^0_4
#    BR                NDA      ID1      ID2
     1.96840335E-06    2     2000011       -11   # BR(chi^0_4 -> ~e^-_R e^+)
     1.96840335E-06    2    -2000011        11   # BR(chi^0_4 -> ~e^+_R e^-)
     3.17114123E-02    2     1000011       -11   # BR(chi^0_4 -> ~e^-_L e^+)
     3.17114123E-02    2    -1000011        11   # BR(chi^0_4 -> ~e^+_L e^-)
     1.96791055E-06    2     2000013       -13   # BR(chi^0_4 -> ~mu^-_R mu^+)
     1.96791055E-06    2    -2000013        13   # BR(chi^0_4 -> ~mu^+_R mu^-)
     3.17118950E-02    2     1000013       -13   # BR(chi^0_4 -> ~mu^-_L mu^+)
     3.17118950E-02    2    -1000013        13   # BR(chi^0_4 -> ~mu^+_L mu^-)
     1.83377493E-06    2     1000015       -15   # BR(chi^0_4 -> ~tau^-_1 tau^+)
     1.83377493E-06    2    -1000015        15   # BR(chi^0_4 -> ~tau^+_1 tau^-)
     3.18480359E-02    2     2000015       -15   # BR(chi^0_4 -> ~tau^-_2 tau^+)
     3.18480359E-02    2    -2000015        15   # BR(chi^0_4 -> ~tau^+_2 tau^-)
     3.21765137E-02    2     1000012       -12   # BR(chi^0_4 -> ~nu_e nu_bar_e)
     3.21765137E-02    2    -1000012        12   # BR(chi^0_4 -> ~nu^*_e nu_e)
     3.21770138E-02    2     1000014       -14   # BR(chi^0_4 -> ~nu_mu nu_bar_mu)
     3.21770138E-02    2    -1000014        14   # BR(chi^0_4 -> ~nu^*_mu nu_mu)
     3.23180438E-02    2     1000016       -16   # BR(chi^0_4 -> ~nu_tau nu_bar_tau)
     3.23180438E-02    2    -1000016        16   # BR(chi^0_4 -> ~nu^*_tau nu_tau)
     1.51128550E-01    2     1000024       -24   # BR(chi^0_4 -> chi^+_1 W^-)
     1.51128550E-01    2    -1000024        24   # BR(chi^0_4 -> chi^-_1 W^+)
     6.49190833E-07    2     1000022        23   # BR(chi^0_4 -> chi^0_1 Z)
     2.83352684E-03    2     1000023        23   # BR(chi^0_4 -> chi^0_2 Z)
     1.50348533E-01    2     1000025        23   # BR(chi^0_4 -> chi^0_3 Z)
     3.29324507E-05    2     1000022        25   # BR(chi^0_4 -> chi^0_1 h^0)
     1.52851536E-01    2     1000023        25   # BR(chi^0_4 -> chi^0_2 h^0)
     2.64729393E-03    2     1000025        25   # BR(chi^0_4 -> chi^0_3 h^0)
     9.01338607E-08    2     1000022        22   # BR(chi^0_4 -> chi^0_1 photon)
     2.53511753E-07    2     1000023        22   # BR(chi^0_4 -> chi^0_2 photon)
     4.45692015E-07    2     1000025        22   # BR(chi^0_4 -> chi^0_3 photon)
#    BR                NDA      ID1      ID2       ID3
     3.11325436E-08    3     1000022         2        -2   # BR(chi^0_4 -> chi^0_1 u u_bar)
     3.11321301E-08    3     1000022         4        -4   # BR(chi^0_4 -> chi^0_1 c c_bar)
     4.37780157E-07    3     1000022         6        -6   # BR(chi^0_4 -> chi^0_1 t t_bar)
     3.39471961E-08    3     1000022         1        -1   # BR(chi^0_4 -> chi^0_1 d d_bar)
     3.39478316E-08    3     1000022         3        -3   # BR(chi^0_4 -> chi^0_1 s s_bar)
     4.10433127E-08    3     1000022         5        -5   # BR(chi^0_4 -> chi^0_1 b b_bar)
     8.82693403E-10    3     1000022        11       -11   # BR(chi^0_4 -> chi^0_1 e^- e^+)
     8.83338099E-10    3     1000022        13       -13   # BR(chi^0_4 -> chi^0_1 mu^- mu^+)
     1.06978610E-09    3     1000022        15       -15   # BR(chi^0_4 -> chi^0_1 tau^- tau^+)
     1.29227271E-09    3     1000023         2        -2   # BR(chi^0_4 -> chi^0_2 u u_bar)
     1.29324563E-09    3     1000023         4        -4   # BR(chi^0_4 -> chi^0_2 c c_bar)
     5.35632666E-04    3     1000023         6        -6   # BR(chi^0_4 -> chi^0_2 t t_bar)
     6.58092417E-10    3     1000023         1        -1   # BR(chi^0_4 -> chi^0_2 d d_bar)
     6.81039539E-10    3     1000023         3        -3   # BR(chi^0_4 -> chi^0_2 s s_bar)
     6.29883206E-08    3     1000023         5        -5   # BR(chi^0_4 -> chi^0_2 b b_bar)
     3.26508148E-13    3     1000023        11       -11   # BR(chi^0_4 -> chi^0_2 e^- e^+)
     3.51551774E-11    3     1000023        13       -13   # BR(chi^0_4 -> chi^0_2 mu^- mu^+)
     9.85517326E-09    3     1000023        15       -15   # BR(chi^0_4 -> chi^0_2 tau^- tau^+)
     4.22289920E-12    3     1000025         2        -2   # BR(chi^0_4 -> chi^0_3 u u_bar)
     5.81951584E-12    3     1000025         4        -4   # BR(chi^0_4 -> chi^0_3 c c_bar)
     9.25311775E-04    3     1000025         6        -6   # BR(chi^0_4 -> chi^0_3 t t_bar)
     7.76954941E-12    3     1000025         1        -1   # BR(chi^0_4 -> chi^0_3 d d_bar)
     3.06896700E-11    3     1000025         3        -3   # BR(chi^0_4 -> chi^0_3 s s_bar)
     6.21730743E-08    3     1000025         5        -5   # BR(chi^0_4 -> chi^0_3 b b_bar)
     3.48121652E-11    3     1000025        13       -13   # BR(chi^0_4 -> chi^0_3 mu^- mu^+)
     9.85047722E-09    3     1000025        15       -15   # BR(chi^0_4 -> chi^0_3 tau^- tau^+)
     7.02490566E-10    3     1000024         1        -2   # BR(chi^0_4 -> chi^+_1 d u_bar)
     7.02490566E-10    3    -1000024        -1         2   # BR(chi^0_4 -> chi^-_1 d_bar u)
     7.27908183E-10    3     1000024         3        -4   # BR(chi^0_4 -> chi^+_1 s c_bar)
     7.27908183E-10    3    -1000024        -3         4   # BR(chi^0_4 -> chi^-_1 s_bar c)
     1.83427049E-03    3     1000024         5        -6   # BR(chi^0_4 -> chi^+_1 b t_bar)
     1.83427049E-03    3    -1000024        -5         6   # BR(chi^0_4 -> chi^-_1 b_bar t)
     3.66112175E-11    3     1000024        13       -14   # BR(chi^0_4 -> chi^+_1 mu^- nu_bar_mu)
     3.66112175E-11    3    -1000024       -13        14   # BR(chi^0_4 -> chi^-_1 mu^+ nu_mu)
     1.03530925E-08    3     1000024        15       -16   # BR(chi^0_4 -> chi^+_1 tau^- nu_bar_tau)
     1.03530925E-08    3    -1000024       -15        16   # BR(chi^0_4 -> chi^-_1 tau^+ nu_tau)
DECAY   1000021     3.44819501E+01   # ~g
#    BR                NDA      ID1      ID2
     4.67531937E-02    2     2000002        -2   # BR(~g -> ~u_R u_bar)
     4.67531937E-02    2    -2000002         2   # BR(~g -> ~u^*_R u)
     1.29450464E-02    2     1000002        -2   # BR(~g -> ~u_L u_bar)
     1.29450464E-02    2    -1000002         2   # BR(~g -> ~u^*_L u)
     4.67540849E-02    2     2000004        -4   # BR(~g -> ~c_R c_bar)
     4.67540849E-02    2    -2000004         4   # BR(~g -> ~c^*_R c)
     1.29454041E-02    2     1000004        -4   # BR(~g -> ~c_L c_bar)
     1.29454041E-02    2    -1000004         4   # BR(~g -> ~c^*_L c)
     6.43057191E-07    2     1000006        -4   # BR(~g -> ~t_1 c_bar)
     6.43057191E-07    2    -1000006         4   # BR(~g -> ~t^*_1 c)
     1.29406014E-01    2     1000006        -6   # BR(~g -> ~t_1 t_bar)
     1.29406014E-01    2    -1000006         6   # BR(~g -> ~t^*_1 t)
     3.48839040E-02    2     2000006        -6   # BR(~g -> ~t_2 t_bar)
     3.48839040E-02    2    -2000006         6   # BR(~g -> ~t^*_2 t)
     5.08181140E-02    2     2000001        -1   # BR(~g -> ~d_R d_bar)
     5.08181140E-02    2    -2000001         1   # BR(~g -> ~d^*_R d)
     1.28892445E-02    2     1000001        -1   # BR(~g -> ~d_L d_bar)
     1.28892445E-02    2    -1000001         1   # BR(~g -> ~d^*_L d)
     5.08187222E-02    2     2000003        -3   # BR(~g -> ~s_R s_bar)
     5.08187222E-02    2    -2000003         3   # BR(~g -> ~s^*_R s)
     1.28896951E-02    2     1000003        -3   # BR(~g -> ~s_L s_bar)
     1.28896951E-02    2    -1000003         3   # BR(~g -> ~s^*_L s)
     5.24349965E-02    2     1000005        -5   # BR(~g -> ~b_1 b_bar)
     5.24349965E-02    2    -1000005         5   # BR(~g -> ~b^*_1 b)
     3.64112606E-02    2     2000005        -5   # BR(~g -> ~b_2 b_bar)
     3.64112606E-02    2    -2000005         5   # BR(~g -> ~b^*_2 b)
     1.79409120E-07    2     1000039        21   # BR(~g -> ~G g)
     2.91657154E-06    2     1000022        21   # BR(~g -> chi^0_1 g)
     4.74291384E-05    2     1000023        21   # BR(~g -> chi^0_2 g)
     4.81002036E-05    2     1000025        21   # BR(~g -> chi^0_3 g)
     7.29000716E-07    2     1000035        21   # BR(~g -> chi^0_4 g)
DECAY        25     3.18362947E-03   # h^0
#    BR                NDA      ID1      ID2
     7.41387444E-09    2          11       -11   # BR(h^0 -> e^- e^+)
     3.16963672E-04    2          13       -13   # BR(h^0 -> mu^- mu^+)
     8.94295680E-02    2          15       -15   # BR(h^0 -> tau^- tau^+)
     6.27325969E-07    2           1        -1   # BR(h^0 -> d d_bar)
     2.26464121E-04    2           3        -3   # BR(h^0 -> s s_bar)
     5.76294687E-01    2           5        -5   # BR(h^0 -> b b_bar)
     1.42922285E-07    2           2        -2   # BR(h^0 -> u u_bar)
     3.68756744E-02    2           4        -4   # BR(h^0 -> c c_bar)
     9.16693087E-02    2          21        21   # BR(h^0 -> g g)
     3.32060114E-03    2          22        22   # BR(h^0 -> photon photon)
# writing decays into V V* as 3-body decays
#    BR                NDA      ID1      ID2       ID3
     9.10489189E-03    3          24        11        12   # BR(h^0 -> W^+ e^- nu_e)
     9.10489189E-03    3          24        13        14   # BR(h^0 -> W^+ mu^- nu_mu)
     9.10489189E-03    3          24        15        16   # BR(h^0 -> W^+ tau^- nu_tau)
     3.18671216E-02    3          24         1        -2   # BR(h^0 -> W^+ d u_bar)
     3.18671216E-02    3          24         3        -4   # BR(h^0 -> W^+ s c_bar)
     9.10489189E-03    3         -24       -11       -12   # BR(h^0 -> W^- e^+ nu_bar_e)
     9.10489189E-03    3         -24       -13       -14   # BR(h^0 -> W^- mu^+ nu_bar_mu)
     9.10489189E-03    3         -24       -15       -16   # BR(h^0 -> W^- tau^+ nu_bar_tau)
     3.18671216E-02    3         -24        -1         2   # BR(h^0 -> W^- d_bar u)
     3.18671216E-02    3         -24        -3         4   # BR(h^0 -> W^- s_bar c)
     6.64208735E-04    3          23        11       -11   # BR(h^0 -> Z e^- e^+)
     6.64208735E-04    3          23        13       -13   # BR(h^0 -> Z mu^- mu^+)
     6.68162359E-04    3          23        15       -15   # BR(h^0 -> Z tau^- tau^+)
     3.95362343E-03    3          23        12       -12   # BR(h^0 -> Z nu_e nu_bar_e)
     3.08382627E-03    3          23         1        -1   # BR(h^0 -> Z d d_bar)
     3.08382627E-03    3          23         3        -3   # BR(h^0 -> Z s s_bar)
     2.98498569E-03    3          23         5        -5   # BR(h^0 -> Z b b_bar)
     2.29310159E-03    3          23         2        -2   # BR(h^0 -> Z u u_bar)
     2.37217406E-03    3          23         4        -4   # BR(h^0 -> Z c c_bar)
DECAY        35     4.39988021E+00   # H^0
#    BR                NDA      ID1      ID2
     8.62051755E-09    2          11       -11   # BR(H^0 -> e^- e^+)
     3.68554449E-04    2          13       -13   # BR(H^0 -> mu^- mu^+)
     1.04259635E-01    2          15       -15   # BR(H^0 -> tau^- tau^+)
     5.85097247E-07    2           1        -1   # BR(H^0 -> d d_bar)
     2.11219832E-04    2           3        -3   # BR(H^0 -> s s_bar)
     5.58665442E-01    2           5        -5   # BR(H^0 -> b b_bar)
     1.86676868E-11    2           2        -2   # BR(H^0 -> u u_bar)
     4.81746047E-06    2           4        -4   # BR(H^0 -> c c_bar)
     2.78116474E-01    2           6        -6   # BR(H^0 -> t t_bar)
     1.56693564E-05    2     2000011  -2000011   # BR(H^0 -> ~e^-_R ~e^+_R)
     1.56630103E-05    2     2000013  -2000013   # BR(H^0 -> ~mu^-_R ~mu^+_R)
     1.39152212E-05    2     1000015  -1000015   # BR(H^0 -> ~tau^-_1 ~tau^+_1)
     2.01758973E-02    2          23        23   # BR(H^0 -> Z Z)
     3.76601824E-02    2          24       -24   # BR(H^0 -> W^+ W^-)
     4.13701985E-04    2          25        25   # BR(H^0 -> h^0 h^0)
     7.70111442E-05    2          21        21   # BR(H^0 -> g g)
     1.22294297E-06    2          22        22   # BR(H^0 -> photon photon)
DECAY        36     4.14901637E+00   # A^0
#    BR                NDA      ID1      ID2
     9.14201789E-09    2          11       -11   # BR(A^0 -> e^- e^+)
     3.90850245E-04    2          13       -13   # BR(A^0 -> mu^- mu^+)
     1.10567089E-01    2          15       -15   # BR(A^0 -> tau^- tau^+)
     6.20492176E-07    2           1        -1   # BR(A^0 -> d d_bar)
     2.23997484E-04    2           3        -3   # BR(A^0 -> s s_bar)
     5.92461442E-01    2           5        -5   # BR(A^0 -> b b_bar)
     1.96361338E-11    2           2        -2   # BR(A^0 -> u u_bar)
     5.06736704E-06    2           4        -4   # BR(A^0 -> c c_bar)
     2.96102824E-01    2           6        -6   # BR(A^0 -> t t_bar)
     1.95436681E-04    2          25        23   # BR(A^0 -> h^0 Z)
     5.22324907E-05    2          21        21   # BR(A^0 -> g g)
     4.31461300E-07    2          22        22   # BR(A^0 -> photon photon)
DECAY        37     3.67066007E+00   # H^+
#    BR                NDA      ID1      ID2
     1.03384821E-08    2         -11        12   # BR(H^+ -> e^+ nu_e)
     4.42002884E-04    2         -13        12   # BR(H^+ -> mu^+ nu_e)
     1.25037589E-01    2         -15        12   # BR(H^+ -> tau^+ nu_e)
     6.16290012E-07    2          -1         2   # BR(H^+ -> d_bar u)
     2.27506189E-04    2          -3         4   # BR(H^+ -> s_bar c)
     8.74078545E-01    2          -5         6   # BR(H^+ -> b_bar t)
     2.13730653E-04    2          25        24   # BR(H^+ -> h^0 W^+)
DECAY         6     2.43000000E+00   # top
#    BR                NDA      ID1      ID2
     1.00000000E+00    2           5        24   # BR(t -> b W)
Block HiggsBoundsInputHiggsCouplingsFermions
# ScalarNormEffCoupSq PseudoSNormEffCoupSq NP IP1 IP2 IP2
    1.00810269E+00    0.00000000E+00        3  25   5   5  # h0-b-b eff. coupling^2, normalised to SM
    8.93910244E+01    0.00000000E+00        3  35   5   5  # H0-b-b eff. coupling^2, normalised to SM
    0.00000000E+00    8.93991271E+01        3  36   5   5  # A0-b-b eff. coupling^2, normalised to SM
#
    9.99909365E-01    0.00000000E+00        3  25   6   6  # h0-t-t eff. coupling^2, normalised to SM
    1.12764266E-02    0.00000000E+00        3  35   6   6  # H0-t-t eff. coupling^2, normalised to SM
    0.00000000E+00    1.11857915E-02        3  36   6   6  # A0-t-t eff. coupling^2, normalised to SM
#
    1.00810269E+00    0.00000000E+00        3  25  15  15  # h0-tau-tau eff. coupling^2, normalised to SM
    8.93910244E+01    0.00000000E+00        3  35  15  15  # H0-tau-tau eff. coupling^2, normalised to SM
    0.00000000E+00    8.93991271E+01        3  36  15  15  # A0-tau-tau eff. coupling^2, normalised to SM
#
Block HiggsBoundsInputHiggsCouplingsBosons
    9.99999817E-01        3  25  24  24  # h0-W-W eff. coupling^2, normalised to SM
    1.82865116E-07        3  35  24  24  # H0-W-W eff. coupling^2, normalised to SM
    0.00000000E+00        3  36  24  24  # A0-W-W eff. coupling^2, normalised to SM
#
    9.99999817E-01        3  25  23  23  # h0-Z-Z eff. coupling^2, normalised to SM
    1.82865116E-07        3  35  23  23  # H0-Z-Z eff. coupling^2, normalised to SM
    0.00000000E+00        3  36  23  23  # A0-Z-Z eff. coupling^2, normalised to SM
#
    1.14951586E+00        3  25  21  21  # h0-g-g eff. coupling^2, normalised to SM
    7.39666400E-03        3  35  21  21  # H0-g-g eff. coupling^2, normalised to SM
    1.28413409E-01        3  36  21  21  # A0-g-g eff. coupling^2, normalised to SM
#
    0.00000000E+00        3  25  25  23  # h0-h0-Z eff. coupling^2, normalised to SM
    0.00000000E+00        3  35  25  23  # H0-h0-Z eff. coupling^2, normalised to SM
    1.82865116E-07        3  36  25  23  # A0-h0-Z eff. coupling^2, normalised to SM
    0.00000000E+00        3  35  35  23  # H0-H0-Z eff. coupling^2, normalised to SM
    9.99999817E-01        3  36  35  23  # A0-H0-Z eff. coupling^2, normalised to SM
    0.00000000E+00        3  36  36  23  # A0-A0-Z eff. coupling^2, normalised to SM
#
    0.00000000E+00        4  25  21  21  23  # h0-g-g-Z eff. coupling^2, normalised to SM
    0.00000000E+00        4  35  21  21  23  # H0-g-g-Z eff. coupling^2, normalised to SM
    0.00000000E+00        4  36  21  21  23  # A0-g-g-Z eff. coupling^2, normalised to SM
Block SPhenoLowEnergy  # low energy observables
    1    3.26048152E-04   # BR(b -> s gamma)
    2    1.59029354E-06   # BR(b -> s mu+ mu-)
    3    3.52863905E-05   # BR(b -> s nu nu)
    4    2.06046112E-15   # BR(Bd -> e+ e-)
    5    8.80205588E-11   # BR(Bd -> mu+ mu-)
    6    1.84240509E-08   # BR(Bd -> tau+ tau-)
    7    6.94469430E-14   # BR(Bs -> e+ e-)
    8    2.96677117E-09   # BR(Bs -> mu+ mu-)
    9    6.29200474E-07   # BR(Bs -> tau+ tau-)
   10    9.67324834E-05   # BR(B_u -> tau nu)
   11    9.99359729E-01   # BR(B_u -> tau nu)/BR(B_u -> tau nu)_SM
   12    5.41472295E-01   # |Delta(M_Bd)| [ps^-1] 
   13    1.93472804E+01   # |Delta(M_Bs)| [ps^-1] 
   16    2.15477993E-03   # epsilon_K
   17    2.28163195E-15   # Delta(M_K)
   18    2.48223225E-11   # BR(K^0 -> pi^0 nu nu)
   19    8.29586773E-11   # BR(K^+ -> pi^+ nu nu)
   20    7.49941170E-16   # Delta(g-2)_electron/2
   21    3.20625868E-11   # Delta(g-2)_muon/2
   22    9.08826614E-09   # Delta(g-2)_tau/2
   23    0.00000000E+00   # electric dipole moment of the electron
   24    0.00000000E+00   # electric dipole moment of the muon
   25    0.00000000E+00   # electric dipole moment of the tau
   26    0.00000000E+00   # Br(mu -> e gamma)
   27    0.00000000E+00   # Br(tau -> e gamma)
   28    0.00000000E+00   # Br(tau -> mu gamma)
   29    0.00000000E+00   # Br(mu -> 3 e)
   30    0.00000000E+00   # Br(tau -> 3 e)
   31    0.00000000E+00   # Br(tau -> 3 mu)
   39   -5.52863335E-05   # Delta(rho_parameter)
   40    0.00000000E+00   # BR(Z -> e mu)
   41    0.00000000E+00   # BR(Z -> e tau)
   42    0.00000000E+00   # BR(Z -> mu tau)
Block FWCOEF Q=  1.60000000E+02  # Wilson coefficients at scale Q
#    id        order  M        value         comment
     0305 4422   00   0    -1.88845020E-01   # C7
     0305 4422   00   2    -1.94751523E-01   # C7
     0305 4322   00   2    -1.17933224E-04   # C7'
     0305 6421   00   0    -9.52360705E-02   # C8
     0305 6421   00   2    -1.03199494E-01   # C8
     0305 6321   00   2    -1.58020792E-04   # C8'
 03051111 4133   00   0     1.15928285E+00   # C9 e+e-
 03051111 4133   00   2     1.15946312E+00   # C9 e+e-
 03051111 4233   00   2     5.46563114E-07   # C9' e+e-
 03051111 4137   00   0    -3.98328353E+00   # C10 e+e-
 03051111 4137   00   2    -3.98321978E+00   # C10 e+e-
 03051111 4237   00   2    -1.62439343E-05   # C10' e+e-
 03051313 4133   00   0     1.15928285E+00   # C9 mu+mu-
 03051313 4133   00   2     1.15946309E+00   # C9 mu+mu-
 03051313 4233   00   2     5.46560538E-07   # C9' mu+mu-
 03051313 4137   00   0    -3.98328353E+00   # C10 mu+mu-
 03051313 4137   00   2    -3.98321981E+00   # C10 mu+mu-
 03051313 4237   00   2    -1.62439334E-05   # C10' mu+mu-
 03051212 4137   00   0     1.50572386E+00   # C11 nu_1 nu_1
 03051212 4137   00   2     1.50570977E+00   # C11 nu_1 nu_1
 03051212 4237   00   2     3.92490627E-06   # C11' nu_1 nu_1
 03051414 4137   00   0     1.50572386E+00   # C11 nu_2 nu_2
 03051414 4137   00   2     1.50570977E+00   # C11 nu_2 nu_2
 03051414 4237   00   2     3.92490678E-06   # C11' nu_2 nu_2
 03051616 4137   00   0     1.50572386E+00   # C11 nu_3 nu_3
 03051616 4137   00   2     1.50570977E+00   # C11 nu_3 nu_3
 03051616 4237   00   2     3.92505099E-06   # C11' nu_3 nu_3
Block IMFWCOEF Q=  1.60000000E+02  # Im(Wilson coefficients) at scale Q
#    id        order  M        value         comment
     0305 4422   00   0     3.85995956E-07   # C7
     0305 4422   00   2     1.05925618E-06   # C7
     0305 4322   00   2     1.59154858E-07   # C7'
     0305 6421   00   0     3.30630979E-07   # C8
     0305 6421   00   2     3.69691587E-07   # C8
     0305 6321   00   2     6.03200042E-08   # C8'
 03051111 4133   00   2     3.95598259E-09   # C9 e+e-
 03051111 4233   00   2     2.36354585E-08   # C9' e+e-
 03051111 4137   00   2    -3.97698813E-07   # C10 e+e-
 03051111 4237   00   2    -7.04144285E-07   # C10' e+e-
 03051313 4133   00   2     3.95580849E-09   # C9 mu+mu-
 03051313 4233   00   2     2.36354504E-08   # C9' mu+mu-
 03051313 4137   00   2    -3.97698796E-07   # C10 mu+mu-
 03051313 4237   00   2    -7.04144307E-07   # C10' mu+mu-
 03051212 4137   00   2     1.19387924E-07   # C11 nu_1 nu_1
 03051212 4237   00   2     1.70137382E-07   # C11' nu_1 nu_1
 03051414 4137   00   2     1.19387915E-07   # C11 nu_2 nu_2
 03051414 4237   00   2     1.70137382E-07   # C11' nu_2 nu_2
 03051616 4137   00   2     1.19385441E-07   # C11 nu_3 nu_3
 03051616 4237   00   2     1.70137382E-07   # C11' nu_3 nu_3
