# SUSY Les Houches Accord 2 - MSSM spectrum + Decays
# SPheno v3.3.6  
# W. Porod, Comput. Phys. Commun. 153 (2003) 275-315, hep-ph/0301101
# in case of problems send email to porod@physik.uni-wuerzburg.de
# Created: 06.12.2016,  13:43
Block SPINFO         # Program information
     1   SPheno      # spectrum calculator
     2   v3.3.6      # version number
#
Block SPhenoINFO     # SPheno specific information
    1      2         # using 2-loop RGEs
    2      1         # using running masses for boundary conditions at mZ
Block MODSEL  # Model selection
    1    2    # mGMSB model
Block MINPAR  # Input parameters
    1    9.00000000E+04  # Lambda, scale of SUSY breaking
    2    5.00000000E+05  # M_M, messenger mass scale
    3    1.00000000E+01  # tanb at m_Z   
    4    1.00000000E+00  # Sign(mu)
    5    3.00000000E+00  # N_5 number of effective five-plets
    6    1.00000000E+05  # c_grav, Gravitino mass factor
Block gauge Q=  5.00000000E+05  # (GMSB scale)
   1    4.97416934E-01  # g'(Q)^DRbar
   2    6.52487191E-01  # g(Q)^DRbar
   3    9.36061051E-01  # g3(Q)^DRbar
Block SMINPUTS  # SM parameters
         1     1.27931367E+02  # alpha_em^-1(MZ)^MSbar
         2     1.16637900E-05  # G_mu [GeV^-2]
         3     1.18400000E-01  # alpha_s(MZ)^MSbar
         4     9.11876000E+01  # m_Z(pole)
         5     4.18000000E+00  # m_b(m_b), MSbar
         6     1.73100000E+02  # m_t(pole)
         7     1.77682000E+00  # m_tau(pole)
         8     0.00000000E+00  # m_nu_3
        11     5.10998930E-04  # m_e(pole)
        12     0.00000000E+00  # m_nu_1
        13     1.05658372E-01  # m_muon(pole)
        14     0.00000000E+00  # m_nu_2
        21     5.00000000E-03  # m_d(2 GeV), MSbar
        22     2.50000000E-03  # m_u(2 GeV), MSbar
        23     9.50000000E-02  # m_s(2 GeV), MSbar
        24     1.27000000E+00  # m_c(m_c), MSbar
Block gauge Q=  1.68676842E+03  # (SUSY scale)
   1    3.64118823E-01  # g'(Q)^DRbar
   2    6.40886804E-01  # g(Q)^DRbar
   3    1.03588104E+00  # g3(Q)^DRbar
Block Yu Q=  1.68676842E+03  # (SUSY scale)
#   1  1     6.97110572E-06   # Y_u(Q)^DRbar
  1  1     0.0   # Y_u(Q)^DRbar
#   2  2     3.54132192E-03   # Y_c(Q)^DRbar
  2  2     0.0   # Y_c(Q)^DRbar
#   3  3     8.52146217E-01   # Y_t(Q)^DRbar
  3  3     0.0   # Y_t(Q)^DRbar
Block Yd Q=  1.68676842E+03  # (SUSY scale)
#   1  1     1.31528108E-04   # Y_d(Q)^DRbar
  1  1     0.0   # Y_d(Q)^DRbar
#   2  2     2.49903327E-03   # Y_s(Q)^DRbar
  2  2     0.0   # Y_s(Q)^DRbar
#   3  3     1.29584534E-01   # Y_b(Q)^DRbar
  3  3     0.0   # Y_b(Q)^DRbar
Block Ye Q=  1.68676842E+03  # (SUSY scale)
#   1  1     2.85826469E-05   # Y_e(Q)^DRbar
  1  1     0.0   # Y_e(Q)^DRbar
#   2  2     5.90998826E-03   # Y_mu(Q)^DRbar
  2  2     0.0   # Y_mu(Q)^DRbar
#   3  3     9.94026923E-02   # Y_tau(Q)^DRbar
  3  3     0.0   # Y_tau(Q)^DRbar
Block Au Q=  1.68676842E+03  # (SUSY scale)
#   1  1    -6.35994323E+02   # A_u(Q)^DRbar
  1  1    0.0   # A_u(Q)^DRbar
#   2  2    -6.35993459E+02   # A_c(Q)^DRbar
  2  2    0.0   # A_c(Q)^DRbar
#   3  3    -5.93363440E+02   # A_t(Q)^DRbar
  3  3    0.0   # A_t(Q)^DRbar
Block Ad Q=  1.68676842E+03  # (SUSY scale)
#   1  1    -6.83918908E+02   # A_d(Q)^DRbar
  1  1    0.0   # A_d(Q)^DRbar
#   2  2    -6.83918286E+02   # A_s(Q)^DRbar
  2  2    0.0   # A_s(Q)^DRbar
#   3  3    -6.69107418E+02   # A_b(Q)^DRbar
  3  3    0.0   # A_b(Q)^DRbar
Block Ae Q=  1.68676842E+03  # (SUSY scale)
#   1  1    -7.43679421E+01   # A_e(Q)^DRbar
  1  1    0.0   # A_e(Q)^DRbar
#   2  2    -7.43676376E+01   # A_mu(Q)^DRbar
  2  2    0.0   # A_mu(Q)^DRbar
#   3  3    -7.42818012E+01   # A_tau(Q)^DRbar
  3  3    0.0   # A_tau(Q)^DRbar
Block MSOFT Q=  1.68676842E+03  # soft SUSY breaking masses at Q
   1    3.76889490E+02  # M_1
   2    6.97662732E+02  # M_2
   3    1.83266423E+03  # M_3
  21    3.09265953E+05  # M^2_(H,d)
  22   -4.23925359E+05  # M^2_(H,u)
  31    5.72174223E+02  # M_(L,11)
  32    5.72172808E+02  # M_(L,22)
  33    5.71773731E+02  # M_(L,33)
  34    2.76709837E+02  # M_(E,11)
  35    2.76703887E+02  # M_(E,22)
  36    2.75021536E+02  # M_(E,33)
  41    1.82133365E+03  # M_(Q,11)
  42    1.82133199E+03  # M_(Q,22)
  43    1.75604463E+03  # M_(Q,33)
  44    1.74751231E+03  # M_(U,11)
  45    1.74750999E+03  # M_(U,22)
  46    1.60922675E+03  # M_(U,33)
  47    1.74032292E+03  # M_(D,11)
  48    1.74032173E+03  # M_(D,22)
  49    1.73713960E+03  # M_(D,33)
Block MASS  # Mass spectrum
#   PDG code      mass          particle
         6     1.73100000E+02  # m_t(pole)
        23     9.11876000E+01  # m_Z(pole)
        24     8.03943978E+01  # W+
        15     1.77682000E+00  # m_tau(pole)
        25     1.16911199E+02  # h0
        35     9.07466331E+02  # H0
        36     9.07175707E+02  # A0
        37     9.11132635E+02  # H+
   1000001     1.89451329E+03  # ~d_L
   2000001     1.81000187E+03  # ~d_R
   1000002     1.89287350E+03  # ~u_L
   2000002     1.81626526E+03  # ~u_R
   1000003     1.89451141E+03  # ~s_L
   2000003     1.81000036E+03  # ~s_R
   1000004     1.89287191E+03  # ~c_L
   2000004     1.81626245E+03  # ~c_R
   1000005     1.80444188E+03  # ~b_1
   2000005     1.81958742E+03  # ~b_2
   1000006     1.65750802E+03  # ~t_1
   2000006     1.82950760E+03  # ~t_2
   1000011     5.84480868E+02  # ~e_L-
   2000011     2.89619116E+02  # ~e_R-
   1000012     5.78762222E+02  # ~nu_eL
   1000013     5.84480759E+02  # ~mu_L-
   2000013     2.89608427E+02  # ~mu_R-
   1000014     5.78760299E+02  # ~nu_muL
   1000015     2.86585394E+02  # ~tau_1-
   2000015     5.84447951E+02  # ~tau_2-
   1000016     5.78218472E+02  # ~nu_tauL
   1000021     1.93776760E+03  # ~g
   1000022     3.66141322E+02  # ~chi_10
   1000023     6.52120091E+02  # ~chi_20
   1000025    -7.08705903E+02  # ~chi_30
   1000035     7.72578990E+02  # ~chi_40
   1000024     6.51162931E+02  # ~chi_1+
   1000037     7.72174701E+02  # ~chi_2+
   1000039     1.08000000E-03  # ~G
# Higgs mixing
Block alpha # Effective Higgs mixing angle
          -1.06830039E-01   # alpha
Block Hmix Q=  1.68676842E+03  # Higgs mixing parameters
   1    6.99146933E+02  # mu
   2    9.57552694E+00  # tan[beta](Q)
   3    2.43512094E+02  # v(Q)
   4    7.41305918E+05  # m^2_A(Q)
Block stopmix # stop mixing matrix
   1  1     1.93649349E-01   # Re[R_st(1,1)]
   1  2     9.81070808E-01   # Re[R_st(1,2)]
   2  1    -9.81070808E-01   # Re[R_st(2,1)]
   2  2     1.93649349E-01   # Re[R_st(2,2)]
Block sbotmix # sbottom mixing matrix
   1  1     3.48221677E-01   # Re[R_sb(1,1)]
   1  2     9.37412217E-01   # Re[R_sb(1,2)]
   2  1    -9.37412217E-01   # Re[R_sb(2,1)]
   2  2     3.48221677E-01   # Re[R_sb(2,2)]
Block staumix # stau mixing matrix
   1  1     4.74548622E-02   # Re[R_sta(1,1)]
   1  2     9.98873383E-01   # Re[R_sta(1,2)]
   2  1    -9.98873383E-01   # Re[R_sta(2,1)]
   2  2     4.74548622E-02   # Re[R_sta(2,2)]
Block Nmix # neutralino mixing matrix
   1  1    -9.94165793E-01   # Re[N(1,1)]
   1  2     1.43038772E-02   # Re[N(1,2)]
   1  3    -9.19666170E-02   # Re[N(1,3)]
   1  4     5.45152786E-02   # Re[N(1,4)]
   2  1     8.53415858E-02   # Re[N(2,1)]
   2  2     6.90703427E-01   # Re[N(2,2)]
   2  3    -5.24209493E-01   # Re[N(2,3)]
   2  4     4.90764707E-01   # Re[N(2,4)]
   3  1     2.58819386E-02   # Re[N(3,1)]
   3  2    -3.51693583E-02   # Re[N(3,2)]
   3  3    -7.04909823E-01   # Re[N(3,3)]
   3  4    -7.07951540E-01   # Re[N(3,4)]
   4  1    -6.06738340E-02   # Re[N(4,1)]
   4  2     7.22140770E-01   # Re[N(4,2)]
   4  3     4.68880252E-01   # Re[N(4,3)]
   4  4    -5.04958121E-01   # Re[N(4,4)]
Block Umix # chargino mixing matrix
   1  1    -6.60028336E-01   # Re[U(1,1)]
   1  2     7.51240704E-01   # Re[U(1,2)]
   2  1     7.51240704E-01   # Re[U(2,1)]
   2  2     6.60028336E-01   # Re[U(2,2)]
Block Vmix # chargino mixing matrix
   1  1    -7.11059279E-01   # Re[V(1,1)]
   1  2     7.03132065E-01   # Re[V(1,2)]
   2  1     7.03132065E-01   # Re[V(2,1)]
   2  2     7.11059279E-01   # Re[V(2,2)]
DECAY        23     2.49520000E+00   # Z
DECAY        24     2.08500000E+00   # W
DECAY   2000011     2.05510315E-13   # ~e^-_R
#    BR                NDA      ID1      ID2
     9.74109117E-09    2     1000039        11   # BR(~e^-_R -> ~G e^-)
#    BR                NDA      ID1      ID2       ID3
     3.81438939E-01    3     1000015        11       -15   # BR(~e^-_R -> ~tau^-_1 e^- tau^+)
     6.18561051E-01    3    -1000015        15        11   # BR(~e^-_R -> ~tau^+_1 tau^- e^-)
     6.10484725E-12    3     1000015        12       -16   # BR(~e^-_R -> ~tau^-_1 nu_e nu_bar_tau)
DECAY   1000011     2.67174110E-01   # ~e^-_L
#    BR                NDA      ID1      ID2
     9.99999933E-01    2     1000022        11   # BR(~e^-_L -> chi^0_1 e^-)
     1.66184133E-08    2     2000011        23   # BR(~e^-_L -> ~e^-_R Z)
     1.76306092E-08    2     2000011        25   # BR(~e^-_L -> ~e^-_R h^0)
#    BR                NDA      ID1      ID2       ID3
     1.84156170E-08    3     1000012         1        -2   # BR(~e^-_L -> ~nu_e d u_bar)
     1.45141584E-08    3     1000012         3        -4   # BR(~e^-_L -> ~nu_e s c_bar)
DECAY   2000013     1.95303574E-13   # ~mu^-_R
#    BR                NDA      ID1      ID2
     1.02482726E-08    2     1000039        13   # BR(~mu^-_R -> ~G mu^-)
#    BR                NDA      ID1      ID2       ID3
     3.81420257E-01    3     1000015        13       -15   # BR(~mu^-_R -> ~tau^-_1 mu^- tau^+)
     6.18579463E-01    3    -1000015        15        13   # BR(~mu^-_R -> ~tau^+_1 tau^- mu^-)
     2.69844404E-07    3     1000015        14       -16   # BR(~mu^-_R -> ~tau^-_1 nu_mu nu_bar_tau)
DECAY   1000013     2.67569065E-01   # ~mu^-_L
#    BR                NDA      ID1      ID2
     9.98537852E-01    2     1000022        13   # BR(~mu^-_L -> chi^0_1 mu^-)
     7.09464946E-04    2     2000013        23   # BR(~mu^-_L -> ~mu^-_R Z)
     7.52650555E-04    2     2000013        25   # BR(~mu^-_L -> ~mu^-_R h^0)
#    BR                NDA      ID1      ID2       ID3
     1.84174150E-08    3     1000014         1        -2   # BR(~mu^-_L -> ~nu_mu d u_bar)
     1.45177446E-08    3     1000014         3        -4   # BR(~mu^-_L -> ~nu_mu s c_bar)
DECAY   1000015     1.89892846E-21   # ~tau^-_1
#    BR                NDA      ID1      ID2
     1.00000000E+00    2     1000039        15   # BR(~tau^-_1 -> ~G tau^-)
DECAY   2000015     3.79369044E-01   # ~tau^-_2
#    BR                NDA      ID1      ID2
     7.07007723E-01    2     1000022        15   # BR(~tau^-_2 -> chi^0_1 tau^-)
     1.42889841E-01    2     1000015        23   # BR(~tau^-_2 -> ~tau^-_1 Z)
     1.50102400E-01    2     1000015        25   # BR(~tau^-_2 -> ~tau^-_1 h^0)
#    BR                NDA      ID1      ID2       ID3
     1.98332807E-08    3     1000016         1        -2   # BR(~tau^-_2 -> ~nu_tau d u_bar)
     1.62219881E-08    3     1000016         3        -4   # BR(~tau^-_2 -> ~nu_tau s c_bar)
DECAY   1000012     2.85307164E-01   # ~nu_e
#    BR                NDA      ID1      ID2
     9.99999970E-01    2     1000022        12   # BR(~nu_e -> chi^0_1 nu_e)
     2.98101577E-08    2     2000011        24   # BR(~nu_e -> ~e^-_R W^+)
DECAY   1000014     2.85667303E-01   # ~nu_mu
#    BR                NDA      ID1      ID2
     9.98727097E-01    2     1000022        14   # BR(~nu_mu -> chi^0_1 nu_mu)
     1.27290273E-03    2     2000013        24   # BR(~nu_mu -> ~mu^-_R W^+)
DECAY   1000016     3.87889987E-01   # ~nu_tau
#    BR                NDA      ID1      ID2
     7.33001072E-01    2     1000022        16   # BR(~nu_tau -> chi^0_1 nu_tau)
     2.66998928E-01    2     1000015        24   # BR(~nu_tau -> ~tau^-_1 W^+)
DECAY   2000001     9.73490631E-01   # ~d_R
#    BR                NDA      ID1      ID2
     9.90782028E-01    2     1000022         1   # BR(~d_R -> chi^0_1 d)
     6.01061741E-03    2     1000023         1   # BR(~d_R -> chi^0_2 d)
     5.23571484E-04    2     1000025         1   # BR(~d_R -> chi^0_3 d)
     2.68326912E-03    2     1000035         1   # BR(~d_R -> chi^0_4 d)
     4.28827469E-07    2    -1000024         2   # BR(~d_R -> chi^-_1 u)
     8.47178598E-08    2    -1000037         2   # BR(~d_R -> chi^-_2 u)
DECAY   1000001     1.72556477E+01   # ~d_L
#    BR                NDA      ID1      ID2
     1.70594846E-02    2     1000022         1   # BR(~d_L -> chi^0_1 d)
     1.58601222E-01    2     1000023         1   # BR(~d_L -> chi^0_2 d)
     5.32793990E-04    2     1000025         1   # BR(~d_L -> chi^0_3 d)
     1.67805155E-01    2     1000035         1   # BR(~d_L -> chi^0_4 d)
     3.03939467E-01    2    -1000024         2   # BR(~d_L -> chi^-_1 u)
     3.52061878E-01    2    -1000037         2   # BR(~d_L -> chi^-_2 u)
DECAY   2000003     9.73840288E-01   # ~s_R
#    BR                NDA      ID1      ID2
     9.90430718E-01    2     1000022         3   # BR(~s_R -> chi^0_1 s)
     6.08346098E-03    2     1000023         3   # BR(~s_R -> chi^0_2 s)
     6.03052120E-04    2     1000025         3   # BR(~s_R -> chi^0_3 s)
     2.69744569E-03    2     1000035         3   # BR(~s_R -> chi^0_4 s)
     1.54750816E-04    2    -1000024         4   # BR(~s_R -> chi^-_1 c)
     3.05719215E-05    2    -1000037         4   # BR(~s_R -> chi^-_2 c)
DECAY   1000003     1.72561073E+01   # ~s_L
#    BR                NDA      ID1      ID2
     1.70588970E-02    2     1000022         3   # BR(~s_L -> chi^0_1 s)
     1.58597967E-01    2     1000023         3   # BR(~s_L -> chi^0_2 s)
     5.37916878E-04    2     1000025         3   # BR(~s_L -> chi^0_3 s)
     1.67803672E-01    2     1000035         3   # BR(~s_L -> chi^0_4 s)
     3.03935836E-01    2    -1000024         4   # BR(~s_L -> chi^-_1 c)
     3.52065711E-01    2    -1000037         4   # BR(~s_L -> chi^-_2 c)
DECAY   1000005     5.79498747E+00   # ~b_1
#    BR                NDA      ID1      ID2
     1.63908953E-01    2     1000022         5   # BR(~b_1 -> chi^0_1 b)
     1.35942626E-01    2     1000023         5   # BR(~b_1 -> chi^0_2 b)
     3.12948258E-02    2     1000025         5   # BR(~b_1 -> chi^0_3 b)
     1.48417382E-02    2     1000035         5   # BR(~b_1 -> chi^0_4 b)
     4.22677652E-01    2    -1000024         6   # BR(~b_1 -> chi^-_1 t)
     2.24822664E-01    2    -1000037         6   # BR(~b_1 -> chi^-_2 t)
     6.51154036E-03    2     1000006       -24   # BR(~b_1 -> ~t_1 W^-)
DECAY   2000005     3.13378640E+01   # ~b_2
#    BR                NDA      ID1      ID2
     9.61903611E-03    2     1000022         5   # BR(~b_2 -> chi^0_1 b)
     6.47360771E-02    2     1000023         5   # BR(~b_2 -> chi^0_2 b)
     8.28416944E-03    2     1000025         5   # BR(~b_2 -> chi^0_3 b)
     8.88964548E-02    2     1000035         5   # BR(~b_2 -> chi^0_4 b)
     3.55674695E-01    2    -1000024         6   # BR(~b_2 -> chi^-_1 t)
     4.59870575E-01    2    -1000037         6   # BR(~b_2 -> chi^-_2 t)
     1.29189927E-02    2     1000006       -24   # BR(~b_2 -> ~t_1 W^-)
DECAY   2000002     3.90979386E+00   # ~u_R
#    BR                NDA      ID1      ID2
     9.90766686E-01    2     1000022         2   # BR(~u_R -> chi^0_1 u)
     6.01913138E-03    2     1000023         2   # BR(~u_R -> chi^0_2 u)
     5.24339776E-04    2     1000025         2   # BR(~u_R -> chi^0_3 u)
     2.68984258E-03    2     1000035         2   # BR(~u_R -> chi^0_4 u)
     3.03092652E-10    2     1000024         1   # BR(~u_R -> chi^+_1 d)
     6.77810426E-11    2     1000037         1   # BR(~u_R -> chi^+_2 d)
DECAY   1000002     1.73288001E+01   # ~u_L
#    BR                NDA      ID1      ID2
     1.25159053E-02    2     1000022         2   # BR(~u_L -> chi^0_1 u)
     1.73199903E-01    2     1000023         2   # BR(~u_L -> chi^0_2 u)
     3.02267043E-04    2     1000025         2   # BR(~u_L -> chi^0_3 u)
     1.56548028E-01    2     1000035         2   # BR(~u_L -> chi^0_4 u)
     3.50799190E-01    2     1000024         1   # BR(~u_L -> chi^+_1 d)
     3.06634707E-01    2     1000037         1   # BR(~u_L -> chi^+_2 d)
     7.67262666E-12    2     2000001        24   # BR(~u_L -> ~d_R W^+)
DECAY   2000004     3.91049874E+00   # ~c_R
#    BR                NDA      ID1      ID2
     9.90583843E-01    2     1000022         4   # BR(~c_R -> chi^0_1 c)
     6.05542826E-03    2     1000023         4   # BR(~c_R -> chi^0_2 c)
     5.67577903E-04    2     1000025         4   # BR(~c_R -> chi^0_3 c)
     2.69745988E-03    2     1000035         4   # BR(~c_R -> chi^0_4 c)
     7.82020965E-05    2     1000024         3   # BR(~c_R -> chi^+_1 s)
     1.74889602E-05    2     1000037         3   # BR(~c_R -> chi^+_2 s)
DECAY   1000004     1.73292273E+01   # ~c_L
#    BR                NDA      ID1      ID2
     1.25159991E-02    2     1000022         4   # BR(~c_L -> chi^0_1 c)
     1.73195518E-01    2     1000023         4   # BR(~c_L -> chi^0_2 c)
     3.12081104E-04    2     1000025         4   # BR(~c_L -> chi^0_3 c)
     1.56552629E-01    2     1000035         4   # BR(~c_L -> chi^0_4 c)
     3.50787562E-01    2     1000024         3   # BR(~c_L -> chi^+_1 s)
     3.06636208E-01    2     1000037         3   # BR(~c_L -> chi^+_2 s)
     2.76963670E-09    2     2000003        24   # BR(~c_L -> ~s_R W^+)
DECAY   1000006     3.51835847E+01   # ~t_1
#    BR                NDA      ID1      ID2
     3.66426179E-07    2     1000022         4   # BR(~t_1 -> chi^0_1 c)
     9.77576618E-02    2     1000022         6   # BR(~t_1 -> chi^0_1 t)
     4.77595570E-06    2     1000023         4   # BR(~t_1 -> chi^0_2 c)
     1.43442830E-01    2     1000023         6   # BR(~t_1 -> chi^0_2 t)
     2.33576335E-01    2     1000025         6   # BR(~t_1 -> chi^0_3 t)
     7.07272105E-02    2     1000035         6   # BR(~t_1 -> chi^0_4 t)
     3.06553803E-01    2     1000024         5   # BR(~t_1 -> chi^+_1 b)
     1.47928253E-01    2     1000037         5   # BR(~t_1 -> chi^+_2 b)
#    BR                NDA      ID1      ID2       ID3
     8.76351945E-06    3     1000022        24         5   # BR(~t_1 -> chi^0_1 W^+ b)
DECAY   2000006     3.55118825E+01   # ~t_2
#    BR                NDA      ID1      ID2
     7.16425550E-03    2     1000022         6   # BR(~t_2 -> chi^0_1 t)
     1.61928397E-01    2     1000023         6   # BR(~t_2 -> chi^0_2 t)
     2.51527224E-01    2     1000025         6   # BR(~t_2 -> chi^0_3 t)
     2.52314354E-01    2     1000035         6   # BR(~t_2 -> chi^0_4 t)
     9.27075507E-02    2     1000024         5   # BR(~t_2 -> chi^+_1 b)
     2.21686863E-01    2     1000037         5   # BR(~t_2 -> chi^+_2 b)
     7.08657352E-03    2     1000006        23   # BR(~t_2 -> ~t_1 Z)
     5.58478218E-03    2     1000006        25   # BR(~t_2 -> ~t_1 h^0)
DECAY   1000024     5.90332760E-01   # chi^+_1
#    BR                NDA      ID1      ID2
     5.25341992E-09    2    -2000011        12   # BR(chi^+_1 -> ~e^+_R nu_e)
     7.41355846E-02    2    -1000011        12   # BR(chi^+_1 -> ~e^+_L nu_e)
     2.24605185E-04    2    -2000013        14   # BR(chi^+_1 -> ~mu^+_R nu_mu)
     7.41308021E-02    2    -1000013        14   # BR(chi^+_1 -> ~mu^+_L nu_mu)
     6.39239497E-02    2    -1000015        16   # BR(chi^+_1 -> ~tau^+_1 nu_tau)
     7.28010422E-02    2    -2000015        16   # BR(chi^+_1 -> ~tau^+_2 nu_tau)
     1.00496638E-01    2     1000012       -11   # BR(chi^+_1 -> ~nu_e e^+)
     1.00514134E-01    2     1000014       -13   # BR(chi^+_1 -> ~nu_mu mu^+)
     1.05492659E-01    2     1000016       -15   # BR(chi^+_1 -> ~nu_tau tau^+)
     4.07833870E-01    2     1000022        24   # BR(chi^+_1 -> chi^0_1 W^+)
#    BR                NDA      ID1      ID2       ID3
     1.09964402E-07    3     1000022        -1         2   # BR(chi^+_1 -> chi^0_1 d_bar u)
     1.10097647E-07    3     1000022        -3         4   # BR(chi^+_1 -> chi^0_1 s_bar c)
     4.37849213E-04    3     1000022        -5         6   # BR(chi^+_1 -> chi^0_1 b_bar t)
     7.35916782E-13    3     1000022       -11        12   # BR(chi^+_1 -> chi^0_1 e^+ nu_e)
     3.14590836E-08    3     1000022       -13        14   # BR(chi^+_1 -> chi^0_1 mu^+ nu_mu)
     8.60996162E-06    3     1000022       -15        16   # BR(chi^+_1 -> chi^0_1 tau^+ nu_tau)
DECAY   1000037     2.70316761E+00   # chi^+_2
#    BR                NDA      ID1      ID2
     3.15284976E-10    2    -2000011        12   # BR(chi^+_2 -> ~e^+_R nu_e)
     1.20126980E-01    2    -1000011        12   # BR(chi^+_2 -> ~e^+_L nu_e)
     1.34798861E-05    2    -2000013        14   # BR(chi^+_2 -> ~mu^+_R nu_mu)
     1.20131657E-01    2    -1000013        14   # BR(chi^+_2 -> ~mu^+_L nu_mu)
     3.84951545E-03    2    -1000015        16   # BR(chi^+_2 -> ~tau^+_1 nu_tau)
     1.21450071E-01    2    -2000015        16   # BR(chi^+_2 -> ~tau^+_2 nu_tau)
     1.10804158E-01    2     1000012       -11   # BR(chi^+_2 -> ~nu_e e^+)
     1.10813139E-01    2     1000014       -13   # BR(chi^+_2 -> ~nu_mu mu^+)
     1.13355325E-01    2     1000016       -15   # BR(chi^+_2 -> ~nu_tau tau^+)
     6.41413960E-02    2     1000022        24   # BR(chi^+_2 -> chi^0_1 W^+)
     1.39823531E-01    2     1000023        24   # BR(chi^+_2 -> chi^0_2 W^+)
     9.45608855E-02    2     1000024        23   # BR(chi^+_2 -> chi^+_1 Z)
     3.35508689E-04    2     1000024        25   # BR(chi^+_2 -> chi^+_1 h^0)
#    BR                NDA      ID1      ID2       ID3
     6.60038090E-09    3     1000024         2        -2   # BR(chi^+_2 -> chi^+_1 u u_bar)
     6.58901507E-09    3     1000024         4        -4   # BR(chi^+_2 -> chi^+_1 c c_bar)
     6.73790354E-09    3     1000024         1        -1   # BR(chi^+_2 -> chi^+_1 d d_bar)
     6.74065264E-09    3     1000024         3        -3   # BR(chi^+_2 -> chi^+_1 s s_bar)
     2.18987940E-08    3     1000024         5        -5   # BR(chi^+_2 -> chi^+_1 b b_bar)
     7.95136432E-07    3     1000024        11       -11   # BR(chi^+_2 -> chi^+_1 e^- e^+)
     7.95229220E-07    3     1000024        13       -13   # BR(chi^+_2 -> chi^+_1 mu^- mu^+)
     8.02050333E-07    3     1000024        15       -15   # BR(chi^+_2 -> chi^+_1 tau^- tau^+)
     2.54384738E-06    3     1000024        12       -12   # BR(chi^+_2 -> chi^+_1 nu_e nu_bar_e)
     1.36244146E-07    3     1000022        -1         2   # BR(chi^+_2 -> chi^0_1 d_bar u)
     1.36276516E-07    3     1000022        -3         4   # BR(chi^+_2 -> chi^0_1 s_bar c)
     2.68295756E-04    3     1000022        -5         6   # BR(chi^+_2 -> chi^0_1 b_bar t)
     3.71285144E-09    3     1000022       -13        14   # BR(chi^+_2 -> chi^0_1 mu^+ nu_mu)
     1.02800474E-06    3     1000022       -15        16   # BR(chi^+_2 -> chi^0_1 tau^+ nu_tau)
     3.28981487E-09    3     1000023        -1         2   # BR(chi^+_2 -> chi^0_2 d_bar u)
     3.29150228E-09    3     1000023        -3         4   # BR(chi^+_2 -> chi^0_2 s_bar c)
     4.45625632E-07    3     1000023       -11        12   # BR(chi^+_2 -> chi^0_2 e^+ nu_e)
     4.45630451E-07    3     1000023       -13        14   # BR(chi^+_2 -> chi^0_2 mu^+ nu_mu)
     4.36806515E-07    3     1000023       -15        16   # BR(chi^+_2 -> chi^0_2 tau^+ nu_tau)
     1.06228478E-04    3     1000025        -1         2   # BR(chi^+_2 -> chi^0_3 d_bar u)
     1.06090197E-04    3     1000025        -3         4   # BR(chi^+_2 -> chi^0_3 s_bar c)
     3.54234761E-05    3     1000025       -11        12   # BR(chi^+_2 -> chi^0_3 e^+ nu_e)
     3.54232209E-05    3     1000025       -13        14   # BR(chi^+_2 -> chi^0_3 mu^+ nu_mu)
     3.52680258E-05    3     1000025       -15        16   # BR(chi^+_2 -> chi^0_3 tau^+ nu_tau)
DECAY   1000022     8.21166868E-01   # chi^0_1
#    BR                NDA      ID1      ID2
     1.62862753E-01    2     2000011       -11   # BR(chi^0_1 -> ~e^-_R e^+)
     1.62862753E-01    2    -2000011        11   # BR(chi^0_1 -> ~e^+_R e^-)
     1.62902348E-01    2     2000013       -13   # BR(chi^0_1 -> ~mu^-_R mu^+)
     1.62902348E-01    2    -2000013        13   # BR(chi^0_1 -> ~mu^+_R mu^-)
     1.74234899E-01    2     1000015       -15   # BR(chi^0_1 -> ~tau^-_1 tau^+)
     1.74234899E-01    2    -1000015        15   # BR(chi^0_1 -> ~tau^+_1 tau^-)
DECAY   1000023     6.72233448E-01   # chi^0_2
#    BR                NDA      ID1      ID2
     1.20092173E-02    2     2000011       -11   # BR(chi^0_2 -> ~e^-_R e^+)
     1.20092173E-02    2    -2000011        11   # BR(chi^0_2 -> ~e^+_R e^-)
     4.18888685E-02    2     1000011       -11   # BR(chi^0_2 -> ~e^-_L e^+)
     4.18888685E-02    2    -1000011        11   # BR(chi^0_2 -> ~e^+_L e^-)
     1.21057852E-02    2     2000013       -13   # BR(chi^0_2 -> ~mu^-_R mu^+)
     1.21057852E-02    2    -2000013        13   # BR(chi^0_2 -> ~mu^+_R mu^-)
     4.18916201E-02    2     1000013       -13   # BR(chi^0_2 -> ~mu^-_L mu^+)
     4.18916201E-02    2    -1000013        13   # BR(chi^0_2 -> ~mu^+_L mu^-)
     3.95433920E-02    2     1000015       -15   # BR(chi^0_2 -> ~tau^-_1 tau^+)
     3.95433920E-02    2    -1000015        15   # BR(chi^0_2 -> ~tau^+_1 tau^-)
     4.26708741E-02    2     2000015       -15   # BR(chi^0_2 -> ~tau^-_2 tau^+)
     4.26708741E-02    2    -2000015        15   # BR(chi^0_2 -> ~tau^+_2 tau^-)
     3.68484877E-02    2     1000012       -12   # BR(chi^0_2 -> ~nu_e nu_bar_e)
     3.68484877E-02    2    -1000012        12   # BR(chi^0_2 -> ~nu^*_e nu_e)
     3.68503047E-02    2     1000014       -14   # BR(chi^0_2 -> ~nu_mu nu_bar_mu)
     3.68503047E-02    2    -1000014        14   # BR(chi^0_2 -> ~nu^*_mu nu_mu)
     3.73637429E-02    2     1000016       -16   # BR(chi^0_2 -> ~nu_tau nu_bar_tau)
     3.73637429E-02    2    -1000016        16   # BR(chi^0_2 -> ~nu^*_tau nu_tau)
     2.23291844E-02    2     1000022        23   # BR(chi^0_2 -> chi^0_1 Z)
     3.75301624E-01    2     1000022        25   # BR(chi^0_2 -> chi^0_1 h^0)
     1.29374284E-06    2     1000022        22   # BR(chi^0_2 -> chi^0_1 photon)
#    BR                NDA      ID1      ID2       ID3
     5.32216906E-08    3     1000022         2        -2   # BR(chi^0_2 -> chi^0_1 u u_bar)
     5.32491285E-08    3     1000022         4        -4   # BR(chi^0_2 -> chi^0_1 c c_bar)
     5.56656430E-08    3     1000022         1        -1   # BR(chi^0_2 -> chi^0_1 d d_bar)
     5.58238474E-08    3     1000022         3        -3   # BR(chi^0_2 -> chi^0_1 s s_bar)
     4.96106295E-07    3     1000022         5        -5   # BR(chi^0_2 -> chi^0_1 b b_bar)
     5.21257710E-06    3     1000022        11       -11   # BR(chi^0_2 -> chi^0_1 e^- e^+)
     5.23858752E-06    3     1000022        13       -13   # BR(chi^0_2 -> chi^0_1 mu^- mu^+)
     1.21479791E-05    3     1000022        15       -15   # BR(chi^0_2 -> chi^0_1 tau^- tau^+)
     1.04937693E-12    3     1000024         1        -2   # BR(chi^0_2 -> chi^+_1 d u_bar)
     1.04937693E-12    3    -1000024        -1         2   # BR(chi^0_2 -> chi^-_1 d_bar u)
     3.32742899E-13    3     1000024        11       -12   # BR(chi^0_2 -> chi^+_1 e^- nu_bar_e)
     3.32742899E-13    3    -1000024       -11        12   # BR(chi^0_2 -> chi^-_1 e^+ nu_e)
     3.13449076E-13    3     1000024        13       -14   # BR(chi^0_2 -> chi^+_1 mu^- nu_bar_mu)
     3.13449076E-13    3    -1000024       -13        14   # BR(chi^0_2 -> chi^-_1 mu^+ nu_mu)
DECAY   1000025     5.32889992E-01   # chi^0_3
#    BR                NDA      ID1      ID2
     1.63052367E-03    2     2000011       -11   # BR(chi^0_3 -> ~e^-_R e^+)
     1.63052367E-03    2    -2000011        11   # BR(chi^0_3 -> ~e^+_R e^-)
     1.16397990E-04    2     1000011       -11   # BR(chi^0_3 -> ~e^-_L e^+)
     1.16397990E-04    2    -1000011        11   # BR(chi^0_3 -> ~e^+_L e^-)
     1.78533830E-03    2     2000013       -13   # BR(chi^0_3 -> ~mu^-_R mu^+)
     1.78533830E-03    2    -2000013        13   # BR(chi^0_3 -> ~mu^+_R mu^-)
     1.40708228E-04    2     1000013       -13   # BR(chi^0_3 -> ~mu^-_L mu^+)
     1.40708228E-04    2    -1000013        13   # BR(chi^0_3 -> ~mu^+_L mu^-)
     4.57760557E-02    2     1000015       -15   # BR(chi^0_3 -> ~tau^-_1 tau^+)
     4.57760557E-02    2    -1000015        15   # BR(chi^0_3 -> ~tau^+_1 tau^-)
     7.00494727E-03    2     2000015       -15   # BR(chi^0_3 -> ~tau^-_2 tau^+)
     7.00494727E-03    2    -2000015        15   # BR(chi^0_3 -> ~tau^+_2 tau^-)
     7.49775513E-04    2     1000012       -12   # BR(chi^0_3 -> ~nu_e nu_bar_e)
     7.49775513E-04    2    -1000012        12   # BR(chi^0_3 -> ~nu^*_e nu_e)
     7.49795468E-04    2     1000014       -14   # BR(chi^0_3 -> ~nu_mu nu_bar_mu)
     7.49795468E-04    2    -1000014        14   # BR(chi^0_3 -> ~nu^*_mu nu_mu)
     7.55425027E-04    2     1000016       -16   # BR(chi^0_3 -> ~nu_tau nu_bar_tau)
     7.55425027E-04    2    -1000016        16   # BR(chi^0_3 -> ~nu^*_tau nu_tau)
     8.28086204E-01    2     1000022        23   # BR(chi^0_3 -> chi^0_1 Z)
     5.18348782E-02    2     1000022        25   # BR(chi^0_3 -> chi^0_1 h^0)
     1.04779945E-06    2     1000022        22   # BR(chi^0_3 -> chi^0_1 photon)
     4.79329022E-09    2     1000023        22   # BR(chi^0_3 -> chi^0_2 photon)
#    BR                NDA      ID1      ID2       ID3
     9.29100172E-10    3     1000022         2        -2   # BR(chi^0_3 -> chi^0_1 u u_bar)
     1.06330808E-09    3     1000022         4        -4   # BR(chi^0_3 -> chi^0_1 c c_bar)
     2.65647183E-10    3     1000022         1        -1   # BR(chi^0_3 -> chi^0_1 d d_bar)
     8.29342910E-10    3     1000022         3        -3   # BR(chi^0_3 -> chi^0_1 s s_bar)
     1.53039414E-06    3     1000022         5        -5   # BR(chi^0_3 -> chi^0_1 b b_bar)
     4.20564579E-07    3     1000022        11       -11   # BR(chi^0_3 -> chi^0_1 e^- e^+)
     4.83143333E-07    3     1000022        13       -13   # BR(chi^0_3 -> chi^0_1 mu^- mu^+)
     1.76814148E-05    3     1000022        15       -15   # BR(chi^0_3 -> chi^0_1 tau^- tau^+)
     7.77301063E-05    3     1000023         2        -2   # BR(chi^0_3 -> chi^0_2 u u_bar)
     7.75264727E-05    3     1000023         4        -4   # BR(chi^0_3 -> chi^0_2 c c_bar)
     1.00782199E-04    3     1000023         1        -1   # BR(chi^0_3 -> chi^0_2 d d_bar)
     1.00780283E-04    3     1000023         3        -3   # BR(chi^0_3 -> chi^0_2 s s_bar)
     9.68360350E-05    3     1000023         5        -5   # BR(chi^0_3 -> chi^0_2 b b_bar)
     2.31462107E-05    3     1000023        11       -11   # BR(chi^0_3 -> chi^0_2 e^- e^+)
     2.31454574E-05    3     1000023        13       -13   # BR(chi^0_3 -> chi^0_2 mu^- mu^+)
     2.29329391E-05    3     1000023        15       -15   # BR(chi^0_3 -> chi^0_2 tau^- tau^+)
     1.38008011E-04    3     1000023        12       -12   # BR(chi^0_3 -> chi^0_2 nu_e nu_bar_e)
     3.30354939E-04    3     1000024         1        -2   # BR(chi^0_3 -> chi^+_1 d u_bar)
     3.30354939E-04    3    -1000024        -1         2   # BR(chi^0_3 -> chi^-_1 d_bar u)
     3.29768307E-04    3     1000024         3        -4   # BR(chi^0_3 -> chi^+_1 s c_bar)
     3.29768307E-04    3    -1000024        -3         4   # BR(chi^0_3 -> chi^-_1 s_bar c)
     1.09946955E-04    3     1000024        11       -12   # BR(chi^0_3 -> chi^+_1 e^- nu_bar_e)
     1.09946955E-04    3    -1000024       -11        12   # BR(chi^0_3 -> chi^-_1 e^+ nu_e)
     1.09946440E-04    3     1000024        13       -14   # BR(chi^0_3 -> chi^+_1 mu^- nu_bar_mu)
     1.09946440E-04    3    -1000024       -13        14   # BR(chi^0_3 -> chi^-_1 mu^+ nu_mu)
     1.09445720E-04    3     1000024        15       -16   # BR(chi^0_3 -> chi^+_1 tau^- nu_bar_tau)
     1.09445720E-04    3    -1000024       -15        16   # BR(chi^0_3 -> chi^-_1 tau^+ nu_tau)
DECAY   1000035     2.85198841E+00   # chi^0_4
#    BR                NDA      ID1      ID2
     1.94301441E-03    2     2000011       -11   # BR(chi^0_4 -> ~e^-_R e^+)
     1.94301441E-03    2    -2000011        11   # BR(chi^0_4 -> ~e^+_R e^-)
     4.78610510E-02    2     1000011       -11   # BR(chi^0_4 -> ~e^-_L e^+)
     4.78610510E-02    2    -1000011        11   # BR(chi^0_4 -> ~e^+_L e^-)
     1.94907929E-03    2     2000013       -13   # BR(chi^0_4 -> ~mu^-_R mu^+)
     1.94907929E-03    2    -2000013        13   # BR(chi^0_4 -> ~mu^+_R mu^-)
     4.78665916E-02    2     1000013       -13   # BR(chi^0_4 -> ~mu^-_L mu^+)
     4.78665916E-02    2    -1000013        13   # BR(chi^0_4 -> ~mu^+_L mu^-)
     3.68768295E-03    2     1000015       -15   # BR(chi^0_4 -> ~tau^-_1 tau^+)
     3.68768295E-03    2    -1000015        15   # BR(chi^0_4 -> ~tau^+_1 tau^-)
     4.94251906E-02    2     2000015       -15   # BR(chi^0_4 -> ~tau^-_2 tau^+)
     4.94251906E-02    2    -2000015        15   # BR(chi^0_4 -> ~tau^+_2 tau^-)
     6.09980779E-02    2     1000012       -12   # BR(chi^0_4 -> ~nu_e nu_bar_e)
     6.09980779E-02    2    -1000012        12   # BR(chi^0_4 -> ~nu^*_e nu_e)
     6.09991149E-02    2     1000014       -14   # BR(chi^0_4 -> ~nu_mu nu_bar_mu)
     6.09991149E-02    2    -1000014        14   # BR(chi^0_4 -> ~nu^*_mu nu_mu)
     6.12914621E-02    2     1000016       -16   # BR(chi^0_4 -> ~nu_tau nu_bar_tau)
     6.12914621E-02    2    -1000016        16   # BR(chi^0_4 -> ~nu^*_tau nu_tau)
     1.28140554E-01    2     1000024       -24   # BR(chi^0_4 -> chi^+_1 W^-)
     1.28140554E-01    2    -1000024        24   # BR(chi^0_4 -> chi^-_1 W^+)
     6.32766468E-03    2     1000022        23   # BR(chi^0_4 -> chi^0_1 Z)
     7.13197638E-06    2     1000023        23   # BR(chi^0_4 -> chi^0_2 Z)
     6.46741623E-02    2     1000022        25   # BR(chi^0_4 -> chi^0_1 h^0)
     4.18370595E-04    2     1000023        25   # BR(chi^0_4 -> chi^0_2 h^0)
     3.38124103E-07    2     1000022        22   # BR(chi^0_4 -> chi^0_1 photon)
     1.74702454E-06    2     1000023        22   # BR(chi^0_4 -> chi^0_2 photon)
     5.08134102E-07    2     1000025        22   # BR(chi^0_4 -> chi^0_3 photon)
#    BR                NDA      ID1      ID2       ID3
     5.74401031E-08    3     1000022         2        -2   # BR(chi^0_4 -> chi^0_1 u u_bar)
     5.74304479E-08    3     1000022         4        -4   # BR(chi^0_4 -> chi^0_1 c c_bar)
     5.98340868E-06    3     1000022         6        -6   # BR(chi^0_4 -> chi^0_1 t t_bar)
     7.58827066E-08    3     1000022         1        -1   # BR(chi^0_4 -> chi^0_1 d d_bar)
     7.59388495E-08    3     1000022         3        -3   # BR(chi^0_4 -> chi^0_1 s s_bar)
     2.40026068E-07    3     1000022         5        -5   # BR(chi^0_4 -> chi^0_1 b b_bar)
     1.67785495E-06    3     1000022        11       -11   # BR(chi^0_4 -> chi^0_1 e^- e^+)
     1.68074798E-06    3     1000022        13       -13   # BR(chi^0_4 -> chi^0_1 mu^- mu^+)
     2.45975123E-06    3     1000022        15       -15   # BR(chi^0_4 -> chi^0_1 tau^- tau^+)
     4.72299096E-09    3     1000023         2        -2   # BR(chi^0_4 -> chi^0_2 u u_bar)
     4.71499633E-09    3     1000023         4        -4   # BR(chi^0_4 -> chi^0_2 c c_bar)
     4.56492806E-09    3     1000023         1        -1   # BR(chi^0_4 -> chi^0_2 d d_bar)
     4.56499530E-09    3     1000023         3        -3   # BR(chi^0_4 -> chi^0_2 s s_bar)
     5.28370842E-09    3     1000023         5        -5   # BR(chi^0_4 -> chi^0_2 b b_bar)
     6.03581402E-07    3     1000023        11       -11   # BR(chi^0_4 -> chi^0_2 e^- e^+)
     6.03640998E-07    3     1000023        13       -13   # BR(chi^0_4 -> chi^0_2 mu^- mu^+)
     6.04632097E-07    3     1000023        15       -15   # BR(chi^0_4 -> chi^0_2 tau^- tau^+)
     1.51397695E-06    3     1000023        12       -12   # BR(chi^0_4 -> chi^0_2 nu_e nu_bar_e)
     2.67672058E-05    3     1000025         2        -2   # BR(chi^0_4 -> chi^0_3 u u_bar)
     2.67160811E-05    3     1000025         4        -4   # BR(chi^0_4 -> chi^0_3 c c_bar)
     3.47254208E-05    3     1000025         1        -1   # BR(chi^0_4 -> chi^0_3 d d_bar)
     3.47249377E-05    3     1000025         3        -3   # BR(chi^0_4 -> chi^0_3 s s_bar)
     3.37009156E-05    3     1000025         5        -5   # BR(chi^0_4 -> chi^0_3 b b_bar)
     7.94897460E-06    3     1000025        11       -11   # BR(chi^0_4 -> chi^0_3 e^- e^+)
     7.94873570E-06    3     1000025        13       -13   # BR(chi^0_4 -> chi^0_3 mu^- mu^+)
     7.88168174E-06    3     1000025        15       -15   # BR(chi^0_4 -> chi^0_3 tau^- tau^+)
     4.78481526E-05    3     1000025        12       -12   # BR(chi^0_4 -> chi^0_3 nu_e nu_bar_e)
     3.20120202E-09    3     1000024         1        -2   # BR(chi^0_4 -> chi^+_1 d u_bar)
     3.20120202E-09    3    -1000024        -1         2   # BR(chi^0_4 -> chi^-_1 d_bar u)
     3.20158166E-09    3     1000024         3        -4   # BR(chi^0_4 -> chi^+_1 s c_bar)
     3.20158166E-09    3    -1000024        -3         4   # BR(chi^0_4 -> chi^-_1 s_bar c)
     4.19415441E-07    3     1000024        11       -12   # BR(chi^0_4 -> chi^+_1 e^- nu_bar_e)
     4.19415441E-07    3    -1000024       -11        12   # BR(chi^0_4 -> chi^-_1 e^+ nu_e)
     4.19413795E-07    3     1000024        13       -14   # BR(chi^0_4 -> chi^+_1 mu^- nu_bar_mu)
     4.19413795E-07    3    -1000024       -13        14   # BR(chi^0_4 -> chi^-_1 mu^+ nu_mu)
     4.14386824E-07    3     1000024        15       -16   # BR(chi^0_4 -> chi^+_1 tau^- nu_bar_tau)
     4.14386824E-07    3    -1000024       -15        16   # BR(chi^0_4 -> chi^-_1 tau^+ nu_tau)
DECAY   1000021     6.18059627E+00   # ~g
#    BR                NDA      ID1      ID2
     4.93798631E-02    2     2000002        -2   # BR(~g -> ~u_R u_bar)
     4.93798631E-02    2    -2000002         2   # BR(~g -> ~u^*_R u)
     7.01949795E-03    2     1000002        -2   # BR(~g -> ~u_L u_bar)
     7.01949795E-03    2    -1000002         2   # BR(~g -> ~u^*_L u)
     4.93775665E-02    2     2000004        -4   # BR(~g -> ~c_R c_bar)
     4.93775665E-02    2    -2000004         4   # BR(~g -> ~c^*_R c)
     7.01799134E-03    2     1000004        -4   # BR(~g -> ~c_L c_bar)
     7.01799134E-03    2    -1000004         4   # BR(~g -> ~c^*_L c)
     1.67515415E-05    2     1000006        -4   # BR(~g -> ~t_1 c_bar)
     1.67515415E-05    2    -1000006         4   # BR(~g -> ~t^*_1 c)
     1.47037748E-01    2     1000006        -6   # BR(~g -> ~t_1 t_bar)
     1.47037748E-01    2    -1000006         6   # BR(~g -> ~t^*_1 t)
     5.44200552E-02    2     2000001        -1   # BR(~g -> ~d_R d_bar)
     5.44200552E-02    2    -2000001         1   # BR(~g -> ~d^*_R d)
     6.52165637E-03    2     1000001        -1   # BR(~g -> ~d_L d_bar)
     6.52165637E-03    2    -1000001         1   # BR(~g -> ~d^*_L d)
     5.44211878E-02    2     2000003        -3   # BR(~g -> ~s_R s_bar)
     5.44211878E-02    2    -2000003         3   # BR(~g -> ~s^*_R s)
     6.52223325E-03    2     1000003        -3   # BR(~g -> ~s_L s_bar)
     6.52223325E-03    2    -1000003         3   # BR(~g -> ~s^*_L s)
     5.78050012E-02    2     1000005        -5   # BR(~g -> ~b_1 b_bar)
     5.78050012E-02    2    -1000005         5   # BR(~g -> ~b^*_1 b)
     4.78856509E-02    2     2000005        -5   # BR(~g -> ~b_2 b_bar)
     4.78856509E-02    2    -2000005         5   # BR(~g -> ~b^*_2 b)
     4.34293364E-08    2     1000039        21   # BR(~g -> ~G g)
     4.89854054E-06    2     1000022        21   # BR(~g -> chi^0_1 g)
     1.50136357E-04    2     1000023        21   # BR(~g -> chi^0_2 g)
     2.34916571E-04    2     1000025        21   # BR(~g -> chi^0_3 g)
     9.63646712E-05    2     1000035        21   # BR(~g -> chi^0_4 g)
#    BR                NDA      ID1      ID2       ID3
     2.10764429E-04    3     1000022         6        -6   # BR(~g -> chi^0_1 t t_bar)
     3.58267589E-03    3     1000023         6        -6   # BR(~g -> chi^0_2 t t_bar)
     5.89886191E-03    3     1000025         6        -6   # BR(~g -> chi^0_3 t t_bar)
     7.43977417E-03    3     1000035         6        -6   # BR(~g -> chi^0_4 t t_bar)
     1.17582846E-03    3     1000024         5        -6   # BR(~g -> chi^+_1 b t_bar)
     1.17582846E-03    3    -1000024        -5         6   # BR(~g -> chi^-_1 b_bar t)
     2.58974994E-03    3     1000037         5        -6   # BR(~g -> chi^+_2 b t_bar)
     2.58974994E-03    3    -1000037        -5         6   # BR(~g -> chi^-_2 b_bar t)
DECAY        25     2.77849556E-03   # h^0
#    BR                NDA      ID1      ID2
     8.18770559E-09    2          11       -11   # BR(h^0 -> e^- e^+)
     3.50047397E-04    2          13       -13   # BR(h^0 -> mu^- mu^+)
     9.87877091E-02    2          15       -15   # BR(h^0 -> tau^- tau^+)
     7.05877173E-07    2           1        -1   # BR(h^0 -> d d_bar)
     2.54821279E-04    2           3        -3   # BR(h^0 -> s s_bar)
     6.64563574E-01    2           5        -5   # BR(h^0 -> b b_bar)
     1.60123133E-07    2           2        -2   # BR(h^0 -> u u_bar)
     4.13136015E-02    2           4        -4   # BR(h^0 -> c c_bar)
     9.03906824E-02    2          21        21   # BR(h^0 -> g g)
     2.99064675E-03    2          22        22   # BR(h^0 -> photon photon)
# writing decays into V V* as 3-body decays
#    BR                NDA      ID1      ID2       ID3
     4.68240357E-03    3          24        11        12   # BR(h^0 -> W^+ e^- nu_e)
     4.68240357E-03    3          24        13        14   # BR(h^0 -> W^+ mu^- nu_mu)
     4.68240357E-03    3          24        15        16   # BR(h^0 -> W^+ tau^- nu_tau)
     1.63884125E-02    3          24         1        -2   # BR(h^0 -> W^+ d u_bar)
     1.63884125E-02    3          24         3        -4   # BR(h^0 -> W^+ s c_bar)
     4.68240357E-03    3         -24       -11       -12   # BR(h^0 -> W^- e^+ nu_bar_e)
     4.68240357E-03    3         -24       -13       -14   # BR(h^0 -> W^- mu^+ nu_bar_mu)
     4.68240357E-03    3         -24       -15       -16   # BR(h^0 -> W^- tau^+ nu_bar_tau)
     1.63884125E-02    3         -24        -1         2   # BR(h^0 -> W^- d_bar u)
     1.63884125E-02    3         -24        -3         4   # BR(h^0 -> W^- s_bar c)
     2.58719042E-04    3          23        11       -11   # BR(h^0 -> Z e^- e^+)
     2.58719042E-04    3          23        13       -13   # BR(h^0 -> Z mu^- mu^+)
     2.60259037E-04    3          23        15       -15   # BR(h^0 -> Z tau^- tau^+)
     1.53999430E-03    3          23        12       -12   # BR(h^0 -> Z nu_e nu_bar_e)
     1.20119555E-03    3          23         1        -1   # BR(h^0 -> Z d d_bar)
     1.20119555E-03    3          23         3        -3   # BR(h^0 -> Z s s_bar)
     1.16269570E-03    3          23         5        -5   # BR(h^0 -> Z b b_bar)
     8.93196693E-04    3          23         2        -2   # BR(h^0 -> Z u u_bar)
     9.23996579E-04    3          23         4        -4   # BR(h^0 -> Z c c_bar)
DECAY        35     1.66456726E+00   # H^0
#    BR                NDA      ID1      ID2
     8.75988275E-09    2          11       -11   # BR(H^0 -> e^- e^+)
     3.74512749E-04    2          13       -13   # BR(H^0 -> mu^- mu^+)
     1.05944816E-01    2          15       -15   # BR(H^0 -> tau^- tau^+)
     6.33232395E-07    2           1        -1   # BR(H^0 -> d d_bar)
     2.28596742E-04    2           3        -3   # BR(H^0 -> s s_bar)
     6.14653390E-01    2           5        -5   # BR(H^0 -> b b_bar)
     2.04563977E-11    2           2        -2   # BR(H^0 -> u u_bar)
     5.27907049E-06    2           4        -4   # BR(H^0 -> c c_bar)
     2.62358543E-01    2           6        -6   # BR(H^0 -> t t_bar)
     1.20056744E-04    2     2000011  -2000011   # BR(H^0 -> ~e^-_R ~e^+_R)
     1.19997847E-04    2     2000013  -2000013   # BR(H^0 -> ~mu^-_R ~mu^+_R)
     1.40215694E-11    2     2000013  -1000013   # BR(H^0 -> ~mu^-_R ~mu^+_L)
     1.40215694E-11    2    -2000013   1000013   # BR(H^0 -> ~mu^+_R ~mu^-_L)
     1.03871501E-04    2     1000015  -1000015   # BR(H^0 -> ~tau^-_1 ~tau^+_1)
     5.65668371E-09    2     1000015  -2000015   # BR(H^0 -> ~tau^-_1 ~tau^+_2)
     5.65668371E-09    2    -1000015   2000015   # BR(H^0 -> ~tau^+_1 ~tau^-_2)
     2.25708315E-03    2     1000022   1000022   # BR(H^0 -> chi^0_1 chi^0_1)
     3.68698959E-03    2          23        23   # BR(H^0 -> Z Z)
     7.06992003E-03    2          24       -24   # BR(H^0 -> W^+ W^-)
     2.85011642E-03    2          25        25   # BR(H^0 -> h^0 h^0)
     2.24589254E-04    2          21        21   # BR(H^0 -> g g)
     1.58480200E-06    2          22        22   # BR(H^0 -> photon photon)
DECAY        36     1.68299559E+00   # A^0
#    BR                NDA      ID1      ID2
     8.66627756E-09    2          11       -11   # BR(A^0 -> e^- e^+)
     3.70510851E-04    2          13       -13   # BR(A^0 -> mu^- mu^+)
     1.04814331E-01    2          15       -15   # BR(A^0 -> tau^- tau^+)
     6.26463754E-07    2           1        -1   # BR(A^0 -> d d_bar)
     2.26153275E-04    2           3        -3   # BR(A^0 -> s s_bar)
     6.08090123E-01    2           5        -5   # BR(A^0 -> b b_bar)
     1.91927339E-11    2           2        -2   # BR(A^0 -> u u_bar)
     4.95296015E-06    2           4        -4   # BR(A^0 -> c c_bar)
     2.77122524E-01    2           6        -6   # BR(A^0 -> t t_bar)
     1.04395968E-10    2     2000013  -1000013   # BR(A^0 -> ~mu^-_R ~mu^+_L)
     1.04395968E-10    2    -2000013   1000013   # BR(A^0 -> ~mu^+_R ~mu^-_L)
     2.70204951E-08    2     1000015  -2000015   # BR(A^0 -> ~tau^-_1 ~tau^+_2)
     2.70204951E-08    2    -1000015   2000015   # BR(A^0 -> ~tau^+_1 ~tau^-_2)
     8.22679487E-03    2     1000022   1000022   # BR(A^0 -> chi^0_1 chi^0_1)
     1.02193414E-03    2          25        23   # BR(A^0 -> h^0 Z)
     1.21199496E-04    2          21        21   # BR(A^0 -> g g)
     7.87142130E-07    2          22        22   # BR(A^0 -> photon photon)
DECAY        37     1.41279136E+00   # H^+
#    BR                NDA      ID1      ID2
     1.03687818E-08    2         -11        12   # BR(H^+ -> e^+ nu_e)
     4.43298305E-04    2         -13        12   # BR(H^+ -> mu^+ nu_e)
     1.25405284E-01    2         -15        12   # BR(H^+ -> tau^+ nu_e)
     6.58710445E-07    2          -1         2   # BR(H^+ -> d_bar u)
     2.42993812E-04    2          -3         4   # BR(H^+ -> s_bar c)
     8.72697724E-01    2          -5         6   # BR(H^+ -> b_bar t)
     3.74771696E-09    2    -2000013   1000014   # BR(H^+ -> ~mu^+_R ~nu_mu)
     1.01775454E-06    2    -1000015   1000016   # BR(H^+ -> ~tau^+_1 ~nu_tau)
     1.20900887E-03    2          25        24   # BR(H^+ -> h^0 W^+)
DECAY         6     2.43000000E+00   # top
#    BR                NDA      ID1      ID2
     1.00000000E+00    2           5        24   # BR(t -> b W)
Block HiggsBoundsInputHiggsCouplingsFermions
# ScalarNormEffCoupSq PseudoSNormEffCoupSq NP IP1 IP2 IP2
    1.05382921E+00    0.00000000E+00        3  25   5   5  # h0-b-b eff. coupling^2, normalised to SM
    9.16368870E+01    0.00000000E+00        3  35   5   5  # H0-b-b eff. coupling^2, normalised to SM
    0.00000000E+00    9.16907162E+01        3  36   5   5  # A0-b-b eff. coupling^2, normalised to SM
#
    9.99412926E-01    0.00000000E+00        3  25   6   6  # h0-t-t eff. coupling^2, normalised to SM
    1.14933033E-02    0.00000000E+00        3  35   6   6  # H0-t-t eff. coupling^2, normalised to SM
    0.00000000E+00    1.09062296E-02        3  36   6   6  # A0-t-t eff. coupling^2, normalised to SM
#
    1.05382921E+00    0.00000000E+00        3  25  15  15  # h0-tau-tau eff. coupling^2, normalised to SM
    9.16368870E+01    0.00000000E+00        3  35  15  15  # H0-tau-tau eff. coupling^2, normalised to SM
    0.00000000E+00    9.16907162E+01        3  36  15  15  # A0-tau-tau eff. coupling^2, normalised to SM
#
Block HiggsBoundsInputHiggsCouplingsBosons
    9.99992303E-01        3  25  24  24  # h0-W-W eff. coupling^2, normalised to SM
    7.69691662E-06        3  35  24  24  # H0-W-W eff. coupling^2, normalised to SM
    0.00000000E+00        3  36  24  24  # A0-W-W eff. coupling^2, normalised to SM
#
    9.99992303E-01        3  25  23  23  # h0-Z-Z eff. coupling^2, normalised to SM
    7.69691662E-06        3  35  23  23  # H0-Z-Z eff. coupling^2, normalised to SM
    0.00000000E+00        3  36  23  23  # A0-Z-Z eff. coupling^2, normalised to SM
#
    1.16573933E+00        3  25  21  21  # h0-g-g eff. coupling^2, normalised to SM
    9.89247083E-03        3  35  21  21  # H0-g-g eff. coupling^2, normalised to SM
    1.27924726E-01        3  36  21  21  # A0-g-g eff. coupling^2, normalised to SM
#
    0.00000000E+00        3  25  25  23  # h0-h0-Z eff. coupling^2, normalised to SM
    0.00000000E+00        3  35  25  23  # H0-h0-Z eff. coupling^2, normalised to SM
    7.69691662E-06        3  36  25  23  # A0-h0-Z eff. coupling^2, normalised to SM
    0.00000000E+00        3  35  35  23  # H0-H0-Z eff. coupling^2, normalised to SM
    9.99992303E-01        3  36  35  23  # A0-H0-Z eff. coupling^2, normalised to SM
    0.00000000E+00        3  36  36  23  # A0-A0-Z eff. coupling^2, normalised to SM
#
    0.00000000E+00        4  25  21  21  23  # h0-g-g-Z eff. coupling^2, normalised to SM
    0.00000000E+00        4  35  21  21  23  # H0-g-g-Z eff. coupling^2, normalised to SM
    0.00000000E+00        4  36  21  21  23  # A0-g-g-Z eff. coupling^2, normalised to SM
Block SPhenoLowEnergy  # low energy observables
    1    3.43642598E-04   # BR(b -> s gamma)
    2    1.58766709E-06   # BR(b -> s mu+ mu-)
    3    3.52697957E-05   # BR(b -> s nu nu)
    4    2.10655227E-15   # BR(Bd -> e+ e-)
    5    8.99895325E-11   # BR(Bd -> mu+ mu-)
    6    1.88368961E-08   # BR(Bd -> tau+ tau-)
    7    7.09763760E-14   # BR(Bs -> e+ e-)
    8    3.03210891E-09   # BR(Bs -> mu+ mu-)
    9    6.43082120E-07   # BR(Bs -> tau+ tau-)
   10    9.63481210E-05   # BR(B_u -> tau nu)
   11    9.95388815E-01   # BR(B_u -> tau nu)/BR(B_u -> tau nu)_SM
   12    5.42524155E-01   # |Delta(M_Bd)| [ps^-1] 
   13    1.93840107E+01   # |Delta(M_Bs)| [ps^-1] 
   16    2.15909142E-03   # epsilon_K
   17    2.28167618E-15   # Delta(M_K)
   18    2.48087967E-11   # BR(K^0 -> pi^0 nu nu)
   19    8.29283319E-11   # BR(K^+ -> pi^+ nu nu)
   20    7.57001478E-15   # Delta(g-2)_electron/2
   21    3.23646013E-10   # Delta(g-2)_muon/2
   22    9.18712616E-08   # Delta(g-2)_tau/2
   23    0.00000000E+00   # electric dipole moment of the electron
   24    0.00000000E+00   # electric dipole moment of the muon
   25    0.00000000E+00   # electric dipole moment of the tau
   26    0.00000000E+00   # Br(mu -> e gamma)
   27    0.00000000E+00   # Br(tau -> e gamma)
   28    0.00000000E+00   # Br(tau -> mu gamma)
   29    0.00000000E+00   # Br(mu -> 3 e)
   30    0.00000000E+00   # Br(tau -> 3 e)
   31    0.00000000E+00   # Br(tau -> 3 mu)
   39    2.83514462E-05   # Delta(rho_parameter)
   40    0.00000000E+00   # BR(Z -> e mu)
   41    0.00000000E+00   # BR(Z -> e tau)
   42    0.00000000E+00   # BR(Z -> mu tau)
Block FWCOEF Q=  1.60000000E+02  # Wilson coefficients at scale Q
#    id        order  M        value         comment
     0305 4422   00   0    -1.88871240E-01   # C7
     0305 4422   00   2    -2.11729637E-01   # C7
     0305 4322   00   2    -4.57422507E-04   # C7'
     0305 6421   00   0    -9.52444038E-02   # C8
     0305 6421   00   2    -1.25498293E-01   # C8
     0305 6321   00   2    -5.96291560E-04   # C8'
 03051111 4133   00   0     1.20690202E+00   # C9 e+e-
 03051111 4133   00   2     1.20861255E+00   # C9 e+e-
 03051111 4233   00   2    -3.00675589E-06   # C9' e+e-
 03051111 4137   00   0    -4.03222750E+00   # C10 e+e-
 03051111 4137   00   2    -4.02905049E+00   # C10 e+e-
 03051111 4237   00   2     6.72462433E-05   # C10' e+e-
 03051313 4133   00   0     1.20690202E+00   # C9 mu+mu-
 03051313 4133   00   2     1.20861226E+00   # C9 mu+mu-
 03051313 4233   00   2    -3.00682132E-06   # C9' mu+mu-
 03051313 4137   00   0    -4.03222750E+00   # C10 mu+mu-
 03051313 4137   00   2    -4.02905079E+00   # C10 mu+mu-
 03051313 4237   00   2     6.72462976E-05   # C10' mu+mu-
 03051212 4137   00   0     1.50610221E+00   # C11 nu_1 nu_1
 03051212 4137   00   2     1.50535485E+00   # C11 nu_1 nu_1
 03051212 4237   00   2    -1.60565305E-05   # C11' nu_1 nu_1
 03051414 4137   00   0     1.50610221E+00   # C11 nu_2 nu_2
 03051414 4137   00   2     1.50535485E+00   # C11 nu_2 nu_2
 03051414 4237   00   2    -1.60565156E-05   # C11' nu_2 nu_2
 03051616 4137   00   0     1.50610221E+00   # C11 nu_3 nu_3
 03051616 4137   00   2     1.50535493E+00   # C11 nu_3 nu_3
 03051616 4237   00   2    -1.60523377E-05   # C11' nu_3 nu_3
Block IMFWCOEF Q=  1.60000000E+02  # Im(Wilson coefficients) at scale Q
#    id        order  M        value         comment
     0305 4422   00   0     3.86168538E-07   # C7
     0305 4422   00   2     5.20524085E-06   # C7
     0305 4322   00   2     1.40935033E-06   # C7'
     0305 6421   00   0     3.30778722E-07   # C8
     0305 6421   00   2     4.57283306E-07   # C8
     0305 6321   00   2     5.47490117E-07   # C8'
 03051111 4133   00   2     9.89595836E-08   # C9 e+e-
 03051111 4233   00   2     2.45052269E-08   # C9' e+e-
 03051111 4137   00   2    -3.53129660E-06   # C10 e+e-
 03051111 4237   00   2    -5.39504368E-07   # C10' e+e-
 03051313 4133   00   2     9.89531394E-08   # C9 mu+mu-
 03051313 4233   00   2     2.45051744E-08   # C9' mu+mu-
 03051313 4137   00   2    -3.53130263E-06   # C10 mu+mu-
 03051313 4237   00   2    -5.39504514E-07   # C10' mu+mu-
 03051212 4137   00   2     1.03696029E-06   # C11 nu_1 nu_1
 03051212 4237   00   2     1.28819515E-07   # C11' nu_1 nu_1
 03051414 4137   00   2     1.03696024E-06   # C11 nu_2 nu_2
 03051414 4237   00   2     1.28819515E-07   # C11' nu_2 nu_2
 03051616 4137   00   2     1.03694658E-06   # C11 nu_3 nu_3
 03051616 4237   00   2     1.28819516E-07   # C11' nu_3 nu_3
