#
#                              ======================
#                              | THE SUSYHIT OUTPUT |
#                              ======================
#
#
#              ------------------------------------------------------
#              |     This is the output of the SUSY-HIT package     |
#              |  created by A.Djouadi, M.Muehlleitner and M.Spira. |
#              |  In case of problems with SUSY-HIT email to        |
#              |           margarete.muehlleitner@kit.edu           |
#              |           michael.spira@psi.ch                     |
#              |           abdelhak.djouadi@cern.ch                 |
#              ------------------------------------------------------
#
#              ------------------------------------------------------
#              |  SUSY Les Houches Accord - MSSM Spectrum + Decays  |
#              |              based on the decay programs           |
#              |                                                    |
#              |                     SDECAY 1.5                     |
#              |                                                    |
#              |  Authors: M.Muhlleitner, A.Djouadi and Y.Mambrini  |
#              |  Ref.:    Comput.Phys.Commun.168(2005)46           |
#              |           [hep-ph/0311167]                         |
#              |                                                    |
#              |                     HDECAY 3.4                     |
#              |                                                    |
#              |  By: A.Djouadi,J.Kalinowski,M.Muhlleitner,M.Spira  |
#              |  Ref.:    Comput.Phys.Commun.108(1998)56           |
#              |           [hep-ph/9704448]                         |
#              |                                                    |
#              |                                                    |
#              |  If not stated otherwise all DRbar couplings and   |
#              |  soft SUSY breaking masses are given at the scale  |
#              |  Q=  0.84902704E+03
#              |                                                    |
#              ------------------------------------------------------
#
#
BLOCK DCINFO  # Decay Program information
     1   SDECAY/HDECAY # decay calculator
     2   1.5  /3.4    # version number
#
BLOCK SPINFO  # Spectrum calculator information
     1    SOFTSUSY    # spectrum calculator                
     2    3.7.3       # version number                     
#
BLOCK MODSEL  # Model selection
     1     0   #  nonUniversal                                     
#
BLOCK SMINPUTS  # Standard Model inputs
         1     1.27934000E+02   # alpha_em^-1(M_Z)^MSbar
         2     1.16639000E-05   # G_F [GeV^-2]
         3     1.17200000E-01   # alpha_S(M_Z)^MSbar
         4     9.11870000E+01   # M_Z pole mass
         5     4.19000000E+00   # mb(mb)^MSbar
         6     1.72500000E+02   # mt pole mass
         7     1.77690000E+00   # mtau pole mass
#
BLOCK MINPAR  # Input parameters - minimal models
         3     2.00000000E+01   # tanb                
#
BLOCK EXTPAR  # Input parameters - non-minimal models
         0    -1.00000000E+00   # Set                 
         1     2.09990000E+02   # M_1(MX)             
         2     2.00000000E+03   # M_2(MX)             
         3     1.80000000E+03   # M_3(MX)             
        11     2.15959179E+03   # At(MX)              
        12     0.00000000E+00   # Ab(MX)              
        13     0.00000000E+00   # Atau(MX)            
        23    -2.31900000E+02   # mu(MX)              
        25     2.00000000E+01   # tan                 
        26     4.00000000E+03   # mA(pole)            
        31     4.00000000E+03   # meL(MX)             
        32     4.00000000E+03   # mmuL(MX)            
        33     4.00000000E+03   # mtauL(MX)           
        34     4.00000000E+03   # meR(MX)             
        35     4.00000000E+03   # mmuR(MX)            
        36     4.00000000E+03   # mtauR(MX)           
        41     4.00000000E+03   # mqL1(MX)            
        42     4.00000000E+03   # mqL2(MX)            
        43     2.30485961E+03   # mqL3(MX)            
        44     4.00000000E+03   # muR(MX)             
        45     4.00000000E+03   # mcR(MX)             
        46     3.09990000E+02   # mtR(MX)             
        47     4.00000000E+03   # mdR(MX)             
        48     4.00000000E+03   # msR(MX)             
        49     4.00000000E+03   # mbR(MX)             
#
BLOCK MASS  # Mass Spectrum
# PDG code           mass       particle
        24     8.04196007E+01   # W+
        25     1.24176465E+02   # h
        35     4.00000430E+03   # H
        36     3.99999538E+03   # A
        37     4.00097649E+03   # H+
         5     4.81337004E+00   # b-quark pole mass calculated from mb(mb)_Msbar
   1000001     4.01057054E+03   # ~d_L
   2000001     4.01056297E+03   # ~d_R
   1000002     4.00991558E+03   # ~u_L
   2000002     4.01084290E+03   # ~u_R
   1000003     4.01057054E+03   # ~s_L
   2000003     4.01056297E+03   # ~s_R
   1000004     4.00991558E+03   # ~c_L
   2000004     4.01084290E+03   # ~c_R
   1000005     2.32196374E+03   # ~b_1
   2000005     4.01793059E+03   # ~b_2
   1000006     3.78101143E+02   # ~t_1
   2000006     2.33011375E+03   # ~t_2
   1000011     4.00102947E+03   # ~e_L
   2000011     4.00391009E+03   # ~e_R
   1000012     3.99991620E+03   # ~nu_eL
   1000013     4.00102947E+03   # ~mu_L
   2000013     4.00391009E+03   # ~mu_R
   1000014     3.99991620E+03   # ~nu_muL
   1000015     4.00361699E+03   # ~tau_1
   2000015     4.00968847E+03   # ~tau_2
   1000016     4.00271252E+03   # ~nu_tauL
   1000021     1.96901536E+03   # ~g
   1000022     1.93568562E+02   # ~chi_10
   1000023    -2.41788846E+02   # ~chi_20
   1000025     2.59631673E+02   # ~chi_30
   1000035     2.07148081E+03   # ~chi_40
   1000024     2.38303240E+02   # ~chi_1+
   1000037     2.07164666E+03   # ~chi_2+
#
BLOCK NMIX  # Neutralino Mixing Matrix
  1  1     8.01420215E-01   # N_11
  1  2    -1.50920560E-02   # N_12
  1  3    -4.65715586E-01   # N_13
  1  4    -3.74975814E-01   # N_14
  2  1    -7.37223867E-02   # N_21
  2  2     2.58807943E-02   # N_22
  2  3    -6.99582212E-01   # N_23
  2  4     7.10267501E-01   # N_24
  3  1     5.93540000E-01   # N_31
  3  2     2.52042499E-02   # N_32
  3  3     5.41929004E-01   # N_33
  3  4     5.94464438E-01   # N_34
  4  1    -9.57391822E-04   # N_41
  4  2     9.99233286E-01   # N_42
  4  3    -2.58375745E-03   # N_43
  4  4    -3.90544170E-02   # N_44
#
BLOCK UMIX  # Chargino Mixing Matrix U
  1  1     3.65899583E-03   # U_11
  1  2     9.99993306E-01   # U_12
  2  1    -9.99993306E-01   # U_21
  2  2     3.65899583E-03   # U_22
#
BLOCK VMIX  # Chargino Mixing Matrix V
  1  1     5.52437022E-02   # V_11
  1  2    -9.98472901E-01   # V_12
  2  1    -9.98472901E-01   # V_21
  2  2    -5.52437022E-02   # V_22
#
BLOCK STOPMIX  # Stop Mixing Matrix
  1  1    -6.24919130E-02   # cos(theta_t)
  1  2     9.98045470E-01   # sin(theta_t)
  2  1    -9.98045470E-01   # -sin(theta_t)
  2  2    -6.24919130E-02   # cos(theta_t)
#
BLOCK SBOTMIX  # Sbottom Mixing Matrix
  1  1     9.99999425E-01   # cos(theta_b)
  1  2    -1.07238038E-03   # sin(theta_b)
  2  1     1.07238038E-03   # -sin(theta_b)
  2  2     9.99999425E-01   # cos(theta_b)
#
BLOCK STAUMIX  # Stau Mixing Matrix
  1  1    -7.05003679E-01   # cos(theta_tau)
  1  2     7.09203647E-01   # sin(theta_tau)
  2  1    -7.09203647E-01   # -sin(theta_tau)
  2  2    -7.05003679E-01   # cos(theta_tau)
#
BLOCK ALPHA  # Higgs mixing
          -5.00260240E-02   # Mixing angle in the neutral Higgs boson sector
#
BLOCK HMIX Q=  8.49027043E+02  # DRbar Higgs Parameters
         1    -2.31900000E+02   # mu(Q)MSSM           
         2     2.00000000E+01   # tan                 
         3     2.44801650E+02   # higgs               
         4     1.63111826E+07   # mA^2(Q)MSSM         
#
BLOCK GAUGE Q=  8.49027043E+02  # The gauge couplings
     1     3.60748945E-01   # gprime(Q) DRbar
     2     6.35143537E-01   # g(Q) DRbar
     3     1.03880417E+00   # g3(Q) DRbar
#
BLOCK AU Q=  8.49027043E+02  # The trilinear couplings
  1  1     0.00000000E+00   # A_u(Q) DRbar
  2  2     4.86383778E-07   # A_c(Q) DRbar
  3  3     2.15959179E+03   # A_t(Q) DRbar
#
BLOCK AD Q=  8.49027043E+02  # The trilinear couplings
  1  1     1.78989242E-07   # A_d(Q) DRbar
  2  2     1.79006779E-07   # A_s(Q) DRbar
  3  3     3.19826729E-07   # A_b(Q) DRbar
#
BLOCK AE Q=  8.49027043E+02  # The trilinear couplings
  1  1     0.00000000E+00   # A_e(Q) DRbar
  2  2     3.98014317E-08   # A_mu(Q) DRbar
  3  3     4.02008552E-08   # A_tau(Q) DRbar
#
BLOCK Yu Q=  8.49027043E+02  # The Yukawa couplings
  1  1     0.00000000E+00   # y_u(Q) DRbar
  2  2     0.00000000E+00   # y_c(Q) DRbar
  3  3     8.73314448E-01   # y_t(Q) DRbar
#
BLOCK Yd Q=  8.49027043E+02  # The Yukawa couplings
  1  1     0.00000000E+00   # y_d(Q) DRbar
  2  2     0.00000000E+00   # y_s(Q) DRbar
  3  3     2.85729456E-01   # y_b(Q) DRbar
#
BLOCK Ye Q=  8.49027043E+02  # The Yukawa couplings
  1  1     0.00000000E+00   # y_e(Q) DRbar
  2  2     0.00000000E+00   # y_mu(Q) DRbar
  3  3     2.03259881E-01   # y_tau(Q) DRbar
#
BLOCK MSOFT Q=  8.49027043E+02  # The soft SUSY breaking masses at the scale Q
         1     2.09990000E+02   # M_1(Q)              
         2     2.00000000E+03   # M_2(Q)              
         3     1.80000000E+03   # M_3(Q)              
        21     1.58051148E+07   # M^2_Hd              
        22    -1.45423526E+05   # M^2_Hu              
        31     4.00000000E+03   # M_eL                
        32     4.00000000E+03   # M_muL               
        33     4.00000000E+03   # M_tauL              
        34     4.00000000E+03   # M_eR                
        35     4.00000000E+03   # M_muR               
        36     4.00000000E+03   # M_tauR              
        41     4.00000000E+03   # M_q1L               
        42     4.00000000E+03   # M_q2L               
        43     2.30485961E+03   # M_q3L               
        44     4.00000000E+03   # M_uR                
        45     4.00000000E+03   # M_cR                
        46     3.09989996E+02   # M_tR                
        47     4.00000000E+03   # M_dR                
        48     4.00000000E+03   # M_sR                
        49     4.00000000E+03   # M_bR                
#
#
#
#                             =================
#                             |The decay table|
#                             =================
#
# - The QCD corrections to the decays gluino -> squark  + quark
#                                     squark -> gaugino + quark_prime
#                                     squark -> squark_prime + Higgs
#                                     squark -> gluino  + quark
#   are included.
#
# - The multi-body decays for the inos, stops and sbottoms are included.
#
# - The loop induced decays for the gluino, neutralinos and stops
#   are included.
#
# - The SUSY decays of the top quark are included.
#
#
#         PDG            Width
DECAY         6     1.39944943E+00   # top decays
#          BR         NDA      ID1       ID2
     1.00000000E+00    2           5        24   # BR(t ->  b    W+)
#
#         PDG            Width
DECAY   1000021     3.76530182E+01   # gluino decays
#          BR         NDA      ID1       ID2
     5.00000000E-01    2     1000006        -6   # BR(~g -> ~t_1  tb)
     5.00000000E-01    2    -1000006         6   # BR(~g -> ~t_1* t )
#
#         PDG            Width
DECAY   1000006     2.09882812E+00   # stop1 decays
#          BR         NDA      ID1       ID2
     1.26443436E-02    2     1000022         6   # BR(~t_1 -> ~chi_10 t )
     9.87355656E-01    2     1000024         5   # BR(~t_1 -> ~chi_1+ b )
#
#         PDG            Width
DECAY   2000006     7.46875150E+01   # stop2 decays
#          BR         NDA      ID1       ID2
     6.92704079E-02    2     1000022         6   # BR(~t_2 -> ~chi_10 t )
     2.22242330E-01    2     1000023         6   # BR(~t_2 -> ~chi_20 t )
     1.50299202E-01    2     1000025         6   # BR(~t_2 -> ~chi_30 t )
     4.44103712E-03    2     1000035         6   # BR(~t_2 -> ~chi_40 t )
     4.75461180E-02    2     1000024         5   # BR(~t_2 -> ~chi_1+ b )
     1.08434915E-02    2     1000037         5   # BR(~t_2 -> ~chi_2+ b )
     1.83153800E-01    2     1000021         6   # BR(~t_2 -> ~g      t )
     1.90550598E-01    2     1000006        25   # BR(~t_2 -> ~t_1    h )
     1.21653015E-01    2     1000006        23   # BR(~t_2 -> ~t_1    Z )
#
#         PDG            Width
DECAY   1000005     7.35525249E+01   # sbottom1 decays
#          BR         NDA      ID1       ID2
     1.29043981E-02    2     1000022         5   # BR(~b_1 -> ~chi_10 b )
     2.16024218E-02    2     1000023         5   # BR(~b_1 -> ~chi_20 b )
     1.36770887E-02    2     1000025         5   # BR(~b_1 -> ~chi_30 b )
     5.28638025E-03    2     1000035         5   # BR(~b_1 -> ~chi_40 b )
     4.39653746E-01    2    -1000024         6   # BR(~b_1 -> ~chi_1- t )
     8.42724521E-03    2    -1000037         6   # BR(~b_1 -> ~chi_2- t )
     1.88184689E-01    2     1000021         5   # BR(~b_1 -> ~g      b )
     3.10264031E-01    2     1000006       -24   # BR(~b_1 -> ~t_1    W-)
#
#         PDG            Width
DECAY   2000005     1.63777816E+02   # sbottom2 decays
#          BR         NDA      ID1       ID2
     1.64945427E-02    2     1000022         5   # BR(~b_2 -> ~chi_10 b )
     1.77007399E-02    2     1000023         5   # BR(~b_2 -> ~chi_20 b )
     1.53310714E-02    2     1000025         5   # BR(~b_2 -> ~chi_30 b )
     3.61052969E-07    2     1000035         5   # BR(~b_2 -> ~chi_40 b )
     3.59154576E-02    2    -1000024         6   # BR(~b_2 -> ~chi_1- t )
     7.08771887E-07    2    -1000037         6   # BR(~b_2 -> ~chi_2- t )
     9.14378467E-01    2     1000021         5   # BR(~b_2 -> ~g      b )
     3.90219032E-05    2     1000005        25   # BR(~b_2 -> ~b_1    h )
     5.02493398E-05    2     1000005        23   # BR(~b_2 -> ~b_1    Z )
     1.22085960E-06    2     1000006       -24   # BR(~b_2 -> ~t_1    W-)
     8.81599395E-05    2     2000006       -24   # BR(~b_2 -> ~t_2    W-)
#
#         PDG            Width
DECAY   1000002     1.74880599E+02   # sup_L decays
#          BR         NDA      ID1       ID2
     1.64652500E-03    2     1000022         2   # BR(~u_L -> ~chi_10 u)
     1.25069874E-05    2     1000023         2   # BR(~u_L -> ~chi_20 u)
     1.66343712E-03    2     1000025         2   # BR(~u_L -> ~chi_30 u)
     4.78096665E-02    2     1000035         2   # BR(~u_L -> ~chi_40 u)
     5.37092685E-04    2     1000024         1   # BR(~u_L -> ~chi_1+ d)
     9.54974582E-02    2     1000037         1   # BR(~u_L -> ~chi_2+ d)
     8.52833313E-01    2     1000021         2   # BR(~u_L -> ~g      u)
#
#         PDG            Width
DECAY   2000002     1.58058725E+02   # sup_R decays
#          BR         NDA      ID1       ID2
     3.59513187E-02    2     1000022         2   # BR(~u_R -> ~chi_10 u)
     3.03485756E-04    2     1000023         2   # BR(~u_R -> ~chi_20 u)
     1.96509772E-02    2     1000025         2   # BR(~u_R -> ~chi_30 u)
     2.78761148E-08    2     1000035         2   # BR(~u_R -> ~chi_40 u)
     9.44094190E-01    2     1000021         2   # BR(~u_R -> ~g      u)
#
#         PDG            Width
DECAY   1000001     1.74898913E+02   # sdown_L decays
#          BR         NDA      ID1       ID2
     2.45448154E-03    2     1000022         1   # BR(~d_L -> ~chi_10 d)
     1.39637043E-04    2     1000023         1   # BR(~d_L -> ~chi_20 d)
     6.67824990E-04    2     1000025         1   # BR(~d_L -> ~chi_30 d)
     4.78585284E-02    2     1000035         1   # BR(~d_L -> ~chi_40 d)
     2.35632546E-06    2    -1000024         2   # BR(~d_L -> ~chi_1- u)
     9.58168654E-02    2    -1000037         2   # BR(~d_L -> ~chi_2- u)
     8.53060306E-01    2     1000021         1   # BR(~d_L -> ~g      d)
#
#         PDG            Width
DECAY   2000001     1.51407622E+02   # sdown_R decays
#          BR         NDA      ID1       ID2
     9.38197788E-03    2     1000022         1   # BR(~d_R -> ~chi_10 d)
     7.91986439E-05    2     1000023         1   # BR(~d_R -> ~chi_20 d)
     5.12818310E-03    2     1000025         1   # BR(~d_R -> ~chi_30 d)
     7.27392218E-09    2     1000035         1   # BR(~d_R -> ~chi_40 d)
     9.85410633E-01    2     1000021         1   # BR(~d_R -> ~g      d)
#
#         PDG            Width
DECAY   1000004     1.74880599E+02   # scharm_L decays
#          BR         NDA      ID1       ID2
     1.64652500E-03    2     1000022         4   # BR(~c_L -> ~chi_10 c)
     1.25069874E-05    2     1000023         4   # BR(~c_L -> ~chi_20 c)
     1.66343712E-03    2     1000025         4   # BR(~c_L -> ~chi_30 c)
     4.78096665E-02    2     1000035         4   # BR(~c_L -> ~chi_40 c)
     5.37092685E-04    2     1000024         3   # BR(~c_L -> ~chi_1+ s)
     9.54974582E-02    2     1000037         3   # BR(~c_L -> ~chi_2+ s)
     8.52833313E-01    2     1000021         4   # BR(~c_L -> ~g      c)
#
#         PDG            Width
DECAY   2000004     1.58058725E+02   # scharm_R decays
#          BR         NDA      ID1       ID2
     3.59513187E-02    2     1000022         4   # BR(~c_R -> ~chi_10 c)
     3.03485756E-04    2     1000023         4   # BR(~c_R -> ~chi_20 c)
     1.96509772E-02    2     1000025         4   # BR(~c_R -> ~chi_30 c)
     2.78761148E-08    2     1000035         4   # BR(~c_R -> ~chi_40 c)
     9.44094190E-01    2     1000021         4   # BR(~c_R -> ~g      c)
#
#         PDG            Width
DECAY   1000003     1.74898913E+02   # sstrange_L decays
#          BR         NDA      ID1       ID2
     2.45448154E-03    2     1000022         3   # BR(~s_L -> ~chi_10 s)
     1.39637043E-04    2     1000023         3   # BR(~s_L -> ~chi_20 s)
     6.67824990E-04    2     1000025         3   # BR(~s_L -> ~chi_30 s)
     4.78585284E-02    2     1000035         3   # BR(~s_L -> ~chi_40 s)
     2.35632546E-06    2    -1000024         4   # BR(~s_L -> ~chi_1- c)
     9.58168654E-02    2    -1000037         4   # BR(~s_L -> ~chi_2- c)
     8.53060306E-01    2     1000021         3   # BR(~s_L -> ~g      s)
#
#         PDG            Width
DECAY   2000003     1.51407622E+02   # sstrange_R decays
#          BR         NDA      ID1       ID2
     9.38197788E-03    2     1000022         3   # BR(~s_R -> ~chi_10 s)
     7.91986439E-05    2     1000023         3   # BR(~s_R -> ~chi_20 s)
     5.12818310E-03    2     1000025         3   # BR(~s_R -> ~chi_30 s)
     7.27392218E-09    2     1000035         3   # BR(~s_R -> ~chi_40 s)
     9.85410633E-01    2     1000021         3   # BR(~s_R -> ~g      s)
#
#         PDG            Width
DECAY   1000011     3.09694960E+01   # selectron_L decays
#          BR         NDA      ID1       ID2
     9.99416227E-02    2     1000022        11   # BR(~e_L -> ~chi_10 e-)
     1.31617157E-04    2     1000023        11   # BR(~e_L -> ~chi_20 e-)
     6.74852097E-02    2     1000025        11   # BR(~e_L -> ~chi_30 e-)
     2.77015129E-01    2     1000035        11   # BR(~e_L -> ~chi_40 e-)
     1.37831537E-05    2    -1000024        12   # BR(~e_L -> ~chi_1- nu_e)
     5.55412638E-01    2    -1000037        12   # BR(~e_L -> ~chi_2- nu_e)
#
#         PDG            Width
DECAY   2000011     2.06083439E+01   # selectron_R decays
#          BR         NDA      ID1       ID2
     6.43131264E-01    2     1000022        11   # BR(~e_R -> ~chi_10 e-)
     5.42796420E-03    2     1000023        11   # BR(~e_R -> ~chi_20 e-)
     3.51440277E-01    2     1000025        11   # BR(~e_R -> ~chi_30 e-)
     4.94549007E-07    2     1000035        11   # BR(~e_R -> ~chi_40 e-)
#
#         PDG            Width
DECAY   1000013     3.09694960E+01   # smuon_L decays
#          BR         NDA      ID1       ID2
     9.99416227E-02    2     1000022        13   # BR(~mu_L -> ~chi_10 mu-)
     1.31617157E-04    2     1000023        13   # BR(~mu_L -> ~chi_20 mu-)
     6.74852097E-02    2     1000025        13   # BR(~mu_L -> ~chi_30 mu-)
     2.77015129E-01    2     1000035        13   # BR(~mu_L -> ~chi_40 mu-)
     1.37831537E-05    2    -1000024        14   # BR(~mu_L -> ~chi_1- nu_mu)
     5.55412638E-01    2    -1000037        14   # BR(~mu_L -> ~chi_2- nu_mu)
#
#         PDG            Width
DECAY   2000013     2.06083439E+01   # smuon_R decays
#          BR         NDA      ID1       ID2
     6.43131264E-01    2     1000022        13   # BR(~mu_R -> ~chi_10 mu-)
     5.42796420E-03    2     1000023        13   # BR(~mu_R -> ~chi_20 mu-)
     3.51440277E-01    2     1000025        13   # BR(~mu_R -> ~chi_30 mu-)
     4.94549007E-07    2     1000035        13   # BR(~mu_R -> ~chi_40 mu-)
#
#         PDG            Width
DECAY   1000015     3.07211840E+01   # stau_1 decays
#          BR         NDA      ID1       ID2
     3.41796698E-01    2     1000022        15   # BR(~tau_1 -> ~chi_10  tau-)
     4.28004605E-02    2     1000023        15   # BR(~tau_1 -> ~chi_20  tau-)
     1.43919272E-01    2     1000025        15   # BR(~tau_1 -> ~chi_30  tau-)
     1.38691584E-01    2     1000035        15   # BR(~tau_1 -> ~chi_40  tau-)
     5.47164671E-02    2    -1000024        16   # BR(~tau_1 -> ~chi_1-  nu_tau)
     2.78075519E-01    2    -1000037        16   # BR(~tau_1 -> ~chi_2-  nu_tau)
#
#         PDG            Width
DECAY   2000015     3.07777938E+01   # stau_2 decays
#          BR         NDA      ID1       ID2
     2.36588906E-01    2     1000022        15   # BR(~tau_2 -> ~chi_10  tau-)
     6.50380991E-02    2     1000023        15   # BR(~tau_2 -> ~chi_20  tau-)
     2.22208046E-01    2     1000025        15   # BR(~tau_2 -> ~chi_30  tau-)
     1.41274344E-01    2     1000035        15   # BR(~tau_2 -> ~chi_40  tau-)
     5.16371134E-02    2    -1000024        16   # BR(~tau_2 -> ~chi_1-  nu_tau)
     2.83253492E-01    2    -1000037        16   # BR(~tau_2 -> ~chi_2-  nu_tau)
#
#         PDG            Width
DECAY   1000012     3.09807834E+01   # snu_eL decays
#          BR         NDA      ID1       ID2
     1.14047083E-01    2     1000022        12   # BR(~nu_eL -> ~chi_10 nu_e)
     2.36095736E-03    2     1000023        12   # BR(~nu_eL -> ~chi_20 nu_e)
     4.99812192E-02    2     1000025        12   # BR(~nu_eL -> ~chi_30 nu_e)
     2.77327306E-01    2     1000035        12   # BR(~nu_eL -> ~chi_40 nu_e)
     3.13985421E-03    2     1000024        11   # BR(~nu_eL -> ~chi_1+ e-)
     5.53143580E-01    2     1000037        11   # BR(~nu_eL -> ~chi_2+ e-)
#
#         PDG            Width
DECAY   1000014     3.09807834E+01   # snu_muL decays
#          BR         NDA      ID1       ID2
     1.14047083E-01    2     1000022        14   # BR(~nu_muL -> ~chi_10 nu_mu)
     2.36095736E-03    2     1000023        14   # BR(~nu_muL -> ~chi_20 nu_mu)
     4.99812192E-02    2     1000025        14   # BR(~nu_muL -> ~chi_30 nu_mu)
     2.77327306E-01    2     1000035        14   # BR(~nu_muL -> ~chi_40 nu_mu)
     3.13985421E-03    2     1000024        13   # BR(~nu_muL -> ~chi_1+ mu-)
     5.53143580E-01    2     1000037        13   # BR(~nu_muL -> ~chi_2+ mu-)
#
#         PDG            Width
DECAY   1000016     3.42955136E+01   # snu_tauL decays
#          BR         NDA      ID1       ID2
     1.03096903E-01    2     1000022        16   # BR(~nu_tauL -> ~chi_10 nu_tau)
     2.13427897E-03    2     1000023        16   # BR(~nu_tauL -> ~chi_20 nu_tau)
     4.51825325E-02    2     1000025        16   # BR(~nu_tauL -> ~chi_30 nu_tau)
     2.50954932E-01    2     1000035        16   # BR(~nu_tauL -> ~chi_40 nu_tau)
     9.80891357E-02    2     1000024        15   # BR(~nu_tauL -> ~chi_1+ tau-)
     5.00542218E-01    2     1000037        15   # BR(~nu_tauL -> ~chi_2+ tau-)
#
#         PDG            Width
DECAY   1000024     7.09131699E-05   # chargino1+ decays
#           BR         NDA      ID1       ID2       ID3
     3.33617868E-01    3     1000022         2        -1   # BR(~chi_1+ -> ~chi_10 u    db)
     3.33617868E-01    3     1000022         4        -3   # BR(~chi_1+ -> ~chi_10 c    sb)
     1.11207211E-01    3     1000022       -11        12   # BR(~chi_1+ -> ~chi_10 e+   nu_e)
     1.11207211E-01    3     1000022       -13        14   # BR(~chi_1+ -> ~chi_10 mu+  nu_mu)
     1.10349841E-01    3     1000022       -15        16   # BR(~chi_1+ -> ~chi_10 tau+ nu_tau)
#
#         PDG            Width
DECAY   1000037     1.67849430E+01   # chargino2+ decays
#          BR         NDA      ID1       ID2
     2.89691831E-02    2     1000006        -5   # BR(~chi_2+ -> ~t_1     bb)
     2.48130679E-01    2     1000024        23   # BR(~chi_2+ -> ~chi_1+  Z )
     6.17893639E-02    2     1000022        24   # BR(~chi_2+ -> ~chi_10  W+)
     2.42954401E-01    2     1000023        24   # BR(~chi_2+ -> ~chi_20  W+)
     1.78709684E-01    2     1000025        24   # BR(~chi_2+ -> ~chi_30  W+)
     2.39446689E-01    2     1000024        25   # BR(~chi_2+ -> ~chi_1+  h )
#
#         PDG            Width
DECAY   1000022     0.00000000E+00   # neutralino1 decays
#
#         PDG            Width
DECAY   1000023     7.90119661E-05   # neutralino2 decays
#          BR         NDA      ID1       ID2
     5.86398871E-05    2     1000022        22   # BR(~chi_20 -> ~chi_10 gam)
#           BR         NDA      ID1       ID2       ID3
     1.18355679E-01    3     1000022        -2         2   # BR(~chi_20 -> ~chi_10 ub      u)
     1.53485860E-01    3     1000022        -1         1   # BR(~chi_20 -> ~chi_10 db      d)
     1.18355679E-01    3     1000022        -4         4   # BR(~chi_20 -> ~chi_10 cb      c)
     1.53485860E-01    3     1000022        -3         3   # BR(~chi_20 -> ~chi_10 sb      s)
     1.40139994E-01    3     1000022        -5         5   # BR(~chi_20 -> ~chi_10 bb      b)
     3.51726630E-02    3     1000022       -11        11   # BR(~chi_20 -> ~chi_10 e+      e-)
     3.51726630E-02    3     1000022       -13        13   # BR(~chi_20 -> ~chi_10 mu+     mu-)
     3.48192419E-02    3     1000022       -15        15   # BR(~chi_20 -> ~chi_10 tau+    tau-)
     7.03133290E-02    3     1000022       -12        12   # BR(~chi_20 -> ~chi_10 nu_eb   nu_e)
     7.03133290E-02    3     1000022       -14        14   # BR(~chi_20 -> ~chi_10 nu_mub  nu_mu)
     7.03133252E-02    3     1000022       -16        16   # BR(~chi_20 -> ~chi_10 nu_taub nu_tau)
     2.48936404E-06    3     1000024        -2         1   # BR(~chi_20 -> ~chi_1+ ub      d)
     2.48936404E-06    3    -1000024        -1         2   # BR(~chi_20 -> ~chi_1- db      u)
     2.48936404E-06    3     1000024        -4         3   # BR(~chi_20 -> ~chi_1+ cb      s)
     2.48936404E-06    3    -1000024        -3         4   # BR(~chi_20 -> ~chi_1- sb      c)
     8.29789147E-07    3     1000024       -12        11   # BR(~chi_20 -> ~chi_1+ nu_eb   e-)
     8.29789147E-07    3    -1000024        12       -11   # BR(~chi_20 -> ~chi_1- nu_e    e+)
     8.29789147E-07    3     1000024       -14        13   # BR(~chi_20 -> ~chi_1+ nu_mub  mu-)
     8.29789147E-07    3    -1000024        14       -13   # BR(~chi_20 -> ~chi_1- nu_mu   mu+)
     2.30233419E-07    3     1000024       -16        15   # BR(~chi_20 -> ~chi_1+ nu_taub tau-)
     2.30233419E-07    3    -1000024        16       -15   # BR(~chi_20 -> ~chi_1- nu_tau  tau+)
#
#         PDG            Width
DECAY   1000025     1.20333283E-05   # neutralino3 decays
#          BR         NDA      ID1       ID2
     1.21000866E-02    2     1000022        22   # BR(~chi_30 -> ~chi_10 gam)
     4.19249390E-02    2     1000023        22   # BR(~chi_30 -> ~chi_20 gam)
#           BR         NDA      ID1       ID2       ID3
     4.12054570E-02    3     1000022        -2         2   # BR(~chi_30 -> ~chi_10 ub      u)
     5.32267675E-02    3     1000022        -1         1   # BR(~chi_30 -> ~chi_10 db      d)
     4.12054570E-02    3     1000022        -4         4   # BR(~chi_30 -> ~chi_10 cb      c)
     5.32267675E-02    3     1000022        -3         3   # BR(~chi_30 -> ~chi_10 sb      s)
     5.08375872E-02    3     1000022        -5         5   # BR(~chi_30 -> ~chi_10 bb      b)
     1.20332583E-02    3     1000022       -11        11   # BR(~chi_30 -> ~chi_10 e+      e-)
     1.20332583E-02    3     1000022       -13        13   # BR(~chi_30 -> ~chi_10 mu+     mu-)
     1.19728353E-02    3     1000022       -15        15   # BR(~chi_30 -> ~chi_10 tau+    tau-)
     2.44638115E-02    3     1000022       -12        12   # BR(~chi_30 -> ~chi_10 nu_eb   nu_e)
     2.44638115E-02    3     1000022       -14        14   # BR(~chi_30 -> ~chi_10 nu_mub  nu_mu)
     2.44637178E-02    3     1000022       -16        16   # BR(~chi_30 -> ~chi_10 nu_taub nu_tau)
     1.03495583E-02    3     1000023        -2         2   # BR(~chi_30 -> ~chi_20 ub      u)
     1.34221754E-02    3     1000023        -1         1   # BR(~chi_30 -> ~chi_20 db      d)
     1.03495583E-02    3     1000023        -4         4   # BR(~chi_30 -> ~chi_20 cb      c)
     1.34221754E-02    3     1000023        -3         3   # BR(~chi_30 -> ~chi_20 sb      s)
     6.68712001E-03    3     1000023        -5         5   # BR(~chi_30 -> ~chi_20 bb      b)
     3.07624663E-03    3     1000023       -11        11   # BR(~chi_30 -> ~chi_20 e+      e-)
     3.07624663E-03    3     1000023       -13        13   # BR(~chi_30 -> ~chi_20 mu+     mu-)
     2.90717487E-03    3     1000023       -15        15   # BR(~chi_30 -> ~chi_20 tau+    tau-)
     6.14835873E-03    3     1000023       -12        12   # BR(~chi_30 -> ~chi_20 nu_eb   nu_e)
     6.14835873E-03    3     1000023       -14        14   # BR(~chi_30 -> ~chi_20 nu_mub  nu_mu)
     6.14835891E-03    3     1000023       -16        16   # BR(~chi_30 -> ~chi_20 nu_taub nu_tau)
     8.61740287E-02    3     1000024        -2         1   # BR(~chi_30 -> ~chi_1+ ub      d)
     8.61740287E-02    3    -1000024        -1         2   # BR(~chi_30 -> ~chi_1- db      u)
     8.61740287E-02    3     1000024        -4         3   # BR(~chi_30 -> ~chi_1+ cb      s)
     8.61740287E-02    3    -1000024        -3         4   # BR(~chi_30 -> ~chi_1- sb      c)
     2.87242967E-02    3     1000024       -12        11   # BR(~chi_30 -> ~chi_1+ nu_eb   e-)
     2.87242967E-02    3    -1000024        12       -11   # BR(~chi_30 -> ~chi_1- nu_e    e+)
     2.87242967E-02    3     1000024       -14        13   # BR(~chi_30 -> ~chi_1+ nu_mub  mu-)
     2.87242967E-02    3    -1000024        14       -13   # BR(~chi_30 -> ~chi_1- nu_mu   mu+)
     2.77568058E-02    3     1000024       -16        15   # BR(~chi_30 -> ~chi_1+ nu_taub tau-)
     2.77568058E-02    3    -1000024        16       -15   # BR(~chi_30 -> ~chi_1- nu_tau  tau+)
#
#         PDG            Width
DECAY   1000035     1.67774512E+01   # neutralino4 decays
#          BR         NDA      ID1       ID2
     2.97861951E-02    2     1000022        23   # BR(~chi_40 -> ~chi_10   Z )
     1.41457817E-01    2     1000023        23   # BR(~chi_40 -> ~chi_20   Z )
     7.68547153E-02    2     1000025        23   # BR(~chi_40 -> ~chi_30   Z )
     2.42108188E-01    2     1000024       -24   # BR(~chi_40 -> ~chi_1+   W-)
     2.42108188E-01    2    -1000024        24   # BR(~chi_40 -> ~chi_1-   W+)
     3.23115162E-02    2     1000022        25   # BR(~chi_40 -> ~chi_10   h )
     1.03959906E-01    2     1000023        25   # BR(~chi_40 -> ~chi_20   h )
     1.02700411E-01    2     1000025        25   # BR(~chi_40 -> ~chi_30   h )
     1.43565310E-02    2     1000006        -6   # BR(~chi_40 -> ~t_1      tb)
     1.43565310E-02    2    -1000006         6   # BR(~chi_40 -> ~t_1*     t )
#
#         PDG            Width
DECAY        25     3.88507981E-03   # h decays
#          BR         NDA      ID1       ID2
     6.15753554E-01    2           5        -5   # BR(h -> b       bb     )
     6.63322146E-02    2         -15        15   # BR(h -> tau+    tau-   )
     2.34821784E-04    2         -13        13   # BR(h -> mu+     mu-    )
     4.99051461E-04    2           3        -3   # BR(h -> s       sb     )
     2.16751822E-02    2           4        -4   # BR(h -> c       cb     )
     7.10842197E-02    2          21        21   # BR(h -> g       g      )
     2.33852493E-03    2          22        22   # BR(h -> gam     gam    )
     1.49402859E-03    2          22        23   # BR(h -> Z       gam    )
     1.96306439E-01    2          24       -24   # BR(h -> W+      W-     )
     2.42819638E-02    2          23        23   # BR(h -> Z       Z      )
#
#         PDG            Width
DECAY        35     5.42754414E+01   # H decays
#          BR         NDA      ID1       ID2
     3.47645812E-01    2           5        -5   # BR(H -> b       bb     )
     6.10883694E-02    2         -15        15   # BR(H -> tau+    tau-   )
     2.15993678E-04    2         -13        13   # BR(H -> mu+     mu-    )
     2.55483302E-04    2           3        -3   # BR(H -> s       sb     )
     7.16560246E-08    2           4        -4   # BR(H -> c       cb     )
     7.18142550E-03    2           6        -6   # BR(H -> t       tb     )
     8.70263214E-07    2          21        21   # BR(H -> g       g      )
     1.01648981E-10    2          22        22   # BR(H -> gam     gam    )
     1.84817823E-09    2          23        22   # BR(H -> Z       gam    )
     1.76551061E-06    2          24       -24   # BR(H -> W+      W-     )
     8.82143852E-07    2          23        23   # BR(H -> Z       Z      )
     6.41176670E-06    2          25        25   # BR(H -> h       h      )
    -2.59528462E-24    2          36        36   # BR(H -> A       A      )
     3.20814720E-20    2          23        36   # BR(H -> Z       A      )
     1.87654366E-03    2     1000024  -1000024   # BR(H -> ~chi_1+ ~chi_1-)
     1.63392112E-01    2     1000024  -1000037   # BR(H -> ~chi_1+ ~chi_2-)
     1.63392112E-01    2     1000037  -1000024   # BR(H -> ~chi_2+ ~chi_1-)
     2.84051542E-02    2     1000022   1000022   # BR(H -> ~chi_10 ~chi_10)
     1.14726058E-03    2     1000023   1000023   # BR(H -> ~chi_20 ~chi_20)
     1.69596483E-02    2     1000025   1000025   # BR(H -> ~chi_30 ~chi_30)
     2.14243631E-02    2     1000022   1000023   # BR(H -> ~chi_10 ~chi_20)
     3.84055963E-03    2     1000022   1000025   # BR(H -> ~chi_10 ~chi_30)
     3.58933967E-02    2     1000022   1000035   # BR(H -> ~chi_10 ~chi_40)
     1.65551580E-02    2     1000023   1000025   # BR(H -> ~chi_20 ~chi_30)
     7.89592498E-02    2     1000023   1000035   # BR(H -> ~chi_20 ~chi_40)
     4.89943135E-02    2     1000025   1000035   # BR(H -> ~chi_30 ~chi_40)
     1.30218646E-04    2     1000006  -1000006   # BR(H -> ~t_1    ~t_1*  )
     1.31641157E-03    2     1000006  -2000006   # BR(H -> ~t_1    ~t_2*  )
     1.31641157E-03    2     2000006  -1000006   # BR(H -> ~t_2    ~t_1*  )
#
#         PDG            Width
DECAY        36     5.42737051E+01   # A decays
#          BR         NDA      ID1       ID2
     3.47682776E-01    2           5        -5   # BR(A -> b       bb     )
     6.10906491E-02    2         -15        15   # BR(A -> tau+    tau-   )
     2.16001569E-04    2         -13        13   # BR(A -> mu+     mu-    )
     2.55534298E-04    2           3        -3   # BR(A -> s       sb     )
     7.21235353E-08    2           4        -4   # BR(A -> c       cb     )
     7.19561691E-03    2           6        -6   # BR(A -> t       tb     )
     1.47851787E-05    2          21        21   # BR(A -> g       g      )
     5.14667525E-08    2          22        22   # BR(A -> gam     gam    )
     1.62596857E-08    2          23        22   # BR(A -> Z       gam    )
     1.76197241E-06    2          23        25   # BR(A -> Z       h      )
     1.87860848E-03    2     1000024  -1000024   # BR(A -> ~chi_1+ ~chi_1-)
     1.63400306E-01    2     1000024  -1000037   # BR(A -> ~chi_1+ ~chi_2-)
     1.63400306E-01    2     1000037  -1000024   # BR(A -> ~chi_2+ ~chi_1-)
     2.44051533E-02    2     1000022   1000022   # BR(A -> ~chi_10 ~chi_10)
     1.42691000E-03    2     1000023   1000023   # BR(A -> ~chi_20 ~chi_20)
     1.38477037E-02    2     1000025   1000025   # BR(A -> ~chi_30 ~chi_30)
     2.70011961E-02    2     1000022   1000023   # BR(A -> ~chi_10 ~chi_20)
     2.89243011E-03    2     1000022   1000025   # BR(A -> ~chi_10 ~chi_30)
     3.53067813E-02    2     1000022   1000035   # BR(A -> ~chi_10 ~chi_40)
     1.87608368E-02    2     1000023   1000025   # BR(A -> ~chi_20 ~chi_30)
     8.13834039E-02    2     1000023   1000035   # BR(A -> ~chi_20 ~chi_40)
     4.71529342E-02    2     1000025   1000035   # BR(A -> ~chi_30 ~chi_40)
     1.34308239E-03    2     1000006  -2000006   # BR(A -> ~t_1    ~t_2*  )
     1.34308239E-03    2    -1000006   2000006   # BR(A -> ~t_1*   ~t_2   )
#
#         PDG            Width
DECAY        37     5.41607529E+01   # H+ decays
#          BR         NDA      ID1       ID2
     5.54197020E-04    2           4        -5   # BR(H+ -> c       bb     )
     6.12330690E-02    2         -15        16   # BR(H+ -> tau+    nu_tau )
     2.16505130E-04    2         -13        14   # BR(H+ -> mu+     nu_mu  )
     3.54685788E-06    2           2        -5   # BR(H+ -> u       bb     )
     1.22654404E-05    2           2        -3   # BR(H+ -> u       sb     )
     2.52339552E-04    2           4        -3   # BR(H+ -> c       sb     )
     3.53216684E-01    2           6        -5   # BR(H+ -> t       bb     )
     1.76756444E-06    2          24        25   # BR(H+ -> W+      h      )
     2.20871208E-14    2          24        36   # BR(H+ -> W+      A      )
     5.35295706E-02    2     1000024   1000022   # BR(H+ -> ~chi_1+ ~chi_10)
     3.40660798E-05    2     1000024   1000023   # BR(H+ -> ~chi_1+ ~chi_20)
     3.55682268E-02    2     1000024   1000025   # BR(H+ -> ~chi_1+ ~chi_30)
     1.63946734E-01    2     1000024   1000035   # BR(H+ -> ~chi_1+ ~chi_40)
     7.14404893E-02    2     1000037   1000022   # BR(H+ -> ~chi_2+ ~chi_10)
     1.60789354E-01    2     1000037   1000023   # BR(H+ -> ~chi_2+ ~chi_20)
     9.64848878E-02    2     1000037   1000025   # BR(H+ -> ~chi_2+ ~chi_30)
     2.71629720E-03    2     1000006  -1000005   # BR(H+ -> ~t_1    ~b_1*  )
