#
#                              ======================
#                              | THE SUSYHIT OUTPUT |
#                              ======================
#
#
#              ------------------------------------------------------
#              |     This is the output of the SUSY-HIT package     |
#              |  created by A.Djouadi, M.Muehlleitner and M.Spira. |
#              |  In case of problems with SUSY-HIT email to        |
#              |           margarete.muehlleitner@kit.edu           |
#              |           michael.spira@psi.ch                     |
#              |           abdelhak.djouadi@cern.ch                 |
#              ------------------------------------------------------
#
#              ------------------------------------------------------
#              |  SUSY Les Houches Accord - MSSM Spectrum + Decays  |
#              |              based on the decay programs           |
#              |                                                    |
#              |                     SDECAY 1.5                     |
#              |                                                    |
#              |  Authors: M.Muhlleitner, A.Djouadi and Y.Mambrini  |
#              |  Ref.:    Comput.Phys.Commun.168(2005)46           |
#              |           [hep-ph/0311167]                         |
#              |                                                    |
#              |                     HDECAY 3.4                     |
#              |                                                    |
#              |  By: A.Djouadi,J.Kalinowski,M.Muhlleitner,M.Spira  |
#              |  Ref.:    Comput.Phys.Commun.108(1998)56           |
#              |           [hep-ph/9704448]                         |
#              |                                                    |
#              |                                                    |
#              |  If not stated otherwise all DRbar couplings and   |
#              |  soft SUSY breaking masses are given at the scale  |
#              |  Q=  0.11092643E+04
#              |                                                    |
#              ------------------------------------------------------
#
#
BLOCK DCINFO  # Decay Program information
     1   SDECAY/HDECAY # decay calculator
     2   1.5  /3.4    # version number
#
BLOCK SPINFO  # Spectrum calculator information
     1    SOFTSUSY    # spectrum calculator                
     2    3.7.3       # version number                     
#
BLOCK MODSEL  # Model selection
     1     0   #  nonUniversal                                     
#
BLOCK SMINPUTS  # Standard Model inputs
         1     1.27934000E+02   # alpha_em^-1(M_Z)^MSbar
         2     1.16639000E-05   # G_F [GeV^-2]
         3     1.17200000E-01   # alpha_S(M_Z)^MSbar
         4     9.11870000E+01   # M_Z pole mass
         5     4.19000000E+00   # mb(mb)^MSbar
         6     1.72500000E+02   # mt pole mass
         7     1.77690000E+00   # mtau pole mass
#
BLOCK MINPAR  # Input parameters - minimal models
         3     2.00000000E+01   # tanb                
#
BLOCK EXTPAR  # Input parameters - non-minimal models
         0    -1.00000000E+00   # Set                 
         1     1.59990000E+02   # M_1(MX)             
         2     2.00000000E+03   # M_2(MX)             
         3     1.80000000E+03   # M_3(MX)             
        11     2.55959179E+03   # At(MX)              
        12     0.00000000E+00   # Ab(MX)              
        13     0.00000000E+00   # Atau(MX)            
        23    -1.86900000E+02   # mu(MX)              
        25     2.00000000E+01   # tan                 
        26     4.00000000E+03   # mA(pole)            
        31     4.00000000E+03   # meL(MX)             
        32     4.00000000E+03   # mmuL(MX)            
        33     4.00000000E+03   # mtauL(MX)           
        34     4.00000000E+03   # meR(MX)             
        35     4.00000000E+03   # mmuR(MX)            
        36     4.00000000E+03   # mtauR(MX)           
        41     4.00000000E+03   # mqL1(MX)            
        42     4.00000000E+03   # mqL2(MX)            
        43     6.09900000E+02   # mqL3(MX)            
        44     4.00000000E+03   # muR(MX)             
        45     4.00000000E+03   # mcR(MX)             
        46     2.05485961E+03   # mtR(MX)             
        47     4.00000000E+03   # mdR(MX)             
        48     4.00000000E+03   # msR(MX)             
        49     4.00000000E+03   # mbR(MX)             
#
BLOCK MASS  # Mass Spectrum
# PDG code           mass       particle
        24     8.04176147E+01   # W+
        25     1.26022746E+02   # h
        35     4.00000291E+03   # H
        36     3.99999603E+03   # A
        37     4.00103118E+03   # H+
         5     4.81337004E+00   # b-quark pole mass calculated from mb(mb)_Msbar
   1000001     4.02017674E+03   # ~d_L
   2000001     4.01798051E+03   # ~d_R
   1000002     4.01952285E+03   # ~u_L
   2000002     4.01911642E+03   # ~u_R
   1000003     4.02017674E+03   # ~s_L
   2000003     4.01798051E+03   # ~s_R
   1000004     4.01952285E+03   # ~c_L
   2000004     4.01911642E+03   # ~c_R
   1000005     6.65018326E+02   # ~b_1
   2000005     4.02218539E+03   # ~b_2
   1000006     6.46994742E+02   # ~t_1
   2000006     2.07172939E+03   # ~t_2
   1000011     4.00352262E+03   # ~e_L
   2000011     4.00309730E+03   # ~e_R
   1000012     4.00240794E+03   # ~nu_eL
   1000013     4.00352262E+03   # ~mu_L
   2000013     4.00309730E+03   # ~mu_R
   1000014     4.00240794E+03   # ~nu_muL
   1000015     4.00509911E+03   # ~tau_1
   2000015     4.00736521E+03   # ~tau_2
   1000016     4.00435970E+03   # ~nu_tauL
   1000021     1.97021151E+03   # ~g
   1000022     1.46652209E+02   # ~chi_10
   1000023    -1.96652708E+02   # ~chi_20
   1000025     2.10153856E+02   # ~chi_30
   1000035     2.05471837E+03   # ~chi_40
   1000024     1.92977908E+02   # ~chi_1+
   1000037     2.05488311E+03   # ~chi_2+
#
BLOCK NMIX  # Neutralino Mixing Matrix
  1  1     8.19669881E-01   # N_11
  1  2    -1.33021466E-02   # N_12
  1  3    -4.59717860E-01   # N_13
  1  4    -3.41502309E-01   # N_14
  2  1    -9.34984094E-02   # N_21
  2  2     2.64105811E-02   # N_22
  2  3    -6.95979034E-01   # N_23
  2  4     7.11458863E-01   # N_24
  3  1     5.65153496E-01   # N_31
  3  2     2.53006862E-02   # N_32
  3  3     5.51606574E-01   # N_33
  3  4     6.12936855E-01   # N_34
  4  1    -9.26757104E-04   # N_41
  4  2     9.99242418E-01   # N_42
  4  3    -1.69132984E-03   # N_43
  4  4    -3.88699260E-02   # N_44
#
BLOCK UMIX  # Chargino Mixing Matrix U
  1  1     2.39661590E-03   # U_11
  1  2     9.99997128E-01   # U_12
  2  1    -9.99997128E-01   # U_21
  2  2     2.39661590E-03   # U_22
#
BLOCK VMIX  # Chargino Mixing Matrix V
  1  1     5.49833096E-02   # V_11
  1  2    -9.98487274E-01   # V_12
  2  1    -9.98487274E-01   # V_21
  2  2    -5.49833096E-02   # V_22
#
BLOCK STOPMIX  # Stop Mixing Matrix
  1  1     9.95115650E-01   # cos(theta_t)
  1  2    -9.87159720E-02   # sin(theta_t)
  2  1     9.87159720E-02   # -sin(theta_t)
  2  2     9.95115650E-01   # cos(theta_t)
#
BLOCK SBOTMIX  # Sbottom Mixing Matrix
  1  1     9.99999831E-01   # cos(theta_b)
  1  2    -5.81377650E-04   # sin(theta_b)
  2  1     5.81377650E-04   # -sin(theta_b)
  2  2     9.99999831E-01   # cos(theta_b)
#
BLOCK STAUMIX  # Stau Mixing Matrix
  1  1    -7.04451791E-01   # cos(theta_tau)
  1  2     7.09751840E-01   # sin(theta_tau)
  2  1    -7.09751840E-01   # -sin(theta_tau)
  2  2    -7.04451791E-01   # cos(theta_tau)
#
BLOCK ALPHA  # Higgs mixing
          -5.00313571E-02   # Mixing angle in the neutral Higgs boson sector
#
BLOCK HMIX Q=  1.10926433E+03  # DRbar Higgs Parameters
         1    -1.86900000E+02   # mu(Q)MSSM           
         2     2.00000000E+01   # tan                 
         3     2.43932848E+02   # higgs               
         4     1.61483854E+07   # mA^2(Q)MSSM         
#
BLOCK GAUGE Q=  1.10926433E+03  # The gauge couplings
     1     3.61518187E-01   # gprime(Q) DRbar
     2     6.36696454E-01   # g(Q) DRbar
     3     1.03385638E+00   # g3(Q) DRbar
#
BLOCK AU Q=  1.10926433E+03  # The trilinear couplings
  1  1     0.00000000E+00   # A_u(Q) DRbar
  2  2     9.59023261E-07   # A_c(Q) DRbar
  3  3     2.55959179E+03   # A_t(Q) DRbar
#
BLOCK AD Q=  1.10926433E+03  # The trilinear couplings
  1  1     3.50597476E-07   # A_d(Q) DRbar
  2  2     3.50630758E-07   # A_s(Q) DRbar
  3  3     6.29268476E-07   # A_b(Q) DRbar
#
BLOCK AE Q=  1.10926433E+03  # The trilinear couplings
  1  1     0.00000000E+00   # A_e(Q) DRbar
  2  2     7.60230558E-08   # A_mu(Q) DRbar
  3  3     7.67947646E-08   # A_tau(Q) DRbar
#
BLOCK Yu Q=  1.10926433E+03  # The Yukawa couplings
  1  1     0.00000000E+00   # y_u(Q) DRbar
  2  2     0.00000000E+00   # y_c(Q) DRbar
  3  3     8.71992168E-01   # y_t(Q) DRbar
#
BLOCK Yd Q=  1.10926433E+03  # The Yukawa couplings
  1  1     0.00000000E+00   # y_d(Q) DRbar
  2  2     0.00000000E+00   # y_s(Q) DRbar
  3  3     2.82214930E-01   # y_b(Q) DRbar
#
BLOCK Ye Q=  1.10926433E+03  # The Yukawa couplings
  1  1     0.00000000E+00   # y_e(Q) DRbar
  2  2     0.00000000E+00   # y_mu(Q) DRbar
  3  3     2.03868123E-01   # y_tau(Q) DRbar
#
BLOCK MSOFT Q=  1.10926433E+03  # The soft SUSY breaking masses at the scale Q
         1     1.59990000E+02   # M_1(Q)              
         2     2.00000000E+03   # M_2(Q)              
         3     1.80000000E+03   # M_3(Q)              
        21     1.58445119E+07   # M^2_Hd              
        22    -4.54253842E+04   # M^2_Hu              
        31     4.00000000E+03   # M_eL                
        32     4.00000000E+03   # M_muL               
        33     4.00000000E+03   # M_tauL              
        34     4.00000000E+03   # M_eR                
        35     4.00000000E+03   # M_muR               
        36     4.00000000E+03   # M_tauR              
        41     4.00000000E+03   # M_q1L               
        42     4.00000000E+03   # M_q2L               
        43     6.09899997E+02   # M_q3L               
        44     4.00000000E+03   # M_uR                
        45     4.00000000E+03   # M_cR                
        46     2.05485961E+03   # M_tR                
        47     4.00000000E+03   # M_dR                
        48     4.00000000E+03   # M_sR                
        49     4.00000000E+03   # M_bR                
#
#
#
#                             =================
#                             |The decay table|
#                             =================
#
# - The QCD corrections to the decays gluino -> squark  + quark
#                                     squark -> gaugino + quark_prime
#                                     squark -> squark_prime + Higgs
#                                     squark -> gluino  + quark
#   are included.
#
# - The multi-body decays for the inos, stops and sbottoms are included.
#
# - The loop induced decays for the gluino, neutralinos and stops
#   are included.
#
# - The SUSY decays of the top quark are included.
#
#
#         PDG            Width
DECAY         6     1.40638806E+00   # top decays
#          BR         NDA      ID1       ID2
     1.00000000E+00    2           5        24   # BR(t ->  b    W+)
#
#         PDG            Width
DECAY   1000021     6.57302952E+01   # gluino decays
#          BR         NDA      ID1       ID2
     2.44188207E-01    2     1000005        -5   # BR(~g -> ~b_1  bb)
     2.44188207E-01    2    -1000005         5   # BR(~g -> ~b_1* b )
     2.55811793E-01    2     1000006        -6   # BR(~g -> ~t_1  tb)
     2.55811793E-01    2    -1000006         6   # BR(~g -> ~t_1* t )
#
#         PDG            Width
DECAY   1000006     7.64071321E+00   # stop1 decays
#          BR         NDA      ID1       ID2
     1.14124236E-01    2     1000022         6   # BR(~t_1 -> ~chi_10 t )
     4.32236831E-01    2     1000023         6   # BR(~t_1 -> ~chi_20 t )
     3.42558103E-01    2     1000025         6   # BR(~t_1 -> ~chi_30 t )
     1.11080830E-01    2     1000024         5   # BR(~t_1 -> ~chi_1+ b )
#
#         PDG            Width
DECAY   2000006     1.27442688E+02   # stop2 decays
#          BR         NDA      ID1       ID2
     5.30971522E-02    2     1000022         6   # BR(~t_2 -> ~chi_10 t )
     1.17371771E-01    2     1000023         6   # BR(~t_2 -> ~chi_20 t )
     9.31782947E-02    2     1000025         6   # BR(~t_2 -> ~chi_30 t )
     2.29573652E-01    2     1000024         5   # BR(~t_2 -> ~chi_1+ b )
     1.50284411E-08    2     1000037         5   # BR(~t_2 -> ~chi_2+ b )
     1.59594695E-01    2     1000006        25   # BR(~t_2 -> ~t_1    h )
     1.12440974E-01    2     1000006        23   # BR(~t_2 -> ~t_1    Z )
     2.34743447E-01    2     1000005        24   # BR(~t_2 -> ~b_1    W+)
#
#         PDG            Width
DECAY   1000005     8.16275081E+00   # sbottom1 decays
#          BR         NDA      ID1       ID2
     3.30192564E-02    2     1000022         5   # BR(~b_1 -> ~chi_10 b )
     5.14967343E-02    2     1000023         5   # BR(~b_1 -> ~chi_20 b )
     3.28653016E-02    2     1000025         5   # BR(~b_1 -> ~chi_30 b )
     8.82618708E-01    2    -1000024         6   # BR(~b_1 -> ~chi_1- t )
#
#         PDG            Width
DECAY   2000005     1.66644777E+02   # sbottom2 decays
#          BR         NDA      ID1       ID2
     1.65739480E-02    2     1000022         5   # BR(~b_2 -> ~chi_10 b )
     1.74699701E-02    2     1000023         5   # BR(~b_2 -> ~chi_20 b )
     1.51677540E-02    2     1000025         5   # BR(~b_2 -> ~chi_30 b )
     1.31487063E-07    2     1000035         5   # BR(~b_2 -> ~chi_40 b )
     3.57222865E-02    2    -1000024         6   # BR(~b_2 -> ~chi_1- t )
     2.50478752E-07    2    -1000037         6   # BR(~b_2 -> ~chi_2- t )
     9.14903335E-01    2     1000021         5   # BR(~b_2 -> ~g      b )
     3.77896402E-05    2     1000005        25   # BR(~b_2 -> ~b_1    h )
     4.62429945E-05    2     1000005        23   # BR(~b_2 -> ~b_1    Z )
     7.80674972E-05    2     1000006       -24   # BR(~b_2 -> ~t_1    W-)
     2.24639342E-07    2     2000006       -24   # BR(~b_2 -> ~t_2    W-)
#
#         PDG            Width
DECAY   1000002     1.78576411E+02   # sup_L decays
#          BR         NDA      ID1       ID2
     1.75399442E-03    2     1000022         2   # BR(~u_L -> ~chi_10 u)
     6.60838371E-06    2     1000023         2   # BR(~u_L -> ~chi_20 u)
     1.52141641E-03    2     1000025         2   # BR(~u_L -> ~chi_30 u)
     4.78911504E-02    2     1000035         2   # BR(~u_L -> ~chi_40 u)
     5.26244400E-04    2     1000024         1   # BR(~u_L -> ~chi_1+ d)
     9.56603971E-02    2     1000037         1   # BR(~u_L -> ~chi_2+ d)
     8.52640189E-01    2     1000021         2   # BR(~u_L -> ~g      u)
#
#         PDG            Width
DECAY   2000002     1.61142189E+02   # sup_R decays
#          BR         NDA      ID1       ID2
     3.72034212E-02    2     1000022         2   # BR(~u_R -> ~chi_10 u)
     4.83143245E-04    2     1000023         2   # BR(~u_R -> ~chi_20 u)
     1.76411614E-02    2     1000025         2   # BR(~u_R -> ~chi_30 u)
     2.61685498E-08    2     1000035         2   # BR(~u_R -> ~chi_40 u)
     9.44672248E-01    2     1000021         2   # BR(~u_R -> ~g      u)
#
#         PDG            Width
DECAY   1000001     1.78596064E+02   # sdown_L decays
#          BR         NDA      ID1       ID2
     2.47384731E-03    2     1000022         1   # BR(~d_L -> ~chi_10 d)
     1.69301565E-04    2     1000023         1   # BR(~d_L -> ~chi_20 d)
     5.80021998E-04    2     1000025         1   # BR(~d_L -> ~chi_30 d)
     4.79383235E-02    2     1000035         1   # BR(~d_L -> ~chi_40 d)
     9.99878930E-07    2    -1000024         2   # BR(~d_L -> ~chi_1- u)
     9.59770217E-02    2    -1000037         2   # BR(~d_L -> ~chi_2- u)
     8.52860484E-01    2     1000021         1   # BR(~d_L -> ~g      d)
#
#         PDG            Width
DECAY   2000001     1.54357354E+02   # sdown_R decays
#          BR         NDA      ID1       ID2
     9.70686702E-03    2     1000022         1   # BR(~d_R -> ~chi_10 d)
     1.26058358E-04    2     1000023         1   # BR(~d_R -> ~chi_20 d)
     4.60280688E-03    2     1000025         1   # BR(~d_R -> ~chi_30 d)
     6.82504154E-09    2     1000035         1   # BR(~d_R -> ~chi_40 d)
     9.85564261E-01    2     1000021         1   # BR(~d_R -> ~g      d)
#
#         PDG            Width
DECAY   1000004     1.78576411E+02   # scharm_L decays
#          BR         NDA      ID1       ID2
     1.75399442E-03    2     1000022         4   # BR(~c_L -> ~chi_10 c)
     6.60838371E-06    2     1000023         4   # BR(~c_L -> ~chi_20 c)
     1.52141641E-03    2     1000025         4   # BR(~c_L -> ~chi_30 c)
     4.78911504E-02    2     1000035         4   # BR(~c_L -> ~chi_40 c)
     5.26244400E-04    2     1000024         3   # BR(~c_L -> ~chi_1+ s)
     9.56603971E-02    2     1000037         3   # BR(~c_L -> ~chi_2+ s)
     8.52640189E-01    2     1000021         4   # BR(~c_L -> ~g      c)
#
#         PDG            Width
DECAY   2000004     1.61142189E+02   # scharm_R decays
#          BR         NDA      ID1       ID2
     3.72034212E-02    2     1000022         4   # BR(~c_R -> ~chi_10 c)
     4.83143245E-04    2     1000023         4   # BR(~c_R -> ~chi_20 c)
     1.76411614E-02    2     1000025         4   # BR(~c_R -> ~chi_30 c)
     2.61685498E-08    2     1000035         4   # BR(~c_R -> ~chi_40 c)
     9.44672248E-01    2     1000021         4   # BR(~c_R -> ~g      c)
#
#         PDG            Width
DECAY   1000003     1.78596064E+02   # sstrange_L decays
#          BR         NDA      ID1       ID2
     2.47384731E-03    2     1000022         3   # BR(~s_L -> ~chi_10 s)
     1.69301565E-04    2     1000023         3   # BR(~s_L -> ~chi_20 s)
     5.80021998E-04    2     1000025         3   # BR(~s_L -> ~chi_30 s)
     4.79383235E-02    2     1000035         3   # BR(~s_L -> ~chi_40 s)
     9.99878930E-07    2    -1000024         4   # BR(~s_L -> ~chi_1- c)
     9.59770217E-02    2    -1000037         4   # BR(~s_L -> ~chi_2- c)
     8.52860484E-01    2     1000021         3   # BR(~s_L -> ~g      s)
#
#         PDG            Width
DECAY   2000003     1.54357354E+02   # sstrange_R decays
#          BR         NDA      ID1       ID2
     9.70686702E-03    2     1000022         3   # BR(~s_R -> ~chi_10 s)
     1.26058358E-04    2     1000023         3   # BR(~s_R -> ~chi_20 s)
     4.60280688E-03    2     1000025         3   # BR(~s_R -> ~chi_30 s)
     6.82504154E-09    2     1000035         3   # BR(~s_R -> ~chi_40 s)
     9.85564261E-01    2     1000021         3   # BR(~s_R -> ~g      s)
#
#         PDG            Width
DECAY   1000011     3.14800503E+01   # selectron_L decays
#          BR         NDA      ID1       ID2
     1.04542226E-01    2     1000022        11   # BR(~e_L -> ~chi_10 e-)
     3.63231464E-04    2     1000023        11   # BR(~e_L -> ~chi_20 e-)
     6.11252633E-02    2     1000025        11   # BR(~e_L -> ~chi_30 e-)
     2.77534164E-01    2     1000035        11   # BR(~e_L -> ~chi_40 e-)
     5.86378841E-06    2    -1000024        12   # BR(~e_L -> ~chi_1- nu_e)
     5.56429251E-01    2    -1000037        12   # BR(~e_L -> ~chi_2- nu_e)
#
#         PDG            Width
DECAY   2000011     2.07419254E+01   # selectron_R decays
#          BR         NDA      ID1       ID2
     6.72479357E-01    2     1000022        11   # BR(~e_R -> ~chi_10 e-)
     8.73126729E-03    2     1000023        11   # BR(~e_R -> ~chi_20 e-)
     3.18788908E-01    2     1000025        11   # BR(~e_R -> ~chi_30 e-)
     4.67620712E-07    2     1000035        11   # BR(~e_R -> ~chi_40 e-)
#
#         PDG            Width
DECAY   1000013     3.14800503E+01   # smuon_L decays
#          BR         NDA      ID1       ID2
     1.04542226E-01    2     1000022        13   # BR(~mu_L -> ~chi_10 mu-)
     3.63231464E-04    2     1000023        13   # BR(~mu_L -> ~chi_20 mu-)
     6.11252633E-02    2     1000025        13   # BR(~mu_L -> ~chi_30 mu-)
     2.77534164E-01    2     1000035        13   # BR(~mu_L -> ~chi_40 mu-)
     5.86378841E-06    2    -1000024        14   # BR(~mu_L -> ~chi_1- nu_mu)
     5.56429251E-01    2    -1000037        14   # BR(~mu_L -> ~chi_2- nu_mu)
#
#         PDG            Width
DECAY   2000013     2.07419254E+01   # smuon_R decays
#          BR         NDA      ID1       ID2
     6.72479357E-01    2     1000022        13   # BR(~mu_R -> ~chi_10 mu-)
     8.73126729E-03    2     1000023        13   # BR(~mu_R -> ~chi_20 mu-)
     3.18788908E-01    2     1000025        13   # BR(~mu_R -> ~chi_30 mu-)
     4.67620712E-07    2     1000035        13   # BR(~mu_R -> ~chi_40 mu-)
#
#         PDG            Width
DECAY   1000015     3.10671605E+01   # stau_1 decays
#          BR         NDA      ID1       ID2
     3.53003726E-01    2     1000022        15   # BR(~tau_1 -> ~chi_10  tau-)
     4.15425057E-02    2     1000023        15   # BR(~tau_1 -> ~chi_20  tau-)
     1.32099440E-01    2     1000025        15   # BR(~tau_1 -> ~chi_30  tau-)
     1.39475138E-01    2     1000035        15   # BR(~tau_1 -> ~chi_40  tau-)
     5.42451666E-02    2    -1000024        16   # BR(~tau_1 -> ~chi_1-  nu_tau)
     2.79634023E-01    2    -1000037        16   # BR(~tau_1 -> ~chi_2-  nu_tau)
#
#         PDG            Width
DECAY   2000015     3.11100881E+01   # stau_2 decays
#          BR         NDA      ID1       ID2
     2.46912838E-01    2     1000022        15   # BR(~tau_2 -> ~chi_10  tau-)
     6.73745353E-02    2     1000023        15   # BR(~tau_2 -> ~chi_20  tau-)
     2.07149002E-01    2     1000025        15   # BR(~tau_2 -> ~chi_30  tau-)
     1.42015744E-01    2     1000035        15   # BR(~tau_2 -> ~chi_40  tau-)
     5.18197086E-02    2    -1000024        16   # BR(~tau_2 -> ~chi_1-  nu_tau)
     2.84728171E-01    2    -1000037        16   # BR(~tau_2 -> ~chi_2-  nu_tau)
#
#         PDG            Width
DECAY   1000012     3.14907868E+01   # snu_eL decays
#          BR         NDA      ID1       ID2
     1.17135017E-01    2     1000022        12   # BR(~nu_eL -> ~chi_10 nu_e)
     3.22351467E-03    2     1000023        12   # BR(~nu_eL -> ~chi_20 nu_e)
     4.45348096E-02    2     1000025        12   # BR(~nu_eL -> ~chi_30 nu_e)
     2.77836435E-01    2     1000035        12   # BR(~nu_eL -> ~chi_40 nu_e)
     3.08441649E-03    2     1000024        11   # BR(~nu_eL -> ~chi_1+ e-)
     5.54185808E-01    2     1000037        11   # BR(~nu_eL -> ~chi_2+ e-)
#
#         PDG            Width
DECAY   1000014     3.14907868E+01   # snu_muL decays
#          BR         NDA      ID1       ID2
     1.17135017E-01    2     1000022        14   # BR(~nu_muL -> ~chi_10 nu_mu)
     3.22351467E-03    2     1000023        14   # BR(~nu_muL -> ~chi_20 nu_mu)
     4.45348096E-02    2     1000025        14   # BR(~nu_muL -> ~chi_30 nu_mu)
     2.77836435E-01    2     1000035        14   # BR(~nu_muL -> ~chi_40 nu_mu)
     3.08441649E-03    2     1000024        13   # BR(~nu_muL -> ~chi_1+ mu-)
     5.54185808E-01    2     1000037        13   # BR(~nu_muL -> ~chi_2+ mu-)
#
#         PDG            Width
DECAY   1000016     3.48201204E+01   # snu_tauL decays
#          BR         NDA      ID1       ID2
     1.05987062E-01    2     1000022        16   # BR(~nu_tauL -> ~chi_10 nu_tau)
     2.91673298E-03    2     1000023        16   # BR(~nu_tauL -> ~chi_20 nu_tau)
     4.02964616E-02    2     1000025        16   # BR(~nu_tauL -> ~chi_30 nu_tau)
     2.51568959E-01    2     1000035        16   # BR(~nu_tauL -> ~chi_40 nu_tau)
     9.74398039E-02    2     1000024        15   # BR(~nu_tauL -> ~chi_1+ tau-)
     5.01790980E-01    2     1000037        15   # BR(~nu_tauL -> ~chi_2+ tau-)
#
#         PDG            Width
DECAY   1000024     7.48529975E-05   # chargino1+ decays
#           BR         NDA      ID1       ID2       ID3
     3.33597937E-01    3     1000022         2        -1   # BR(~chi_1+ -> ~chi_10 u    db)
     3.33597937E-01    3     1000022         4        -3   # BR(~chi_1+ -> ~chi_10 c    sb)
     1.11200370E-01    3     1000022       -11        12   # BR(~chi_1+ -> ~chi_10 e+   nu_e)
     1.11200370E-01    3     1000022       -13        14   # BR(~chi_1+ -> ~chi_10 mu+  nu_mu)
     1.10403385E-01    3     1000022       -15        16   # BR(~chi_1+ -> ~chi_10 tau+ nu_tau)
#
#         PDG            Width
DECAY   1000037     6.21868367E+01   # chargino2+ decays
#          BR         NDA      ID1       ID2
     3.76956914E-01    2     1000006        -5   # BR(~chi_2+ -> ~t_1     bb)
     3.64379499E-01    2    -1000005         6   # BR(~chi_2+ -> ~b_1*    t )
     6.57732200E-02    2     1000024        23   # BR(~chi_2+ -> ~chi_1+  Z )
     1.34365852E-02    2     1000022        24   # BR(~chi_2+ -> ~chi_10  W+)
     6.45578975E-02    2     1000023        24   # BR(~chi_2+ -> ~chi_20  W+)
     5.02151084E-02    2     1000025        24   # BR(~chi_2+ -> ~chi_30  W+)
     6.46807760E-02    2     1000024        25   # BR(~chi_2+ -> ~chi_1+  h )
#
#         PDG            Width
DECAY   1000022     0.00000000E+00   # neutralino1 decays
#
#         PDG            Width
DECAY   1000023     8.05100688E-05   # neutralino2 decays
#          BR         NDA      ID1       ID2
     1.16703588E-03    2     1000022        22   # BR(~chi_20 -> ~chi_10 gam)
#           BR         NDA      ID1       ID2       ID3
     1.18112336E-01    3     1000022        -2         2   # BR(~chi_20 -> ~chi_10 ub      u)
     1.53161119E-01    3     1000022        -1         1   # BR(~chi_20 -> ~chi_10 db      d)
     1.18112336E-01    3     1000022        -4         4   # BR(~chi_20 -> ~chi_10 cb      c)
     1.53161119E-01    3     1000022        -3         3   # BR(~chi_20 -> ~chi_10 sb      s)
     1.40864757E-01    3     1000022        -5         5   # BR(~chi_20 -> ~chi_10 bb      b)
     3.50927778E-02    3     1000022       -11        11   # BR(~chi_20 -> ~chi_10 e+      e-)
     3.50927778E-02    3     1000022       -13        13   # BR(~chi_20 -> ~chi_10 mu+     mu-)
     3.47518867E-02    3     1000022       -15        15   # BR(~chi_20 -> ~chi_10 tau+    tau-)
     7.01554008E-02    3     1000022       -12        12   # BR(~chi_20 -> ~chi_10 nu_eb   nu_e)
     7.01554008E-02    3     1000022       -14        14   # BR(~chi_20 -> ~chi_10 nu_mub  nu_mu)
     7.01553975E-02    3     1000022       -16        16   # BR(~chi_20 -> ~chi_10 nu_taub nu_tau)
     3.18348968E-06    3     1000024        -2         1   # BR(~chi_20 -> ~chi_1+ ub      d)
     3.18348968E-06    3    -1000024        -1         2   # BR(~chi_20 -> ~chi_1- db      u)
     3.18348968E-06    3     1000024        -4         3   # BR(~chi_20 -> ~chi_1+ cb      s)
     3.18348968E-06    3    -1000024        -3         4   # BR(~chi_20 -> ~chi_1- sb      c)
     1.06116503E-06    3     1000024       -12        11   # BR(~chi_20 -> ~chi_1+ nu_eb   e-)
     1.06116503E-06    3    -1000024        12       -11   # BR(~chi_20 -> ~chi_1- nu_e    e+)
     1.06116503E-06    3     1000024       -14        13   # BR(~chi_20 -> ~chi_1+ nu_mub  mu-)
     1.06116503E-06    3    -1000024        14       -13   # BR(~chi_20 -> ~chi_1- nu_mu   mu+)
     3.38094795E-07    3     1000024       -16        15   # BR(~chi_20 -> ~chi_1+ nu_taub tau-)
     3.38094795E-07    3    -1000024        16       -15   # BR(~chi_20 -> ~chi_1- nu_tau  tau+)
#
#         PDG            Width
DECAY   1000025     9.93915357E-06   # neutralino3 decays
#          BR         NDA      ID1       ID2
     2.39379124E-02    2     1000022        22   # BR(~chi_30 -> ~chi_10 gam)
     6.09740268E-02    2     1000023        22   # BR(~chi_30 -> ~chi_20 gam)
#           BR         NDA      ID1       ID2       ID3
     7.90653829E-02    3     1000022        -2         2   # BR(~chi_30 -> ~chi_10 ub      u)
     1.02260091E-01    3     1000022        -1         1   # BR(~chi_30 -> ~chi_10 db      d)
     7.90653829E-02    3     1000022        -4         4   # BR(~chi_30 -> ~chi_10 cb      c)
     1.02260091E-01    3     1000022        -3         3   # BR(~chi_30 -> ~chi_10 sb      s)
     9.65656059E-02    3     1000022        -5         5   # BR(~chi_30 -> ~chi_10 bb      b)
     2.32183131E-02    3     1000022       -11        11   # BR(~chi_30 -> ~chi_10 e+      e-)
     2.32183131E-02    3     1000022       -13        13   # BR(~chi_30 -> ~chi_10 mu+     mu-)
     2.30435411E-02    3     1000022       -15        15   # BR(~chi_30 -> ~chi_10 tau+    tau-)
     4.69413562E-02    3     1000022       -12        12   # BR(~chi_30 -> ~chi_10 nu_eb   nu_e)
     4.69413562E-02    3     1000022       -14        14   # BR(~chi_30 -> ~chi_10 nu_mub  nu_mu)
     4.69412725E-02    3     1000022       -16        16   # BR(~chi_30 -> ~chi_10 nu_taub nu_tau)
     3.27702474E-03    3     1000023        -2         2   # BR(~chi_30 -> ~chi_20 ub      u)
     4.24972707E-03    3     1000023        -1         1   # BR(~chi_30 -> ~chi_20 db      d)
     3.27702474E-03    3     1000023        -4         4   # BR(~chi_30 -> ~chi_20 cb      c)
     4.24972707E-03    3     1000023        -3         3   # BR(~chi_30 -> ~chi_20 sb      s)
     1.02666029E-03    3     1000023        -5         5   # BR(~chi_30 -> ~chi_20 bb      b)
     9.73896650E-04    3     1000023       -11        11   # BR(~chi_30 -> ~chi_20 e+      e-)
     9.73896650E-04    3     1000023       -13        13   # BR(~chi_30 -> ~chi_20 mu+     mu-)
     8.80748795E-04    3     1000023       -15        15   # BR(~chi_30 -> ~chi_20 tau+    tau-)
     1.94641137E-03    3     1000023       -12        12   # BR(~chi_30 -> ~chi_20 nu_eb   nu_e)
     1.94641137E-03    3     1000023       -14        14   # BR(~chi_30 -> ~chi_20 nu_mub  nu_mu)
     1.94641141E-03    3     1000023       -16        16   # BR(~chi_30 -> ~chi_20 nu_taub nu_tau)
     3.70141623E-02    3     1000024        -2         1   # BR(~chi_30 -> ~chi_1+ ub      d)
     3.70141623E-02    3    -1000024        -1         2   # BR(~chi_30 -> ~chi_1- db      u)
     3.70141623E-02    3     1000024        -4         3   # BR(~chi_30 -> ~chi_1+ cb      s)
     3.70141623E-02    3    -1000024        -3         4   # BR(~chi_30 -> ~chi_1- sb      c)
     1.23378977E-02    3     1000024       -12        11   # BR(~chi_30 -> ~chi_1+ nu_eb   e-)
     1.23378977E-02    3    -1000024        12       -11   # BR(~chi_30 -> ~chi_1- nu_e    e+)
     1.23378977E-02    3     1000024       -14        13   # BR(~chi_30 -> ~chi_1+ nu_mub  mu-)
     1.23378977E-02    3    -1000024        14       -13   # BR(~chi_30 -> ~chi_1- nu_mu   mu+)
     1.17055876E-02    3     1000024       -16        15   # BR(~chi_30 -> ~chi_1+ nu_taub tau-)
     1.17055876E-02    3    -1000024        16       -15   # BR(~chi_30 -> ~chi_1- nu_tau  tau+)
#
#         PDG            Width
DECAY   1000035     6.21761626E+01   # neutralino4 decays
#          BR         NDA      ID1       ID2
     6.88590799E-03    2     1000022        23   # BR(~chi_40 -> ~chi_10   Z )
     3.61330686E-02    2     1000023        23   # BR(~chi_40 -> ~chi_20   Z )
     2.27434082E-02    2     1000025        23   # BR(~chi_40 -> ~chi_30   Z )
     6.41717836E-02    2     1000024       -24   # BR(~chi_40 -> ~chi_1+   W-)
     6.41717836E-02    2    -1000024        24   # BR(~chi_40 -> ~chi_1-   W+)
     6.77543190E-03    2     1000022        25   # BR(~chi_40 -> ~chi_10   h )
     2.94815927E-02    2     1000023        25   # BR(~chi_40 -> ~chi_20   h )
     2.82480400E-02    2     1000025        25   # BR(~chi_40 -> ~chi_30   h )
     1.85023259E-01    2     1000006        -6   # BR(~chi_40 -> ~t_1      tb)
     1.85023259E-01    2    -1000006         6   # BR(~chi_40 -> ~t_1*     t )
     1.85671233E-01    2     1000005        -5   # BR(~chi_40 -> ~b_1      bb)
     1.85671233E-01    2    -1000005         5   # BR(~chi_40 -> ~b_1*     b )
#
#         PDG            Width
DECAY        25     4.11165677E-03   # h decays
#          BR         NDA      ID1       ID2
     5.87284460E-01    2           5        -5   # BR(h -> b       bb     )
     6.36246317E-02    2         -15        15   # BR(h -> tau+    tau-   )
     2.25228680E-04    2         -13        13   # BR(h -> mu+     mu-    )
     4.77288822E-04    2           3        -3   # BR(h -> s       sb     )
     2.07254610E-02    2           4        -4   # BR(h -> c       cb     )
     6.78861240E-02    2          21        21   # BR(h -> g       g      )
     2.37396398E-03    2          22        22   # BR(h -> gam     gam    )
     1.66453952E-03    2          22        23   # BR(h -> Z       gam    )
     2.26848050E-01    2          24       -24   # BR(h -> W+      W-     )
     2.88902524E-02    2          23        23   # BR(h -> Z       Z      )
#
#         PDG            Width
DECAY        35     5.46596789E+01   # H decays
#          BR         NDA      ID1       ID2
     3.44836910E-01    2           5        -5   # BR(H -> b       bb     )
     6.06588871E-02    2         -15        15   # BR(H -> tau+    tau-   )
     2.14475132E-04    2         -13        13   # BR(H -> mu+     mu-    )
     2.53687133E-04    2           3        -3   # BR(H -> s       sb     )
     7.11674462E-08    2           4        -4   # BR(H -> c       cb     )
     7.13245974E-03    2           6        -6   # BR(H -> t       tb     )
     9.83106151E-07    2          21        21   # BR(H -> g       g      )
     1.46624384E-11    2          22        22   # BR(H -> gam     gam    )
     1.83037135E-09    2          23        22   # BR(H -> Z       gam    )
     2.04049538E-06    2          24       -24   # BR(H -> W+      W-     )
     1.01954088E-06    2          23        23   # BR(H -> Z       Z      )
     7.62143177E-06    2          25        25   # BR(H -> h       h      )
     1.89466681E-24    2          36        36   # BR(H -> A       A      )
     1.41662589E-20    2          23        36   # BR(H -> Z       A      )
     1.85529805E-03    2     1000024  -1000024   # BR(H -> ~chi_1+ ~chi_1-)
     1.65223595E-01    2     1000024  -1000037   # BR(H -> ~chi_1+ ~chi_2-)
     1.65223595E-01    2     1000037  -1000024   # BR(H -> ~chi_2+ ~chi_1-)
     2.84853732E-02    2     1000022   1000022   # BR(H -> ~chi_10 ~chi_10)
     1.55411574E-03    2     1000023   1000023   # BR(H -> ~chi_20 ~chi_20)
     1.58342922E-02    2     1000025   1000025   # BR(H -> ~chi_30 ~chi_30)
     2.11377527E-02    2     1000022   1000023   # BR(H -> ~chi_10 ~chi_20)
     5.24529810E-03    2     1000022   1000025   # BR(H -> ~chi_10 ~chi_30)
     3.57691008E-02    2     1000022   1000035   # BR(H -> ~chi_10 ~chi_40)
     1.59215118E-02    2     1000023   1000025   # BR(H -> ~chi_20 ~chi_30)
     7.75811058E-02    2     1000023   1000035   # BR(H -> ~chi_20 ~chi_40)
     5.23553456E-02    2     1000025   1000035   # BR(H -> ~chi_30 ~chi_40)
     8.26750884E-05    2     1000006  -1000006   # BR(H -> ~t_1    ~t_1*  )
     3.11322948E-04    2     1000006  -2000006   # BR(H -> ~t_1    ~t_2*  )
     3.11322948E-04    2     2000006  -1000006   # BR(H -> ~t_2    ~t_1*  )
     1.38712684E-07    2     1000005  -1000005   # BR(H -> ~b_1    ~b_1*  )
#
#         PDG            Width
DECAY        36     5.46573341E+01   # A decays
#          BR         NDA      ID1       ID2
     3.44877643E-01    2           5        -5   # BR(A -> b       bb     )
     6.06618757E-02    2         -15        15   # BR(A -> tau+    tau-   )
     2.14485531E-04    2         -13        13   # BR(A -> mu+     mu-    )
     2.53740790E-04    2           3        -3   # BR(A -> s       sb     )
     7.16173245E-08    2           4        -4   # BR(A -> c       cb     )
     7.14511330E-03    2           6        -6   # BR(A -> t       tb     )
     1.46814035E-05    2          21        21   # BR(A -> g       g      )
     4.69412519E-08    2          22        22   # BR(A -> gam     gam    )
     1.61399806E-08    2          23        22   # BR(A -> Z       gam    )
     2.03625436E-06    2          23        25   # BR(A -> Z       h      )
     1.85658118E-03    2     1000024  -1000024   # BR(A -> ~chi_1+ ~chi_1-)
     1.65234443E-01    2     1000024  -1000037   # BR(A -> ~chi_1+ ~chi_2-)
     1.65234443E-01    2     1000037  -1000024   # BR(A -> ~chi_2+ ~chi_1-)
     2.46823121E-02    2     1000022   1000022   # BR(A -> ~chi_10 ~chi_10)
     1.92601782E-03    2     1000023   1000023   # BR(A -> ~chi_20 ~chi_20)
     1.28161865E-02    2     1000025   1000025   # BR(A -> ~chi_30 ~chi_30)
     2.69304207E-02    2     1000022   1000023   # BR(A -> ~chi_10 ~chi_20)
     3.91625941E-03    2     1000022   1000025   # BR(A -> ~chi_10 ~chi_30)
     3.44123651E-02    2     1000022   1000035   # BR(A -> ~chi_10 ~chi_40)
     1.79097627E-02    2     1000023   1000025   # BR(A -> ~chi_20 ~chi_30)
     8.28775125E-02    2     1000023   1000035   # BR(A -> ~chi_20 ~chi_40)
     4.83865082E-02    2     1000025   1000035   # BR(A -> ~chi_30 ~chi_40)
     3.23738906E-04    2     1000006  -2000006   # BR(A -> ~t_1    ~t_2*  )
     3.23738906E-04    2    -1000006   2000006   # BR(A -> ~t_1*   ~t_2   )
#
#         PDG            Width
DECAY        37     5.45986026E+01   # H+ decays
#          BR         NDA      ID1       ID2
     5.50670294E-04    2           4        -5   # BR(H+ -> c       bb     )
     6.07428450E-02    2         -15        16   # BR(H+ -> tau+    nu_tau )
     2.14771818E-04    2         -13        14   # BR(H+ -> mu+     nu_mu  )
     3.52428685E-06    2           2        -5   # BR(H+ -> u       bb     )
     1.21672240E-05    2           2        -3   # BR(H+ -> u       sb     )
     2.50318925E-04    2           4        -3   # BR(H+ -> c       sb     )
     3.50957278E-01    2           6        -5   # BR(H+ -> t       bb     )
     2.04074163E-06    2          24        25   # BR(H+ -> W+      h      )
     2.86465865E-14    2          24        36   # BR(H+ -> W+      A      )
     5.61404092E-02    2     1000024   1000022   # BR(H+ -> ~chi_1+ ~chi_10)
     1.43306702E-04    2     1000024   1000023   # BR(H+ -> ~chi_1+ ~chi_20)
     3.25934355E-02    2     1000024   1000025   # BR(H+ -> ~chi_1+ ~chi_30)
     1.65623951E-01    2     1000024   1000035   # BR(H+ -> ~chi_1+ ~chi_40)
     7.03413780E-02    2     1000037   1000022   # BR(H+ -> ~chi_2+ ~chi_10)
     1.60773160E-01    2     1000037   1000023   # BR(H+ -> ~chi_2+ ~chi_20)
     1.00981320E-01    2     1000037   1000025   # BR(H+ -> ~chi_2+ ~chi_30)
     4.47423697E-05    2     1000006  -1000005   # BR(H+ -> ~t_1    ~b_1*  )
     6.24681769E-04    2     2000006  -1000005   # BR(H+ -> ~t_2    ~b_1*  )
