#
#                              ======================
#                              | THE SUSYHIT OUTPUT |
#                              ======================
#
#
#              ------------------------------------------------------
#              |     This is the output of the SUSY-HIT package     |
#              |  created by A.Djouadi, M.Muehlleitner and M.Spira. |
#              |  In case of problems with SUSY-HIT email to        |
#              |           margarete.muehlleitner@kit.edu           |
#              |           michael.spira@psi.ch                     |
#              |           abdelhak.djouadi@cern.ch                 |
#              ------------------------------------------------------
#
#              ------------------------------------------------------
#              |  SUSY Les Houches Accord - MSSM Spectrum + Decays  |
#              |              based on the decay programs           |
#              |                                                    |
#              |                     SDECAY 1.5                     |
#              |                                                    |
#              |  Authors: M.Muhlleitner, A.Djouadi and Y.Mambrini  |
#              |  Ref.:    Comput.Phys.Commun.168(2005)46           |
#              |           [hep-ph/0311167]                         |
#              |                                                    |
#              |                     HDECAY 3.4                     |
#              |                                                    |
#              |  By: A.Djouadi,J.Kalinowski,M.Muhlleitner,M.Spira  |
#              |  Ref.:    Comput.Phys.Commun.108(1998)56           |
#              |           [hep-ph/9704448]                         |
#              |                                                    |
#              |                                                    |
#              |  If not stated otherwise all DRbar couplings and   |
#              |  soft SUSY breaking masses are given at the scale  |
#              |  Q=  0.15954626E+04
#              |                                                    |
#              ------------------------------------------------------
#
#
BLOCK DCINFO  # Decay Program information
     1   SDECAY/HDECAY # decay calculator
     2   1.5  /3.4    # version number
#
BLOCK SPINFO  # Spectrum calculator information
     1    SOFTSUSY    # spectrum calculator                
     2    3.7.3       # version number                     
#
BLOCK MODSEL  # Model selection
     1     0   #  nonUniversal                                     
#
BLOCK SMINPUTS  # Standard Model inputs
         1     1.27934000E+02   # alpha_em^-1(M_Z)^MSbar
         2     1.16639000E-05   # G_F [GeV^-2]
         3     1.17200000E-01   # alpha_S(M_Z)^MSbar
         4     9.11870000E+01   # M_Z pole mass
         5     4.19000000E+00   # mb(mb)^MSbar
         6     1.72500000E+02   # mt pole mass
         7     1.77690000E+00   # mtau pole mass
#
BLOCK MINPAR  # Input parameters - minimal models
         3     2.00000000E+01   # tanb                
#
BLOCK EXTPAR  # Input parameters - non-minimal models
         0    -1.00000000E+00   # Set                 
         1     3.49900000E+02   # M_1(MX)             
         2     6.99900000E+02   # M_2(MX)             
         3     2.20000000E+03   # M_3(MX)             
        11     3.24338000E+03   # At(MX)              
        12     0.00000000E+00   # Ab(MX)              
        13     0.00000000E+00   # Atau(MX)            
        23     3.00000000E+03   # mu(MX)              
        25     2.00000000E+01   # tan                 
        26     3.00000000E+03   # mA(pole)            
        31     3.00000000E+03   # meL(MX)             
        32     3.00000000E+03   # mmuL(MX)            
        33     3.00000000E+03   # mtauL(MX)           
        34     3.00000000E+03   # meR(MX)             
        35     3.00000000E+03   # mmuR(MX)            
        36     3.00000000E+03   # mtauR(MX)           
        41     3.00000000E+03   # mqL1(MX)            
        42     3.00000000E+03   # mqL2(MX)            
        43     8.49900000E+02   # mqL3(MX)            
        44     3.00000000E+03   # muR(MX)             
        45     3.00000000E+03   # mcR(MX)             
        46     3.00000000E+03   # mtR(MX)             
        47     3.00000000E+03   # mdR(MX)             
        48     3.00000000E+03   # msR(MX)             
        49     3.00000000E+03   # mbR(MX)             
#
BLOCK MASS  # Mass Spectrum
# PDG code           mass       particle
        24     8.04044690E+01   # W+
        25     1.24995115E+02   # h
        35     3.00013006E+03   # H
        36     2.99999987E+03   # A
        37     3.00092520E+03   # H+
         5     4.81337004E+00   # b-quark pole mass calculated from mb(mb)_Msbar
   1000001     3.03880402E+03   # ~d_L
   2000001     3.03374920E+03   # ~d_R
   1000002     3.03790049E+03   # ~u_L
   2000002     3.03484831E+03   # ~u_R
   1000003     3.03880402E+03   # ~s_L
   2000003     3.03374920E+03   # ~s_R
   1000004     3.03790049E+03   # ~c_L
   2000004     3.03484831E+03   # ~c_R
   1000005     9.52821077E+02   # ~b_1
   2000005     3.03277458E+03   # ~b_2
   1000006     9.48735547E+02   # ~t_1
   2000006     3.01631028E+03   # ~t_2
   1000011     3.00623996E+03   # ~e_L
   2000011     3.00204487E+03   # ~e_R
   1000012     3.00485656E+03   # ~nu_eL
   1000013     3.00623996E+03   # ~mu_L
   2000013     3.00204487E+03   # ~mu_R
   1000014     3.00485656E+03   # ~nu_muL
   1000015     2.98552164E+03   # ~tau_1
   2000015     3.02199905E+03   # ~tau_2
   1000016     3.00463061E+03   # ~nu_tauL
   1000021     2.34804113E+03   # ~g
   1000022     3.51724052E+02   # ~chi_10
   1000023     7.33162107E+02   # ~chi_20
   1000025    -2.99596962E+03   # ~chi_30
   1000035     2.99691425E+03   # ~chi_40
   1000024     7.33324772E+02   # ~chi_1+
   1000037     2.99740820E+03   # ~chi_2+
#
BLOCK NMIX  # Neutralino Mixing Matrix
  1  1     9.99883708E-01   # N_11
  1  2    -7.18620378E-04   # N_12
  1  3     1.50286299E-02   # N_13
  1  4    -2.48904434E-03   # N_14
  2  1     1.15339823E-03   # N_21
  2  2     9.99586791E-01   # N_22
  2  3    -2.76590563E-02   # N_23
  2  4     7.73909235E-03   # N_24
  3  1    -8.85422151E-03   # N_31
  3  2     1.40950261E-02   # N_32
  3  3     7.06878844E-01   # N_33
  3  4     7.07138765E-01   # N_34
  4  1    -1.23630056E-02   # N_41
  4  2     2.50411880E-02   # N_42
  4  3     7.06633863E-01   # N_43
  4  4    -7.07028060E-01   # N_44
#
BLOCK UMIX  # Chargino Mixing Matrix U
  1  1     9.99234206E-01   # U_11
  1  2    -3.91280107E-02   # U_12
  2  1     3.91280107E-02   # U_21
  2  2     9.99234206E-01   # U_22
#
BLOCK VMIX  # Chargino Mixing Matrix V
  1  1     9.99940053E-01   # V_11
  1  2    -1.09494157E-02   # V_12
  2  1     1.09494157E-02   # V_21
  2  2     9.99940053E-01   # V_22
#
BLOCK STOPMIX  # Stop Mixing Matrix
  1  1     9.98507523E-01   # cos(theta_t)
  1  2    -5.46143435E-02   # sin(theta_t)
  2  1     5.46143435E-02   # -sin(theta_t)
  2  2     9.98507523E-01   # cos(theta_t)
#
BLOCK SBOTMIX  # Sbottom Mixing Matrix
  1  1     9.99909502E-01   # cos(theta_b)
  1  2     1.34531710E-02   # sin(theta_b)
  2  1    -1.34531710E-02   # -sin(theta_b)
  2  2     9.99909502E-01   # cos(theta_b)
#
BLOCK STAUMIX  # Stau Mixing Matrix
  1  1     7.06960653E-01   # cos(theta_tau)
  1  2     7.07252879E-01   # sin(theta_tau)
  2  1    -7.07252879E-01   # -sin(theta_tau)
  2  2     7.06960653E-01   # cos(theta_tau)
#
BLOCK ALPHA  # Higgs mixing
          -5.01785183E-02   # Mixing angle in the neutral Higgs boson sector
#
BLOCK HMIX Q=  1.59546262E+03  # DRbar Higgs Parameters
         1     3.00000000E+03   # mu(Q)MSSM           
         2     2.00000000E+01   # tan                 
         3     2.44051685E+02   # higgs               
         4     7.45310898E+06   # mA^2(Q)MSSM         
#
BLOCK GAUGE Q=  1.59546262E+03  # The gauge couplings
     1     3.62380916E-01   # gprime(Q) DRbar
     2     6.37128055E-01   # g(Q) DRbar
     3     1.02497459E+00   # g3(Q) DRbar
#
BLOCK AU Q=  1.59546262E+03  # The trilinear couplings
  1  1     2.43505432E-06   # A_u(Q) DRbar
  2  2     2.43508743E-06   # A_c(Q) DRbar
  3  3     3.24338000E+03   # A_t(Q) DRbar
#
BLOCK AD Q=  1.59546262E+03  # The trilinear couplings
  1  1     6.63570117E-07   # A_d(Q) DRbar
  2  2     6.63683170E-07   # A_s(Q) DRbar
  3  3     1.44069824E-06   # A_b(Q) DRbar
#
BLOCK AE Q=  1.59546262E+03  # The trilinear couplings
  1  1     0.00000000E+00   # A_e(Q) DRbar
  2  2     1.33662452E-07   # A_mu(Q) DRbar
  3  3     1.35224952E-07   # A_tau(Q) DRbar
#
BLOCK Yu Q=  1.59546262E+03  # The Yukawa couplings
  1  1     0.00000000E+00   # y_u(Q) DRbar
  2  2     0.00000000E+00   # y_c(Q) DRbar
  3  3     8.51882093E-01   # y_t(Q) DRbar
#
BLOCK Yd Q=  1.59546262E+03  # The Yukawa couplings
  1  1     0.00000000E+00   # y_d(Q) DRbar
  2  2     0.00000000E+00   # y_s(Q) DRbar
  3  3     2.15359473E-01   # y_b(Q) DRbar
#
BLOCK Ye Q=  1.59546262E+03  # The Yukawa couplings
  1  1     0.00000000E+00   # y_e(Q) DRbar
  2  2     0.00000000E+00   # y_mu(Q) DRbar
  3  3     2.07525357E-01   # y_tau(Q) DRbar
#
BLOCK MSOFT Q=  1.59546262E+03  # The soft SUSY breaking masses at the scale Q
         1     3.49900000E+02   # M_1(Q)              
         2     6.99900000E+02   # M_2(Q)              
         3     2.20000000E+03   # M_3(Q)              
        21    -8.54478068E+04   # M^2_Hd              
        22    -9.05124094E+06   # M^2_Hu              
        31     3.00000000E+03   # M_eL                
        32     3.00000000E+03   # M_muL               
        33     3.00000000E+03   # M_tauL              
        34     3.00000000E+03   # M_eR                
        35     3.00000000E+03   # M_muR               
        36     3.00000000E+03   # M_tauR              
        41     3.00000000E+03   # M_q1L               
        42     3.00000000E+03   # M_q2L               
        43     8.49899993E+02   # M_q3L               
        44     3.00000000E+03   # M_uR                
        45     3.00000000E+03   # M_cR                
        46     3.00000000E+03   # M_tR                
        47     3.00000000E+03   # M_dR                
        48     3.00000000E+03   # M_sR                
        49     3.00000000E+03   # M_bR                
#
#
#
#                             =================
#                             |The decay table|
#                             =================
#
# - The QCD corrections to the decays gluino -> squark  + quark
#                                     squark -> gaugino + quark_prime
#                                     squark -> squark_prime + Higgs
#                                     squark -> gluino  + quark
#   are included.
#
# - The multi-body decays for the inos, stops and sbottoms are included.
#
# - The loop induced decays for the gluino, neutralinos and stops
#   are included.
#
# - The SUSY decays of the top quark are included.
#
#
#         PDG            Width
DECAY         6     1.40887217E+00   # top decays
#          BR         NDA      ID1       ID2
     1.00000000E+00    2           5        24   # BR(t ->  b    W+)
#
#         PDG            Width
DECAY   1000021     6.66283822E+01   # gluino decays
#          BR         NDA      ID1       ID2
     2.47716629E-01    2     1000005        -5   # BR(~g -> ~b_1  bb)
     2.47716629E-01    2    -1000005         5   # BR(~g -> ~b_1* b )
     2.52283371E-01    2     1000006        -6   # BR(~g -> ~t_1  tb)
     2.52283371E-01    2    -1000006         6   # BR(~g -> ~t_1* t )
#
#         PDG            Width
DECAY   1000006     1.73692263E+00   # stop1 decays
#          BR         NDA      ID1       ID2
     5.41887135E-02    2     1000022         6   # BR(~t_1 -> ~chi_10 t )
     2.05101776E-01    2     1000023         6   # BR(~t_1 -> ~chi_20 t )
     7.40709510E-01    2     1000024         5   # BR(~t_1 -> ~chi_1+ b )
#
#         PDG            Width
DECAY   2000006     1.12573997E+02   # stop2 decays
#          BR         NDA      ID1       ID2
     5.73207533E-02    2     1000022         6   # BR(~t_2 -> ~chi_10 t )
     4.05856434E-04    2     1000023         6   # BR(~t_2 -> ~chi_20 t )
     0.00000000E+00    2     1000025         6   # BR(~t_2 -> ~chi_30 t )
     8.15956237E-04    2     1000024         5   # BR(~t_2 -> ~chi_1+ b )
     6.39951779E-05    2     1000037         5   # BR(~t_2 -> ~chi_2+ b )
     2.96614189E-01    2     1000021         6   # BR(~t_2 -> ~g      t )
     1.70363282E-01    2     1000006        25   # BR(~t_2 -> ~t_1    h )
     1.60340487E-01    2     1000006        23   # BR(~t_2 -> ~t_1    Z )
     3.14075481E-01    2     1000005        24   # BR(~t_2 -> ~b_1    W+)
#
#         PDG            Width
DECAY   1000005     1.53165909E+00   # sbottom1 decays
#          BR         NDA      ID1       ID2
     6.99837080E-02    2     1000022         5   # BR(~b_1 -> ~chi_10 b )
     4.34384662E-01    2     1000023         5   # BR(~b_1 -> ~chi_20 b )
     4.95631630E-01    2    -1000024         6   # BR(~b_1 -> ~chi_1- t )
#
#         PDG            Width
DECAY   2000005     4.19999865E+01   # sbottom2 decays
#          BR         NDA      ID1       ID2
     3.88735037E-02    2     1000022         5   # BR(~b_2 -> ~chi_10 b )
     8.54414786E-08    2     1000023         5   # BR(~b_2 -> ~chi_20 b )
     2.04792720E-05    2     1000025         5   # BR(~b_2 -> ~chi_30 b )
     1.97053518E-05    2     1000035         5   # BR(~b_2 -> ~chi_40 b )
     3.53435007E-10    2    -1000024         6   # BR(~b_2 -> ~chi_1- t )
     8.29983309E-01    2     1000021         5   # BR(~b_2 -> ~g      b )
     2.90175265E-02    2     1000005        25   # BR(~b_2 -> ~b_1    h )
     4.19073773E-02    2     1000005        23   # BR(~b_2 -> ~b_1    Z )
     6.01780134E-02    2     1000006       -24   # BR(~b_2 -> ~t_1    W-)
#
#         PDG            Width
DECAY   1000002     6.68607625E+01   # sup_L decays
#          BR         NDA      ID1       ID2
     6.07288268E-03    2     1000022         2   # BR(~u_L -> ~chi_10 u)
     1.55482758E-01    2     1000023         2   # BR(~u_L -> ~chi_20 u)
     2.32687800E-08    2     1000025         2   # BR(~u_L -> ~chi_30 u)
     7.43914616E-08    2     1000035         2   # BR(~u_L -> ~chi_40 u)
     3.11032486E-01    2     1000024         1   # BR(~u_L -> ~chi_1+ d)
     3.38192637E-08    2     1000037         1   # BR(~u_L -> ~chi_2+ d)
     5.27411743E-01    2     1000021         2   # BR(~u_L -> ~g      u)
#
#         PDG            Width
DECAY   2000002     4.15566881E+01   # sup_R decays
#          BR         NDA      ID1       ID2
     1.57352112E-01    2     1000022         2   # BR(~u_R -> ~chi_10 u)
     1.91223050E-07    2     1000023         2   # BR(~u_R -> ~chi_20 u)
     9.46365090E-09    2     1000025         2   # BR(~u_R -> ~chi_30 u)
     1.75897116E-08    2     1000035         2   # BR(~u_R -> ~chi_40 u)
     8.42647670E-01    2     1000021         2   # BR(~u_R -> ~g      u)
#
#         PDG            Width
DECAY   1000001     6.69132139E+01   # sdown_L decays
#          BR         NDA      ID1       ID2
     6.16281594E-03    2     1000022         1   # BR(~d_L -> ~chi_10 d)
     1.55283627E-01    2     1000023         1   # BR(~d_L -> ~chi_20 d)
     3.90986154E-08    2     1000025         1   # BR(~d_L -> ~chi_30 d)
     1.12856040E-07    2     1000035         1   # BR(~d_L -> ~chi_40 d)
     3.10467315E-01    2    -1000024         2   # BR(~d_L -> ~chi_1- u)
     4.50299610E-07    2    -1000037         2   # BR(~d_L -> ~chi_2- u)
     5.28085640E-01    2     1000021         1   # BR(~d_L -> ~g      d)
#
#         PDG            Width
DECAY   2000001     3.65634617E+01   # sdown_R decays
#          BR         NDA      ID1       ID2
     4.46926653E-02    2     1000022         1   # BR(~d_R -> ~chi_10 d)
     5.43092712E-08    2     1000023         1   # BR(~d_R -> ~chi_20 d)
     2.54420531E-09    2     1000025         1   # BR(~d_R -> ~chi_30 d)
     4.72212016E-09    2     1000035         1   # BR(~d_R -> ~chi_40 d)
     9.55307273E-01    2     1000021         1   # BR(~d_R -> ~g      d)
#
#         PDG            Width
DECAY   1000004     6.68607625E+01   # scharm_L decays
#          BR         NDA      ID1       ID2
     6.07288268E-03    2     1000022         4   # BR(~c_L -> ~chi_10 c)
     1.55482758E-01    2     1000023         4   # BR(~c_L -> ~chi_20 c)
     2.32687800E-08    2     1000025         4   # BR(~c_L -> ~chi_30 c)
     7.43914616E-08    2     1000035         4   # BR(~c_L -> ~chi_40 c)
     3.11032486E-01    2     1000024         3   # BR(~c_L -> ~chi_1+ s)
     3.38192637E-08    2     1000037         3   # BR(~c_L -> ~chi_2+ s)
     5.27411743E-01    2     1000021         4   # BR(~c_L -> ~g      c)
#
#         PDG            Width
DECAY   2000004     4.15566881E+01   # scharm_R decays
#          BR         NDA      ID1       ID2
     1.57352112E-01    2     1000022         4   # BR(~c_R -> ~chi_10 c)
     1.91223050E-07    2     1000023         4   # BR(~c_R -> ~chi_20 c)
     9.46365090E-09    2     1000025         4   # BR(~c_R -> ~chi_30 c)
     1.75897116E-08    2     1000035         4   # BR(~c_R -> ~chi_40 c)
     8.42647670E-01    2     1000021         4   # BR(~c_R -> ~g      c)
#
#         PDG            Width
DECAY   1000003     6.69132139E+01   # sstrange_L decays
#          BR         NDA      ID1       ID2
     6.16281594E-03    2     1000022         3   # BR(~s_L -> ~chi_10 s)
     1.55283627E-01    2     1000023         3   # BR(~s_L -> ~chi_20 s)
     3.90986154E-08    2     1000025         3   # BR(~s_L -> ~chi_30 s)
     1.12856040E-07    2     1000035         3   # BR(~s_L -> ~chi_40 s)
     3.10467315E-01    2    -1000024         4   # BR(~s_L -> ~chi_1- c)
     4.50299610E-07    2    -1000037         4   # BR(~s_L -> ~chi_2- c)
     5.28085640E-01    2     1000021         3   # BR(~s_L -> ~g      s)
#
#         PDG            Width
DECAY   2000003     3.65634617E+01   # sstrange_R decays
#          BR         NDA      ID1       ID2
     4.46926653E-02    2     1000022         3   # BR(~s_R -> ~chi_10 s)
     5.43092712E-08    2     1000023         3   # BR(~s_R -> ~chi_20 s)
     2.54420531E-09    2     1000025         3   # BR(~s_R -> ~chi_30 s)
     4.72212016E-09    2     1000035         3   # BR(~s_R -> ~chi_40 s)
     9.55307273E-01    2     1000021         3   # BR(~s_R -> ~g      s)
#
#         PDG            Width
DECAY   1000011     3.59941920E+01   # selectron_L decays
#          BR         NDA      ID1       ID2
     1.05840261E-01    2     1000022        11   # BR(~e_L -> ~chi_10 e-)
     2.98465457E-01    2     1000023        11   # BR(~e_L -> ~chi_20 e-)
     1.28766120E-09    2     1000025        11   # BR(~e_L -> ~chi_30 e-)
     4.19733835E-09    2     1000035        11   # BR(~e_L -> ~chi_40 e-)
     5.95694240E-01    2    -1000024        12   # BR(~e_L -> ~chi_1- nu_e)
     3.55451838E-08    2    -1000037        12   # BR(~e_L -> ~chi_2- nu_e)
#
#         PDG            Width
DECAY   2000011     1.52546384E+01   # selectron_R decays
#          BR         NDA      ID1       ID2
     9.99998787E-01    2     1000022        11   # BR(~e_R -> ~chi_10 e-)
     1.20962106E-06    2     1000023        11   # BR(~e_R -> ~chi_20 e-)
     1.31789684E-09    2     1000025        11   # BR(~e_R -> ~chi_30 e-)
     1.83306117E-09    2     1000035        11   # BR(~e_R -> ~chi_40 e-)
#
#         PDG            Width
DECAY   1000013     3.59941920E+01   # smuon_L decays
#          BR         NDA      ID1       ID2
     1.05840261E-01    2     1000022        13   # BR(~mu_L -> ~chi_10 mu-)
     2.98465457E-01    2     1000023        13   # BR(~mu_L -> ~chi_20 mu-)
     1.28766120E-09    2     1000025        13   # BR(~mu_L -> ~chi_30 mu-)
     4.19733835E-09    2     1000035        13   # BR(~mu_L -> ~chi_40 mu-)
     5.95694240E-01    2    -1000024        14   # BR(~mu_L -> ~chi_1- nu_mu)
     3.55451838E-08    2    -1000037        14   # BR(~mu_L -> ~chi_2- nu_mu)
#
#         PDG            Width
DECAY   2000013     1.52546384E+01   # smuon_R decays
#          BR         NDA      ID1       ID2
     9.99998787E-01    2     1000022        13   # BR(~mu_R -> ~chi_10 mu-)
     1.20962106E-06    2     1000023        13   # BR(~mu_R -> ~chi_20 mu-)
     1.31789684E-09    2     1000025        13   # BR(~mu_R -> ~chi_30 mu-)
     1.83306117E-09    2     1000035        13   # BR(~mu_R -> ~chi_40 mu-)
#
#         PDG            Width
DECAY   1000015     2.58807856E+01   # stau_1 decays
#          BR         NDA      ID1       ID2
     3.68000169E-01    2     1000022        15   # BR(~tau_1 -> ~chi_10  tau-)
     2.10970205E-01    2     1000023        15   # BR(~tau_1 -> ~chi_20  tau-)
     4.21029626E-01    2    -1000024        16   # BR(~tau_1 -> ~chi_1-  nu_tau)
#
#         PDG            Width
DECAY   2000015     2.53429580E+01   # stau_2 decays
#          BR         NDA      ID1       ID2
     3.76691534E-01    2     1000022        15   # BR(~tau_2 -> ~chi_10  tau-)
     2.08072222E-01    2     1000023        15   # BR(~tau_2 -> ~chi_20  tau-)
     1.47981543E-05    2     1000025        15   # BR(~tau_2 -> ~chi_30  tau-)
     1.63932678E-05    2     1000035        15   # BR(~tau_2 -> ~chi_40  tau-)
     4.15188243E-01    2    -1000024        16   # BR(~tau_2 -> ~chi_1-  nu_tau)
     1.68095792E-05    2    -1000037        16   # BR(~tau_2 -> ~chi_2-  nu_tau)
#
#         PDG            Width
DECAY   1000012     3.59952129E+01   # snu_eL decays
#          BR         NDA      ID1       ID2
     1.06321891E-01    2     1000022        12   # BR(~nu_eL -> ~chi_10 nu_e)
     2.97502879E-01    2     1000023        12   # BR(~nu_eL -> ~chi_20 nu_e)
     4.30370461E-09    2     1000025        12   # BR(~nu_eL -> ~chi_30 nu_e)
     9.66423007E-09    2     1000035        12   # BR(~nu_eL -> ~chi_40 nu_e)
     5.96175213E-01    2     1000024        11   # BR(~nu_eL -> ~chi_1+ e-)
     1.98153215E-09    2     1000037        11   # BR(~nu_eL -> ~chi_2+ e-)
#
#         PDG            Width
DECAY   1000014     3.59952129E+01   # snu_muL decays
#          BR         NDA      ID1       ID2
     1.06321891E-01    2     1000022        14   # BR(~nu_muL -> ~chi_10 nu_mu)
     2.97502879E-01    2     1000023        14   # BR(~nu_muL -> ~chi_20 nu_mu)
     4.30370461E-09    2     1000025        14   # BR(~nu_muL -> ~chi_30 nu_mu)
     9.66423007E-09    2     1000035        14   # BR(~nu_muL -> ~chi_40 nu_mu)
     5.96175213E-01    2     1000024        13   # BR(~nu_muL -> ~chi_1+ mu-)
     1.98153215E-09    2     1000037        13   # BR(~nu_muL -> ~chi_2+ mu-)
#
#         PDG            Width
DECAY   1000016     3.59952368E+01   # snu_tauL decays
#          BR         NDA      ID1       ID2
     1.06313382E-01    2     1000022        16   # BR(~nu_tauL -> ~chi_10 nu_tau)
     2.97474647E-01    2     1000023        16   # BR(~nu_tauL -> ~chi_20 nu_tau)
     4.08825535E-09    2     1000025        16   # BR(~nu_tauL -> ~chi_30 nu_tau)
     9.12354334E-09    2     1000035        16   # BR(~nu_tauL -> ~chi_40 nu_tau)
     5.96210335E-01    2     1000024        15   # BR(~nu_tauL -> ~chi_1+ tau-)
     1.62392605E-06    2     1000037        15   # BR(~nu_tauL -> ~chi_2+ tau-)
#
#         PDG            Width
DECAY   1000024     1.94787612E-04   # chargino1+ decays
#          BR         NDA      ID1       ID2
     1.00000000E+00    2     1000022        24   # BR(~chi_1+ -> ~chi_10  W+)
#
#         PDG            Width
DECAY   1000037     8.14284524E+01   # chargino2+ decays
#          BR         NDA      ID1       ID2
     4.80447690E-02    2     1000006        -5   # BR(~chi_2+ -> ~t_1     bb)
     7.08524666E-01    2    -1000005         6   # BR(~chi_2+ -> ~b_1*    t )
     3.81988474E-07    2    -1000015        16   # BR(~chi_2+ -> ~tau_1+  nu_tau)
     7.27357642E-02    2     1000024        23   # BR(~chi_2+ -> ~chi_1+  Z )
     2.28288107E-02    2     1000022        24   # BR(~chi_2+ -> ~chi_10  W+)
     7.08345575E-02    2     1000023        24   # BR(~chi_2+ -> ~chi_20  W+)
     7.70310501E-02    2     1000024        25   # BR(~chi_2+ -> ~chi_1+  h )
#
#         PDG            Width
DECAY   1000022     0.00000000E+00   # neutralino1 decays
#
#         PDG            Width
DECAY   1000023     1.73827022E-04   # neutralino2 decays
#          BR         NDA      ID1       ID2
     5.59234881E-02    2     1000022        23   # BR(~chi_20 -> ~chi_10   Z )
     9.44076512E-01    2     1000022        25   # BR(~chi_20 -> ~chi_10   h )
#
#         PDG            Width
DECAY   1000025     8.16338484E+01   # neutralino3 decays
#          BR         NDA      ID1       ID2
     1.55610279E-02    2     1000022        23   # BR(~chi_30 -> ~chi_10   Z )
     5.49942426E-02    2     1000023        23   # BR(~chi_30 -> ~chi_20   Z )
     7.05382798E-02    2     1000024       -24   # BR(~chi_30 -> ~chi_1+   W-)
     7.05382798E-02    2    -1000024        24   # BR(~chi_30 -> ~chi_1-   W+)
     8.27415321E-03    2     1000022        25   # BR(~chi_30 -> ~chi_10   h )
     1.77595208E-02    2     1000023        25   # BR(~chi_30 -> ~chi_20   h )
     3.58482662E-01    2     1000006        -6   # BR(~chi_30 -> ~t_1      tb)
     3.58482662E-01    2    -1000006         6   # BR(~chi_30 -> ~t_1*     t )
     2.26842931E-02    2     1000005        -5   # BR(~chi_30 -> ~b_1      bb)
     2.26842931E-02    2    -1000005         5   # BR(~chi_30 -> ~b_1*     b )
     2.93342510E-07    2     1000015       -15   # BR(~chi_30 -> ~tau_1-   tau+)
     2.93342510E-07    2    -1000015        15   # BR(~chi_30 -> ~tau_1+   tau-)
#
#         PDG            Width
DECAY   1000035     8.07865238E+01   # neutralino4 decays
#          BR         NDA      ID1       ID2
     8.06760410E-03    2     1000022        23   # BR(~chi_40 -> ~chi_10   Z )
     1.76483075E-02    2     1000023        23   # BR(~chi_40 -> ~chi_20   Z )
     7.13257241E-02    2     1000024       -24   # BR(~chi_40 -> ~chi_1+   W-)
     7.13257241E-02    2    -1000024        24   # BR(~chi_40 -> ~chi_1-   W+)
     1.63834829E-02    2     1000022        25   # BR(~chi_40 -> ~chi_10   h )
     5.96202757E-02    2     1000023        25   # BR(~chi_40 -> ~chi_20   h )
     3.54827810E-01    2     1000006        -6   # BR(~chi_40 -> ~t_1      tb)
     3.54827810E-01    2    -1000006         6   # BR(~chi_40 -> ~t_1*     t )
     2.29861590E-02    2     1000005        -5   # BR(~chi_40 -> ~b_1      bb)
     2.29861590E-02    2    -1000005         5   # BR(~chi_40 -> ~b_1*     b )
     4.71769717E-07    2     1000015       -15   # BR(~chi_40 -> ~tau_1-   tau+)
     4.71769717E-07    2    -1000015        15   # BR(~chi_40 -> ~tau_1+   tau-)
#
#         PDG            Width
DECAY        25     4.80437667E-03   # h decays
#          BR         NDA      ID1       ID2
     6.71118762E-01    2           5        -5   # BR(h -> b       bb     )
     5.43237313E-02    2         -15        15   # BR(h -> tau+    tau-   )
     1.92307637E-04    2         -13        13   # BR(h -> mu+     mu-    )
     4.08143563E-04    2           3        -3   # BR(h -> s       sb     )
     1.76203810E-02    2           4        -4   # BR(h -> c       cb     )
     5.72784946E-02    2          21        21   # BR(h -> g       g      )
     1.95895228E-03    2          22        22   # BR(h -> gam     gam    )
     1.30027153E-03    2          22        23   # BR(h -> Z       gam    )
     1.74027102E-01    2          24       -24   # BR(h -> W+      W-     )
     2.17718538E-02    2          23        23   # BR(h -> Z       Z      )
#
#         PDG            Width
DECAY        35     1.40719026E+01   # H decays
#          BR         NDA      ID1       ID2
     7.37548053E-01    2           5        -5   # BR(H -> b       bb     )
     1.76718354E-01    2         -15        15   # BR(H -> tau+    tau-   )
     6.24833871E-04    2         -13        13   # BR(H -> mu+     mu-    )
     7.67296195E-04    2           3        -3   # BR(H -> s       sb     )
     2.16485284E-07    2           4        -4   # BR(H -> c       cb     )
     2.15958011E-02    2           6        -6   # BR(H -> t       tb     )
     2.97717941E-05    2          21        21   # BR(H -> g       g      )
     3.53010065E-08    2          22        22   # BR(H -> gam     gam    )
     8.33318230E-09    2          23        22   # BR(H -> Z       gam    )
     3.03818295E-05    2          24       -24   # BR(H -> W+      W-     )
     1.51721906E-05    2          23        23   # BR(H -> Z       Z      )
     7.97908483E-05    2          25        25   # BR(H -> h       h      )
    -1.10005040E-23    2          36        36   # BR(H -> A       A      )
     3.01713959E-18    2          23        36   # BR(H -> Z       A      )
     1.78291402E-03    2     1000024  -1000024   # BR(H -> ~chi_1+ ~chi_1-)
     1.05650383E-04    2     1000022   1000022   # BR(H -> ~chi_10 ~chi_10)
     8.89343992E-04    2     1000023   1000023   # BR(H -> ~chi_20 ~chi_20)
     6.31010045E-04    2     1000022   1000023   # BR(H -> ~chi_10 ~chi_20)
     5.91756869E-02    2     1000006  -1000006   # BR(H -> ~t_1    ~t_1*  )
     5.67911662E-06    2     1000005  -1000005   # BR(H -> ~b_1    ~b_1*  )
#
#         PDG            Width
DECAY        36     1.32555091E+01   # A decays
#          BR         NDA      ID1       ID2
     7.83045447E-01    2           5        -5   # BR(A -> b       bb     )
     1.87598521E-01    2         -15        15   # BR(A -> tau+    tau-   )
     6.63302613E-04    2         -13        13   # BR(A -> mu+     mu-    )
     8.14673351E-04    2           3        -3   # BR(A -> s       sb     )
     2.29889271E-07    2           4        -4   # BR(A -> c       cb     )
     2.29203087E-02    2           6        -6   # BR(A -> t       tb     )
     6.74981177E-05    2          21        21   # BR(A -> g       g      )
     5.37646759E-08    2          22        22   # BR(A -> gam     gam    )
     6.65301792E-08    2          23        22   # BR(A -> Z       gam    )
     3.21300260E-05    2          23        25   # BR(A -> Z       h      )
     2.63041342E-03    2     1000024  -1000024   # BR(A -> ~chi_1+ ~chi_1-)
     1.22685388E-04    2     1000022   1000022   # BR(A -> ~chi_10 ~chi_10)
     1.31194994E-03    2     1000023   1000023   # BR(A -> ~chi_20 ~chi_20)
     7.92719898E-04    2     1000022   1000023   # BR(A -> ~chi_10 ~chi_20)
#
#         PDG            Width
DECAY        37     1.03045659E+01   # H+ decays
#          BR         NDA      ID1       ID2
     1.09756878E-03    2           4        -5   # BR(H+ -> c       bb     )
     2.41395994E-01    2         -15        16   # BR(H+ -> tau+    nu_tau )
     8.53517355E-04    2         -13        14   # BR(H+ -> mu+     nu_mu  )
     7.02442919E-06    2           2        -5   # BR(H+ -> u       bb     )
     5.01593917E-05    2           2        -3   # BR(H+ -> u       sb     )
     1.03193998E-03    2           4        -3   # BR(H+ -> c       sb     )
     7.13931228E-01    2           6        -5   # BR(H+ -> t       bb     )
     4.13953005E-05    2          24        25   # BR(H+ -> W+      h      )
     8.66246616E-14    2          24        36   # BR(H+ -> W+      A      )
     1.87821616E-03    2     1000024   1000022   # BR(H+ -> ~chi_1+ ~chi_10)
     2.38461920E-09    2     1000024   1000023   # BR(H+ -> ~chi_1+ ~chi_20)
     3.97129544E-02    2     1000006  -1000005   # BR(H+ -> ~t_1    ~b_1*  )
