#
#                              ======================
#                              | THE SUSYHIT OUTPUT |
#                              ======================
#
#
#              ------------------------------------------------------
#              |     This is the output of the SUSY-HIT package     |
#              |  created by A.Djouadi, M.Muehlleitner and M.Spira. |
#              |  In case of problems with SUSY-HIT email to        |
#              |           margarete.muehlleitner@kit.edu           |
#              |           michael.spira@psi.ch                     |
#              |           abdelhak.djouadi@cern.ch                 |
#              ------------------------------------------------------
#
#              ------------------------------------------------------
#              |  SUSY Les Houches Accord - MSSM Spectrum + Decays  |
#              |              based on the decay programs           |
#              |                                                    |
#              |                     SDECAY 1.5                     |
#              |                                                    |
#              |  Authors: M.Muhlleitner, A.Djouadi and Y.Mambrini  |
#              |  Ref.:    Comput.Phys.Commun.168(2005)46           |
#              |           [hep-ph/0311167]                         |
#              |                                                    |
#              |                     HDECAY 3.4                     |
#              |                                                    |
#              |  By: A.Djouadi,J.Kalinowski,M.Muhlleitner,M.Spira  |
#              |  Ref.:    Comput.Phys.Commun.108(1998)56           |
#              |           [hep-ph/9704448]                         |
#              |                                                    |
#              |                                                    |
#              |  If not stated otherwise all DRbar couplings and   |
#              |  soft SUSY breaking masses are given at the scale  |
#              |  Q=  0.13069111E+04
#              |                                                    |
#              ------------------------------------------------------
#
#
BLOCK DCINFO  # Decay Program information
     1   SDECAY/HDECAY # decay calculator
     2   1.5  /3.4    # version number
#
BLOCK SPINFO  # Spectrum calculator information
     1    SOFTSUSY    # spectrum calculator                
     2    3.7.3       # version number                     
#
BLOCK MODSEL  # Model selection
     1     0   #  nonUniversal                                     
#
BLOCK SMINPUTS  # Standard Model inputs
         1     1.27934000E+02   # alpha_em^-1(M_Z)^MSbar
         2     1.16639000E-05   # G_F [GeV^-2]
         3     1.17200000E-01   # alpha_S(M_Z)^MSbar
         4     9.11870000E+01   # M_Z pole mass
         5     4.19000000E+00   # mb(mb)^MSbar
         6     1.72500000E+02   # mt pole mass
         7     1.77690000E+00   # mtau pole mass
#
BLOCK MINPAR  # Input parameters - minimal models
         3     2.00000000E+01   # tanb                
#
BLOCK EXTPAR  # Input parameters - non-minimal models
         0    -1.00000000E+00   # Set                 
         1     2.09990000E+02   # M_1(MX)             
         2     2.00000000E+03   # M_2(MX)             
         3     1.80000000E+03   # M_3(MX)             
        11     2.64959179E+03   # At(MX)              
        12     0.00000000E+00   # Ab(MX)              
        13     0.00000000E+00   # Atau(MX)            
        23    -2.60900000E+02   # mu(MX)              
        25     2.00000000E+01   # tan                 
        26     4.00000000E+03   # mA(pole)            
        31     4.00000000E+03   # meL(MX)             
        32     4.00000000E+03   # mmuL(MX)            
        33     4.00000000E+03   # mtauL(MX)           
        34     4.00000000E+03   # meR(MX)             
        35     4.00000000E+03   # mmuR(MX)            
        36     4.00000000E+03   # mtauR(MX)           
        41     4.00000000E+03   # mqL1(MX)            
        42     4.00000000E+03   # mqL2(MX)            
        43     7.59900000E+02   # mqL3(MX)            
        44     4.00000000E+03   # muR(MX)             
        45     4.00000000E+03   # mcR(MX)             
        46     2.26485961E+03   # mtR(MX)             
        47     4.00000000E+03   # mdR(MX)             
        48     4.00000000E+03   # msR(MX)             
        49     4.00000000E+03   # mbR(MX)             
#
BLOCK MASS  # Mass Spectrum
# PDG code           mass       particle
        24     8.04156322E+01   # W+
        25     1.25489323E+02   # h
        35     4.00000672E+03   # H
        36     3.99999692E+03   # A
        37     4.00104167E+03   # H+
         5     4.81337004E+00   # b-quark pole mass calculated from mb(mb)_Msbar
   1000001     4.02604848E+03   # ~d_L
   2000001     4.02260971E+03   # ~d_R
   1000002     4.02539300E+03   # ~u_L
   2000002     4.02368166E+03   # ~u_R
   1000003     4.02604848E+03   # ~s_L
   2000003     4.02260971E+03   # ~s_R
   1000004     4.02539300E+03   # ~c_L
   2000004     4.02368166E+03   # ~c_R
   1000005     8.34221430E+02   # ~b_1
   2000005     4.02542212E+03   # ~b_2
   1000006     8.23151768E+02   # ~t_1
   2000006     2.27843700E+03   # ~t_2
   1000011     4.00475405E+03   # ~e_L
   2000011     4.00316333E+03   # ~e_R
   1000012     4.00363670E+03   # ~nu_eL
   1000013     4.00475405E+03   # ~mu_L
   2000013     4.00316333E+03   # ~mu_R
   1000014     4.00363670E+03   # ~nu_muL
   1000015     4.00494236E+03   # ~tau_1
   2000015     4.00725598E+03   # ~tau_2
   1000016     4.00506354E+03   # ~nu_tauL
   1000021     1.98157515E+03   # ~g
   1000022     2.01746358E+02   # ~chi_10
   1000023    -2.71481019E+02   # ~chi_20
   1000025     2.79871546E+02   # ~chi_30
   1000035     2.05240129E+03   # ~chi_40
   1000024     2.68397897E+02   # ~chi_1+
   1000037     2.05256614E+03   # ~chi_2+
#
BLOCK NMIX  # Neutralino Mixing Matrix
  1  1     8.99195457E-01   # N_11
  1  2    -1.04028579E-02   # N_12
  1  3    -3.52051126E-01   # N_13
  1  4    -2.59613782E-01   # N_14
  2  1    -6.91124704E-02   # N_21
  2  2     2.54709099E-02   # N_22
  2  3    -7.00636971E-01   # N_23
  2  4     7.09705949E-01   # N_24
  3  1     4.32053334E-01   # N_31
  3  2     2.79357174E-02   # N_32
  3  3     6.20610891E-01   # N_33
  3  4     6.53751967E-01   # N_34
  4  1    -9.55894842E-04   # N_41
  4  2     9.99231009E-01   # N_42
  4  3    -3.15611412E-03   # N_43
  4  4    -3.90706567E-02   # N_44
#
BLOCK UMIX  # Chargino Mixing Matrix U
  1  1     4.46860045E-03   # U_11
  1  2     9.99990016E-01   # U_12
  2  1    -9.99990016E-01   # U_21
  2  2     4.46860045E-03   # U_22
#
BLOCK VMIX  # Chargino Mixing Matrix V
  1  1     5.52666890E-02   # V_11
  1  2    -9.98471629E-01   # V_12
  2  1    -9.98471629E-01   # V_21
  2  2    -5.52666890E-02   # V_22
#
BLOCK STOPMIX  # Stop Mixing Matrix
  1  1     9.96278831E-01   # cos(theta_t)
  1  2    -8.61886936E-02   # sin(theta_t)
  2  1     8.61886936E-02   # -sin(theta_t)
  2  2     9.96278831E-01   # cos(theta_t)
#
BLOCK SBOTMIX  # Sbottom Mixing Matrix
  1  1     9.99999663E-01   # cos(theta_b)
  1  2    -8.20974961E-04   # sin(theta_b)
  2  1     8.20974961E-04   # -sin(theta_b)
  2  2     9.99999663E-01   # cos(theta_b)
#
BLOCK STAUMIX  # Stau Mixing Matrix
  1  1    -7.05379479E-01   # cos(theta_tau)
  1  2     7.08829874E-01   # sin(theta_tau)
  2  1    -7.08829874E-01   # -sin(theta_tau)
  2  2    -7.05379479E-01   # cos(theta_tau)
#
BLOCK ALPHA  # Higgs mixing
          -5.00289455E-02   # Mixing angle in the neutral Higgs boson sector
#
BLOCK HMIX Q=  1.30691115E+03  # DRbar Higgs Parameters
         1    -2.60900000E+02   # mu(Q)MSSM           
         2     2.00000000E+01   # tan                 
         3     2.43657030E+02   # higgs               
         4     1.61313104E+07   # mA^2(Q)MSSM         
#
BLOCK GAUGE Q=  1.30691115E+03  # The gauge couplings
     1     3.61990317E-01   # gprime(Q) DRbar
     2     6.36550021E-01   # g(Q) DRbar
     3     1.03009424E+00   # g3(Q) DRbar
#
BLOCK AU Q=  1.30691115E+03  # The trilinear couplings
  1  1     1.38162301E-06   # A_u(Q) DRbar
  2  2     1.38163632E-06   # A_c(Q) DRbar
  3  3     2.64959179E+03   # A_t(Q) DRbar
#
BLOCK AD Q=  1.30691115E+03  # The trilinear couplings
  1  1     5.07218199E-07   # A_d(Q) DRbar
  2  2     5.07265631E-07   # A_s(Q) DRbar
  3  3     9.08202098E-07   # A_b(Q) DRbar
#
BLOCK AE Q=  1.30691115E+03  # The trilinear couplings
  1  1     0.00000000E+00   # A_e(Q) DRbar
  2  2     1.09745346E-07   # A_mu(Q) DRbar
  3  3     1.10865685E-07   # A_tau(Q) DRbar
#
BLOCK Yu Q=  1.30691115E+03  # The Yukawa couplings
  1  1     0.00000000E+00   # y_u(Q) DRbar
  2  2     0.00000000E+00   # y_c(Q) DRbar
  3  3     8.66254504E-01   # y_t(Q) DRbar
#
BLOCK Yd Q=  1.30691115E+03  # The Yukawa couplings
  1  1     0.00000000E+00   # y_d(Q) DRbar
  2  2     0.00000000E+00   # y_s(Q) DRbar
  3  3     2.81853329E-01   # y_b(Q) DRbar
#
BLOCK Ye Q=  1.30691115E+03  # The Yukawa couplings
  1  1     0.00000000E+00   # y_e(Q) DRbar
  2  2     0.00000000E+00   # y_mu(Q) DRbar
  3  3     2.03670372E-01   # y_tau(Q) DRbar
#
BLOCK MSOFT Q=  1.30691115E+03  # The soft SUSY breaking masses at the scale Q
         1     2.09990000E+02   # M_1(Q)              
         2     2.00000000E+03   # M_2(Q)              
         3     1.80000000E+03   # M_3(Q)              
        21     1.58221875E+07   # M^2_Hd              
        22    -7.21365648E+04   # M^2_Hu              
        31     4.00000000E+03   # M_eL                
        32     4.00000000E+03   # M_muL               
        33     4.00000000E+03   # M_tauL              
        34     4.00000000E+03   # M_eR                
        35     4.00000000E+03   # M_muR               
        36     4.00000000E+03   # M_tauR              
        41     4.00000000E+03   # M_q1L               
        42     4.00000000E+03   # M_q2L               
        43     7.59899996E+02   # M_q3L               
        44     4.00000000E+03   # M_uR                
        45     4.00000000E+03   # M_cR                
        46     2.26485961E+03   # M_tR                
        47     4.00000000E+03   # M_dR                
        48     4.00000000E+03   # M_sR                
        49     4.00000000E+03   # M_bR                
#
#
#
#                             =================
#                             |The decay table|
#                             =================
#
# - The QCD corrections to the decays gluino -> squark  + quark
#                                     squark -> gaugino + quark_prime
#                                     squark -> squark_prime + Higgs
#                                     squark -> gluino  + quark
#   are included.
#
# - The multi-body decays for the inos, stops and sbottoms are included.
#
# - The loop induced decays for the gluino, neutralinos and stops
#   are included.
#
# - The SUSY decays of the top quark are included.
#
#
#         PDG            Width
DECAY         6     1.40582803E+00   # top decays
#          BR         NDA      ID1       ID2
     1.00000000E+00    2           5        24   # BR(t ->  b    W+)
#
#         PDG            Width
DECAY   1000021     5.73715027E+01   # gluino decays
#          BR         NDA      ID1       ID2
     2.44973986E-01    2     1000005        -5   # BR(~g -> ~b_1  bb)
     2.44973986E-01    2    -1000005         5   # BR(~g -> ~b_1* b )
     2.55026014E-01    2     1000006        -6   # BR(~g -> ~t_1  tb)
     2.55026014E-01    2    -1000006         6   # BR(~g -> ~t_1* t )
#
#         PDG            Width
DECAY   1000006     9.80861602E+00   # stop1 decays
#          BR         NDA      ID1       ID2
     6.90177558E-02    2     1000022         6   # BR(~t_1 -> ~chi_10 t )
     4.36897534E-01    2     1000023         6   # BR(~t_1 -> ~chi_20 t )
     3.89617214E-01    2     1000025         6   # BR(~t_1 -> ~chi_30 t )
     1.04467497E-01    2     1000024         5   # BR(~t_1 -> ~chi_1+ b )
#
#         PDG            Width
DECAY   2000006     1.36659005E+02   # stop2 decays
#          BR         NDA      ID1       ID2
     4.66409086E-02    2     1000022         6   # BR(~t_2 -> ~chi_10 t )
     1.18422949E-01    2     1000023         6   # BR(~t_2 -> ~chi_20 t )
     1.03527009E-01    2     1000025         6   # BR(~t_2 -> ~chi_30 t )
     8.62050973E-08    2     1000035         6   # BR(~t_2 -> ~chi_40 t )
     2.33698689E-01    2     1000024         5   # BR(~t_2 -> ~chi_1+ b )
    -5.90527999E-08    2     1000037         5   # BR(~t_2 -> ~chi_2+ b )
     7.12536207E-02    2     1000021         6   # BR(~t_2 -> ~g      t )
     1.36004869E-01    2     1000006        25   # BR(~t_2 -> ~t_1    h )
     9.31819647E-02    2     1000006        23   # BR(~t_2 -> ~t_1    Z )
     1.97269963E-01    2     1000005        24   # BR(~t_2 -> ~b_1    W+)
#
#         PDG            Width
DECAY   1000005     1.01481919E+01   # sbottom1 decays
#          BR         NDA      ID1       ID2
     2.39001382E-02    2     1000022         5   # BR(~b_1 -> ~chi_10 b )
     5.02268209E-02    2     1000023         5   # BR(~b_1 -> ~chi_20 b )
     3.92065672E-02    2     1000025         5   # BR(~b_1 -> ~chi_30 b )
     8.86666474E-01    2    -1000024         6   # BR(~b_1 -> ~chi_1- t )
#
#         PDG            Width
DECAY   2000005     1.66817372E+02   # sbottom2 decays
#          BR         NDA      ID1       ID2
     1.53047864E-02    2     1000022         5   # BR(~b_2 -> ~chi_10 b )
     1.77526419E-02    2     1000023         5   # BR(~b_2 -> ~chi_20 b )
     1.63690593E-02    2     1000025         5   # BR(~b_2 -> ~chi_30 b )
     3.81375304E-07    2     1000035         5   # BR(~b_2 -> ~chi_40 b )
     3.59325868E-02    2    -1000024         6   # BR(~b_2 -> ~chi_1- t )
     7.48638689E-07    2    -1000037         6   # BR(~b_2 -> ~chi_2- t )
     9.14316429E-01    2     1000021         5   # BR(~b_2 -> ~g      b )
     7.22560428E-05    2     1000005        25   # BR(~b_2 -> ~b_1    h )
     9.33971347E-05    2     1000005        23   # BR(~b_2 -> ~b_1    Z )
     1.57468832E-04    2     1000006       -24   # BR(~b_2 -> ~t_1    W-)
     2.44058618E-07    2     2000006       -24   # BR(~b_2 -> ~t_2    W-)
#
#         PDG            Width
DECAY   1000002     1.78970063E+02   # sup_L decays
#          BR         NDA      ID1       ID2
     2.22632389E-03    2     1000022         2   # BR(~u_L -> ~chi_10 u)
     1.32487600E-05    2     1000023         2   # BR(~u_L -> ~chi_20 u)
     1.04394654E-03    2     1000025         2   # BR(~u_L -> ~chi_30 u)
     4.80150919E-02    2     1000035         2   # BR(~u_L -> ~chi_40 u)
     5.29021612E-04    2     1000024         1   # BR(~u_L -> ~chi_1+ d)
     9.59083175E-02    2     1000037         1   # BR(~u_L -> ~chi_2+ d)
     8.52264050E-01    2     1000021         2   # BR(~u_L -> ~g      u)
#
#         PDG            Width
DECAY   2000002     1.61313493E+02   # sup_R decays
#          BR         NDA      ID1       ID2
     4.48049718E-02    2     1000022         2   # BR(~u_R -> ~chi_10 u)
     2.63675231E-04    2     1000023         2   # BR(~u_R -> ~chi_20 u)
     1.02990055E-02    2     1000025         2   # BR(~u_R -> ~chi_30 u)
     2.80088828E-08    2     1000035         2   # BR(~u_R -> ~chi_40 u)
     9.44632319E-01    2     1000021         2   # BR(~u_R -> ~g      u)
#
#         PDG            Width
DECAY   1000001     1.78990570E+02   # sdown_L decays
#          BR         NDA      ID1       ID2
     2.84292996E-03    2     1000022         1   # BR(~d_L -> ~chi_10 d)
     1.28823276E-04    2     1000023         1   # BR(~d_L -> ~chi_20 d)
     2.52012604E-04    2     1000025         1   # BR(~d_L -> ~chi_30 d)
     4.80632271E-02    2     1000035         1   # BR(~d_L -> ~chi_40 d)
     3.45870125E-06    2    -1000024         2   # BR(~d_L -> ~chi_1- u)
     9.62268593E-02    2    -1000037         2   # BR(~d_L -> ~chi_2- u)
     8.52482689E-01    2     1000021         1   # BR(~d_L -> ~g      d)
#
#         PDG            Width
DECAY   2000001     1.54521622E+02   # sdown_R decays
#          BR         NDA      ID1       ID2
     1.16903801E-02    2     1000022         1   # BR(~d_R -> ~chi_10 d)
     6.87972182E-05    2     1000023         1   # BR(~d_R -> ~chi_20 d)
     2.68717969E-03    2     1000025         1   # BR(~d_R -> ~chi_30 d)
     7.30531446E-09    2     1000035         1   # BR(~d_R -> ~chi_40 d)
     9.85553636E-01    2     1000021         1   # BR(~d_R -> ~g      d)
#
#         PDG            Width
DECAY   1000004     1.78970063E+02   # scharm_L decays
#          BR         NDA      ID1       ID2
     2.22632389E-03    2     1000022         4   # BR(~c_L -> ~chi_10 c)
     1.32487600E-05    2     1000023         4   # BR(~c_L -> ~chi_20 c)
     1.04394654E-03    2     1000025         4   # BR(~c_L -> ~chi_30 c)
     4.80150919E-02    2     1000035         4   # BR(~c_L -> ~chi_40 c)
     5.29021612E-04    2     1000024         3   # BR(~c_L -> ~chi_1+ s)
     9.59083175E-02    2     1000037         3   # BR(~c_L -> ~chi_2+ s)
     8.52264050E-01    2     1000021         4   # BR(~c_L -> ~g      c)
#
#         PDG            Width
DECAY   2000004     1.61313493E+02   # scharm_R decays
#          BR         NDA      ID1       ID2
     4.48049718E-02    2     1000022         4   # BR(~c_R -> ~chi_10 c)
     2.63675231E-04    2     1000023         4   # BR(~c_R -> ~chi_20 c)
     1.02990055E-02    2     1000025         4   # BR(~c_R -> ~chi_30 c)
     2.80088828E-08    2     1000035         4   # BR(~c_R -> ~chi_40 c)
     9.44632319E-01    2     1000021         4   # BR(~c_R -> ~g      c)
#
#         PDG            Width
DECAY   1000003     1.78990570E+02   # sstrange_L decays
#          BR         NDA      ID1       ID2
     2.84292996E-03    2     1000022         3   # BR(~s_L -> ~chi_10 s)
     1.28823276E-04    2     1000023         3   # BR(~s_L -> ~chi_20 s)
     2.52012604E-04    2     1000025         3   # BR(~s_L -> ~chi_30 s)
     4.80632271E-02    2     1000035         3   # BR(~s_L -> ~chi_40 s)
     3.45870125E-06    2    -1000024         4   # BR(~s_L -> ~chi_1- c)
     9.62268593E-02    2    -1000037         4   # BR(~s_L -> ~chi_2- c)
     8.52482689E-01    2     1000021         3   # BR(~s_L -> ~g      s)
#
#         PDG            Width
DECAY   2000003     1.54521622E+02   # sstrange_R decays
#          BR         NDA      ID1       ID2
     1.16903801E-02    2     1000022         3   # BR(~s_R -> ~chi_10 s)
     6.87972182E-05    2     1000023         3   # BR(~s_R -> ~chi_20 s)
     2.68717969E-03    2     1000025         3   # BR(~s_R -> ~chi_30 s)
     7.30531446E-09    2     1000035         3   # BR(~s_R -> ~chi_40 s)
     9.85553636E-01    2     1000021         3   # BR(~s_R -> ~g      s)
#
#         PDG            Width
DECAY   1000011     3.15329581E+01   # selectron_L decays
#          BR         NDA      ID1       ID2
     1.27806687E-01    2     1000022        11   # BR(~e_L -> ~chi_10 e-)
     9.70339175E-05    2     1000023        11   # BR(~e_L -> ~chi_20 e-)
     3.79545088E-02    2     1000025        11   # BR(~e_L -> ~chi_30 e-)
     2.77578689E-01    2     1000035        11   # BR(~e_L -> ~chi_40 e-)
     2.02599893E-05    2    -1000024        12   # BR(~e_L -> ~chi_1- nu_e)
     5.56542821E-01    2    -1000037        12   # BR(~e_L -> ~chi_2- nu_e)
#
#         PDG            Width
DECAY   2000011     2.07471457E+01   # selectron_R decays
#          BR         NDA      ID1       ID2
     8.09279117E-01    2     1000022        11   # BR(~e_R -> ~chi_10 e-)
     4.76110652E-03    2     1000023        11   # BR(~e_R -> ~chi_20 e-)
     1.85959277E-01    2     1000025        11   # BR(~e_R -> ~chi_30 e-)
     4.99486640E-07    2     1000035        11   # BR(~e_R -> ~chi_40 e-)
#
#         PDG            Width
DECAY   1000013     3.15329581E+01   # smuon_L decays
#          BR         NDA      ID1       ID2
     1.27806687E-01    2     1000022        13   # BR(~mu_L -> ~chi_10 mu-)
     9.70339175E-05    2     1000023        13   # BR(~mu_L -> ~chi_20 mu-)
     3.79545088E-02    2     1000025        13   # BR(~mu_L -> ~chi_30 mu-)
     2.77578689E-01    2     1000035        13   # BR(~mu_L -> ~chi_40 mu-)
     2.02599893E-05    2    -1000024        14   # BR(~mu_L -> ~chi_1- nu_mu)
     5.56542821E-01    2    -1000037        14   # BR(~mu_L -> ~chi_2- nu_mu)
#
#         PDG            Width
DECAY   2000013     2.07471457E+01   # smuon_R decays
#          BR         NDA      ID1       ID2
     8.09279117E-01    2     1000022        13   # BR(~mu_R -> ~chi_10 mu-)
     4.76110652E-03    2     1000023        13   # BR(~mu_R -> ~chi_20 mu-)
     1.85959277E-01    2     1000025        13   # BR(~mu_R -> ~chi_30 mu-)
     4.99486640E-07    2     1000035        13   # BR(~mu_R -> ~chi_40 mu-)
#
#         PDG            Width
DECAY   1000015     3.10779865E+01   # stau_1 decays
#          BR         NDA      ID1       ID2
     3.92152071E-01    2     1000022        15   # BR(~tau_1 -> ~chi_10  tau-)
     4.28026809E-02    2     1000023        15   # BR(~tau_1 -> ~chi_20  tau-)
     9.06695788E-02    2     1000025        15   # BR(~tau_1 -> ~chi_30  tau-)
     1.39747363E-01    2     1000035        15   # BR(~tau_1 -> ~chi_40  tau-)
     5.44356692E-02    2    -1000024        16   # BR(~tau_1 -> ~chi_1-  nu_tau)
     2.80192637E-01    2    -1000037        16   # BR(~tau_1 -> ~chi_2-  nu_tau)
#
#         PDG            Width
DECAY   2000015     3.10705400E+01   # stau_2 decays
#          BR         NDA      ID1       ID2
     3.04517614E-01    2     1000022        15   # BR(~tau_2 -> ~chi_10  tau-)
     6.39832773E-02    2     1000023        15   # BR(~tau_2 -> ~chi_20  tau-)
     1.53288277E-01    2     1000025        15   # BR(~tau_2 -> ~chi_30  tau-)
     1.42160734E-01    2     1000035        15   # BR(~tau_2 -> ~chi_40  tau-)
     5.10198493E-02    2    -1000024        16   # BR(~tau_2 -> ~chi_1-  nu_tau)
     2.85030248E-01    2    -1000037        16   # BR(~tau_2 -> ~chi_2-  nu_tau)
#
#         PDG            Width
DECAY   1000012     3.15434999E+01   # snu_eL decays
#          BR         NDA      ID1       ID2
     1.38558074E-01    2     1000022        12   # BR(~nu_eL -> ~chi_10 nu_e)
     2.12667603E-03    2     1000023        12   # BR(~nu_eL -> ~chi_20 nu_e)
     2.40226445E-02    2     1000025        12   # BR(~nu_eL -> ~chi_30 nu_e)
     2.77902260E-01    2     1000035        12   # BR(~nu_eL -> ~chi_40 nu_e)
     3.09709493E-03    2     1000024        11   # BR(~nu_eL -> ~chi_1+ e-)
     5.54293250E-01    2     1000037        11   # BR(~nu_eL -> ~chi_2+ e-)
#
#         PDG            Width
DECAY   1000014     3.15434999E+01   # snu_muL decays
#          BR         NDA      ID1       ID2
     1.38558074E-01    2     1000022        14   # BR(~nu_muL -> ~chi_10 nu_mu)
     2.12667603E-03    2     1000023        14   # BR(~nu_muL -> ~chi_20 nu_mu)
     2.40226445E-02    2     1000025        14   # BR(~nu_muL -> ~chi_30 nu_mu)
     2.77902260E-01    2     1000035        14   # BR(~nu_muL -> ~chi_40 nu_mu)
     3.09709493E-03    2     1000024        13   # BR(~nu_muL -> ~chi_1+ mu-)
     5.54293250E-01    2     1000037        13   # BR(~nu_muL -> ~chi_2+ mu-)
#
#         PDG            Width
DECAY   1000016     3.48436587E+01   # snu_tauL decays
#          BR         NDA      ID1       ID2
     1.25479936E-01    2     1000022        16   # BR(~nu_tauL -> ~chi_10 nu_tau)
     1.92595028E-03    2     1000023        16   # BR(~nu_tauL -> ~chi_20 nu_tau)
     2.17552826E-02    2     1000025        16   # BR(~nu_tauL -> ~chi_30 nu_tau)
     2.51798712E-01    2     1000035        16   # BR(~nu_tauL -> ~chi_40 nu_tau)
     9.68121766E-02    2     1000024        15   # BR(~nu_tauL -> ~chi_1+ tau-)
     5.02227943E-01    2     1000037        15   # BR(~nu_tauL -> ~chi_2+ tau-)
#
#         PDG            Width
DECAY   1000024     3.89449475E-04   # chargino1+ decays
#           BR         NDA      ID1       ID2       ID3
     3.33448596E-01    3     1000022         2        -1   # BR(~chi_1+ -> ~chi_10 u    db)
     3.33448596E-01    3     1000022         4        -3   # BR(~chi_1+ -> ~chi_10 c    sb)
     1.11150380E-01    3     1000022       -11        12   # BR(~chi_1+ -> ~chi_10 e+   nu_e)
     1.11150380E-01    3     1000022       -13        14   # BR(~chi_1+ -> ~chi_10 mu+  nu_mu)
     1.10802048E-01    3     1000022       -15        16   # BR(~chi_1+ -> ~chi_10 tau+ nu_tau)
#
#         PDG            Width
DECAY   1000037     5.63563773E+01   # chargino2+ decays
#          BR         NDA      ID1       ID2
     3.65433975E-01    2     1000006        -5   # BR(~chi_2+ -> ~t_1     bb)
     3.52761553E-01    2    -1000005         6   # BR(~chi_2+ -> ~b_1*    t )
     7.16020706E-02    2     1000024        23   # BR(~chi_2+ -> ~chi_1+  Z )
     8.02264961E-03    2     1000022        24   # BR(~chi_2+ -> ~chi_10  W+)
     6.99863706E-02    2     1000023        24   # BR(~chi_2+ -> ~chi_20  W+)
     6.14744086E-02    2     1000025        24   # BR(~chi_2+ -> ~chi_30  W+)
     7.07189727E-02    2     1000024        25   # BR(~chi_2+ -> ~chi_1+  h )
#
#         PDG            Width
DECAY   1000022     0.00000000E+00   # neutralino1 decays
#
#         PDG            Width
DECAY   1000023     3.21665861E-04   # neutralino2 decays
#          BR         NDA      ID1       ID2
     4.46458235E-04    2     1000022        22   # BR(~chi_20 -> ~chi_10 gam)
#           BR         NDA      ID1       ID2       ID3
     1.17476334E-01    3     1000022        -2         2   # BR(~chi_20 -> ~chi_10 ub      u)
     1.52373457E-01    3     1000022        -1         1   # BR(~chi_20 -> ~chi_10 db      d)
     1.17476334E-01    3     1000022        -4         4   # BR(~chi_20 -> ~chi_10 cb      c)
     1.52373457E-01    3     1000022        -3         3   # BR(~chi_20 -> ~chi_10 sb      s)
     1.45733309E-01    3     1000022        -5         5   # BR(~chi_20 -> ~chi_10 bb      b)
     3.49335384E-02    3     1000022       -11        11   # BR(~chi_20 -> ~chi_10 e+      e-)
     3.49335384E-02    3     1000022       -13        13   # BR(~chi_20 -> ~chi_10 mu+     mu-)
     3.47210408E-02    3     1000022       -15        15   # BR(~chi_20 -> ~chi_10 tau+    tau-)
     6.98435676E-02    3     1000022       -12        12   # BR(~chi_20 -> ~chi_10 nu_eb   nu_e)
     6.98435676E-02    3     1000022       -14        14   # BR(~chi_20 -> ~chi_10 nu_mub  nu_mu)
     6.98435651E-02    3     1000022       -16        16   # BR(~chi_20 -> ~chi_10 nu_taub nu_tau)
     3.35745611E-07    3     1000024        -2         1   # BR(~chi_20 -> ~chi_1+ ub      d)
     3.35745611E-07    3    -1000024        -1         2   # BR(~chi_20 -> ~chi_1- db      u)
     3.35745611E-07    3     1000024        -4         3   # BR(~chi_20 -> ~chi_1+ cb      s)
     3.35745611E-07    3    -1000024        -3         4   # BR(~chi_20 -> ~chi_1- sb      c)
     1.11915349E-07    3     1000024       -12        11   # BR(~chi_20 -> ~chi_1+ nu_eb   e-)
     1.11915349E-07    3    -1000024        12       -11   # BR(~chi_20 -> ~chi_1- nu_e    e+)
     1.11915349E-07    3     1000024       -14        13   # BR(~chi_20 -> ~chi_1+ nu_mub  mu-)
     1.11915349E-07    3    -1000024        14       -13   # BR(~chi_20 -> ~chi_1- nu_mu   mu+)
     2.07348206E-08    3     1000024       -16        15   # BR(~chi_20 -> ~chi_1+ nu_taub tau-)
     2.07348206E-08    3    -1000024        16       -15   # BR(~chi_20 -> ~chi_1- nu_tau  tau+)
#
#         PDG            Width
DECAY   1000025     4.26082352E-05   # neutralino3 decays
#          BR         NDA      ID1       ID2
     1.63114444E-03    2     1000022        22   # BR(~chi_30 -> ~chi_10 gam)
     1.64916124E-05    2     1000023        22   # BR(~chi_30 -> ~chi_20 gam)
#           BR         NDA      ID1       ID2       ID3
     1.16150597E-01    3     1000022        -2         2   # BR(~chi_30 -> ~chi_10 ub      u)
     1.50439616E-01    3     1000022        -1         1   # BR(~chi_30 -> ~chi_10 db      d)
     1.16150597E-01    3     1000022        -4         4   # BR(~chi_30 -> ~chi_10 cb      c)
     1.50439616E-01    3     1000022        -3         3   # BR(~chi_30 -> ~chi_10 sb      s)
     1.46110213E-01    3     1000022        -5         5   # BR(~chi_30 -> ~chi_10 bb      b)
     3.43169527E-02    3     1000022       -11        11   # BR(~chi_30 -> ~chi_10 e+      e-)
     3.43169527E-02    3     1000022       -13        13   # BR(~chi_30 -> ~chi_10 mu+     mu-)
     3.42012044E-02    3     1000022       -15        15   # BR(~chi_30 -> ~chi_10 tau+    tau-)
     6.90328418E-02    3     1000022       -12        12   # BR(~chi_30 -> ~chi_10 nu_eb   nu_e)
     6.90328418E-02    3     1000022       -14        14   # BR(~chi_30 -> ~chi_10 nu_mub  nu_mu)
     6.90327943E-02    3     1000022       -16        16   # BR(~chi_30 -> ~chi_10 nu_taub nu_tau)
     8.89818925E-05    3     1000023        -2         2   # BR(~chi_30 -> ~chi_20 ub      u)
     1.15420375E-04    3     1000023        -1         1   # BR(~chi_30 -> ~chi_20 db      d)
     8.89818925E-05    3     1000023        -4         4   # BR(~chi_30 -> ~chi_20 cb      c)
     1.15420375E-04    3     1000023        -3         3   # BR(~chi_30 -> ~chi_20 sb      s)
     2.64653366E-05    3     1000023       -11        11   # BR(~chi_30 -> ~chi_20 e+      e-)
     2.64653366E-05    3     1000023       -13        13   # BR(~chi_30 -> ~chi_20 mu+     mu-)
     1.97758945E-05    3     1000023       -15        15   # BR(~chi_30 -> ~chi_20 tau+    tau-)
     5.29012260E-05    3     1000023       -12        12   # BR(~chi_30 -> ~chi_20 nu_eb   nu_e)
     5.29012260E-05    3     1000023       -14        14   # BR(~chi_30 -> ~chi_20 nu_mub  nu_mu)
     5.29012264E-05    3     1000023       -16        16   # BR(~chi_30 -> ~chi_20 nu_taub nu_tau)
     1.43216310E-03    3     1000024        -2         1   # BR(~chi_30 -> ~chi_1+ ub      d)
     1.43216310E-03    3    -1000024        -1         2   # BR(~chi_30 -> ~chi_1- db      u)
     1.43216310E-03    3     1000024        -4         3   # BR(~chi_30 -> ~chi_1+ cb      s)
     1.43216310E-03    3    -1000024        -3         4   # BR(~chi_30 -> ~chi_1- sb      c)
     4.77383839E-04    3     1000024       -12        11   # BR(~chi_30 -> ~chi_1+ nu_eb   e-)
     4.77383839E-04    3    -1000024        12       -11   # BR(~chi_30 -> ~chi_1- nu_e    e+)
     4.77383839E-04    3     1000024       -14        13   # BR(~chi_30 -> ~chi_1+ nu_mub  mu-)
     4.77383839E-04    3    -1000024        14       -13   # BR(~chi_30 -> ~chi_1- nu_mu   mu+)
     4.24867203E-04    3     1000024       -16        15   # BR(~chi_30 -> ~chi_1+ nu_taub tau-)
     4.24867203E-04    3    -1000024        16       -15   # BR(~chi_30 -> ~chi_1- nu_tau  tau+)
#
#         PDG            Width
DECAY   1000035     5.63444267E+01   # neutralino4 decays
#          BR         NDA      ID1       ID2
     3.90423781E-03    2     1000022        23   # BR(~chi_40 -> ~chi_10   Z )
     4.17723643E-02    2     1000023        23   # BR(~chi_40 -> ~chi_20   Z )
     2.59171262E-02    2     1000025        23   # BR(~chi_40 -> ~chi_30   Z )
     6.98130264E-02    2     1000024       -24   # BR(~chi_40 -> ~chi_1+   W-)
     6.98130264E-02    2    -1000024        24   # BR(~chi_40 -> ~chi_1-   W+)
     4.26690383E-03    2     1000022        25   # BR(~chi_40 -> ~chi_10   h )
     2.95668170E-02    2     1000023        25   # BR(~chi_40 -> ~chi_20   h )
     3.66974148E-02    2     1000025        25   # BR(~chi_40 -> ~chi_30   h )
     1.78889463E-01    2     1000006        -6   # BR(~chi_40 -> ~t_1      tb)
     1.78889463E-01    2    -1000006         6   # BR(~chi_40 -> ~t_1*     t )
     1.80235079E-01    2     1000005        -5   # BR(~chi_40 -> ~b_1      bb)
     1.80235079E-01    2    -1000005         5   # BR(~chi_40 -> ~b_1*     b )
#
#         PDG            Width
DECAY        25     4.03040505E-03   # h decays
#          BR         NDA      ID1       ID2
     5.94538775E-01    2           5        -5   # BR(h -> b       bb     )
     6.46256654E-02    2         -15        15   # BR(h -> tau+    tau-   )
     2.28774618E-04    2         -13        13   # BR(h -> mu+     mu-    )
     4.85203955E-04    2           3        -3   # BR(h -> s       sb     )
     2.10712105E-02    2           4        -4   # BR(h -> c       cb     )
     6.89355233E-02    2          21        21   # BR(h -> g       g      )
     2.37384046E-03    2          22        22   # BR(h -> gam     gam    )
     1.62025477E-03    2          22        23   # BR(h -> Z       gam    )
     2.18521414E-01    2          24       -24   # BR(h -> W+      W-     )
     2.75993382E-02    2          23        23   # BR(h -> Z       Z      )
#
#         PDG            Width
DECAY        35     5.46565890E+01   # H decays
#          BR         NDA      ID1       ID2
     3.47940045E-01    2           5        -5   # BR(H -> b       bb     )
     6.06623887E-02    2         -15        15   # BR(H -> tau+    tau-   )
     2.14487514E-04    2         -13        13   # BR(H -> mu+     mu-    )
     2.53701750E-04    2           3        -3   # BR(H -> s       sb     )
     7.11646733E-08    2           4        -4   # BR(H -> c       cb     )
     7.13218192E-03    2           6        -6   # BR(H -> t       tb     )
     9.60418495E-07    2          21        21   # BR(H -> g       g      )
     8.93337007E-11    2          22        22   # BR(H -> gam     gam    )
     1.83133546E-09    2          23        22   # BR(H -> Z       gam    )
     1.90794877E-06    2          24       -24   # BR(H -> W+      W-     )
     9.53313373E-07    2          23        23   # BR(H -> Z       Z      )
     7.29508519E-06    2          25        25   # BR(H -> h       h      )
     1.23569809E-24    2          36        36   # BR(H -> A       A      )
     4.61125194E-20    2          23        36   # BR(H -> Z       A      )
     1.85670953E-03    2     1000024  -1000024   # BR(H -> ~chi_1+ ~chi_1-)
     1.63716219E-01    2     1000024  -1000037   # BR(H -> ~chi_1+ ~chi_2-)
     1.63716219E-01    2     1000037  -1000024   # BR(H -> ~chi_2+ ~chi_1-)
     1.96164452E-02    2     1000022   1000022   # BR(H -> ~chi_10 ~chi_10)
     1.03867646E-03    2     1000023   1000023   # BR(H -> ~chi_20 ~chi_20)
     1.05873963E-02    2     1000025   1000025   # BR(H -> ~chi_30 ~chi_30)
     2.83960546E-02    2     1000022   1000023   # BR(H -> ~chi_10 ~chi_20)
     1.84538674E-02    2     1000022   1000025   # BR(H -> ~chi_10 ~chi_30)
     2.03420681E-02    2     1000022   1000035   # BR(H -> ~chi_10 ~chi_40)
     9.48790088E-03    2     1000023   1000025   # BR(H -> ~chi_20 ~chi_30)
     8.01233459E-02    2     1000023   1000035   # BR(H -> ~chi_20 ~chi_40)
     6.37452792E-02    2     1000025   1000035   # BR(H -> ~chi_30 ~chi_40)
     1.58564031E-04    2     1000006  -1000006   # BR(H -> ~t_1    ~t_1*  )
     1.27356195E-03    2     1000006  -2000006   # BR(H -> ~t_1    ~t_2*  )
     1.27356195E-03    2     2000006  -1000006   # BR(H -> ~t_2    ~t_1*  )
     1.35218782E-07    2     1000005  -1000005   # BR(H -> ~b_1    ~b_1*  )
#
#         PDG            Width
DECAY        36     5.46521112E+01   # A decays
#          BR         NDA      ID1       ID2
     3.47994252E-01    2           5        -5   # BR(A -> b       bb     )
     6.06676865E-02    2         -15        15   # BR(A -> tau+    tau-   )
     2.14506077E-04    2         -13        13   # BR(A -> mu+     mu-    )
     2.53765088E-04    2           3        -3   # BR(A -> s       sb     )
     7.16241827E-08    2           4        -4   # BR(A -> c       cb     )
     7.14579753E-03    2           6        -6   # BR(A -> t       tb     )
     1.46828053E-05    2          21        21   # BR(A -> g       g      )
     5.35326236E-08    2          22        22   # BR(A -> gam     gam    )
     1.61359519E-08    2          23        22   # BR(A -> Z       gam    )
     1.90410117E-06    2          23        25   # BR(A -> Z       h      )
     1.86061640E-03    2     1000024  -1000024   # BR(A -> ~chi_1+ ~chi_1-)
     1.63731750E-01    2     1000024  -1000037   # BR(A -> ~chi_1+ ~chi_2-)
     1.63731750E-01    2     1000037  -1000024   # BR(A -> ~chi_2+ ~chi_1-)
     1.70991432E-02    2     1000022   1000022   # BR(A -> ~chi_10 ~chi_10)
     1.29633915E-03    2     1000023   1000023   # BR(A -> ~chi_20 ~chi_20)
     8.74524516E-03    2     1000025   1000025   # BR(A -> ~chi_30 ~chi_30)
     3.51430692E-02    2     1000022   1000023   # BR(A -> ~chi_10 ~chi_20)
     1.48668335E-02    2     1000022   1000025   # BR(A -> ~chi_10 ~chi_30)
     2.04231456E-02    2     1000022   1000035   # BR(A -> ~chi_10 ~chi_40)
     1.04351638E-02    2     1000023   1000025   # BR(A -> ~chi_20 ~chi_30)
     8.10418732E-02    2     1000023   1000035   # BR(A -> ~chi_20 ~chi_40)
     6.27068999E-02    2     1000025   1000035   # BR(A -> ~chi_30 ~chi_40)
     1.31271742E-03    2     1000006  -2000006   # BR(A -> ~t_1    ~t_2*  )
     1.31271742E-03    2    -1000006   2000006   # BR(A -> ~t_1*   ~t_2   )
#
#         PDG            Width
DECAY        37     5.46684322E+01   # H+ decays
#          BR         NDA      ID1       ID2
     5.57048100E-04    2           4        -5   # BR(H+ -> c       bb     )
     6.06654154E-02    2         -15        16   # BR(H+ -> tau+    nu_tau )
     2.14498046E-04    2         -13        14   # BR(H+ -> mu+     nu_mu  )
     3.56510478E-06    2           2        -5   # BR(H+ -> u       bb     )
     1.21517103E-05    2           2        -3   # BR(H+ -> u       sb     )
     2.49999758E-04    2           4        -3   # BR(H+ -> c       sb     )
     3.54931559E-01    2           6        -5   # BR(H+ -> t       bb     )
     1.90569140E-06    2          24        25   # BR(H+ -> W+      h      )
     2.99602887E-14    2          24        36   # BR(H+ -> W+      A      )
     6.83554178E-02    2     1000024   1000022   # BR(H+ -> ~chi_1+ ~chi_10)
     1.86646022E-05    2     1000024   1000023   # BR(H+ -> ~chi_1+ ~chi_20)
     1.97881483E-02    2     1000024   1000025   # BR(H+ -> ~chi_1+ ~chi_30)
     1.63896102E-01    2     1000024   1000035   # BR(H+ -> ~chi_1+ ~chi_40)
     4.08094515E-02    2     1000037   1000022   # BR(H+ -> ~chi_2+ ~chi_10)
     1.61227510E-01    2     1000037   1000023   # BR(H+ -> ~chi_2+ ~chi_20)
     1.26612813E-01    2     1000037   1000025   # BR(H+ -> ~chi_2+ ~chi_30)
     8.40127167E-05    2     1000006  -1000005   # BR(H+ -> ~t_1    ~b_1*  )
     2.57173631E-03    2     2000006  -1000005   # BR(H+ -> ~t_2    ~b_1*  )
