#
#                              ======================
#                              | THE SUSYHIT OUTPUT |
#                              ======================
#
#
#              ------------------------------------------------------
#              |     This is the output of the SUSY-HIT package     |
#              |  created by A.Djouadi, M.Muehlleitner and M.Spira. |
#              |  In case of problems with SUSY-HIT email to        |
#              |           margarete.muehlleitner@kit.edu           |
#              |           michael.spira@psi.ch                     |
#              |           abdelhak.djouadi@cern.ch                 |
#              ------------------------------------------------------
#
#              ------------------------------------------------------
#              |  SUSY Les Houches Accord - MSSM Spectrum + Decays  |
#              |              based on the decay programs           |
#              |                                                    |
#              |                     SDECAY 1.5                     |
#              |                                                    |
#              |  Authors: M.Muhlleitner, A.Djouadi and Y.Mambrini  |
#              |  Ref.:    Comput.Phys.Commun.168(2005)46           |
#              |           [hep-ph/0311167]                         |
#              |                                                    |
#              |                     HDECAY 3.4                     |
#              |                                                    |
#              |  By: A.Djouadi,J.Kalinowski,M.Muhlleitner,M.Spira  |
#              |  Ref.:    Comput.Phys.Commun.108(1998)56           |
#              |           [hep-ph/9704448]                         |
#              |                                                    |
#              |                                                    |
#              |  If not stated otherwise all DRbar couplings and   |
#              |  soft SUSY breaking masses are given at the scale  |
#              |  Q=  0.12256341E+04
#              |                                                    |
#              ------------------------------------------------------
#
#
BLOCK DCINFO  # Decay Program information
     1   SDECAY/HDECAY # decay calculator
     2   1.5  /3.4    # version number
#
BLOCK SPINFO  # Spectrum calculator information
     1    SOFTSUSY    # spectrum calculator                
     2    3.7.3       # version number                     
#
BLOCK MODSEL  # Model selection
     1     0   #  nonUniversal                                     
#
BLOCK SMINPUTS  # Standard Model inputs
         1     1.27934000E+02   # alpha_em^-1(M_Z)^MSbar
         2     1.16639000E-05   # G_F [GeV^-2]
         3     1.17200000E-01   # alpha_S(M_Z)^MSbar
         4     9.11870000E+01   # M_Z pole mass
         5     4.19000000E+00   # mb(mb)^MSbar
         6     1.72500000E+02   # mt pole mass
         7     1.77690000E+00   # mtau pole mass
#
BLOCK MINPAR  # Input parameters - minimal models
         3     2.00000000E+01   # tanb                
#
BLOCK EXTPAR  # Input parameters - non-minimal models
         0    -1.00000000E+00   # Set                 
         1     2.49900000E+02   # M_1(MX)             
         2     4.99900000E+02   # M_2(MX)             
         3     2.20000000E+03   # M_3(MX)             
        11     2.94338000E+03   # At(MX)              
        12     0.00000000E+00   # Ab(MX)              
        13     0.00000000E+00   # Atau(MX)            
        23     3.00000000E+03   # mu(MX)              
        25     2.00000000E+01   # tan                 
        26     3.00000000E+03   # mA(pole)            
        31     3.00000000E+03   # meL(MX)             
        32     3.00000000E+03   # mmuL(MX)            
        33     3.00000000E+03   # mtauL(MX)           
        34     3.00000000E+03   # meR(MX)             
        35     3.00000000E+03   # mmuR(MX)            
        36     3.00000000E+03   # mtauR(MX)           
        41     3.00000000E+03   # mqL1(MX)            
        42     3.00000000E+03   # mqL2(MX)            
        43     4.99900000E+02   # mqL3(MX)            
        44     3.00000000E+03   # muR(MX)             
        45     3.00000000E+03   # mcR(MX)             
        46     3.00000000E+03   # mtR(MX)             
        47     3.00000000E+03   # mdR(MX)             
        48     3.00000000E+03   # msR(MX)             
        49     3.00000000E+03   # mbR(MX)             
#
BLOCK MASS  # Mass Spectrum
# PDG code           mass       particle
        24     8.04026042E+01   # W+
        25     1.24690257E+02   # h
        35     3.00021671E+03   # H
        36     2.99999955E+03   # A
        37     3.00096230E+03   # H+
         5     4.81337004E+00   # b-quark pole mass calculated from mb(mb)_Msbar
   1000001     3.02379979E+03   # ~d_L
   2000001     3.01870600E+03   # ~d_R
   1000002     3.02288281E+03   # ~u_L
   2000002     3.02067348E+03   # ~u_R
   1000003     3.02379979E+03   # ~s_L
   2000003     3.01870600E+03   # ~s_R
   1000004     3.02288281E+03   # ~c_L
   2000004     3.02067348E+03   # ~c_R
   1000005     5.70164614E+02   # ~b_1
   2000005     3.01819046E+03   # ~b_2
   1000006     5.67222701E+02   # ~t_1
   2000006     3.00153312E+03   # ~t_2
   1000011     3.00653762E+03   # ~e_L
   2000011     3.00114647E+03   # ~e_R
   1000012     3.00514560E+03   # ~nu_eL
   1000013     3.00653762E+03   # ~mu_L
   2000013     3.00114647E+03   # ~mu_R
   1000014     3.00514560E+03   # ~nu_muL
   1000015     2.98576561E+03   # ~tau_1
   2000015     3.02215599E+03   # ~tau_2
   1000016     3.00525037E+03   # ~nu_tauL
   1000021     2.32930004E+03   # ~g
   1000022     2.52278411E+02   # ~chi_10
   1000023     5.26401685E+02   # ~chi_20
   1000025    -3.00218413E+03   # ~chi_30
   1000035     3.00290915E+03   # ~chi_40
   1000024     5.26560429E+02   # ~chi_1+
   1000037     3.00349229E+03   # ~chi_2+
#
BLOCK NMIX  # Neutralino Mixing Matrix
  1  1     9.99886531E-01   # N_11
  1  2    -8.48418978E-04   # N_12
  1  3     1.49094369E-02   # N_13
  1  4    -1.97859298E-03   # N_14
  2  1     1.26072388E-03   # N_21
  2  2     9.99620666E-01   # N_22
  2  3    -2.68996499E-02   # N_23
  2  4     5.77432968E-03   # N_24
  3  1    -9.12812185E-03   # N_31
  3  2     1.49482626E-02   # N_32
  3  3     7.06861149E-01   # N_33
  3  4     7.07135448E-01   # N_34
  4  1    -1.19169594E-02   # N_41
  4  2     2.31160788E-02   # N_42
  4  3     7.06683404E-01   # N_43
  4  4    -7.07051766E-01   # N_44
#
BLOCK UMIX  # Chargino Mixing Matrix U
  1  1     9.99275602E-01   # U_11
  1  2    -3.80561495E-02   # U_12
  2  1     3.80561495E-02   # U_21
  2  2     9.99275602E-01   # U_22
#
BLOCK VMIX  # Chargino Mixing Matrix V
  1  1     9.99966621E-01   # V_11
  1  2    -8.17045986E-03   # V_12
  2  1     8.17045986E-03   # V_21
  2  2     9.99966621E-01   # V_22
#
BLOCK STOPMIX  # Stop Mixing Matrix
  1  1     9.98891097E-01   # cos(theta_t)
  1  2    -4.70805303E-02   # sin(theta_t)
  2  1     4.70805303E-02   # -sin(theta_t)
  2  2     9.98891097E-01   # cos(theta_t)
#
BLOCK SBOTMIX  # Sbottom Mixing Matrix
  1  1     9.99919984E-01   # cos(theta_b)
  1  2     1.26501224E-02   # sin(theta_b)
  2  1    -1.26501224E-02   # -sin(theta_b)
  2  2     9.99919984E-01   # cos(theta_b)
#
BLOCK STAUMIX  # Stau Mixing Matrix
  1  1     7.06929831E-01   # cos(theta_tau)
  1  2     7.07283687E-01   # sin(theta_tau)
  2  1    -7.07283687E-01   # -sin(theta_tau)
  2  2     7.06929831E-01   # cos(theta_tau)
#
BLOCK ALPHA  # Higgs mixing
          -5.01934172E-02   # Mixing angle in the neutral Higgs boson sector
#
BLOCK HMIX Q=  1.22563408E+03  # DRbar Higgs Parameters
         1     3.00000000E+03   # mu(Q)MSSM           
         2     2.00000000E+01   # tan                 
         3     2.44693302E+02   # higgs               
         4     6.56804912E+06   # mA^2(Q)MSSM         
#
BLOCK GAUGE Q=  1.22563408E+03  # The gauge couplings
     1     3.61499066E-01   # gprime(Q) DRbar
     2     6.37517421E-01   # g(Q) DRbar
     3     1.03086503E+00   # g3(Q) DRbar
#
BLOCK AU Q=  1.22563408E+03  # The trilinear couplings
  1  1     1.38440688E-06   # A_u(Q) DRbar
  2  2     1.38442751E-06   # A_c(Q) DRbar
  3  3     2.94338000E+03   # A_t(Q) DRbar
#
BLOCK AD Q=  1.22563408E+03  # The trilinear couplings
  1  1     3.61254285E-07   # A_d(Q) DRbar
  2  2     3.61321705E-07   # A_s(Q) DRbar
  3  3     8.07755137E-07   # A_b(Q) DRbar
#
BLOCK AE Q=  1.22563408E+03  # The trilinear couplings
  1  1     0.00000000E+00   # A_e(Q) DRbar
  2  2     7.56161046E-08   # A_mu(Q) DRbar
  3  3     7.65014424E-08   # A_tau(Q) DRbar
#
BLOCK Yu Q=  1.22563408E+03  # The Yukawa couplings
  1  1     0.00000000E+00   # y_u(Q) DRbar
  2  2     0.00000000E+00   # y_c(Q) DRbar
  3  3     8.56400594E-01   # y_t(Q) DRbar
#
BLOCK Yd Q=  1.22563408E+03  # The Yukawa couplings
  1  1     0.00000000E+00   # y_d(Q) DRbar
  2  2     0.00000000E+00   # y_s(Q) DRbar
  3  3     2.13496938E-01   # y_b(Q) DRbar
#
BLOCK Ye Q=  1.22563408E+03  # The Yukawa couplings
  1  1     0.00000000E+00   # y_e(Q) DRbar
  2  2     0.00000000E+00   # y_mu(Q) DRbar
  3  3     2.06441104E-01   # y_tau(Q) DRbar
#
BLOCK MSOFT Q=  1.22563408E+03  # The soft SUSY breaking masses at the scale Q
         1     2.49900000E+02   # M_1(Q)              
         2     4.99900000E+02   # M_2(Q)              
         3     2.20000000E+03   # M_3(Q)              
        21    -8.93622169E+04   # M^2_Hd              
        22    -9.12794764E+06   # M^2_Hu              
        31     3.00000000E+03   # M_eL                
        32     3.00000000E+03   # M_muL               
        33     3.00000000E+03   # M_tauL              
        34     3.00000000E+03   # M_eR                
        35     3.00000000E+03   # M_muR               
        36     3.00000000E+03   # M_tauR              
        41     3.00000000E+03   # M_q1L               
        42     3.00000000E+03   # M_q2L               
        43     4.99899994E+02   # M_q3L               
        44     3.00000000E+03   # M_uR                
        45     3.00000000E+03   # M_cR                
        46     3.00000000E+03   # M_tR                
        47     3.00000000E+03   # M_dR                
        48     3.00000000E+03   # M_sR                
        49     3.00000000E+03   # M_bR                
#
#
#
#                             =================
#                             |The decay table|
#                             =================
#
# - The QCD corrections to the decays gluino -> squark  + quark
#                                     squark -> gaugino + quark_prime
#                                     squark -> squark_prime + Higgs
#                                     squark -> gluino  + quark
#   are included.
#
# - The multi-body decays for the inos, stops and sbottoms are included.
#
# - The loop induced decays for the gluino, neutralinos and stops
#   are included.
#
# - The SUSY decays of the top quark are included.
#
#
#         PDG            Width
DECAY         6     1.41067663E+00   # top decays
#          BR         NDA      ID1       ID2
     1.00000000E+00    2           5        24   # BR(t ->  b    W+)
#
#         PDG            Width
DECAY   1000021     8.22906409E+01   # gluino decays
#          BR         NDA      ID1       ID2
     2.48254011E-01    2     1000005        -5   # BR(~g -> ~b_1  bb)
     2.48254011E-01    2    -1000005         5   # BR(~g -> ~b_1* b )
     2.51745989E-01    2     1000006        -6   # BR(~g -> ~t_1  tb)
     2.51745989E-01    2    -1000006         6   # BR(~g -> ~t_1* t )
#
#         PDG            Width
DECAY   1000006     1.32140626E-01   # stop1 decays
#          BR         NDA      ID1       ID2
     2.77710634E-01    2     1000022         6   # BR(~t_1 -> ~chi_10 t )
     7.22289366E-01    2     1000024         5   # BR(~t_1 -> ~chi_1+ b )
#
#         PDG            Width
DECAY   2000006     1.05074006E+02   # stop2 decays
#          BR         NDA      ID1       ID2
     6.15745906E-02    2     1000022         6   # BR(~t_2 -> ~chi_10 t )
     3.23841466E-04    2     1000023         6   # BR(~t_2 -> ~chi_20 t )
     0.00000000E+00    2     1000025         6   # BR(~t_2 -> ~chi_30 t )
     6.50624606E-04    2     1000024         5   # BR(~t_2 -> ~chi_1+ b )
     3.20249443E-01    2     1000021         6   # BR(~t_2 -> ~g      t )
     1.64034513E-01    2     1000006        25   # BR(~t_2 -> ~t_1    h )
     1.51818245E-01    2     1000006        23   # BR(~t_2 -> ~t_1    Z )
     3.01348742E-01    2     1000005        24   # BR(~t_2 -> ~b_1    W+)
#
#         PDG            Width
DECAY   1000005     1.11505239E-01   # sbottom1 decays
#          BR         NDA      ID1       ID2
     5.08974041E-01    2     1000022         5   # BR(~b_1 -> ~chi_10 b )
     4.91025959E-01    2     1000023         5   # BR(~b_1 -> ~chi_20 b )
#
#         PDG            Width
DECAY   2000005     4.25695236E+01   # sbottom2 decays
#          BR         NDA      ID1       ID2
     3.84396075E-02    2     1000022         5   # BR(~b_2 -> ~chi_10 b )
     1.16665478E-07    2     1000023         5   # BR(~b_2 -> ~chi_20 b )
     3.71299588E-06    2     1000025         5   # BR(~b_2 -> ~chi_30 b )
     3.47518304E-06    2     1000035         5   # BR(~b_2 -> ~chi_40 b )
     3.64748406E-08    2    -1000024         6   # BR(~b_2 -> ~chi_1- t )
     8.27265530E-01    2     1000021         5   # BR(~b_2 -> ~g      b )
     2.96969793E-02    2     1000005        25   # BR(~b_2 -> ~b_1    h )
     4.28644713E-02    2     1000005        23   # BR(~b_2 -> ~b_1    Z )
     6.17260707E-02    2     1000006       -24   # BR(~b_2 -> ~t_1    W-)
#
#         PDG            Width
DECAY   1000002     6.88819124E+01   # sup_L decays
#          BR         NDA      ID1       ID2
     5.89813067E-03    2     1000022         2   # BR(~u_L -> ~chi_10 u)
     1.59141304E-01    2     1000023         2   # BR(~u_L -> ~chi_20 u)
     6.53631885E-09    2     1000025         2   # BR(~u_L -> ~chi_30 u)
     1.51808606E-08    2     1000035         2   # BR(~u_L -> ~chi_40 u)
     3.18339481E-01    2     1000024         1   # BR(~u_L -> ~chi_1+ d)
     4.39514880E-09    2     1000037         1   # BR(~u_L -> ~chi_2+ d)
     5.16621058E-01    2     1000021         2   # BR(~u_L -> ~g      u)
#
#         PDG            Width
DECAY   2000002     4.19619920E+01   # sup_R decays
#          BR         NDA      ID1       ID2
     1.56191132E-01    2     1000022         2   # BR(~u_R -> ~chi_10 u)
     2.37212185E-07    2     1000023         2   # BR(~u_R -> ~chi_20 u)
     2.34751306E-09    2     1000025         2   # BR(~u_R -> ~chi_30 u)
     3.70104588E-09    2     1000035         2   # BR(~u_R -> ~chi_40 u)
     8.43808625E-01    2     1000021         2   # BR(~u_R -> ~g      u)
#
#         PDG            Width
DECAY   1000001     6.89340545E+01   # sdown_L decays
#          BR         NDA      ID1       ID2
     6.00237768E-03    2     1000022         1   # BR(~d_L -> ~chi_10 d)
     1.58924794E-01    2     1000023         1   # BR(~d_L -> ~chi_20 d)
     1.12965427E-08    2     1000025         1   # BR(~d_L -> ~chi_30 d)
     2.44693986E-08    2     1000035         1   # BR(~d_L -> ~chi_40 d)
     3.17770031E-01    2    -1000024         2   # BR(~d_L -> ~chi_1- u)
     1.04223267E-07    2    -1000037         2   # BR(~d_L -> ~chi_2- u)
     5.17302657E-01    2     1000021         1   # BR(~d_L -> ~g      d)
#
#         PDG            Width
DECAY   2000001     3.68869954E+01   # sdown_R decays
#          BR         NDA      ID1       ID2
     4.43895311E-02    2     1000022         1   # BR(~d_R -> ~chi_10 d)
     6.74115520E-08    2     1000023         1   # BR(~d_R -> ~chi_20 d)
     5.36512601E-10    2     1000025         1   # BR(~d_R -> ~chi_30 d)
     8.37836590E-10    2     1000035         1   # BR(~d_R -> ~chi_40 d)
     9.55610400E-01    2     1000021         1   # BR(~d_R -> ~g      d)
#
#         PDG            Width
DECAY   1000004     6.88819124E+01   # scharm_L decays
#          BR         NDA      ID1       ID2
     5.89813067E-03    2     1000022         4   # BR(~c_L -> ~chi_10 c)
     1.59141304E-01    2     1000023         4   # BR(~c_L -> ~chi_20 c)
     6.53631885E-09    2     1000025         4   # BR(~c_L -> ~chi_30 c)
     1.51808606E-08    2     1000035         4   # BR(~c_L -> ~chi_40 c)
     3.18339481E-01    2     1000024         3   # BR(~c_L -> ~chi_1+ s)
     4.39514880E-09    2     1000037         3   # BR(~c_L -> ~chi_2+ s)
     5.16621058E-01    2     1000021         4   # BR(~c_L -> ~g      c)
#
#         PDG            Width
DECAY   2000004     4.19619920E+01   # scharm_R decays
#          BR         NDA      ID1       ID2
     1.56191132E-01    2     1000022         4   # BR(~c_R -> ~chi_10 c)
     2.37212185E-07    2     1000023         4   # BR(~c_R -> ~chi_20 c)
     2.34751306E-09    2     1000025         4   # BR(~c_R -> ~chi_30 c)
     3.70104588E-09    2     1000035         4   # BR(~c_R -> ~chi_40 c)
     8.43808625E-01    2     1000021         4   # BR(~c_R -> ~g      c)
#
#         PDG            Width
DECAY   1000003     6.89340545E+01   # sstrange_L decays
#          BR         NDA      ID1       ID2
     6.00237768E-03    2     1000022         3   # BR(~s_L -> ~chi_10 s)
     1.58924794E-01    2     1000023         3   # BR(~s_L -> ~chi_20 s)
     1.12965427E-08    2     1000025         3   # BR(~s_L -> ~chi_30 s)
     2.44693986E-08    2     1000035         3   # BR(~s_L -> ~chi_40 s)
     3.17770031E-01    2    -1000024         4   # BR(~s_L -> ~chi_1- c)
     1.04223267E-07    2    -1000037         4   # BR(~s_L -> ~chi_2- c)
     5.17302657E-01    2     1000021         3   # BR(~s_L -> ~g      s)
#
#         PDG            Width
DECAY   2000003     3.68869954E+01   # sstrange_R decays
#          BR         NDA      ID1       ID2
     4.43895311E-02    2     1000022         3   # BR(~s_R -> ~chi_10 s)
     6.74115520E-08    2     1000023         3   # BR(~s_R -> ~chi_20 s)
     5.36512601E-10    2     1000025         3   # BR(~s_R -> ~chi_30 s)
     8.37836590E-10    2     1000035         3   # BR(~s_R -> ~chi_40 s)
     9.55610400E-01    2     1000021         3   # BR(~s_R -> ~g      s)
#
#         PDG            Width
DECAY   1000011     3.80779951E+01   # selectron_L decays
#          BR         NDA      ID1       ID2
     1.00871977E-01    2     1000022        11   # BR(~e_L -> ~chi_10 e-)
     3.00140768E-01    2     1000023        11   # BR(~e_L -> ~chi_20 e-)
     2.55292108E-10    2     1000025        11   # BR(~e_L -> ~chi_30 e-)
     4.97075070E-10    2     1000035        11   # BR(~e_L -> ~chi_40 e-)
     5.98987250E-01    2    -1000024        12   # BR(~e_L -> ~chi_1- nu_e)
     3.79063471E-09    2    -1000037        12   # BR(~e_L -> ~chi_2- nu_e)
#
#         PDG            Width
DECAY   2000011     1.53817014E+01   # selectron_R decays
#          BR         NDA      ID1       ID2
     9.99998485E-01    2     1000022        11   # BR(~e_R -> ~chi_10 e-)
     1.51479982E-06    2     1000023        11   # BR(~e_R -> ~chi_20 e-)
#
#         PDG            Width
DECAY   1000013     3.80779951E+01   # smuon_L decays
#          BR         NDA      ID1       ID2
     1.00871977E-01    2     1000022        13   # BR(~mu_L -> ~chi_10 mu-)
     3.00140768E-01    2     1000023        13   # BR(~mu_L -> ~chi_20 mu-)
     2.55292108E-10    2     1000025        13   # BR(~mu_L -> ~chi_30 mu-)
     4.97075070E-10    2     1000035        13   # BR(~mu_L -> ~chi_40 mu-)
     5.98987250E-01    2    -1000024        14   # BR(~mu_L -> ~chi_1- nu_mu)
     3.79063471E-09    2    -1000037        14   # BR(~mu_L -> ~chi_2- nu_mu)
#
#         PDG            Width
DECAY   2000013     1.53817014E+01   # smuon_R decays
#          BR         NDA      ID1       ID2
     9.99998485E-01    2     1000022        13   # BR(~mu_R -> ~chi_10 mu-)
     1.51479982E-06    2     1000023        13   # BR(~mu_R -> ~chi_20 mu-)
#
#         PDG            Width
DECAY   1000015     2.70061416E+01   # stau_1 decays
#          BR         NDA      ID1       ID2
     3.55751590E-01    2     1000022        15   # BR(~tau_1 -> ~chi_10  tau-)
     2.15069454E-01    2     1000023        15   # BR(~tau_1 -> ~chi_20  tau-)
     4.29178956E-01    2    -1000024        16   # BR(~tau_1 -> ~chi_1-  nu_tau)
#
#         PDG            Width
DECAY   2000015     2.64342758E+01   # stau_2 decays
#          BR         NDA      ID1       ID2
     3.64191195E-01    2     1000022        15   # BR(~tau_2 -> ~chi_10  tau-)
     2.12263927E-01    2     1000023        15   # BR(~tau_2 -> ~chi_20  tau-)
     8.11058422E-06    2     1000025        15   # BR(~tau_2 -> ~chi_30  tau-)
     9.28663402E-06    2     1000035        15   # BR(~tau_2 -> ~chi_40  tau-)
     4.23518320E-01    2    -1000024        16   # BR(~tau_2 -> ~chi_1-  nu_tau)
     9.16125832E-06    2    -1000037        16   # BR(~tau_2 -> ~chi_2-  nu_tau)
#
#         PDG            Width
DECAY   1000012     3.80802661E+01   # snu_eL decays
#          BR         NDA      ID1       ID2
     1.01423197E-01    2     1000022        12   # BR(~nu_eL -> ~chi_10 nu_e)
     2.99109468E-01    2     1000023        12   # BR(~nu_eL -> ~chi_20 nu_e)
     5.01425567E-10    2     1000025        12   # BR(~nu_eL -> ~chi_30 nu_e)
     6.30297977E-10    2     1000035        12   # BR(~nu_eL -> ~chi_40 nu_e)
     5.99467334E-01    2     1000024        11   # BR(~nu_eL -> ~chi_1+ e-)
     5.15432001E-11    2     1000037        11   # BR(~nu_eL -> ~chi_2+ e-)
#
#         PDG            Width
DECAY   1000014     3.80802661E+01   # snu_muL decays
#          BR         NDA      ID1       ID2
     1.01423197E-01    2     1000022        14   # BR(~nu_muL -> ~chi_10 nu_mu)
     2.99109468E-01    2     1000023        14   # BR(~nu_muL -> ~chi_20 nu_mu)
     5.01425567E-10    2     1000025        14   # BR(~nu_muL -> ~chi_30 nu_mu)
     6.30297977E-10    2     1000035        14   # BR(~nu_muL -> ~chi_40 nu_mu)
     5.99467334E-01    2     1000024        13   # BR(~nu_muL -> ~chi_1+ mu-)
     5.15432001E-11    2     1000037        13   # BR(~nu_muL -> ~chi_2+ mu-)
#
#         PDG            Width
DECAY   1000016     3.80850785E+01   # snu_tauL decays
#          BR         NDA      ID1       ID2
     1.01414017E-01    2     1000022        16   # BR(~nu_tauL -> ~chi_10 nu_tau)
     2.99083420E-01    2     1000023        16   # BR(~nu_tauL -> ~chi_20 nu_tau)
     5.37426323E-10    2     1000025        16   # BR(~nu_tauL -> ~chi_30 nu_tau)
     6.90600393E-10    2     1000035        16   # BR(~nu_tauL -> ~chi_40 nu_tau)
     5.99502562E-01    2     1000024        15   # BR(~nu_tauL -> ~chi_1+ tau-)
#
#         PDG            Width
DECAY   1000024     8.59179162E-05   # chargino1+ decays
#          BR         NDA      ID1       ID2
     1.00000000E+00    2     1000022        24   # BR(~chi_1+ -> ~chi_10  W+)
#
#         PDG            Width
DECAY   1000037     8.94058172E+01   # chargino2+ decays
#          BR         NDA      ID1       ID2
     4.73823737E-02    2     1000006        -5   # BR(~chi_2+ -> ~t_1     bb)
     7.29583061E-01    2    -1000005         6   # BR(~chi_2+ -> ~b_1*    t )
     7.67338984E-07    2    -1000015        16   # BR(~chi_2+ -> ~tau_1+  nu_tau)
     6.70363213E-02    2     1000024        23   # BR(~chi_2+ -> ~chi_1+  Z )
     2.08234065E-02    2     1000022        24   # BR(~chi_2+ -> ~chi_10  W+)
     6.53885789E-02    2     1000023        24   # BR(~chi_2+ -> ~chi_20  W+)
     6.97854915E-02    2     1000024        25   # BR(~chi_2+ -> ~chi_1+  h )
#
#         PDG            Width
DECAY   1000022     0.00000000E+00   # neutralino1 decays
#
#         PDG            Width
DECAY   1000023     7.39178622E-05   # neutralino2 decays
#          BR         NDA      ID1       ID2
     4.96318111E-02    2     1000022        23   # BR(~chi_20 -> ~chi_10   Z )
     9.50368189E-01    2     1000022        25   # BR(~chi_20 -> ~chi_10   h )
#
#         PDG            Width
DECAY   1000025     8.96279525E+01   # neutralino3 decays
#          BR         NDA      ID1       ID2
     1.35258063E-02    2     1000022        23   # BR(~chi_30 -> ~chi_10   Z )
     4.70688679E-02    2     1000023        23   # BR(~chi_30 -> ~chi_20   Z )
     6.51223836E-02    2     1000024       -24   # BR(~chi_30 -> ~chi_1+   W-)
     6.51223836E-02    2    -1000024        24   # BR(~chi_30 -> ~chi_1-   W+)
     8.15431355E-03    2     1000022        25   # BR(~chi_30 -> ~chi_10   h )
     1.99574933E-02    2     1000023        25   # BR(~chi_30 -> ~chi_20   h )
     3.67816980E-01    2     1000006        -6   # BR(~chi_30 -> ~t_1      tb)
     3.67816980E-01    2    -1000006         6   # BR(~chi_30 -> ~t_1*     t )
     2.27066940E-02    2     1000005        -5   # BR(~chi_30 -> ~b_1      bb)
     2.27066940E-02    2    -1000005         5   # BR(~chi_30 -> ~b_1*     b )
     3.46614386E-12    2     2000011       -11   # BR(~chi_30 -> ~e_R-     e+)
     3.46614386E-12    2    -2000011        11   # BR(~chi_30 -> ~e_R+     e-)
     3.46614386E-12    2     2000013       -13   # BR(~chi_30 -> ~mu_R-    mu+)
     3.46614386E-12    2    -2000013        13   # BR(~chi_30 -> ~mu_R+    mu-)
     7.02376791E-07    2     1000015       -15   # BR(~chi_30 -> ~tau_1-   tau+)
     7.02376791E-07    2    -1000015        15   # BR(~chi_30 -> ~tau_1+   tau-)
#
#         PDG            Width
DECAY   1000035     8.87938813E+01   # neutralino4 decays
#          BR         NDA      ID1       ID2
     8.01162254E-03    2     1000022        23   # BR(~chi_40 -> ~chi_10   Z )
     1.98987418E-02    2     1000023        23   # BR(~chi_40 -> ~chi_20   Z )
     6.57645604E-02    2     1000024       -24   # BR(~chi_40 -> ~chi_1+   W-)
     6.57645604E-02    2    -1000024        24   # BR(~chi_40 -> ~chi_1-   W+)
     1.40936664E-02    2     1000022        25   # BR(~chi_40 -> ~chi_10   h )
     5.00436057E-02    2     1000023        25   # BR(~chi_40 -> ~chi_20   h )
     3.65244095E-01    2     1000006        -6   # BR(~chi_40 -> ~t_1      tb)
     3.65244095E-01    2    -1000006         6   # BR(~chi_40 -> ~t_1*     t )
     2.29665989E-02    2     1000005        -5   # BR(~chi_40 -> ~b_1      bb)
     2.29665989E-02    2    -1000005         5   # BR(~chi_40 -> ~b_1*     b )
     1.71989594E-11    2     2000011       -11   # BR(~chi_40 -> ~e_R-     e+)
     1.71989594E-11    2    -2000011        11   # BR(~chi_40 -> ~e_R+     e-)
     1.71989594E-11    2     2000013       -13   # BR(~chi_40 -> ~mu_R-    mu+)
     1.71989594E-11    2    -2000013        13   # BR(~chi_40 -> ~mu_R+    mu-)
     9.27199307E-07    2     1000015       -15   # BR(~chi_40 -> ~tau_1-   tau+)
     9.27199307E-07    2    -1000015        15   # BR(~chi_40 -> ~tau_1+   tau-)
#
#         PDG            Width
DECAY        25     4.86873692E-03   # h decays
#          BR         NDA      ID1       ID2
     6.82013311E-01    2           5        -5   # BR(h -> b       bb     )
     5.35062948E-02    2         -15        15   # BR(h -> tau+    tau-   )
     1.89415008E-04    2         -13        13   # BR(h -> mu+     mu-    )
     4.02192580E-04    2           3        -3   # BR(h -> s       sb     )
     1.73532949E-02    2           4        -4   # BR(h -> c       cb     )
     5.65675845E-02    2          21        21   # BR(h -> g       g      )
     1.90936097E-03    2          22        22   # BR(h -> gam     gam    )
     1.24833765E-03    2          22        23   # BR(h -> Z       gam    )
     1.66132763E-01    2          24       -24   # BR(h -> W+      W-     )
     2.06774458E-02    2          23        23   # BR(h -> Z       Z      )
#
#         PDG            Width
DECAY        35     1.38917335E+01   # H decays
#          BR         NDA      ID1       ID2
     7.41469942E-01    2           5        -5   # BR(H -> b       bb     )
     1.79015209E-01    2         -15        15   # BR(H -> tau+    tau-   )
     6.32954999E-04    2         -13        13   # BR(H -> mu+     mu-    )
     7.77265955E-04    2           3        -3   # BR(H -> s       sb     )
     2.19428630E-07    2           4        -4   # BR(H -> c       cb     )
     2.18894326E-02    2           6        -6   # BR(H -> t       tb     )
     3.38483217E-05    2          21        21   # BR(H -> g       g      )
     6.60807131E-08    2          22        22   # BR(H -> gam     gam    )
     8.39291777E-09    2          23        22   # BR(H -> Z       gam    )
     3.50860152E-05    2          24       -24   # BR(H -> W+      W-     )
     1.75213821E-05    2          23        23   # BR(H -> Z       Z      )
     8.83913185E-05    2          25        25   # BR(H -> h       h      )
    -4.86498429E-23    2          36        36   # BR(H -> A       A      )
     3.77869102E-17    2          23        36   # BR(H -> Z       A      )
     2.12687194E-03    2     1000024  -1000024   # BR(H -> ~chi_1+ ~chi_1-)
     1.10265041E-04    2     1000022   1000022   # BR(H -> ~chi_10 ~chi_10)
     1.06059152E-03    2     1000023   1000023   # BR(H -> ~chi_20 ~chi_20)
     6.91937613E-04    2     1000022   1000023   # BR(H -> ~chi_10 ~chi_20)
     5.20440488E-02    2     1000006  -1000006   # BR(H -> ~t_1    ~t_1*  )
     6.34042040E-06    2     1000005  -1000005   # BR(H -> ~b_1    ~b_1*  )
#
#         PDG            Width
DECAY        36     1.31774857E+01   # A decays
#          BR         NDA      ID1       ID2
     7.81716588E-01    2           5        -5   # BR(A -> b       bb     )
     1.88709264E-01    2         -15        15   # BR(A -> tau+    tau-   )
     6.67229931E-04    2         -13        13   # BR(A -> mu+     mu-    )
     8.19496920E-04    2           3        -3   # BR(A -> s       sb     )
     2.31250415E-07    2           4        -4   # BR(A -> c       cb     )
     2.30560168E-02    2           6        -6   # BR(A -> t       tb     )
     6.78977739E-05    2          21        21   # BR(A -> g       g      )
     3.80726592E-08    2          22        22   # BR(A -> gam     gam    )
     6.69026041E-08    2          23        22   # BR(A -> Z       gam    )
     3.68444254E-05    2          23        25   # BR(A -> Z       h      )
     2.66947049E-03    2     1000024  -1000024   # BR(A -> ~chi_1+ ~chi_1-)
     1.22843968E-04    2     1000022   1000022   # BR(A -> ~chi_10 ~chi_10)
     1.33108318E-03    2     1000023   1000023   # BR(A -> ~chi_20 ~chi_20)
     8.02927519E-04    2     1000022   1000023   # BR(A -> ~chi_10 ~chi_20)
#
#         PDG            Width
DECAY        37     9.86601266E+00   # H+ decays
#          BR         NDA      ID1       ID2
     1.08397933E-03    2           4        -5   # BR(H+ -> c       bb     )
     2.52129382E-01    2         -15        16   # BR(H+ -> tau+    nu_tau )
     8.91467996E-04    2         -13        14   # BR(H+ -> mu+     nu_mu  )
     6.93745670E-06    2           2        -5   # BR(H+ -> u       bb     )
     5.23895859E-05    2           2        -3   # BR(H+ -> u       sb     )
     1.07782225E-03    2           4        -3   # BR(H+ -> c       sb     )
     7.06737456E-01    2           6        -5   # BR(H+ -> t       bb     )
     4.92892581E-05    2          24        25   # BR(H+ -> W+      h      )
     1.10310549E-13    2          24        36   # BR(H+ -> W+      A      )
     2.04246564E-03    2     1000024   1000022   # BR(H+ -> ~chi_1+ ~chi_10)
     3.19158579E-09    2     1000024   1000023   # BR(H+ -> ~chi_1+ ~chi_20)
     3.59288074E-02    2     1000006  -1000005   # BR(H+ -> ~t_1    ~b_1*  )
