#
#                              ======================
#                              | THE SUSYHIT OUTPUT |
#                              ======================
#
#
#              ------------------------------------------------------
#              |     This is the output of the SUSY-HIT package     |
#              |  created by A.Djouadi, M.Muehlleitner and M.Spira. |
#              |  In case of problems with SUSY-HIT email to        |
#              |           margarete.muehlleitner@kit.edu           |
#              |           michael.spira@psi.ch                     |
#              |           abdelhak.djouadi@cern.ch                 |
#              ------------------------------------------------------
#
#              ------------------------------------------------------
#              |  SUSY Les Houches Accord - MSSM Spectrum + Decays  |
#              |              based on the decay programs           |
#              |                                                    |
#              |                     SDECAY 1.5                     |
#              |                                                    |
#              |  Authors: M.Muhlleitner, A.Djouadi and Y.Mambrini  |
#              |  Ref.:    Comput.Phys.Commun.168(2005)46           |
#              |           [hep-ph/0311167]                         |
#              |                                                    |
#              |                     HDECAY 3.4                     |
#              |                                                    |
#              |  By: A.Djouadi,J.Kalinowski,M.Muhlleitner,M.Spira  |
#              |  Ref.:    Comput.Phys.Commun.108(1998)56           |
#              |           [hep-ph/9704448]                         |
#              |                                                    |
#              |                                                    |
#              |  If not stated otherwise all DRbar couplings and   |
#              |  soft SUSY breaking masses are given at the scale  |
#              |  Q=  0.11042380E+04
#              |                                                    |
#              ------------------------------------------------------
#
#
BLOCK DCINFO  # Decay Program information
     1   SDECAY/HDECAY # decay calculator
     2   1.5  /3.4    # version number
#
BLOCK SPINFO  # Spectrum calculator information
     1    SOFTSUSY    # spectrum calculator                
     2    3.7.3       # version number                     
#
BLOCK MODSEL  # Model selection
     1     0   #  nonUniversal                                     
#
BLOCK SMINPUTS  # Standard Model inputs
         1     1.27934000E+02   # alpha_em^-1(M_Z)^MSbar
         2     1.16639000E-05   # G_F [GeV^-2]
         3     1.17200000E-01   # alpha_S(M_Z)^MSbar
         4     9.11870000E+01   # M_Z pole mass
         5     4.19000000E+00   # mb(mb)^MSbar
         6     1.72500000E+02   # mt pole mass
         7     1.77690000E+00   # mtau pole mass
#
BLOCK MINPAR  # Input parameters - minimal models
         3     2.00000000E+01   # tanb                
#
BLOCK EXTPAR  # Input parameters - non-minimal models
         0    -1.00000000E+00   # Set                 
         1     1.09990000E+02   # M_1(MX)             
         2     2.00000000E+03   # M_2(MX)             
         3     1.80000000E+03   # M_3(MX)             
        11     2.42959179E+03   # At(MX)              
        12     0.00000000E+00   # Ab(MX)              
        13     0.00000000E+00   # Atau(MX)            
        23    -1.24900000E+02   # mu(MX)              
        25     2.00000000E+01   # tan                 
        26     4.00000000E+03   # mA(pole)            
        31     4.00000000E+03   # meL(MX)             
        32     4.00000000E+03   # mmuL(MX)            
        33     4.00000000E+03   # mtauL(MX)           
        34     4.00000000E+03   # meR(MX)             
        35     4.00000000E+03   # mmuR(MX)            
        36     4.00000000E+03   # mtauR(MX)           
        41     4.00000000E+03   # mqL1(MX)            
        42     4.00000000E+03   # mqL2(MX)            
        43     2.02485961E+03   # mqL3(MX)            
        44     4.00000000E+03   # muR(MX)             
        45     4.00000000E+03   # mcR(MX)             
        46     6.09990000E+02   # mtR(MX)             
        47     4.00000000E+03   # mdR(MX)             
        48     4.00000000E+03   # msR(MX)             
        49     4.00000000E+03   # mbR(MX)             
#
BLOCK MASS  # Mass Spectrum
# PDG code           mass       particle
        24     8.04192632E+01   # W+
        25     1.25520790E+02   # h
        35     3.99999999E+03   # H
        36     3.99999579E+03   # A
        37     4.00103983E+03   # H+
         5     4.81337004E+00   # b-quark pole mass calculated from mb(mb)_Msbar
   1000001     4.02007615E+03   # ~d_L
   2000001     4.01801101E+03   # ~d_R
   1000002     4.01942419E+03   # ~u_L
   2000002     4.01859209E+03   # ~u_R
   1000003     4.02007615E+03   # ~s_L
   2000003     4.01801101E+03   # ~s_R
   1000004     4.01942419E+03   # ~c_L
   2000004     4.01859209E+03   # ~c_R
   1000005     2.05218560E+03   # ~b_1
   2000005     4.02243972E+03   # ~b_2
   1000006     6.31723401E+02   # ~t_1
   2000006     2.06443341E+03   # ~t_2
   1000011     4.00320806E+03   # ~e_L
   2000011     4.00366986E+03   # ~e_R
   1000012     4.00209499E+03   # ~nu_eL
   1000013     4.00320806E+03   # ~mu_L
   2000013     4.00366986E+03   # ~mu_R
   1000014     4.00209499E+03   # ~nu_muL
   1000015     4.00504152E+03   # ~tau_1
   2000015     4.00773343E+03   # ~tau_2
   1000016     4.00406423E+03   # ~nu_tauL
   1000021     1.98058873E+03   # ~g
   1000022     9.13225996E+01   # ~chi_10
   1000023    -1.35276047E+02   # ~chi_20
   1000025     1.53305348E+02   # ~chi_30
   1000035     2.06589019E+03   # ~chi_40
   1000024     1.29844363E+02   # ~chi_1+
   1000037     2.06606494E+03   # ~chi_2+
#
BLOCK NMIX  # Neutralino Mixing Matrix
  1  1    -7.50945576E-01   # N_11
  1  2     1.41407862E-02   # N_12
  1  3     5.42968325E-01   # N_13
  1  4     3.75587776E-01   # N_14
  2  1    -1.37008513E-01   # N_21
  2  2     2.72646944E-02   # N_22
  2  3    -6.84881150E-01   # N_23
  2  4     7.15138528E-01   # N_24
  3  1     6.45994271E-01   # N_31
  3  2     2.36142666E-02   # N_32
  3  3     4.85924869E-01   # N_33
  3  4     5.88226819E-01   # N_34
  4  1    -9.00901199E-04   # N_41
  4  2     9.99249239E-01   # N_42
  4  3    -4.80043508E-04   # N_43
  4  4    -3.87287609E-02   # N_44
#
BLOCK UMIX  # Chargino Mixing Matrix U
  1  1     6.83170410E-04   # U_11
  1  2     9.99999767E-01   # U_12
  2  1    -9.99999767E-01   # U_21
  2  2     6.83170410E-04   # U_22
#
BLOCK VMIX  # Chargino Mixing Matrix V
  1  1     5.47840445E-02   # V_11
  1  2    -9.98498227E-01   # V_12
  2  1    -9.98498227E-01   # V_21
  2  2    -5.47840445E-02   # V_22
#
BLOCK STOPMIX  # Stop Mixing Matrix
  1  1    -9.67283513E-02   # cos(theta_t)
  1  2     9.95310819E-01   # sin(theta_t)
  2  1    -9.95310819E-01   # -sin(theta_t)
  2  2    -9.67283513E-02   # cos(theta_t)
#
BLOCK SBOTMIX  # Sbottom Mixing Matrix
  1  1     9.99999870E-01   # cos(theta_b)
  1  2    -5.09901935E-04   # sin(theta_b)
  2  1     5.09901935E-04   # -sin(theta_b)
  2  2     9.99999870E-01   # cos(theta_b)
#
BLOCK STAUMIX  # Stau Mixing Matrix
  1  1    -7.03345924E-01   # cos(theta_tau)
  1  2     7.10847741E-01   # sin(theta_tau)
  2  1    -7.10847741E-01   # -sin(theta_tau)
  2  2    -7.03345924E-01   # cos(theta_tau)
#
BLOCK ALPHA  # Higgs mixing
          -5.00318324E-02   # Mixing angle in the neutral Higgs boson sector
#
BLOCK HMIX Q=  1.10423804E+03  # DRbar Higgs Parameters
         1    -1.24900000E+02   # mu(Q)MSSM           
         2     2.00000000E+01   # tan                 
         3     2.43944341E+02   # higgs               
         4     1.61160565E+07   # mA^2(Q)MSSM         
#
BLOCK GAUGE Q=  1.10423804E+03  # The gauge couplings
     1     3.61699464E-01   # gprime(Q) DRbar
     2     6.36450421E-01   # g(Q) DRbar
     3     1.03312090E+00   # g3(Q) DRbar
#
BLOCK AU Q=  1.10423804E+03  # The trilinear couplings
  1  1     0.00000000E+00   # A_u(Q) DRbar
  2  2     9.37799363E-07   # A_c(Q) DRbar
  3  3     2.42959179E+03   # A_t(Q) DRbar
#
BLOCK AD Q=  1.10423804E+03  # The trilinear couplings
  1  1     3.43573160E-07   # A_d(Q) DRbar
  2  2     3.43605953E-07   # A_s(Q) DRbar
  3  3     6.14812164E-07   # A_b(Q) DRbar
#
BLOCK AE Q=  1.10423804E+03  # The trilinear couplings
  1  1     0.00000000E+00   # A_e(Q) DRbar
  2  2     7.44807248E-08   # A_mu(Q) DRbar
  3  3     7.52447393E-08   # A_tau(Q) DRbar
#
BLOCK Yu Q=  1.10423804E+03  # The Yukawa couplings
  1  1     0.00000000E+00   # y_u(Q) DRbar
  2  2     0.00000000E+00   # y_c(Q) DRbar
  3  3     8.71255569E-01   # y_t(Q) DRbar
#
BLOCK Yd Q=  1.10423804E+03  # The Yukawa couplings
  1  1     0.00000000E+00   # y_d(Q) DRbar
  2  2     0.00000000E+00   # y_s(Q) DRbar
  3  3     2.81595771E-01   # y_b(Q) DRbar
#
BLOCK Ye Q=  1.10423804E+03  # The Yukawa couplings
  1  1     0.00000000E+00   # y_e(Q) DRbar
  2  2     0.00000000E+00   # y_mu(Q) DRbar
  3  3     2.04083121E-01   # y_tau(Q) DRbar
#
BLOCK MSOFT Q=  1.10423804E+03  # The soft SUSY breaking masses at the scale Q
         1     1.09990000E+02   # M_1(Q)              
         2     2.00000000E+03   # M_2(Q)              
         3     1.80000000E+03   # M_3(Q)              
        21     1.58624441E+07   # M^2_Hd              
        22    -1.68348863E+04   # M^2_Hu              
        31     4.00000000E+03   # M_eL                
        32     4.00000000E+03   # M_muL               
        33     4.00000000E+03   # M_tauL              
        34     4.00000000E+03   # M_eR                
        35     4.00000000E+03   # M_muR               
        36     4.00000000E+03   # M_tauR              
        41     4.00000000E+03   # M_q1L               
        42     4.00000000E+03   # M_q2L               
        43     2.02485961E+03   # M_q3L               
        44     4.00000000E+03   # M_uR                
        45     4.00000000E+03   # M_cR                
        46     6.09989996E+02   # M_tR                
        47     4.00000000E+03   # M_dR                
        48     4.00000000E+03   # M_sR                
        49     4.00000000E+03   # M_bR                
#
#
#
#                             =================
#                             |The decay table|
#                             =================
#
# - The QCD corrections to the decays gluino -> squark  + quark
#                                     squark -> gaugino + quark_prime
#                                     squark -> squark_prime + Higgs
#                                     squark -> gluino  + quark
#   are included.
#
# - The multi-body decays for the inos, stops and sbottoms are included.
#
# - The loop induced decays for the gluino, neutralinos and stops
#   are included.
#
# - The SUSY decays of the top quark are included.
#
#
#         PDG            Width
DECAY         6     1.40522920E+00   # top decays
#          BR         NDA      ID1       ID2
     1.00000000E+00    2           5        24   # BR(t ->  b    W+)
#
#         PDG            Width
DECAY   1000021     3.37807723E+01   # gluino decays
#          BR         NDA      ID1       ID2
     5.00000000E-01    2     1000006        -6   # BR(~g -> ~t_1  tb)
     5.00000000E-01    2    -1000006         6   # BR(~g -> ~t_1* t )
#
#         PDG            Width
DECAY   1000006     1.74066920E+01   # stop1 decays
#          BR         NDA      ID1       ID2
     8.92767530E-02    2     1000022         6   # BR(~t_1 -> ~chi_10 t )
     2.15742233E-01    2     1000023         6   # BR(~t_1 -> ~chi_20 t )
     2.00706205E-01    2     1000025         6   # BR(~t_1 -> ~chi_30 t )
     4.94274809E-01    2     1000024         5   # BR(~t_1 -> ~chi_1+ b )
#
#         PDG            Width
DECAY   2000006     6.36890267E+01   # stop2 decays
#          BR         NDA      ID1       ID2
     7.47561569E-02    2     1000022         6   # BR(~t_2 -> ~chi_10 t )
     2.38242091E-01    2     1000023         6   # BR(~t_2 -> ~chi_20 t )
     1.51393658E-01    2     1000025         6   # BR(~t_2 -> ~chi_30 t )
     5.33685221E-02    2     1000024         5   # BR(~t_2 -> ~chi_1+ b )
     2.91727740E-01    2     1000006        25   # BR(~t_2 -> ~t_1    h )
     1.90511832E-01    2     1000006        23   # BR(~t_2 -> ~t_1    Z )
#
#         PDG            Width
DECAY   1000005     3.57926667E+01   # sbottom1 decays
#          BR         NDA      ID1       ID2
     2.91544428E-02    2     1000022         5   # BR(~b_1 -> ~chi_10 b )
     3.82344589E-02    2     1000023         5   # BR(~b_1 -> ~chi_20 b )
     2.09936274E-02    2     1000025         5   # BR(~b_1 -> ~chi_30 b )
     8.09646368E-01    2    -1000024         6   # BR(~b_1 -> ~chi_1- t )
     2.21224413E-02    2     1000021         5   # BR(~b_1 -> ~g      b )
     7.98486615E-02    2     1000006       -24   # BR(~b_1 -> ~t_1    W-)
#
#         PDG            Width
DECAY   2000005     1.63947016E+02   # sbottom2 decays
#          BR         NDA      ID1       ID2
     1.83205756E-02    2     1000022         5   # BR(~b_2 -> ~chi_10 b )
     1.71613457E-02    2     1000023         5   # BR(~b_2 -> ~chi_20 b )
     1.41983446E-02    2     1000025         5   # BR(~b_2 -> ~chi_30 b )
     3.68466141E-08    2     1000035         5   # BR(~b_2 -> ~chi_40 b )
     3.59404579E-02    2    -1000024         6   # BR(~b_2 -> ~chi_1- t )
     6.21096514E-08    2    -1000037         6   # BR(~b_2 -> ~chi_2- t )
     9.14327359E-01    2     1000021         5   # BR(~b_2 -> ~g      b )
     1.20955045E-05    2     1000005        25   # BR(~b_2 -> ~b_1    h )
     1.43962267E-05    2     1000005        23   # BR(~b_2 -> ~b_1    Z )
     5.38657532E-07    2     1000006       -24   # BR(~b_2 -> ~t_1    W-)
     2.47878444E-05    2     2000006       -24   # BR(~b_2 -> ~t_2    W-)
#
#         PDG            Width
DECAY   1000002     1.75773386E+02   # sup_L decays
#          BR         NDA      ID1       ID2
     1.45470119E-03    2     1000022         2   # BR(~u_L -> ~chi_10 u)
     1.52023633E-07    2     1000023         2   # BR(~u_L -> ~chi_20 u)
     1.88585501E-03    2     1000025         2   # BR(~u_L -> ~chi_30 u)
     4.82440655E-02    2     1000035         2   # BR(~u_L -> ~chi_40 u)
     5.31524625E-04    2     1000024         1   # BR(~u_L -> ~chi_1+ d)
     9.63644457E-02    2     1000037         1   # BR(~u_L -> ~chi_2+ d)
     8.51519256E-01    2     1000021         2   # BR(~u_L -> ~g      u)
#
#         PDG            Width
DECAY   2000002     1.58540365E+02   # sup_R decays
#          BR         NDA      ID1       ID2
     3.18093625E-02    2     1000022         2   # BR(~u_R -> ~chi_10 u)
     1.05773751E-03    2     1000023         2   # BR(~u_R -> ~chi_20 u)
     2.35013222E-02    2     1000025         2   # BR(~u_R -> ~chi_30 u)
     2.49595867E-08    2     1000035         2   # BR(~u_R -> ~chi_40 u)
     9.43631553E-01    2     1000021         2   # BR(~u_R -> ~g      u)
#
#         PDG            Width
DECAY   1000001     1.75791937E+02   # sdown_L decays
#          BR         NDA      ID1       ID2
     2.16797467E-03    2     1000022         1   # BR(~d_L -> ~chi_10 d)
     2.50771056E-04    2     1000023         1   # BR(~d_L -> ~chi_20 d)
     8.63097400E-04    2     1000025         1   # BR(~d_L -> ~chi_30 d)
     4.82909951E-02    2     1000035         1   # BR(~d_L -> ~chi_40 d)
     8.26607914E-08    2    -1000024         2   # BR(~d_L -> ~chi_1- u)
     9.66824425E-02    2    -1000037         2   # BR(~d_L -> ~chi_2- u)
     8.51744637E-01    2     1000021         1   # BR(~d_L -> ~g      d)
#
#         PDG            Width
DECAY   2000001     1.51788134E+02   # sdown_R decays
#          BR         NDA      ID1       ID2
     8.30487004E-03    2     1000022         1   # BR(~d_R -> ~chi_10 d)
     2.76156743E-04    2     1000023         1   # BR(~d_R -> ~chi_20 d)
     6.13578273E-03    2     1000025         1   # BR(~d_R -> ~chi_30 d)
     6.51518163E-09    2     1000035         1   # BR(~d_R -> ~chi_40 d)
     9.85283184E-01    2     1000021         1   # BR(~d_R -> ~g      d)
#
#         PDG            Width
DECAY   1000004     1.75773386E+02   # scharm_L decays
#          BR         NDA      ID1       ID2
     1.45470119E-03    2     1000022         4   # BR(~c_L -> ~chi_10 c)
     1.52023633E-07    2     1000023         4   # BR(~c_L -> ~chi_20 c)
     1.88585501E-03    2     1000025         4   # BR(~c_L -> ~chi_30 c)
     4.82440655E-02    2     1000035         4   # BR(~c_L -> ~chi_40 c)
     5.31524625E-04    2     1000024         3   # BR(~c_L -> ~chi_1+ s)
     9.63644457E-02    2     1000037         3   # BR(~c_L -> ~chi_2+ s)
     8.51519256E-01    2     1000021         4   # BR(~c_L -> ~g      c)
#
#         PDG            Width
DECAY   2000004     1.58540365E+02   # scharm_R decays
#          BR         NDA      ID1       ID2
     3.18093625E-02    2     1000022         4   # BR(~c_R -> ~chi_10 c)
     1.05773751E-03    2     1000023         4   # BR(~c_R -> ~chi_20 c)
     2.35013222E-02    2     1000025         4   # BR(~c_R -> ~chi_30 c)
     2.49595867E-08    2     1000035         4   # BR(~c_R -> ~chi_40 c)
     9.43631553E-01    2     1000021         4   # BR(~c_R -> ~g      c)
#
#         PDG            Width
DECAY   1000003     1.75791937E+02   # sstrange_L decays
#          BR         NDA      ID1       ID2
     2.16797467E-03    2     1000022         3   # BR(~s_L -> ~chi_10 s)
     2.50771056E-04    2     1000023         3   # BR(~s_L -> ~chi_20 s)
     8.63097400E-04    2     1000025         3   # BR(~s_L -> ~chi_30 s)
     4.82909951E-02    2     1000035         3   # BR(~s_L -> ~chi_40 s)
     8.26607914E-08    2    -1000024         4   # BR(~s_L -> ~chi_1- c)
     9.66824425E-02    2    -1000037         4   # BR(~s_L -> ~chi_2- c)
     8.51744637E-01    2     1000021         3   # BR(~s_L -> ~g      s)
#
#         PDG            Width
DECAY   2000003     1.51788134E+02   # sstrange_R decays
#          BR         NDA      ID1       ID2
     8.30487004E-03    2     1000022         3   # BR(~s_R -> ~chi_10 s)
     2.76156743E-04    2     1000023         3   # BR(~s_R -> ~chi_20 s)
     6.13578273E-03    2     1000025         3   # BR(~s_R -> ~chi_30 s)
     6.51518163E-09    2     1000035         3   # BR(~s_R -> ~chi_40 s)
     9.85283184E-01    2     1000021         3   # BR(~s_R -> ~g      s)
#
#         PDG            Width
DECAY   1000011     3.12642044E+01   # selectron_L decays
#          BR         NDA      ID1       ID2
     8.77512851E-02    2     1000022        11   # BR(~e_L -> ~chi_10 e-)
     1.31785834E-03    2     1000023        11   # BR(~e_L -> ~chi_20 e-)
     7.85390534E-02    2     1000025        11   # BR(~e_L -> ~chi_30 e-)
     2.77019307E-01    2     1000035        11   # BR(~e_L -> ~chi_40 e-)
     4.80578028E-07    2    -1000024        12   # BR(~e_L -> ~chi_1- nu_e)
     5.55372016E-01    2    -1000037        12   # BR(~e_L -> ~chi_2- nu_e)
#
#         PDG            Width
DECAY   2000011     2.08021763E+01   # selectron_R decays
#          BR         NDA      ID1       ID2
     5.64378230E-01    2     1000022        11   # BR(~e_R -> ~chi_10 e-)
     1.87632597E-02    2     1000023        11   # BR(~e_R -> ~chi_20 e-)
     4.16858072E-01    2     1000025        11   # BR(~e_R -> ~chi_30 e-)
     4.37773902E-07    2     1000035        11   # BR(~e_R -> ~chi_40 e-)
#
#         PDG            Width
DECAY   1000013     3.12642044E+01   # smuon_L decays
#          BR         NDA      ID1       ID2
     8.77512851E-02    2     1000022        13   # BR(~mu_L -> ~chi_10 mu-)
     1.31785834E-03    2     1000023        13   # BR(~mu_L -> ~chi_20 mu-)
     7.85390534E-02    2     1000025        13   # BR(~mu_L -> ~chi_30 mu-)
     2.77019307E-01    2     1000035        13   # BR(~mu_L -> ~chi_40 mu-)
     4.80578028E-07    2    -1000024        14   # BR(~mu_L -> ~chi_1- nu_mu)
     5.55372016E-01    2    -1000037        14   # BR(~mu_L -> ~chi_2- nu_mu)
#
#         PDG            Width
DECAY   2000013     2.08021763E+01   # smuon_R decays
#          BR         NDA      ID1       ID2
     5.64378230E-01    2     1000022        13   # BR(~mu_R -> ~chi_10 mu-)
     1.87632597E-02    2     1000023        13   # BR(~mu_R -> ~chi_20 mu-)
     4.16858072E-01    2     1000025        13   # BR(~mu_R -> ~chi_30 mu-)
     4.37773902E-07    2     1000035        13   # BR(~mu_R -> ~chi_40 mu-)
#
#         PDG            Width
DECAY   1000015     3.09895968E+01   # stau_1 decays
#          BR         NDA      ID1       ID2
     3.23320221E-01    2     1000022        15   # BR(~tau_1 -> ~chi_10  tau-)
     4.01767825E-02    2     1000023        15   # BR(~tau_1 -> ~chi_20  tau-)
     1.66565456E-01    2     1000025        15   # BR(~tau_1 -> ~chi_30  tau-)
     1.38348964E-01    2     1000035        15   # BR(~tau_1 -> ~chi_40  tau-)
     5.42255609E-02    2    -1000024        16   # BR(~tau_1 -> ~chi_1-  nu_tau)
     2.77363015E-01    2    -1000037        16   # BR(~tau_1 -> ~chi_2-  nu_tau)
#
#         PDG            Width
DECAY   2000015     3.10843500E+01   # stau_2 decays
#          BR         NDA      ID1       ID2
     2.06810833E-01    2     1000022        15   # BR(~tau_2 -> ~chi_10  tau-)
     7.38095593E-02    2     1000023        15   # BR(~tau_2 -> ~chi_20  tau-)
     2.42467249E-01    2     1000025        15   # BR(~tau_2 -> ~chi_30  tau-)
     1.41240020E-01    2     1000035        15   # BR(~tau_2 -> ~chi_40  tau-)
     5.25115209E-02    2    -1000024        16   # BR(~tau_2 -> ~chi_1-  nu_tau)
     2.83160818E-01    2    -1000037        16   # BR(~tau_2 -> ~chi_2-  nu_tau)
#
#         PDG            Width
DECAY   1000012     3.12751844E+01   # snu_eL decays
#          BR         NDA      ID1       ID2
     1.00129431E-01    2     1000022        12   # BR(~nu_eL -> ~chi_10 nu_e)
     5.68535659E-03    2     1000023        12   # BR(~nu_eL -> ~chi_20 nu_e)
     6.06621329E-02    2     1000025        12   # BR(~nu_eL -> ~chi_30 nu_e)
     2.77301001E-01    2     1000035        12   # BR(~nu_eL -> ~chi_40 nu_e)
     3.08844749E-03    2     1000024        11   # BR(~nu_eL -> ~chi_1+ e-)
     5.53133631E-01    2     1000037        11   # BR(~nu_eL -> ~chi_2+ e-)
#
#         PDG            Width
DECAY   1000014     3.12751844E+01   # snu_muL decays
#          BR         NDA      ID1       ID2
     1.00129431E-01    2     1000022        14   # BR(~nu_muL -> ~chi_10 nu_mu)
     5.68535659E-03    2     1000023        14   # BR(~nu_muL -> ~chi_20 nu_mu)
     6.06621329E-02    2     1000025        14   # BR(~nu_muL -> ~chi_30 nu_mu)
     2.77301001E-01    2     1000035        14   # BR(~nu_muL -> ~chi_40 nu_mu)
     3.08844749E-03    2     1000024        13   # BR(~nu_muL -> ~chi_1+ mu-)
     5.53133631E-01    2     1000037        13   # BR(~nu_muL -> ~chi_2+ mu-)
#
#         PDG            Width
DECAY   1000016     3.46199556E+01   # snu_tauL decays
#          BR         NDA      ID1       ID2
     9.05001317E-02    2     1000022        16   # BR(~nu_tauL -> ~chi_10 nu_tau)
     5.13861053E-03    2     1000023        16   # BR(~nu_tauL -> ~chi_20 nu_tau)
     5.48284473E-02    2     1000025        16   # BR(~nu_tauL -> ~chi_30 nu_tau)
     2.50812211E-01    2     1000035        16   # BR(~nu_tauL -> ~chi_40 nu_tau)
     9.84246790E-02    2     1000024        15   # BR(~nu_tauL -> ~chi_1+ tau-)
     5.00295920E-01    2     1000037        15   # BR(~nu_tauL -> ~chi_2+ tau-)
#
#         PDG            Width
DECAY   1000024     3.39515479E-05   # chargino1+ decays
#           BR         NDA      ID1       ID2       ID3
     3.33722651E-01    3     1000022         2        -1   # BR(~chi_1+ -> ~chi_10 u    db)
     3.33722651E-01    3     1000022         4        -3   # BR(~chi_1+ -> ~chi_10 c    sb)
     1.11241658E-01    3     1000022       -11        12   # BR(~chi_1+ -> ~chi_10 e+   nu_e)
     1.11241658E-01    3     1000022       -13        14   # BR(~chi_1+ -> ~chi_10 mu+  nu_mu)
     1.10071382E-01    3     1000022       -15        16   # BR(~chi_1+ -> ~chi_10 tau+ nu_tau)
#
#         PDG            Width
DECAY   1000037     1.70615754E+01   # chargino2+ decays
#          BR         NDA      ID1       ID2
     3.93730760E-02    2     1000006        -5   # BR(~chi_2+ -> ~t_1     bb)
     2.45001455E-01    2     1000024        23   # BR(~chi_2+ -> ~chi_1+  Z )
     6.17280912E-02    2     1000022        24   # BR(~chi_2+ -> ~chi_10  W+)
     2.42170415E-01    2     1000023        24   # BR(~chi_2+ -> ~chi_20  W+)
     1.73330446E-01    2     1000025        24   # BR(~chi_2+ -> ~chi_30  W+)
     2.38396517E-01    2     1000024        25   # BR(~chi_2+ -> ~chi_1+  h )
#
#         PDG            Width
DECAY   1000022     0.00000000E+00   # neutralino1 decays
#
#         PDG            Width
DECAY   1000023     4.61092163E-05   # neutralino2 decays
#          BR         NDA      ID1       ID2
     1.10629303E-03    2     1000022        22   # BR(~chi_20 -> ~chi_10 gam)
#           BR         NDA      ID1       ID2       ID3
     1.18539497E-01    3     1000022        -2         2   # BR(~chi_20 -> ~chi_10 ub      u)
     1.53734993E-01    3     1000022        -1         1   # BR(~chi_20 -> ~chi_10 db      d)
     1.18539497E-01    3     1000022        -4         4   # BR(~chi_20 -> ~chi_10 cb      c)
     1.53734993E-01    3     1000022        -3         3   # BR(~chi_20 -> ~chi_10 sb      s)
     1.37515075E-01    3     1000022        -5         5   # BR(~chi_20 -> ~chi_10 bb      b)
     3.52351135E-02    3     1000022       -11        11   # BR(~chi_20 -> ~chi_10 e+      e-)
     3.52351135E-02    3     1000022       -13        13   # BR(~chi_20 -> ~chi_10 mu+     mu-)
     3.48023619E-02    3     1000022       -15        15   # BR(~chi_20 -> ~chi_10 tau+    tau-)
     7.04471641E-02    3     1000022       -12        12   # BR(~chi_20 -> ~chi_10 nu_eb   nu_e)
     7.04471641E-02    3     1000022       -14        14   # BR(~chi_20 -> ~chi_10 nu_mub  nu_mu)
     7.04471604E-02    3     1000022       -16        16   # BR(~chi_20 -> ~chi_10 nu_taub nu_tau)
     3.76018832E-05    3     1000024        -2         1   # BR(~chi_20 -> ~chi_1+ ub      d)
     3.76018832E-05    3    -1000024        -1         2   # BR(~chi_20 -> ~chi_1- db      u)
     3.76018832E-05    3     1000024        -4         3   # BR(~chi_20 -> ~chi_1+ cb      s)
     3.76018832E-05    3    -1000024        -3         4   # BR(~chi_20 -> ~chi_1- sb      c)
     1.25339924E-05    3     1000024       -12        11   # BR(~chi_20 -> ~chi_1+ nu_eb   e-)
     1.25339924E-05    3    -1000024        12       -11   # BR(~chi_20 -> ~chi_1- nu_e    e+)
     1.25339924E-05    3     1000024       -14        13   # BR(~chi_20 -> ~chi_1+ nu_mub  mu-)
     1.25339924E-05    3    -1000024        14       -13   # BR(~chi_20 -> ~chi_1- nu_mu   mu+)
     7.51498563E-06    3     1000024       -16        15   # BR(~chi_20 -> ~chi_1+ nu_taub tau-)
     7.51498563E-06    3    -1000024        16       -15   # BR(~chi_20 -> ~chi_1- nu_tau  tau+)
#
#         PDG            Width
DECAY   1000025     1.46522995E-05   # neutralino3 decays
#          BR         NDA      ID1       ID2
     1.45159644E-02    2     1000022        22   # BR(~chi_30 -> ~chi_10 gam)
     6.72514327E-02    2     1000023        22   # BR(~chi_30 -> ~chi_20 gam)
#           BR         NDA      ID1       ID2       ID3
     3.46439888E-02    3     1000022        -2         2   # BR(~chi_30 -> ~chi_10 ub      u)
     4.48005578E-02    3     1000022        -1         1   # BR(~chi_30 -> ~chi_10 db      d)
     3.46439888E-02    3     1000022        -4         4   # BR(~chi_30 -> ~chi_10 cb      c)
     4.48005578E-02    3     1000022        -3         3   # BR(~chi_30 -> ~chi_10 sb      s)
     4.22552036E-02    3     1000022        -5         5   # BR(~chi_30 -> ~chi_10 bb      b)
     1.01660745E-02    3     1000022       -11        11   # BR(~chi_30 -> ~chi_10 e+      e-)
     1.01660745E-02    3     1000022       -13        13   # BR(~chi_30 -> ~chi_10 mu+     mu-)
     1.00777106E-02    3     1000022       -15        15   # BR(~chi_30 -> ~chi_10 tau+    tau-)
     2.05795517E-02    3     1000022       -12        12   # BR(~chi_30 -> ~chi_10 nu_eb   nu_e)
     2.05795517E-02    3     1000022       -14        14   # BR(~chi_30 -> ~chi_10 nu_mub  nu_mu)
     2.05795100E-02    3     1000022       -16        16   # BR(~chi_30 -> ~chi_10 nu_taub nu_tau)
     7.40305940E-03    3     1000023        -2         2   # BR(~chi_30 -> ~chi_20 ub      u)
     9.60198081E-03    3     1000023        -1         1   # BR(~chi_30 -> ~chi_20 db      d)
     7.40305940E-03    3     1000023        -4         4   # BR(~chi_30 -> ~chi_20 cb      c)
     9.60198081E-03    3     1000023        -3         3   # BR(~chi_30 -> ~chi_20 sb      s)
     4.85688571E-03    3     1000023        -5         5   # BR(~chi_30 -> ~chi_20 bb      b)
     2.20133977E-03    3     1000023       -11        11   # BR(~chi_30 -> ~chi_20 e+      e-)
     2.20133977E-03    3     1000023       -13        13   # BR(~chi_30 -> ~chi_20 mu+     mu-)
     2.08181227E-03    3     1000023       -15        15   # BR(~chi_30 -> ~chi_20 tau+    tau-)
     4.39948957E-03    3     1000023       -12        12   # BR(~chi_30 -> ~chi_20 nu_eb   nu_e)
     4.39948957E-03    3     1000023       -14        14   # BR(~chi_30 -> ~chi_20 nu_mub  nu_mu)
     4.39948973E-03    3     1000023       -16        16   # BR(~chi_30 -> ~chi_20 nu_taub nu_tau)
     9.46939053E-02    3     1000024        -2         1   # BR(~chi_30 -> ~chi_1+ ub      d)
     9.46939053E-02    3    -1000024        -1         2   # BR(~chi_30 -> ~chi_1- db      u)
     9.46939053E-02    3     1000024        -4         3   # BR(~chi_30 -> ~chi_1+ cb      s)
     9.46939053E-02    3    -1000024        -3         4   # BR(~chi_30 -> ~chi_1- sb      c)
     3.15640895E-02    3     1000024       -12        11   # BR(~chi_30 -> ~chi_1+ nu_eb   e-)
     3.15640895E-02    3    -1000024        12       -11   # BR(~chi_30 -> ~chi_1- nu_e    e+)
     3.15640895E-02    3     1000024       -14        13   # BR(~chi_30 -> ~chi_1+ nu_mub  mu-)
     3.15640895E-02    3    -1000024        14       -13   # BR(~chi_30 -> ~chi_1- nu_mu   mu+)
     3.06789637E-02    3     1000024       -16        15   # BR(~chi_30 -> ~chi_1+ nu_taub tau-)
     3.06789637E-02    3    -1000024        16       -15   # BR(~chi_30 -> ~chi_1- nu_tau  tau+)
#
#         PDG            Width
DECAY   1000035     1.70553246E+01   # neutralino4 decays
#          BR         NDA      ID1       ID2
     3.36358561E-02    2     1000022        23   # BR(~chi_40 -> ~chi_10   Z )
     1.28382407E-01    2     1000023        23   # BR(~chi_40 -> ~chi_20   Z )
     8.29361486E-02    2     1000025        23   # BR(~chi_40 -> ~chi_30   Z )
     2.38963582E-01    2     1000024       -24   # BR(~chi_40 -> ~chi_1+   W-)
     2.38963582E-01    2    -1000024        24   # BR(~chi_40 -> ~chi_1-   W+)
     2.88606890E-02    2     1000022        25   # BR(~chi_40 -> ~chi_10   h )
     1.16608683E-01    2     1000023        25   # BR(~chi_40 -> ~chi_20   h )
     9.23736337E-02    2     1000025        25   # BR(~chi_40 -> ~chi_30   h )
     1.94553395E-02    2     1000006        -6   # BR(~chi_40 -> ~t_1      tb)
     1.94553395E-02    2    -1000006         6   # BR(~chi_40 -> ~t_1*     t )
     1.82369708E-04    2     1000005        -5   # BR(~chi_40 -> ~b_1      bb)
     1.82369708E-04    2    -1000005         5   # BR(~chi_40 -> ~b_1*     b )
#
#         PDG            Width
DECAY        25     4.05853442E-03   # h decays
#          BR         NDA      ID1       ID2
     5.97002670E-01    2           5        -5   # BR(h -> b       bb     )
     6.42012844E-02    2         -15        15   # BR(h -> tau+    tau-   )
     2.27272174E-04    2         -13        13   # BR(h -> mu+     mu-    )
     4.81993206E-04    2           3        -3   # BR(h -> s       sb     )
     2.09293851E-02    2           4        -4   # BR(h -> c       cb     )
     6.80353919E-02    2          21        21   # BR(h -> g       g      )
     2.36071183E-03    2          22        22   # BR(h -> gam     gam    )
     1.61371449E-03    2          22        23   # BR(h -> Z       gam    )
     2.17632625E-01    2          24       -24   # BR(h -> W+      W-     )
     2.75149524E-02    2          23        23   # BR(h -> Z       Z      )
#
#         PDG            Width
DECAY        35     5.41074159E+01   # H decays
#          BR         NDA      ID1       ID2
     3.38903875E-01    2           5        -5   # BR(H -> b       bb     )
     6.12779719E-02    2         -15        15   # BR(H -> tau+    tau-   )
     2.16664066E-04    2         -13        13   # BR(H -> mu+     mu-    )
     2.56276290E-04    2           3        -3   # BR(H -> s       sb     )
     7.18951563E-08    2           4        -4   # BR(H -> c       cb     )
     7.20539139E-03    2           6        -6   # BR(H -> t       tb     )
     1.08229111E-06    2          21        21   # BR(H -> g       g      )
     2.99308829E-10    2          22        22   # BR(H -> gam     gam    )
     1.84952216E-09    2          23        22   # BR(H -> Z       gam    )
     2.08826156E-06    2          24       -24   # BR(H -> W+      W-     )
     1.04340752E-06    2          23        23   # BR(H -> Z       Z      )
     7.52603821E-06    2          25        25   # BR(H -> h       h      )
    -1.26612893E-24    2          36        36   # BR(H -> A       A      )
     5.06148935E-21    2          23        36   # BR(H -> Z       A      )
     1.86931520E-03    2     1000024  -1000024   # BR(H -> ~chi_1+ ~chi_1-)
     1.66761606E-01    2     1000024  -1000037   # BR(H -> ~chi_1+ ~chi_2-)
     1.66761606E-01    2     1000037  -1000024   # BR(H -> ~chi_2+ ~chi_1-)
     3.40077083E-02    2     1000022   1000022   # BR(H -> ~chi_10 ~chi_10)
     2.64550576E-03    2     1000023   1000023   # BR(H -> ~chi_20 ~chi_20)
     1.70555366E-02    2     1000025   1000025   # BR(H -> ~chi_30 ~chi_30)
     1.42097674E-02    2     1000022   1000023   # BR(H -> ~chi_10 ~chi_20)
     3.48129240E-04    2     1000022   1000025   # BR(H -> ~chi_10 ~chi_30)
     5.10918023E-02    2     1000022   1000035   # BR(H -> ~chi_10 ~chi_40)
     2.11998568E-02    2     1000023   1000025   # BR(H -> ~chi_20 ~chi_30)
     7.39835900E-02    2     1000023   1000035   # BR(H -> ~chi_20 ~chi_40)
     4.21565433E-02    2     1000025   1000035   # BR(H -> ~chi_30 ~chi_40)
     3.50210833E-05    2     1000006  -1000006   # BR(H -> ~t_1    ~t_1*  )
     1.00949910E-06    2     1000006  -2000006   # BR(H -> ~t_1    ~t_2*  )
     1.00949910E-06    2     2000006  -1000006   # BR(H -> ~t_2    ~t_1*  )
#
#         PDG            Width
DECAY        36     5.41061403E+01   # A decays
#          BR         NDA      ID1       ID2
     3.38938011E-01    2           5        -5   # BR(A -> b       bb     )
     6.12798509E-02    2         -15        15   # BR(A -> tau+    tau-   )
     2.16670540E-04    2         -13        13   # BR(A -> mu+     mu-    )
     2.56325701E-04    2           3        -3   # BR(A -> s       sb     )
     7.23469057E-08    2           4        -4   # BR(A -> c       cb     )
     7.21790212E-03    2           6        -6   # BR(A -> t       tb     )
     1.48309673E-05    2          21        21   # BR(A -> g       g      )
     4.06637698E-08    2          22        22   # BR(A -> gam     gam    )
     1.63090830E-08    2          23        22   # BR(A -> Z       gam    )
     2.08393485E-06    2          23        25   # BR(A -> Z       h      )
     1.87261096E-03    2     1000024  -1000024   # BR(A -> ~chi_1+ ~chi_1-)
     1.66767582E-01    2     1000024  -1000037   # BR(A -> ~chi_1+ ~chi_2-)
     1.66767582E-01    2     1000037  -1000024   # BR(A -> ~chi_2+ ~chi_1-)
     2.96720184E-02    2     1000022   1000022   # BR(A -> ~chi_10 ~chi_10)
     3.27613906E-03    2     1000023   1000023   # BR(A -> ~chi_20 ~chi_20)
     1.34614127E-02    2     1000025   1000025   # BR(A -> ~chi_30 ~chi_30)
     1.89690454E-02    2     1000022   1000023   # BR(A -> ~chi_10 ~chi_20)
     1.38724200E-04    2     1000022   1000025   # BR(A -> ~chi_10 ~chi_30)
     4.77240704E-02    2     1000022   1000035   # BR(A -> ~chi_10 ~chi_40)
     2.39503275E-02    2     1000023   1000025   # BR(A -> ~chi_20 ~chi_30)
     8.27976958E-02    2     1000023   1000035   # BR(A -> ~chi_20 ~chi_40)
     3.66744006E-02    2     1000025   1000035   # BR(A -> ~chi_30 ~chi_40)
     1.29351967E-06    2     1000006  -2000006   # BR(A -> ~t_1    ~t_2*  )
     1.29351967E-06    2    -1000006   2000006   # BR(A -> ~t_1*   ~t_2   )
#
#         PDG            Width
DECAY        37     5.39316524E+01   # H+ decays
#          BR         NDA      ID1       ID2
     5.38932998E-04    2           4        -5   # BR(H+ -> c       bb     )
     6.14941592E-02    2         -15        16   # BR(H+ -> tau+    nu_tau )
     2.17428281E-04    2         -13        14   # BR(H+ -> mu+     nu_mu  )
     3.44916819E-06    2           2        -5   # BR(H+ -> u       bb     )
     1.23177143E-05    2           2        -3   # BR(H+ -> u       sb     )
     2.53414993E-04    2           4        -3   # BR(H+ -> c       sb     )
     3.43713797E-01    2           6        -5   # BR(H+ -> t       bb     )
     2.09304669E-06    2          24        25   # BR(H+ -> W+      h      )
     3.02676588E-14    2          24        36   # BR(H+ -> W+      A      )
     4.72140417E-02    2     1000024   1000022   # BR(H+ -> ~chi_1+ ~chi_10)
     6.50326978E-04    2     1000024   1000023   # BR(H+ -> ~chi_1+ ~chi_20)
     4.24985095E-02    2     1000024   1000025   # BR(H+ -> ~chi_1+ ~chi_30)
     1.67526252E-01    2     1000024   1000035   # BR(H+ -> ~chi_1+ ~chi_40)
     9.92417201E-02    2     1000037   1000022   # BR(H+ -> ~chi_2+ ~chi_10)
     1.57457843E-01    2     1000037   1000023   # BR(H+ -> ~chi_2+ ~chi_20)
     7.91719461E-02    2     1000037   1000025   # BR(H+ -> ~chi_2+ ~chi_30)
     3.76833539E-06    2     1000006  -1000005   # BR(H+ -> ~t_1    ~b_1*  )
