#
#                              ======================
#                              | THE SUSYHIT OUTPUT |
#                              ======================
#
#
#              ------------------------------------------------------
#              |     This is the output of the SUSY-HIT package     |
#              |  created by A.Djouadi, M.Muehlleitner and M.Spira. |
#              |  In case of problems with SUSY-HIT email to        |
#              |           margarete.muehlleitner@kit.edu           |
#              |           michael.spira@psi.ch                     |
#              |           abdelhak.djouadi@cern.ch                 |
#              ------------------------------------------------------
#
#              ------------------------------------------------------
#              |  SUSY Les Houches Accord - MSSM Spectrum + Decays  |
#              |              based on the decay programs           |
#              |                                                    |
#              |                     SDECAY 1.5                     |
#              |                                                    |
#              |  Authors: M.Muhlleitner, A.Djouadi and Y.Mambrini  |
#              |  Ref.:    Comput.Phys.Commun.168(2005)46           |
#              |           [hep-ph/0311167]                         |
#              |                                                    |
#              |                     HDECAY 3.4                     |
#              |                                                    |
#              |  By: A.Djouadi,J.Kalinowski,M.Muhlleitner,M.Spira  |
#              |  Ref.:    Comput.Phys.Commun.108(1998)56           |
#              |           [hep-ph/9704448]                         |
#              |                                                    |
#              |                                                    |
#              |  If not stated otherwise all DRbar couplings and   |
#              |  soft SUSY breaking masses are given at the scale  |
#              |  Q=  0.11984126E+04
#              |                                                    |
#              ------------------------------------------------------
#
#
BLOCK DCINFO  # Decay Program information
     1   SDECAY/HDECAY # decay calculator
     2   1.5  /3.4    # version number
#
BLOCK SPINFO  # Spectrum calculator information
     1    SOFTSUSY    # spectrum calculator                
     2    3.7.3       # version number                     
#
BLOCK MODSEL  # Model selection
     1     0   #  nonUniversal                                     
#
BLOCK SMINPUTS  # Standard Model inputs
         1     1.27934000E+02   # alpha_em^-1(M_Z)^MSbar
         2     1.16639000E-05   # G_F [GeV^-2]
         3     1.17200000E-01   # alpha_S(M_Z)^MSbar
         4     9.11870000E+01   # M_Z pole mass
         5     4.19000000E+00   # mb(mb)^MSbar
         6     1.72500000E+02   # mt pole mass
         7     1.77690000E+00   # mtau pole mass
#
BLOCK MINPAR  # Input parameters - minimal models
         3     2.00000000E+01   # tanb                
#
BLOCK EXTPAR  # Input parameters - non-minimal models
         0    -1.00000000E+00   # Set                 
         1     4.59990000E+02   # M_1(MX)             
         2     2.00000000E+03   # M_2(MX)             
         3     1.80000000E+03   # M_3(MX)             
        11     2.64959179E+03   # At(MX)              
        12     0.00000000E+00   # Ab(MX)              
        13     0.00000000E+00   # Atau(MX)            
        23    -4.79990000E+02   # mu(MX)              
        25     2.00000000E+01   # tan                 
        26     4.00000000E+03   # mA(pole)            
        31     4.00000000E+03   # meL(MX)             
        32     4.00000000E+03   # mmuL(MX)            
        33     4.00000000E+03   # mtauL(MX)           
        34     4.00000000E+03   # meR(MX)             
        35     4.00000000E+03   # mmuR(MX)            
        36     4.00000000E+03   # mtauR(MX)           
        41     4.00000000E+03   # mqL1(MX)            
        42     4.00000000E+03   # mqL2(MX)            
        43     7.09990000E+02   # mqL3(MX)            
        44     4.00000000E+03   # muR(MX)             
        45     4.00000000E+03   # mcR(MX)             
        46     2.05485961E+03   # mtR(MX)             
        47     4.00000000E+03   # mdR(MX)             
        48     4.00000000E+03   # msR(MX)             
        49     4.00000000E+03   # mbR(MX)             
#
BLOCK MASS  # Mass Spectrum
# PDG code           mass       particle
        24     8.04192552E+01   # W+
        25     1.26127088E+02   # h
        35     4.00001103E+03   # H
        36     3.99999722E+03   # A
        37     4.00099954E+03   # H+
         5     4.81337004E+00   # b-quark pole mass calculated from mb(mb)_Msbar
   1000001     4.02295288E+03   # ~d_L
   2000001     4.02018023E+03   # ~d_R
   1000002     4.02230196E+03   # ~u_L
   2000002     4.02119078E+03   # ~u_R
   1000003     4.02295288E+03   # ~s_L
   2000003     4.02018023E+03   # ~s_R
   1000004     4.02230196E+03   # ~c_L
   2000004     4.02119078E+03   # ~c_R
   1000005     7.75658968E+02   # ~b_1
   2000005     4.02385446E+03   # ~b_2
   1000006     7.57629026E+02   # ~t_1
   2000006     2.07037632E+03   # ~t_2
   1000011     4.00403793E+03   # ~e_L
   2000011     4.00308606E+03   # ~e_R
   1000012     4.00292696E+03   # ~nu_eL
   1000013     4.00403793E+03   # ~mu_L
   2000013     4.00308606E+03   # ~mu_R
   1000014     4.00292696E+03   # ~nu_muL
   1000015     4.00393887E+03   # ~tau_1
   2000015     4.00822956E+03   # ~tau_2
   1000016     4.00461116E+03   # ~nu_tauL
   1000021     1.97460886E+03   # ~g
   1000022     4.46701741E+02   # ~chi_10
   1000023    -4.91262401E+02   # ~chi_20
   1000025     5.08438783E+02   # ~chi_30
   1000035     2.05340106E+03   # ~chi_40
   1000024     4.89198371E+02   # ~chi_1+
   1000037     2.05356542E+03   # ~chi_2+
#
BLOCK NMIX  # Neutralino Mixing Matrix
  1  1     7.99022921E-01   # N_11
  1  2    -1.89073307E-02   # N_12
  1  3    -4.45392988E-01   # N_13
  1  4    -4.03521959E-01   # N_14
  2  1    -3.47305253E-02   # N_21
  2  2     2.31819212E-02   # N_22
  2  3    -7.04847711E-01   # N_23
  2  4     7.08128586E-01   # N_24
  3  1     6.00295638E-01   # N_31
  3  2     2.84129148E-02   # N_32
  3  3     5.52045620E-01   # N_33
  3  4     5.77999556E-01   # N_34
  4  1    -1.14461248E-03   # N_41
  4  2     9.99148546E-01   # N_42
  4  3    -7.77331226E-03   # N_43
  4  4    -4.05024423E-02   # N_44
#
BLOCK UMIX  # Chargino Mixing Matrix U
  1  1     1.09992421E-02   # U_11
  1  2     9.99939507E-01   # U_12
  2  1    -9.99939507E-01   # U_21
  2  2     1.09992421E-02   # U_22
#
BLOCK VMIX  # Chargino Mixing Matrix V
  1  1     5.72882039E-02   # V_11
  1  2    -9.98357682E-01   # V_12
  2  1    -9.98357682E-01   # V_21
  2  2    -5.72882039E-02   # V_22
#
BLOCK STOPMIX  # Stop Mixing Matrix
  1  1     9.94382434E-01   # cos(theta_t)
  1  2    -1.05846941E-01   # sin(theta_t)
  2  1     1.05846941E-01   # -sin(theta_t)
  2  2     9.94382434E-01   # cos(theta_t)
#
BLOCK SBOTMIX  # Sbottom Mixing Matrix
  1  1     9.99998818E-01   # cos(theta_b)
  1  2    -1.53753003E-03   # sin(theta_b)
  2  1     1.53753003E-03   # -sin(theta_b)
  2  2     9.99998818E-01   # cos(theta_b)
#
BLOCK STAUMIX  # Stau Mixing Matrix
  1  1    -7.06176909E-01   # cos(theta_tau)
  1  2     7.08035432E-01   # sin(theta_tau)
  2  1    -7.08035432E-01   # -sin(theta_tau)
  2  2    -7.06176909E-01   # cos(theta_tau)
#
BLOCK ALPHA  # Higgs mixing
          -5.00256558E-02   # Mixing angle in the neutral Higgs boson sector
#
BLOCK HMIX Q=  1.19841257E+03  # DRbar Higgs Parameters
         1    -4.79990000E+02   # mu(Q)MSSM           
         2     2.00000000E+01   # tan                 
         3     2.43849713E+02   # higgs               
         4     1.62393964E+07   # mA^2(Q)MSSM         
#
BLOCK GAUGE Q=  1.19841257E+03  # The gauge couplings
     1     3.61588005E-01   # gprime(Q) DRbar
     2     6.35734859E-01   # g(Q) DRbar
     3     1.03206419E+00   # g3(Q) DRbar
#
BLOCK AU Q=  1.19841257E+03  # The trilinear couplings
  1  1     0.00000000E+00   # A_u(Q) DRbar
  2  2     1.14393916E-06   # A_c(Q) DRbar
  3  3     2.64959179E+03   # A_t(Q) DRbar
#
BLOCK AD Q=  1.19841257E+03  # The trilinear couplings
  1  1     4.21617888E-07   # A_d(Q) DRbar
  2  2     4.21656944E-07   # A_s(Q) DRbar
  3  3     7.54969132E-07   # A_b(Q) DRbar
#
BLOCK AE Q=  1.19841257E+03  # The trilinear couplings
  1  1     0.00000000E+00   # A_e(Q) DRbar
  2  2     9.38769575E-08   # A_mu(Q) DRbar
  3  3     9.48269281E-08   # A_tau(Q) DRbar
#
BLOCK Yu Q=  1.19841257E+03  # The Yukawa couplings
  1  1     0.00000000E+00   # y_u(Q) DRbar
  2  2     0.00000000E+00   # y_c(Q) DRbar
  3  3     8.69813612E-01   # y_t(Q) DRbar
#
BLOCK Yd Q=  1.19841257E+03  # The Yukawa couplings
  1  1     0.00000000E+00   # y_d(Q) DRbar
  2  2     0.00000000E+00   # y_s(Q) DRbar
  3  3     2.88124851E-01   # y_b(Q) DRbar
#
BLOCK Ye Q=  1.19841257E+03  # The Yukawa couplings
  1  1     0.00000000E+00   # y_e(Q) DRbar
  2  2     0.00000000E+00   # y_mu(Q) DRbar
  3  3     2.02903604E-01   # y_tau(Q) DRbar
#
BLOCK MSOFT Q=  1.19841257E+03  # The soft SUSY breaking masses at the scale Q
         1     4.59990000E+02   # M_1(Q)              
         2     2.00000000E+03   # M_2(Q)              
         3     1.80000000E+03   # M_3(Q)              
        21     1.56567532E+07   # M^2_Hd              
        22    -2.27528789E+05   # M^2_Hu              
        31     4.00000000E+03   # M_eL                
        32     4.00000000E+03   # M_muL               
        33     4.00000000E+03   # M_tauL              
        34     4.00000000E+03   # M_eR                
        35     4.00000000E+03   # M_muR               
        36     4.00000000E+03   # M_tauR              
        41     4.00000000E+03   # M_q1L               
        42     4.00000000E+03   # M_q2L               
        43     7.09989997E+02   # M_q3L               
        44     4.00000000E+03   # M_uR                
        45     4.00000000E+03   # M_cR                
        46     2.05485961E+03   # M_tR                
        47     4.00000000E+03   # M_dR                
        48     4.00000000E+03   # M_sR                
        49     4.00000000E+03   # M_bR                
#
#
#
#                             =================
#                             |The decay table|
#                             =================
#
# - The QCD corrections to the decays gluino -> squark  + quark
#                                     squark -> gaugino + quark_prime
#                                     squark -> squark_prime + Higgs
#                                     squark -> gluino  + quark
#   are included.
#
# - The multi-body decays for the inos, stops and sbottoms are included.
#
# - The loop induced decays for the gluino, neutralinos and stops
#   are included.
#
# - The SUSY decays of the top quark are included.
#
#
#         PDG            Width
DECAY         6     1.40207152E+00   # top decays
#          BR         NDA      ID1       ID2
     1.00000000E+00    2           5        24   # BR(t ->  b    W+)
#
#         PDG            Width
DECAY   1000021     6.04199736E+01   # gluino decays
#          BR         NDA      ID1       ID2
     2.43428561E-01    2     1000005        -5   # BR(~g -> ~b_1  bb)
     2.43428561E-01    2    -1000005         5   # BR(~g -> ~b_1* b )
     2.56571439E-01    2     1000006        -6   # BR(~g -> ~t_1  tb)
     2.56571439E-01    2    -1000006         6   # BR(~g -> ~t_1* t )
#
#         PDG            Width
DECAY   1000006     3.11555519E+00   # stop1 decays
#          BR         NDA      ID1       ID2
     2.20209332E-01    2     1000022         6   # BR(~t_1 -> ~chi_10 t )
     3.87771367E-01    2     1000023         6   # BR(~t_1 -> ~chi_20 t )
     2.56215416E-01    2     1000025         6   # BR(~t_1 -> ~chi_30 t )
     1.35803885E-01    2     1000024         5   # BR(~t_1 -> ~chi_1+ b )
#
#         PDG            Width
DECAY   2000006     1.22299015E+02   # stop2 decays
#          BR         NDA      ID1       ID2
     5.90764613E-02    2     1000022         6   # BR(~t_2 -> ~chi_10 t )
     1.09549652E-01    2     1000023         6   # BR(~t_2 -> ~chi_20 t )
     8.07252378E-02    2     1000025         6   # BR(~t_2 -> ~chi_30 t )
     2.16820319E-01    2     1000024         5   # BR(~t_2 -> ~chi_1+ b )
     2.17140340E-08    2     1000037         5   # BR(~t_2 -> ~chi_2+ b )
     1.70764393E-01    2     1000006        25   # BR(~t_2 -> ~t_1    h )
     1.18661120E-01    2     1000006        23   # BR(~t_2 -> ~t_1    Z )
     2.44402795E-01    2     1000005        24   # BR(~t_2 -> ~b_1    W+)
#
#         PDG            Width
DECAY   1000005     3.60398735E+00   # sbottom1 decays
#          BR         NDA      ID1       ID2
     4.27349677E-02    2     1000022         5   # BR(~b_1 -> ~chi_10 b )
     6.20901243E-02    2     1000023         5   # BR(~b_1 -> ~chi_20 b )
     3.62078200E-02    2     1000025         5   # BR(~b_1 -> ~chi_30 b )
     8.58967088E-01    2    -1000024         6   # BR(~b_1 -> ~chi_1- t )
#
#         PDG            Width
DECAY   2000005     1.67001027E+02   # sbottom2 decays
#          BR         NDA      ID1       ID2
     1.56209662E-02    2     1000022         5   # BR(~b_2 -> ~chi_10 b )
     1.81776359E-02    2     1000023         5   # BR(~b_2 -> ~chi_20 b )
     1.58260337E-02    2     1000025         5   # BR(~b_2 -> ~chi_30 b )
     2.05543433E-06    2     1000035         5   # BR(~b_2 -> ~chi_40 b )
     3.64463361E-02    2    -1000024         6   # BR(~b_2 -> ~chi_1- t )
     4.08227566E-06    2    -1000037         6   # BR(~b_2 -> ~chi_2- t )
     9.12718810E-01    2     1000021         5   # BR(~b_2 -> ~g      b )
     2.56923789E-04    2     1000005        25   # BR(~b_2 -> ~b_1    h )
     3.52750490E-04    2     1000005        23   # BR(~b_2 -> ~b_1    Z )
     5.91834073E-04    2     1000006       -24   # BR(~b_2 -> ~t_1    W-)
     2.57163131E-06    2     2000006       -24   # BR(~b_2 -> ~t_2    W-)
#
#         PDG            Width
DECAY   1000002     1.78605467E+02   # sup_L decays
#          BR         NDA      ID1       ID2
     1.49702530E-03    2     1000022         2   # BR(~u_L -> ~chi_10 u)
     2.33419451E-05    2     1000023         2   # BR(~u_L -> ~chi_20 u)
     1.71036259E-03    2     1000025         2   # BR(~u_L -> ~chi_30 u)
     4.78529486E-02    2     1000035         2   # BR(~u_L -> ~chi_40 u)
     5.56324157E-04    2     1000024         1   # BR(~u_L -> ~chi_1+ d)
     9.55852585E-02    2     1000037         1   # BR(~u_L -> ~chi_2+ d)
     8.52774739E-01    2     1000021         2   # BR(~u_L -> ~g      u)
#
#         PDG            Width
DECAY   2000002     1.60937719E+02   # sup_R decays
#          BR         NDA      ID1       ID2
     3.46940313E-02    2     1000022         2   # BR(~u_R -> ~chi_10 u)
     6.52144562E-05    2     1000023         2   # BR(~u_R -> ~chi_20 u)
     1.94418537E-02    2     1000025         2   # BR(~u_R -> ~chi_30 u)
     4.00733449E-08    2     1000035         2   # BR(~u_R -> ~chi_40 u)
     9.45798860E-01    2     1000021         2   # BR(~u_R -> ~g      u)
#
#         PDG            Width
DECAY   1000001     1.78625567E+02   # sdown_L decays
#          BR         NDA      ID1       ID2
     2.47292713E-03    2     1000022         1   # BR(~d_L -> ~chi_10 d)
     7.50831320E-05    2     1000023         1   # BR(~d_L -> ~chi_20 d)
     6.16685615E-04    2     1000025         1   # BR(~d_L -> ~chi_30 d)
     4.79078099E-02    2     1000035         1   # BR(~d_L -> ~chi_40 d)
     2.05092502E-05    2    -1000024         2   # BR(~d_L -> ~chi_1- u)
     9.59149664E-02    2    -1000037         2   # BR(~d_L -> ~chi_2- u)
     8.52992019E-01    2     1000021         1   # BR(~d_L -> ~g      d)
#
#         PDG            Width
DECAY   2000001     1.54308002E+02   # sdown_R decays
#          BR         NDA      ID1       ID2
     9.04373364E-03    2     1000022         1   # BR(~d_R -> ~chi_10 d)
     1.69994845E-05    2     1000023         1   # BR(~d_R -> ~chi_20 d)
     5.06791217E-03    2     1000025         1   # BR(~d_R -> ~chi_30 d)
     1.04424406E-08    2     1000035         1   # BR(~d_R -> ~chi_40 d)
     9.85871344E-01    2     1000021         1   # BR(~d_R -> ~g      d)
#
#         PDG            Width
DECAY   1000004     1.78605467E+02   # scharm_L decays
#          BR         NDA      ID1       ID2
     1.49702530E-03    2     1000022         4   # BR(~c_L -> ~chi_10 c)
     2.33419451E-05    2     1000023         4   # BR(~c_L -> ~chi_20 c)
     1.71036259E-03    2     1000025         4   # BR(~c_L -> ~chi_30 c)
     4.78529486E-02    2     1000035         4   # BR(~c_L -> ~chi_40 c)
     5.56324157E-04    2     1000024         3   # BR(~c_L -> ~chi_1+ s)
     9.55852585E-02    2     1000037         3   # BR(~c_L -> ~chi_2+ s)
     8.52774739E-01    2     1000021         4   # BR(~c_L -> ~g      c)
#
#         PDG            Width
DECAY   2000004     1.60937719E+02   # scharm_R decays
#          BR         NDA      ID1       ID2
     3.46940313E-02    2     1000022         4   # BR(~c_R -> ~chi_10 c)
     6.52144562E-05    2     1000023         4   # BR(~c_R -> ~chi_20 c)
     1.94418537E-02    2     1000025         4   # BR(~c_R -> ~chi_30 c)
     4.00733449E-08    2     1000035         4   # BR(~c_R -> ~chi_40 c)
     9.45798860E-01    2     1000021         4   # BR(~c_R -> ~g      c)
#
#         PDG            Width
DECAY   1000003     1.78625567E+02   # sstrange_L decays
#          BR         NDA      ID1       ID2
     2.47292713E-03    2     1000022         3   # BR(~s_L -> ~chi_10 s)
     7.50831320E-05    2     1000023         3   # BR(~s_L -> ~chi_20 s)
     6.16685615E-04    2     1000025         3   # BR(~s_L -> ~chi_30 s)
     4.79078099E-02    2     1000035         3   # BR(~s_L -> ~chi_40 s)
     2.05092502E-05    2    -1000024         4   # BR(~s_L -> ~chi_1- c)
     9.59149664E-02    2    -1000037         4   # BR(~s_L -> ~chi_2- c)
     8.52992019E-01    2     1000021         3   # BR(~s_L -> ~g      s)
#
#         PDG            Width
DECAY   2000003     1.54308002E+02   # sstrange_R decays
#          BR         NDA      ID1       ID2
     9.04373364E-03    2     1000022         3   # BR(~s_R -> ~chi_10 s)
     1.69994845E-05    2     1000023         3   # BR(~s_R -> ~chi_20 s)
     5.06791217E-03    2     1000025         3   # BR(~s_R -> ~chi_30 s)
     1.04424406E-08    2     1000035         3   # BR(~s_R -> ~chi_40 s)
     9.85871344E-01    2     1000021         3   # BR(~s_R -> ~g      s)
#
#         PDG            Width
DECAY   1000011     3.13139283E+01   # selectron_L decays
#          BR         NDA      ID1       ID2
     9.51084112E-02    2     1000022        11   # BR(~e_L -> ~chi_10 e-)
     5.86091958E-06    2     1000023        11   # BR(~e_L -> ~chi_20 e-)
     6.80660691E-02    2     1000025        11   # BR(~e_L -> ~chi_30 e-)
     2.78384492E-01    2     1000035        11   # BR(~e_L -> ~chi_40 e-)
     1.20699410E-04    2    -1000024        12   # BR(~e_L -> ~chi_1- nu_e)
     5.58314468E-01    2    -1000037        12   # BR(~e_L -> ~chi_2- nu_e)
#
#         PDG            Width
DECAY   2000011     2.02549257E+01   # selectron_R decays
#          BR         NDA      ID1       ID2
     6.40158016E-01    2     1000022        11   # BR(~e_R -> ~chi_10 e-)
     1.20307949E-03    2     1000023        11   # BR(~e_R -> ~chi_20 e-)
     3.58638174E-01    2     1000025        11   # BR(~e_R -> ~chi_30 e-)
     7.31408810E-07    2     1000035        11   # BR(~e_R -> ~chi_40 e-)
#
#         PDG            Width
DECAY   1000013     3.13139283E+01   # smuon_L decays
#          BR         NDA      ID1       ID2
     9.51084112E-02    2     1000022        13   # BR(~mu_L -> ~chi_10 mu-)
     5.86091958E-06    2     1000023        13   # BR(~mu_L -> ~chi_20 mu-)
     6.80660691E-02    2     1000025        13   # BR(~mu_L -> ~chi_30 mu-)
     2.78384492E-01    2     1000035        13   # BR(~mu_L -> ~chi_40 mu-)
     1.20699410E-04    2    -1000024        14   # BR(~mu_L -> ~chi_1- nu_mu)
     5.58314468E-01    2    -1000037        14   # BR(~mu_L -> ~chi_2- nu_mu)
#
#         PDG            Width
DECAY   2000013     2.02549257E+01   # smuon_R decays
#          BR         NDA      ID1       ID2
     6.40158016E-01    2     1000022        13   # BR(~mu_R -> ~chi_10 mu-)
     1.20307949E-03    2     1000023        13   # BR(~mu_R -> ~chi_20 mu-)
     3.58638174E-01    2     1000025        13   # BR(~mu_R -> ~chi_30 mu-)
     7.31408810E-07    2     1000035        13   # BR(~mu_R -> ~chi_40 mu-)
#
#         PDG            Width
DECAY   1000015     3.06309834E+01   # stau_1 decays
#          BR         NDA      ID1       ID2
     3.30214935E-01    2     1000022        15   # BR(~tau_1 -> ~chi_10  tau-)
     4.50333931E-02    2     1000023        15   # BR(~tau_1 -> ~chi_20  tau-)
     1.45505904E-01    2     1000025        15   # BR(~tau_1 -> ~chi_30  tau-)
     1.40915141E-01    2     1000035        15   # BR(~tau_1 -> ~chi_40  tau-)
     5.57166749E-02    2    -1000024        16   # BR(~tau_1 -> ~chi_1-  nu_tau)
     2.82613951E-01    2    -1000037        16   # BR(~tau_1 -> ~chi_2-  nu_tau)
#
#         PDG            Width
DECAY   2000015     3.05419455E+01   # stau_2 decays
#          BR         NDA      ID1       ID2
     2.32787843E-01    2     1000022        15   # BR(~tau_2 -> ~chi_10  tau-)
     5.92094179E-02    2     1000023        15   # BR(~tau_2 -> ~chi_20  tau-)
     2.25351335E-01    2     1000025        15   # BR(~tau_2 -> ~chi_30  tau-)
     1.44458758E-01    2     1000035        15   # BR(~tau_2 -> ~chi_40  tau-)
     4.84795971E-02    2    -1000024        16   # BR(~tau_2 -> ~chi_1-  nu_tau)
     2.89713049E-01    2    -1000037        16   # BR(~tau_2 -> ~chi_2-  nu_tau)
#
#         PDG            Width
DECAY   1000012     3.13245472E+01   # snu_eL decays
#          BR         NDA      ID1       ID2
     1.12269045E-01    2     1000022        12   # BR(~nu_eL -> ~chi_10 nu_e)
     9.18754552E-04    2     1000023        12   # BR(~nu_eL -> ~chi_20 nu_e)
     4.87255762E-02    2     1000025        12   # BR(~nu_eL -> ~chi_30 nu_e)
     2.78828453E-01    2     1000035        12   # BR(~nu_eL -> ~chi_40 nu_e)
     3.27216326E-03    2     1000024        11   # BR(~nu_eL -> ~chi_1+ e-)
     5.55986008E-01    2     1000037        11   # BR(~nu_eL -> ~chi_2+ e-)
#
#         PDG            Width
DECAY   1000014     3.13245472E+01   # snu_muL decays
#          BR         NDA      ID1       ID2
     1.12269045E-01    2     1000022        14   # BR(~nu_muL -> ~chi_10 nu_mu)
     9.18754552E-04    2     1000023        14   # BR(~nu_muL -> ~chi_20 nu_mu)
     4.87255762E-02    2     1000025        14   # BR(~nu_muL -> ~chi_30 nu_mu)
     2.78828453E-01    2     1000035        14   # BR(~nu_muL -> ~chi_40 nu_mu)
     3.27216326E-03    2     1000024        13   # BR(~nu_muL -> ~chi_1+ mu-)
     5.55986008E-01    2     1000037        13   # BR(~nu_muL -> ~chi_2+ mu-)
#
#         PDG            Width
DECAY   1000016     3.45362404E+01   # snu_tauL decays
#          BR         NDA      ID1       ID2
     1.01873604E-01    2     1000022        16   # BR(~nu_tauL -> ~chi_10 nu_tau)
     8.33687143E-04    2     1000023        16   # BR(~nu_tauL -> ~chi_20 nu_tau)
     4.42141613E-02    2     1000025        16   # BR(~nu_tauL -> ~chi_30 nu_tau)
     2.53157229E-01    2     1000035        16   # BR(~nu_tauL -> ~chi_40 nu_tau)
     9.51201733E-02    2     1000024        15   # BR(~nu_tauL -> ~chi_1+ tau-)
     5.04801146E-01    2     1000037        15   # BR(~nu_tauL -> ~chi_2+ tau-)
#
#         PDG            Width
DECAY   1000024     6.24490640E-05   # chargino1+ decays
#           BR         NDA      ID1       ID2       ID3
     3.33649166E-01    3     1000022         2        -1   # BR(~chi_1+ -> ~chi_10 u    db)
     3.33649166E-01    3     1000022         4        -3   # BR(~chi_1+ -> ~chi_10 c    sb)
     1.11217869E-01    3     1000022       -11        12   # BR(~chi_1+ -> ~chi_10 e+   nu_e)
     1.11217869E-01    3     1000022       -13        14   # BR(~chi_1+ -> ~chi_10 mu+  nu_mu)
     1.10265929E-01    3     1000022       -15        16   # BR(~chi_1+ -> ~chi_10 tau+ nu_tau)
#
#         PDG            Width
DECAY   1000037     5.79948881E+01   # chargino2+ decays
#          BR         NDA      ID1       ID2
     3.73552783E-01    2     1000006        -5   # BR(~chi_2+ -> ~t_1     bb)
     3.59221786E-01    2    -1000005         6   # BR(~chi_2+ -> ~b_1*    t )
     6.79245719E-02    2     1000024        23   # BR(~chi_2+ -> ~chi_1+  Z )
     1.96390453E-02    2     1000022        24   # BR(~chi_2+ -> ~chi_10  W+)
     6.62295707E-02    2     1000023        24   # BR(~chi_2+ -> ~chi_20  W+)
     4.64949107E-02    2     1000025        24   # BR(~chi_2+ -> ~chi_30  W+)
     6.69373319E-02    2     1000024        25   # BR(~chi_2+ -> ~chi_1+  h )
#
#         PDG            Width
DECAY   1000022     0.00000000E+00   # neutralino1 decays
#
#         PDG            Width
DECAY   1000023     6.31811899E-05   # neutralino2 decays
#          BR         NDA      ID1       ID2
     8.56957105E-04    2     1000022        22   # BR(~chi_20 -> ~chi_10 gam)
#           BR         NDA      ID1       ID2       ID3
     1.18403770E-01    3     1000022        -2         2   # BR(~chi_20 -> ~chi_10 ub      u)
     1.53584131E-01    3     1000022        -1         1   # BR(~chi_20 -> ~chi_10 db      d)
     1.18403770E-01    3     1000022        -4         4   # BR(~chi_20 -> ~chi_10 cb      c)
     1.53584131E-01    3     1000022        -3         3   # BR(~chi_20 -> ~chi_10 sb      s)
     1.38700265E-01    3     1000022        -5         5   # BR(~chi_20 -> ~chi_10 bb      b)
     3.52160891E-02    3     1000022       -11        11   # BR(~chi_20 -> ~chi_10 e+      e-)
     3.52160891E-02    3     1000022       -13        13   # BR(~chi_20 -> ~chi_10 mu+     mu-)
     3.48279548E-02    3     1000022       -15        15   # BR(~chi_20 -> ~chi_10 tau+    tau-)
     7.04018695E-02    3     1000022       -12        12   # BR(~chi_20 -> ~chi_10 nu_eb   nu_e)
     7.04018695E-02    3     1000022       -14        14   # BR(~chi_20 -> ~chi_10 nu_mub  nu_mu)
     7.04018680E-02    3     1000022       -16        16   # BR(~chi_20 -> ~chi_10 nu_taub nu_tau)
     2.31699565E-07    3     1000024        -2         1   # BR(~chi_20 -> ~chi_1+ ub      d)
     2.31699565E-07    3    -1000024        -1         2   # BR(~chi_20 -> ~chi_1- db      u)
     2.31699565E-07    3     1000024        -4         3   # BR(~chi_20 -> ~chi_1+ cb      s)
     2.31699565E-07    3    -1000024        -3         4   # BR(~chi_20 -> ~chi_1- sb      c)
     7.72332460E-08    3     1000024       -12        11   # BR(~chi_20 -> ~chi_1+ nu_eb   e-)
     7.72332460E-08    3    -1000024        12       -11   # BR(~chi_20 -> ~chi_1- nu_e    e+)
     7.72332460E-08    3     1000024       -14        13   # BR(~chi_20 -> ~chi_1+ nu_mub  mu-)
     7.72332460E-08    3    -1000024        14       -13   # BR(~chi_20 -> ~chi_1- nu_mu   mu+)
     4.27679610E-10    3     1000024       -16        15   # BR(~chi_20 -> ~chi_1+ nu_taub tau-)
     4.27679610E-10    3    -1000024        16       -15   # BR(~chi_20 -> ~chi_1- nu_tau  tau+)
#
#         PDG            Width
DECAY   1000025     6.25521587E-06   # neutralino3 decays
#          BR         NDA      ID1       ID2
     1.14619479E-01    2     1000022        22   # BR(~chi_30 -> ~chi_10 gam)
     2.90380354E-02    2     1000023        22   # BR(~chi_30 -> ~chi_20 gam)
#           BR         NDA      ID1       ID2       ID3
     1.18100991E-02    3     1000022        -2         2   # BR(~chi_30 -> ~chi_10 ub      u)
     1.51667691E-02    3     1000022        -1         1   # BR(~chi_30 -> ~chi_10 db      d)
     1.18100991E-02    3     1000022        -4         4   # BR(~chi_30 -> ~chi_10 cb      c)
     1.51667691E-02    3     1000022        -3         3   # BR(~chi_30 -> ~chi_10 sb      s)
     1.45155268E-02    3     1000022        -5         5   # BR(~chi_30 -> ~chi_10 bb      b)
     3.35893961E-03    3     1000022       -11        11   # BR(~chi_30 -> ~chi_10 e+      e-)
     3.35893961E-03    3     1000022       -13        13   # BR(~chi_30 -> ~chi_10 mu+     mu-)
     3.37263266E-03    3     1000022       -15        15   # BR(~chi_30 -> ~chi_10 tau+    tau-)
     7.01082455E-03    3     1000022       -12        12   # BR(~chi_30 -> ~chi_10 nu_eb   nu_e)
     7.01082455E-03    3     1000022       -14        14   # BR(~chi_30 -> ~chi_10 nu_mub  nu_mu)
     7.01078322E-03    3     1000022       -16        16   # BR(~chi_30 -> ~chi_10 nu_taub nu_tau)
     1.72785753E-02    3     1000023        -2         2   # BR(~chi_30 -> ~chi_20 ub      u)
     2.24129534E-02    3     1000023        -1         1   # BR(~chi_30 -> ~chi_20 db      d)
     1.72785753E-02    3     1000023        -4         4   # BR(~chi_30 -> ~chi_20 cb      c)
     2.24129534E-02    3     1000023        -3         3   # BR(~chi_30 -> ~chi_20 sb      s)
     1.05190066E-02    3     1000023        -5         5   # BR(~chi_30 -> ~chi_20 bb      b)
     5.13945926E-03    3     1000023       -11        11   # BR(~chi_30 -> ~chi_20 e+      e-)
     5.13945926E-03    3     1000023       -13        13   # BR(~chi_30 -> ~chi_20 mu+     mu-)
     4.83613609E-03    3     1000023       -15        15   # BR(~chi_30 -> ~chi_20 tau+    tau-)
     1.02734250E-02    3     1000023       -12        12   # BR(~chi_30 -> ~chi_20 nu_eb   nu_e)
     1.02734250E-02    3     1000023       -14        14   # BR(~chi_30 -> ~chi_20 nu_mub  nu_mu)
     1.02734251E-02    3     1000023       -16        16   # BR(~chi_30 -> ~chi_20 nu_taub nu_tau)
     1.03960755E-01    3     1000024        -2         1   # BR(~chi_30 -> ~chi_1+ ub      d)
     1.03960755E-01    3    -1000024        -1         2   # BR(~chi_30 -> ~chi_1- db      u)
     1.03960755E-01    3     1000024        -4         3   # BR(~chi_30 -> ~chi_1+ cb      s)
     1.03960755E-01    3    -1000024        -3         4   # BR(~chi_30 -> ~chi_1- sb      c)
     3.46531800E-02    3     1000024       -12        11   # BR(~chi_30 -> ~chi_1+ nu_eb   e-)
     3.46531800E-02    3    -1000024        12       -11   # BR(~chi_30 -> ~chi_1- nu_e    e+)
     3.46531800E-02    3     1000024       -14        13   # BR(~chi_30 -> ~chi_1+ nu_mub  mu-)
     3.46531800E-02    3    -1000024        14       -13   # BR(~chi_30 -> ~chi_1- nu_mu   mu+)
     3.32285727E-02    3     1000024       -16        15   # BR(~chi_30 -> ~chi_1+ nu_taub tau-)
     3.32285727E-02    3    -1000024        16       -15   # BR(~chi_30 -> ~chi_1- nu_tau  tau+)
#
#         PDG            Width
DECAY   1000035     5.79813343E+01   # neutralino4 decays
#          BR         NDA      ID1       ID2
     6.87383109E-03    2     1000022        23   # BR(~chi_40 -> ~chi_10   Z )
     4.65657400E-02    2     1000023        23   # BR(~chi_40 -> ~chi_20   Z )
     1.44927404E-02    2     1000025        23   # BR(~chi_40 -> ~chi_30   Z )
     6.62181061E-02    2     1000024       -24   # BR(~chi_40 -> ~chi_1+   W-)
     6.62181061E-02    2    -1000024        24   # BR(~chi_40 -> ~chi_1-   W+)
     1.30624957E-02    2     1000022        25   # BR(~chi_40 -> ~chi_10   h )
     2.10715898E-02    2     1000023        25   # BR(~chi_40 -> ~chi_20   h )
     3.26349889E-02    2     1000025        25   # BR(~chi_40 -> ~chi_30   h )
     1.82944356E-01    2     1000006        -6   # BR(~chi_40 -> ~t_1      tb)
     1.82944356E-01    2    -1000006         6   # BR(~chi_40 -> ~t_1*     t )
     1.83486845E-01    2     1000005        -5   # BR(~chi_40 -> ~b_1      bb)
     1.83486845E-01    2    -1000005         5   # BR(~chi_40 -> ~b_1*     b )
#
#         PDG            Width
DECAY        25     4.08328329E-03   # h decays
#          BR         NDA      ID1       ID2
     5.81232556E-01    2           5        -5   # BR(h -> b       bb     )
     6.41053106E-02    2         -15        15   # BR(h -> tau+    tau-   )
     2.26929817E-04    2         -13        13   # BR(h -> mu+     mu-    )
     4.80817797E-04    2           3        -3   # BR(h -> s       sb     )
     2.08833984E-02    2           4        -4   # BR(h -> c       cb     )
     6.85649718E-02    2          21        21   # BR(h -> g       g      )
     2.39973024E-03    2          22        22   # BR(h -> gam     gam    )
     1.69151743E-03    2          22        23   # BR(h -> Z       gam    )
     2.30949759E-01    2          24       -24   # BR(h -> W+      W-     )
     2.94650089E-02    2          23        23   # BR(h -> Z       Z      )
#
#         PDG            Width
DECAY        35     5.57184953E+01   # H decays
#          BR         NDA      ID1       ID2
     3.68372382E-01    2           5        -5   # BR(H -> b       bb     )
     5.95063434E-02    2         -15        15   # BR(H -> tau+    tau-   )
     2.10400017E-04    2         -13        13   # BR(H -> mu+     mu-    )
     2.48866912E-04    2           3        -3   # BR(H -> s       sb     )
     6.97992803E-08    2           4        -4   # BR(H -> c       cb     )
     6.99534119E-03    2           6        -6   # BR(H -> t       tb     )
     7.07298171E-07    2          21        21   # BR(H -> g       g      )
     3.75701997E-09    2          22        22   # BR(H -> gam     gam    )
     1.80030713E-09    2          23        22   # BR(H -> Z       gam    )
     1.70111861E-06    2          24       -24   # BR(H -> W+      W-     )
     8.49970138E-07    2          23        23   # BR(H -> Z       Z      )
     6.85314618E-06    2          25        25   # BR(H -> h       h      )
    -3.30191191E-24    2          36        36   # BR(H -> A       A      )
     6.29130830E-20    2          23        36   # BR(H -> Z       A      )
     1.85365423E-03    2     1000024  -1000024   # BR(H -> ~chi_1+ ~chi_1-)
     1.52970052E-01    2     1000024  -1000037   # BR(H -> ~chi_1+ ~chi_2-)
     1.52970052E-01    2     1000037  -1000024   # BR(H -> ~chi_2+ ~chi_1-)
     2.42777149E-02    2     1000022   1000022   # BR(H -> ~chi_10 ~chi_10)
     4.32416629E-04    2     1000023   1000023   # BR(H -> ~chi_20 ~chi_20)
     1.58776068E-02    2     1000025   1000025   # BR(H -> ~chi_30 ~chi_30)
     2.30156390E-02    2     1000022   1000023   # BR(H -> ~chi_10 ~chi_20)
     4.20728144E-03    2     1000022   1000025   # BR(H -> ~chi_10 ~chi_30)
     2.81524582E-02    2     1000022   1000035   # BR(H -> ~chi_10 ~chi_40)
     1.42475789E-02    2     1000023   1000025   # BR(H -> ~chi_20 ~chi_30)
     8.20469345E-02    2     1000023   1000035   # BR(H -> ~chi_20 ~chi_40)
     4.32713978E-02    2     1000025   1000035   # BR(H -> ~chi_30 ~chi_40)
     9.26402530E-04    2     1000006  -1000006   # BR(H -> ~t_1    ~t_1*  )
     1.02035740E-02    2     1000006  -2000006   # BR(H -> ~t_1    ~t_2*  )
     1.02035740E-02    2     2000006  -1000006   # BR(H -> ~t_2    ~t_1*  )
     1.41925800E-07    2     1000005  -1000005   # BR(H -> ~b_1    ~b_1*  )
#
#         PDG            Width
DECAY        36     5.57186069E+01   # A decays
#          BR         NDA      ID1       ID2
     3.68397205E-01    2           5        -5   # BR(A -> b       bb     )
     5.95064662E-02    2         -15        15   # BR(A -> tau+    tau-   )
     2.10400286E-04    2         -13        13   # BR(A -> mu+     mu-    )
     2.48907851E-04    2           3        -3   # BR(A -> s       sb     )
     7.02532470E-08    2           4        -4   # BR(A -> c       cb     )
     7.00902210E-03    2           6        -6   # BR(A -> t       tb     )
     1.44017650E-05    2          21        21   # BR(A -> g       g      )
     6.69100068E-08    2          22        22   # BR(A -> gam     gam    )
     1.58370846E-08    2          23        22   # BR(A -> Z       gam    )
     1.69748968E-06    2          23        25   # BR(A -> Z       h      )
     1.89740507E-03    2     1000024  -1000024   # BR(A -> ~chi_1+ ~chi_1-)
     1.52942781E-01    2     1000024  -1000037   # BR(A -> ~chi_1+ ~chi_2-)
     1.52942781E-01    2     1000037  -1000024   # BR(A -> ~chi_2+ ~chi_1-)
     2.13124925E-02    2     1000022   1000022   # BR(A -> ~chi_10 ~chi_10)
     5.62766400E-04    2     1000023   1000023   # BR(A -> ~chi_20 ~chi_20)
     1.37631155E-02    2     1000025   1000025   # BR(A -> ~chi_30 ~chi_30)
     2.72511295E-02    2     1000022   1000023   # BR(A -> ~chi_10 ~chi_20)
     3.50347359E-03    2     1000022   1000025   # BR(A -> ~chi_10 ~chi_30)
     3.25372033E-02    2     1000022   1000035   # BR(A -> ~chi_10 ~chi_40)
     1.56735485E-02    2     1000023   1000025   # BR(A -> ~chi_20 ~chi_30)
     7.04384990E-02    2     1000023   1000035   # BR(A -> ~chi_20 ~chi_40)
     5.04370619E-02    2     1000025   1000035   # BR(A -> ~chi_30 ~chi_40)
     1.06747441E-02    2     1000006  -2000006   # BR(A -> ~t_1    ~t_2*  )
     1.06747441E-02    2    -1000006   2000006   # BR(A -> ~t_1*   ~t_2   )
#
#         PDG            Width
DECAY        37     5.59831486E+01   # H+ decays
#          BR         NDA      ID1       ID2
     5.94051583E-04    2           4        -5   # BR(H+ -> c       bb     )
     5.92401162E-02    2         -15        16   # BR(H+ -> tau+    nu_tau )
     2.09458537E-04    2         -13        14   # BR(H+ -> mu+     nu_mu  )
     3.80192694E-06    2           2        -5   # BR(H+ -> u       bb     )
     1.18662285E-05    2           2        -3   # BR(H+ -> u       sb     )
     2.44126479E-04    2           4        -3   # BR(H+ -> c       sb     )
     3.77876934E-01    2           6        -5   # BR(H+ -> t       bb     )
     1.69133022E-06    2          24        25   # BR(H+ -> W+      h      )
     2.37795719E-14    2          24        36   # BR(H+ -> W+      A      )
     4.92915619E-02    2     1000024   1000022   # BR(H+ -> ~chi_1+ ~chi_10)
     7.03421055E-05    2     1000024   1000023   # BR(H+ -> ~chi_1+ ~chi_20)
     3.29236832E-02    2     1000024   1000025   # BR(H+ -> ~chi_1+ ~chi_30)
     1.52444130E-01    2     1000024   1000035   # BR(H+ -> ~chi_1+ ~chi_40)
     6.05328391E-02    2     1000037   1000022   # BR(H+ -> ~chi_2+ ~chi_10)
     1.51755545E-01    2     1000037   1000023   # BR(H+ -> ~chi_2+ ~chi_20)
     9.34916674E-02    2     1000037   1000025   # BR(H+ -> ~chi_2+ ~chi_30)
     4.75306580E-04    2     1000006  -1000005   # BR(H+ -> ~t_1    ~b_1*  )
     2.08328794E-02    2     2000006  -1000005   # BR(H+ -> ~t_2    ~b_1*  )
