#
#                              ======================
#                              | THE SUSYHIT OUTPUT |
#                              ======================
#
#
#              ------------------------------------------------------
#              |     This is the output of the SUSY-HIT package     |
#              |  created by A.Djouadi, M.Muehlleitner and M.Spira. |
#              |  In case of problems with SUSY-HIT email to        |
#              |           margarete.muehlleitner@kit.edu           |
#              |           michael.spira@psi.ch                     |
#              |           abdelhak.djouadi@cern.ch                 |
#              ------------------------------------------------------
#
#              ------------------------------------------------------
#              |  SUSY Les Houches Accord - MSSM Spectrum + Decays  |
#              |              based on the decay programs           |
#              |                                                    |
#              |                     SDECAY 1.5                     |
#              |                                                    |
#              |  Authors: M.Muhlleitner, A.Djouadi and Y.Mambrini  |
#              |  Ref.:    Comput.Phys.Commun.168(2005)46           |
#              |           [hep-ph/0311167]                         |
#              |                                                    |
#              |                     HDECAY 3.4                     |
#              |                                                    |
#              |  By: A.Djouadi,J.Kalinowski,M.Muhlleitner,M.Spira  |
#              |  Ref.:    Comput.Phys.Commun.108(1998)56           |
#              |           [hep-ph/9704448]                         |
#              |                                                    |
#              |                                                    |
#              |  If not stated otherwise all DRbar couplings and   |
#              |  soft SUSY breaking masses are given at the scale  |
#              |  Q=  0.13999567E+04
#              |                                                    |
#              ------------------------------------------------------
#
#
BLOCK DCINFO  # Decay Program information
     1   SDECAY/HDECAY # decay calculator
     2   1.5  /3.4    # version number
#
BLOCK SPINFO  # Spectrum calculator information
     1    SOFTSUSY    # spectrum calculator                
     2    3.7.3       # version number                     
#
BLOCK MODSEL  # Model selection
     1     0   #  nonUniversal                                     
#
BLOCK SMINPUTS  # Standard Model inputs
         1     1.27934000E+02   # alpha_em^-1(M_Z)^MSbar
         2     1.16639000E-05   # G_F [GeV^-2]
         3     1.17200000E-01   # alpha_S(M_Z)^MSbar
         4     9.11870000E+01   # M_Z pole mass
         5     4.19000000E+00   # mb(mb)^MSbar
         6     1.72500000E+02   # mt pole mass
         7     1.77690000E+00   # mtau pole mass
#
BLOCK MINPAR  # Input parameters - minimal models
         3     2.00000000E+01   # tanb                
#
BLOCK EXTPAR  # Input parameters - non-minimal models
         0    -1.00000000E+00   # Set                 
         1     2.59990000E+02   # M_1(MX)             
         2     2.00000000E+03   # M_2(MX)             
         3     1.80000000E+03   # M_3(MX)             
        11     2.64959179E+03   # At(MX)              
        12     0.00000000E+00   # Ab(MX)              
        13     0.00000000E+00   # Atau(MX)            
        23    -3.03990000E+02   # mu(MX)              
        25     2.00000000E+01   # tan                 
        26     4.00000000E+03   # mA(pole)            
        31     4.00000000E+03   # meL(MX)             
        32     4.00000000E+03   # mmuL(MX)            
        33     4.00000000E+03   # mtauL(MX)           
        34     4.00000000E+03   # meR(MX)             
        35     4.00000000E+03   # mmuR(MX)            
        36     4.00000000E+03   # mtauR(MX)           
        41     4.00000000E+03   # mqL1(MX)            
        42     4.00000000E+03   # mqL2(MX)            
        43     1.05990000E+03   # mqL3(MX)            
        44     4.00000000E+03   # muR(MX)             
        45     4.00000000E+03   # mcR(MX)             
        46     1.86485961E+03   # mtR(MX)             
        47     4.00000000E+03   # mdR(MX)             
        48     4.00000000E+03   # msR(MX)             
        49     4.00000000E+03   # mbR(MX)             
#
BLOCK MASS  # Mass Spectrum
# PDG code           mass       particle
        24     8.04167347E+01   # W+
        25     1.25658048E+02   # h
        35     4.00000782E+03   # H
        36     3.99999700E+03   # A
        37     4.00107439E+03   # H+
         5     4.81337004E+00   # b-quark pole mass calculated from mb(mb)_Msbar
   1000001     4.02853438E+03   # ~d_L
   2000001     4.02463665E+03   # ~d_R
   1000002     4.02788273E+03   # ~u_L
   2000002     4.02533447E+03   # ~u_R
   1000003     4.02853438E+03   # ~s_L
   2000003     4.02463665E+03   # ~s_R
   1000004     4.02788273E+03   # ~c_L
   2000004     4.02533447E+03   # ~c_R
   1000005     1.12010637E+03   # ~b_1
   2000005     4.02681892E+03   # ~b_2
   1000006     1.09728153E+03   # ~t_1
   2000006     1.88130036E+03   # ~t_2
   1000011     4.00509130E+03   # ~e_L
   2000011     4.00353347E+03   # ~e_R
   1000012     4.00397755E+03   # ~nu_eL
   1000013     4.00509130E+03   # ~mu_L
   2000013     4.00353347E+03   # ~mu_R
   1000014     4.00397755E+03   # ~nu_muL
   1000015     4.00476278E+03   # ~tau_1
   2000015     4.00747294E+03   # ~tau_2
   1000016     4.00518056E+03   # ~nu_tauL
   1000021     1.98339636E+03   # ~g
   1000022     2.50281226E+02   # ~chi_10
   1000023    -3.15058243E+02   # ~chi_20
   1000025     3.25151428E+02   # ~chi_30
   1000035     2.05155530E+03   # ~chi_40
   1000024     3.12284334E+02   # ~chi_1+
   1000037     2.05171940E+03   # ~chi_2+
#
BLOCK NMIX  # Neutralino Mixing Matrix
  1  1     8.83658775E-01   # N_11
  1  2    -1.20168199E-02   # N_12
  1  3    -3.66724922E-01   # N_13
  1  4    -2.90715664E-01   # N_14
  2  1    -5.77751939E-02   # N_21
  2  2     2.49558998E-02   # N_22
  2  3    -7.02219334E-01   # N_23
  2  4     7.09173630E-01   # N_24
  3  1     4.64551639E-01   # N_31
  3  2     2.80825423E-02   # N_32
  3  3     6.10233283E-01   # N_33
  3  4     6.41107235E-01   # N_34
  4  1    -9.85957996E-04   # N_41
  4  2     9.99221782E-01   # N_42
  4  3    -4.02238426E-03   # N_43
  4  4    -3.92259912E-02   # N_44
#
BLOCK UMIX  # Chargino Mixing Matrix U
  1  1     5.69390944E-03   # U_11
  1  2     9.99983790E-01   # U_12
  2  1    -9.99983790E-01   # U_21
  2  2     5.69390944E-03   # U_22
#
BLOCK VMIX  # Chargino Mixing Matrix V
  1  1     5.54856979E-02   # V_11
  1  2    -9.98459482E-01   # V_12
  2  1    -9.98459482E-01   # V_21
  2  2    -5.54856979E-02   # V_22
#
BLOCK STOPMIX  # Stop Mixing Matrix
  1  1     9.86841665E-01   # cos(theta_t)
  1  2    -1.61689605E-01   # sin(theta_t)
  2  1     1.61689605E-01   # -sin(theta_t)
  2  2     9.86841665E-01   # cos(theta_t)
#
BLOCK SBOTMIX  # Sbottom Mixing Matrix
  1  1     9.99999506E-01   # cos(theta_b)
  1  2    -9.93981768E-04   # sin(theta_b)
  2  1     9.93981768E-04   # -sin(theta_b)
  2  2     9.99999506E-01   # cos(theta_b)
#
BLOCK STAUMIX  # Stau Mixing Matrix
  1  1    -7.05718792E-01   # cos(theta_tau)
  1  2     7.08492051E-01   # sin(theta_tau)
  2  1    -7.08492051E-01   # -sin(theta_tau)
  2  2    -7.05718792E-01   # cos(theta_tau)
#
BLOCK ALPHA  # Higgs mixing
          -5.00284814E-02   # Mixing angle in the neutral Higgs boson sector
#
BLOCK HMIX Q=  1.39995672E+03  # DRbar Higgs Parameters
         1    -3.03990000E+02   # mu(Q)MSSM           
         2     2.00000000E+01   # tan                 
         3     2.43462636E+02   # higgs               
         4     1.60603688E+07   # mA^2(Q)MSSM         
#
BLOCK GAUGE Q=  1.39995672E+03  # The gauge couplings
     1     3.62211326E-01   # gprime(Q) DRbar
     2     6.36329030E-01   # g(Q) DRbar
     3     1.02835859E+00   # g3(Q) DRbar
#
BLOCK AU Q=  1.39995672E+03  # The trilinear couplings
  1  1     1.59819909E-06   # A_u(Q) DRbar
  2  2     1.59821469E-06   # A_c(Q) DRbar
  3  3     2.64959179E+03   # A_t(Q) DRbar
#
BLOCK AD Q=  1.39995672E+03  # The trilinear couplings
  1  1     5.87870370E-07   # A_d(Q) DRbar
  2  2     5.87924759E-07   # A_s(Q) DRbar
  3  3     1.05110270E-06   # A_b(Q) DRbar
#
BLOCK AE Q=  1.39995672E+03  # The trilinear couplings
  1  1     0.00000000E+00   # A_e(Q) DRbar
  2  2     1.27946426E-07   # A_mu(Q) DRbar
  3  3     1.29265405E-07   # A_tau(Q) DRbar
#
BLOCK Yu Q=  1.39995672E+03  # The Yukawa couplings
  1  1     0.00000000E+00   # y_u(Q) DRbar
  2  2     0.00000000E+00   # y_c(Q) DRbar
  3  3     8.65629240E-01   # y_t(Q) DRbar
#
BLOCK Yd Q=  1.39995672E+03  # The Yukawa couplings
  1  1     0.00000000E+00   # y_d(Q) DRbar
  2  2     0.00000000E+00   # y_s(Q) DRbar
  3  3     2.82841346E-01   # y_b(Q) DRbar
#
BLOCK Ye Q=  1.39995672E+03  # The Yukawa couplings
  1  1     0.00000000E+00   # y_e(Q) DRbar
  2  2     0.00000000E+00   # y_mu(Q) DRbar
  3  3     2.03615610E-01   # y_tau(Q) DRbar
#
BLOCK MSOFT Q=  1.39995672E+03  # The soft SUSY breaking masses at the scale Q
         1     2.59990000E+02   # M_1(Q)              
         2     2.00000000E+03   # M_2(Q)              
         3     1.80000000E+03   # M_3(Q)              
        21     1.58028554E+07   # M^2_Hd              
        22    -3.81370038E+04   # M^2_Hu              
        31     4.00000000E+03   # M_eL                
        32     4.00000000E+03   # M_muL               
        33     4.00000000E+03   # M_tauL              
        34     4.00000000E+03   # M_eR                
        35     4.00000000E+03   # M_muR               
        36     4.00000000E+03   # M_tauR              
        41     4.00000000E+03   # M_q1L               
        42     4.00000000E+03   # M_q2L               
        43     1.05990000E+03   # M_q3L               
        44     4.00000000E+03   # M_uR                
        45     4.00000000E+03   # M_cR                
        46     1.86485961E+03   # M_tR                
        47     4.00000000E+03   # M_dR                
        48     4.00000000E+03   # M_sR                
        49     4.00000000E+03   # M_bR                
#
#
#
#                             =================
#                             |The decay table|
#                             =================
#
# - The QCD corrections to the decays gluino -> squark  + quark
#                                     squark -> gaugino + quark_prime
#                                     squark -> squark_prime + Higgs
#                                     squark -> gluino  + quark
#   are included.
#
# - The multi-body decays for the inos, stops and sbottoms are included.
#
# - The loop induced decays for the gluino, neutralinos and stops
#   are included.
#
# - The SUSY decays of the top quark are included.
#
#
#         PDG            Width
DECAY         6     1.40480384E+00   # top decays
#          BR         NDA      ID1       ID2
     1.00000000E+00    2           5        24   # BR(t ->  b    W+)
#
#         PDG            Width
DECAY   1000021     4.03040707E+01   # gluino decays
#          BR         NDA      ID1       ID2
     2.37620409E-01    2     1000005        -5   # BR(~g -> ~b_1  bb)
     2.37620409E-01    2    -1000005         5   # BR(~g -> ~b_1* b )
     2.62379591E-01    2     1000006        -6   # BR(~g -> ~t_1  tb)
     2.62379591E-01    2    -1000006         6   # BR(~g -> ~t_1* t )
#
#         PDG            Width
DECAY   1000006     1.45511918E+01   # stop1 decays
#          BR         NDA      ID1       ID2
     7.02950116E-02    2     1000022         6   # BR(~t_1 -> ~chi_10 t )
     4.29458514E-01    2     1000023         6   # BR(~t_1 -> ~chi_20 t )
     3.92096533E-01    2     1000025         6   # BR(~t_1 -> ~chi_30 t )
     1.08149942E-01    2     1000024         5   # BR(~t_1 -> ~chi_1+ b )
#
#         PDG            Width
DECAY   2000006     1.07620486E+02   # stop2 decays
#          BR         NDA      ID1       ID2
     5.35177137E-02    2     1000022         6   # BR(~t_2 -> ~chi_10 t )
     1.21544208E-01    2     1000023         6   # BR(~t_2 -> ~chi_20 t )
     9.93150159E-02    2     1000025         6   # BR(~t_2 -> ~chi_30 t )
     2.36308612E-01    2     1000024         5   # BR(~t_2 -> ~chi_1+ b )
     1.52998016E-01    2     1000006        25   # BR(~t_2 -> ~t_1    h )
     1.15902869E-01    2     1000006        23   # BR(~t_2 -> ~t_1    Z )
     2.20413565E-01    2     1000005        24   # BR(~t_2 -> ~b_1    W+)
#
#         PDG            Width
DECAY   1000005     1.49551003E+01   # sbottom1 decays
#          BR         NDA      ID1       ID2
     2.29376948E-02    2     1000022         5   # BR(~b_1 -> ~chi_10 b )
     4.84527489E-02    2     1000023         5   # BR(~b_1 -> ~chi_20 b )
     3.67848657E-02    2     1000025         5   # BR(~b_1 -> ~chi_30 b )
     8.91824691E-01    2    -1000024         6   # BR(~b_1 -> ~chi_1- t )
#
#         PDG            Width
DECAY   2000005     1.65655440E+02   # sbottom2 decays
#          BR         NDA      ID1       ID2
     1.54556384E-02    2     1000022         5   # BR(~b_2 -> ~chi_10 b )
     1.80983489E-02    2     1000023         5   # BR(~b_2 -> ~chi_20 b )
     1.65285284E-02    2     1000025         5   # BR(~b_2 -> ~chi_30 b )
     6.14220193E-07    2     1000035         5   # BR(~b_2 -> ~chi_40 b )
     3.65079379E-02    2    -1000024         6   # BR(~b_2 -> ~chi_1- t )
     1.21242116E-06    2    -1000037         6   # BR(~b_2 -> ~chi_2- t )
     9.12970016E-01    2     1000021         5   # BR(~b_2 -> ~g      b )
     9.58348313E-05    2     1000005        25   # BR(~b_2 -> ~b_1    h )
     1.27044766E-04    2     1000005        23   # BR(~b_2 -> ~b_1    Z )
     2.11606801E-04    2     1000006       -24   # BR(~b_2 -> ~t_1    W-)
     3.21761911E-06    2     2000006       -24   # BR(~b_2 -> ~t_2    W-)
#
#         PDG            Width
DECAY   1000002     1.77809115E+02   # sup_L decays
#          BR         NDA      ID1       ID2
     2.11413849E-03    2     1000022         2   # BR(~u_L -> ~chi_10 u)
     1.70151489E-05    2     1000023         2   # BR(~u_L -> ~chi_20 u)
     1.17287935E-03    2     1000025         2   # BR(~u_L -> ~chi_30 u)
     4.83979784E-02    2     1000035         2   # BR(~u_L -> ~chi_40 u)
     5.35126514E-04    2     1000024         1   # BR(~u_L -> ~chi_1+ d)
     9.66737642E-02    2     1000037         1   # BR(~u_L -> ~chi_2+ d)
     8.51089098E-01    2     1000021         2   # BR(~u_L -> ~g      u)
#
#         PDG            Width
DECAY   2000002     1.60035219E+02   # sup_R decays
#          BR         NDA      ID1       ID2
     4.35817187E-02    2     1000022         2   # BR(~u_R -> ~chi_10 u)
     1.85501672E-04    2     1000023         2   # BR(~u_R -> ~chi_20 u)
     1.19839487E-02    2     1000025         2   # BR(~u_R -> ~chi_30 u)
     3.01230994E-08    2     1000035         2   # BR(~u_R -> ~chi_40 u)
     9.44248801E-01    2     1000021         2   # BR(~u_R -> ~g      u)
#
#         PDG            Width
DECAY   1000001     1.77829002E+02   # sdown_L decays
#          BR         NDA      ID1       ID2
     2.81758679E-03    2     1000022         1   # BR(~d_L -> ~chi_10 d)
     1.12105761E-04    2     1000023         1   # BR(~d_L -> ~chi_20 d)
     3.13227281E-04    2     1000025         1   # BR(~d_L -> ~chi_30 d)
     4.84476178E-02    2     1000035         1   # BR(~d_L -> ~chi_40 d)
     5.63559905E-06    2    -1000024         2   # BR(~d_L -> ~chi_1- u)
     9.69959606E-02    2    -1000037         2   # BR(~d_L -> ~chi_2- u)
     8.51307866E-01    2     1000021         1   # BR(~d_L -> ~g      d)
#
#         PDG            Width
DECAY   2000001     1.53283408E+02   # sdown_R decays
#          BR         NDA      ID1       ID2
     1.13733122E-02    2     1000022         1   # BR(~d_R -> ~chi_10 d)
     4.84094101E-05    2     1000023         1   # BR(~d_R -> ~chi_20 d)
     3.12738817E-03    2     1000025         1   # BR(~d_R -> ~chi_30 d)
     7.85921613E-09    2     1000035         1   # BR(~d_R -> ~chi_40 d)
     9.85450882E-01    2     1000021         1   # BR(~d_R -> ~g      d)
#
#         PDG            Width
DECAY   1000004     1.77809115E+02   # scharm_L decays
#          BR         NDA      ID1       ID2
     2.11413849E-03    2     1000022         4   # BR(~c_L -> ~chi_10 c)
     1.70151489E-05    2     1000023         4   # BR(~c_L -> ~chi_20 c)
     1.17287935E-03    2     1000025         4   # BR(~c_L -> ~chi_30 c)
     4.83979784E-02    2     1000035         4   # BR(~c_L -> ~chi_40 c)
     5.35126514E-04    2     1000024         3   # BR(~c_L -> ~chi_1+ s)
     9.66737642E-02    2     1000037         3   # BR(~c_L -> ~chi_2+ s)
     8.51089098E-01    2     1000021         4   # BR(~c_L -> ~g      c)
#
#         PDG            Width
DECAY   2000004     1.60035219E+02   # scharm_R decays
#          BR         NDA      ID1       ID2
     4.35817187E-02    2     1000022         4   # BR(~c_R -> ~chi_10 c)
     1.85501672E-04    2     1000023         4   # BR(~c_R -> ~chi_20 c)
     1.19839487E-02    2     1000025         4   # BR(~c_R -> ~chi_30 c)
     3.01230994E-08    2     1000035         4   # BR(~c_R -> ~chi_40 c)
     9.44248801E-01    2     1000021         4   # BR(~c_R -> ~g      c)
#
#         PDG            Width
DECAY   1000003     1.77829002E+02   # sstrange_L decays
#          BR         NDA      ID1       ID2
     2.81758679E-03    2     1000022         3   # BR(~s_L -> ~chi_10 s)
     1.12105761E-04    2     1000023         3   # BR(~s_L -> ~chi_20 s)
     3.13227281E-04    2     1000025         3   # BR(~s_L -> ~chi_30 s)
     4.84476178E-02    2     1000035         3   # BR(~s_L -> ~chi_40 s)
     5.63559905E-06    2    -1000024         4   # BR(~s_L -> ~chi_1- c)
     9.69959606E-02    2    -1000037         4   # BR(~s_L -> ~chi_2- c)
     8.51307866E-01    2     1000021         3   # BR(~s_L -> ~g      s)
#
#         PDG            Width
DECAY   2000003     1.53283408E+02   # sstrange_R decays
#          BR         NDA      ID1       ID2
     1.13733122E-02    2     1000022         3   # BR(~s_R -> ~chi_10 s)
     4.84094101E-05    2     1000023         3   # BR(~s_R -> ~chi_20 s)
     3.12738817E-03    2     1000025         3   # BR(~s_R -> ~chi_30 s)
     7.85921613E-09    2     1000035         3   # BR(~s_R -> ~chi_40 s)
     9.85450882E-01    2     1000021         3   # BR(~s_R -> ~g      s)
#
#         PDG            Width
DECAY   1000011     3.15267516E+01   # selectron_L decays
#          BR         NDA      ID1       ID2
     1.22384137E-01    2     1000022        11   # BR(~e_L -> ~chi_10 e-)
     3.17870977E-05    2     1000023        11   # BR(~e_L -> ~chi_20 e-)
     4.32064402E-02    2     1000025        11   # BR(~e_L -> ~chi_30 e-)
     2.77645241E-01    2     1000035        11   # BR(~e_L -> ~chi_40 e-)
     3.27756360E-05    2    -1000024        12   # BR(~e_L -> ~chi_1- nu_e)
     5.56699619E-01    2    -1000037        12   # BR(~e_L -> ~chi_2- nu_e)
#
#         PDG            Width
DECAY   2000011     2.07116246E+01   # selectron_R decays
#          BR         NDA      ID1       ID2
     7.81774437E-01    2     1000022        11   # BR(~e_R -> ~chi_10 e-)
     3.32659933E-03    2     1000023        11   # BR(~e_R -> ~chi_20 e-)
     2.14898430E-01    2     1000025        11   # BR(~e_R -> ~chi_30 e-)
     5.33393114E-07    2     1000035        11   # BR(~e_R -> ~chi_40 e-)
#
#         PDG            Width
DECAY   1000013     3.15267516E+01   # smuon_L decays
#          BR         NDA      ID1       ID2
     1.22384137E-01    2     1000022        13   # BR(~mu_L -> ~chi_10 mu-)
     3.17870977E-05    2     1000023        13   # BR(~mu_L -> ~chi_20 mu-)
     4.32064402E-02    2     1000025        13   # BR(~mu_L -> ~chi_30 mu-)
     2.77645241E-01    2     1000035        13   # BR(~mu_L -> ~chi_40 mu-)
     3.27756360E-05    2    -1000024        14   # BR(~mu_L -> ~chi_1- nu_mu)
     5.56699619E-01    2    -1000037        14   # BR(~mu_L -> ~chi_2- nu_mu)
#
#         PDG            Width
DECAY   2000013     2.07116246E+01   # smuon_R decays
#          BR         NDA      ID1       ID2
     7.81774437E-01    2     1000022        13   # BR(~mu_R -> ~chi_10 mu-)
     3.32659933E-03    2     1000023        13   # BR(~mu_R -> ~chi_20 mu-)
     2.14898430E-01    2     1000025        13   # BR(~mu_R -> ~chi_30 mu-)
     5.33393114E-07    2     1000035        13   # BR(~mu_R -> ~chi_40 mu-)
#
#         PDG            Width
DECAY   1000015     3.10453543E+01   # stau_1 decays
#          BR         NDA      ID1       ID2
     3.82019821E-01    2     1000022        15   # BR(~tau_1 -> ~chi_10  tau-)
     4.35138283E-02    2     1000023        15   # BR(~tau_1 -> ~chi_20  tau-)
     9.94677410E-02    2     1000025        15   # BR(~tau_1 -> ~chi_30  tau-)
     1.39880949E-01    2     1000035        15   # BR(~tau_1 -> ~chi_40  tau-)
     5.46451366E-02    2    -1000024        16   # BR(~tau_1 -> ~chi_1-  nu_tau)
     2.80472524E-01    2    -1000037        16   # BR(~tau_1 -> ~chi_2-  nu_tau)
#
#         PDG            Width
DECAY   2000015     3.10176819E+01   # stau_2 decays
#          BR         NDA      ID1       ID2
     2.92829758E-01    2     1000022        15   # BR(~tau_2 -> ~chi_10  tau-)
     6.24758519E-02    2     1000023        15   # BR(~tau_2 -> ~chi_20  tau-)
     1.66276771E-01    2     1000025        15   # BR(~tau_2 -> ~chi_30  tau-)
     1.42374667E-01    2     1000035        15   # BR(~tau_2 -> ~chi_40  tau-)
     5.05725832E-02    2    -1000024        16   # BR(~tau_2 -> ~chi_1-  nu_tau)
     2.85470369E-01    2    -1000037        16   # BR(~tau_2 -> ~chi_2-  nu_tau)
#
#         PDG            Width
DECAY   1000012     3.15372810E+01   # snu_eL decays
#          BR         NDA      ID1       ID2
     1.34575908E-01    2     1000022        12   # BR(~nu_eL -> ~chi_10 nu_e)
     1.68979335E-03    2     1000023        12   # BR(~nu_eL -> ~chi_20 nu_e)
     2.81899227E-02    2     1000025        12   # BR(~nu_eL -> ~chi_30 nu_e)
     2.77989378E-01    2     1000035        12   # BR(~nu_eL -> ~chi_40 nu_e)
     3.11045094E-03    2     1000024        11   # BR(~nu_eL -> ~chi_1+ e-)
     5.54444546E-01    2     1000037        11   # BR(~nu_eL -> ~chi_2+ e-)
#
#         PDG            Width
DECAY   1000014     3.15372810E+01   # snu_muL decays
#          BR         NDA      ID1       ID2
     1.34575908E-01    2     1000022        14   # BR(~nu_muL -> ~chi_10 nu_mu)
     1.68979335E-03    2     1000023        14   # BR(~nu_muL -> ~chi_20 nu_mu)
     2.81899227E-02    2     1000025        14   # BR(~nu_muL -> ~chi_30 nu_mu)
     2.77989378E-01    2     1000035        14   # BR(~nu_muL -> ~chi_40 nu_mu)
     3.11045094E-03    2     1000024        13   # BR(~nu_muL -> ~chi_1+ mu-)
     5.54444546E-01    2     1000037        13   # BR(~nu_muL -> ~chi_2+ mu-)
#
#         PDG            Width
DECAY   1000016     3.48214521E+01   # snu_tauL decays
#          BR         NDA      ID1       ID2
     1.21920631E-01    2     1000022        16   # BR(~nu_tauL -> ~chi_10 nu_tau)
     1.53089246E-03    2     1000023        16   # BR(~nu_tauL -> ~chi_20 nu_tau)
     2.55390763E-02    2     1000025        16   # BR(~nu_tauL -> ~chi_30 nu_tau)
     2.51954281E-01    2     1000035        16   # BR(~nu_tauL -> ~chi_40 nu_tau)
     9.65368547E-02    2     1000024        15   # BR(~nu_tauL -> ~chi_1+ tau-)
     5.02518265E-01    2     1000037        15   # BR(~nu_tauL -> ~chi_2+ tau-)
#
#         PDG            Width
DECAY   1000024     2.89331804E-04   # chargino1+ decays
#           BR         NDA      ID1       ID2       ID3
     3.33472348E-01    3     1000022         2        -1   # BR(~chi_1+ -> ~chi_10 u    db)
     3.33472348E-01    3     1000022         4        -3   # BR(~chi_1+ -> ~chi_10 c    sb)
     1.11158655E-01    3     1000022       -11        12   # BR(~chi_1+ -> ~chi_10 e+   nu_e)
     1.11158655E-01    3     1000022       -13        14   # BR(~chi_1+ -> ~chi_10 mu+  nu_mu)
     1.10737993E-01    3     1000022       -15        16   # BR(~chi_1+ -> ~chi_10 tau+ nu_tau)
#
#         PDG            Width
DECAY   1000037     4.51866959E+01   # chargino2+ decays
#          BR         NDA      ID1       ID2
     3.35279915E-01    2     1000006        -5   # BR(~chi_2+ -> ~t_1     bb)
     1.30909545E-04    2     2000006        -5   # BR(~chi_2+ -> ~t_2     bb)
     3.15873581E-01    2    -1000005         6   # BR(~chi_2+ -> ~b_1*    t )
     8.85621853E-02    2     1000024        23   # BR(~chi_2+ -> ~chi_1+  Z )
     1.26818065E-02    2     1000022        24   # BR(~chi_2+ -> ~chi_10  W+)
     8.64501293E-02    2     1000023        24   # BR(~chi_2+ -> ~chi_20  W+)
     7.33211495E-02    2     1000025        24   # BR(~chi_2+ -> ~chi_30  W+)
     8.77003235E-02    2     1000024        25   # BR(~chi_2+ -> ~chi_1+  h )
#
#         PDG            Width
DECAY   1000022     0.00000000E+00   # neutralino1 decays
#
#         PDG            Width
DECAY   1000023     2.57161311E-04   # neutralino2 decays
#          BR         NDA      ID1       ID2
     4.45025142E-04    2     1000022        22   # BR(~chi_20 -> ~chi_10 gam)
#           BR         NDA      ID1       ID2       ID3
     1.17571053E-01    3     1000022        -2         2   # BR(~chi_20 -> ~chi_10 ub      u)
     1.52520110E-01    3     1000022        -1         1   # BR(~chi_20 -> ~chi_10 db      d)
     1.17571053E-01    3     1000022        -4         4   # BR(~chi_20 -> ~chi_10 cb      c)
     1.52520110E-01    3     1000022        -3         3   # BR(~chi_20 -> ~chi_10 sb      s)
     1.44838103E-01    3     1000022        -5         5   # BR(~chi_20 -> ~chi_10 bb      b)
     3.49811687E-02    3     1000022       -11        11   # BR(~chi_20 -> ~chi_10 e+      e-)
     3.49811687E-02    3     1000022       -13        13   # BR(~chi_20 -> ~chi_10 mu+     mu-)
     3.47485581E-02    3     1000022       -15        15   # BR(~chi_20 -> ~chi_10 tau+    tau-)
     6.99407701E-02    3     1000022       -12        12   # BR(~chi_20 -> ~chi_10 nu_eb   nu_e)
     6.99407701E-02    3     1000022       -14        14   # BR(~chi_20 -> ~chi_10 nu_mub  nu_mu)
     6.99407683E-02    3     1000022       -16        16   # BR(~chi_20 -> ~chi_10 nu_taub nu_tau)
     2.48460903E-07    3     1000024        -2         1   # BR(~chi_20 -> ~chi_1+ ub      d)
     2.48460903E-07    3    -1000024        -1         2   # BR(~chi_20 -> ~chi_1- db      u)
     2.48460903E-07    3     1000024        -4         3   # BR(~chi_20 -> ~chi_1+ cb      s)
     2.48460903E-07    3    -1000024        -3         4   # BR(~chi_20 -> ~chi_1- sb      c)
     8.28203927E-08    3     1000024       -12        11   # BR(~chi_20 -> ~chi_1+ nu_eb   e-)
     8.28203927E-08    3    -1000024        12       -11   # BR(~chi_20 -> ~chi_1- nu_e    e+)
     8.28203927E-08    3     1000024       -14        13   # BR(~chi_20 -> ~chi_1+ nu_mub  mu-)
     8.28203927E-08    3    -1000024        14       -13   # BR(~chi_20 -> ~chi_1- nu_mu   mu+)
     9.50358856E-09    3     1000024       -16        15   # BR(~chi_20 -> ~chi_1+ nu_taub tau-)
     9.50358856E-09    3    -1000024        16       -15   # BR(~chi_20 -> ~chi_1- nu_tau  tau+)
#
#         PDG            Width
DECAY   1000025     1.96928756E-05   # neutralino3 decays
#          BR         NDA      ID1       ID2
     1.05337923E-02    2     1000022        22   # BR(~chi_30 -> ~chi_10 gam)
     1.27887211E-02    2     1000023        22   # BR(~chi_30 -> ~chi_20 gam)
#           BR         NDA      ID1       ID2       ID3
     1.10667158E-01    3     1000022        -2         2   # BR(~chi_30 -> ~chi_10 ub      u)
     1.43248097E-01    3     1000022        -1         1   # BR(~chi_30 -> ~chi_10 db      d)
     1.10667158E-01    3     1000022        -4         4   # BR(~chi_30 -> ~chi_10 cb      c)
     1.43248097E-01    3     1000022        -3         3   # BR(~chi_30 -> ~chi_10 sb      s)
     1.38739948E-01    3     1000022        -5         5   # BR(~chi_30 -> ~chi_10 bb      b)
     3.26008822E-02    3     1000022       -11        11   # BR(~chi_30 -> ~chi_10 e+      e-)
     3.26008822E-02    3     1000022       -13        13   # BR(~chi_30 -> ~chi_10 mu+     mu-)
     3.25102288E-02    3     1000022       -15        15   # BR(~chi_30 -> ~chi_10 tau+    tau-)
     6.58032897E-02    3     1000022       -12        12   # BR(~chi_30 -> ~chi_10 nu_eb   nu_e)
     6.58032897E-02    3     1000022       -14        14   # BR(~chi_30 -> ~chi_10 nu_mub  nu_mu)
     6.58032308E-02    3     1000022       -16        16   # BR(~chi_30 -> ~chi_10 nu_taub nu_tau)
     4.68004534E-04    3     1000023        -2         2   # BR(~chi_30 -> ~chi_20 ub      u)
     6.07148460E-04    3     1000023        -1         1   # BR(~chi_30 -> ~chi_20 db      d)
     4.68004534E-04    3     1000023        -4         4   # BR(~chi_30 -> ~chi_20 cb      c)
     6.07148460E-04    3     1000023        -3         3   # BR(~chi_30 -> ~chi_20 sb      s)
     4.98335401E-06    3     1000023        -5         5   # BR(~chi_30 -> ~chi_20 bb      b)
     1.39267945E-04    3     1000023       -11        11   # BR(~chi_30 -> ~chi_20 e+      e-)
     1.39267945E-04    3     1000023       -13        13   # BR(~chi_30 -> ~chi_20 mu+     mu-)
     1.15196430E-04    3     1000023       -15        15   # BR(~chi_30 -> ~chi_20 tau+    tau-)
     2.78399280E-04    3     1000023       -12        12   # BR(~chi_30 -> ~chi_20 nu_eb   nu_e)
     2.78399280E-04    3     1000023       -14        14   # BR(~chi_30 -> ~chi_20 nu_mub  nu_mu)
     2.78399282E-04    3     1000023       -16        16   # BR(~chi_30 -> ~chi_20 nu_taub nu_tau)
     5.31932320E-03    3     1000024        -2         1   # BR(~chi_30 -> ~chi_1+ ub      d)
     5.31932320E-03    3    -1000024        -1         2   # BR(~chi_30 -> ~chi_1- db      u)
     5.31932320E-03    3     1000024        -4         3   # BR(~chi_30 -> ~chi_1+ cb      s)
     5.31932320E-03    3    -1000024        -3         4   # BR(~chi_30 -> ~chi_1- sb      c)
     1.77309233E-03    3     1000024       -12        11   # BR(~chi_30 -> ~chi_1+ nu_eb   e-)
     1.77309233E-03    3    -1000024        12       -11   # BR(~chi_30 -> ~chi_1- nu_e    e+)
     1.77309233E-03    3     1000024       -14        13   # BR(~chi_30 -> ~chi_1+ nu_mub  mu-)
     1.77309233E-03    3    -1000024        14       -13   # BR(~chi_30 -> ~chi_1- nu_mu   mu+)
     1.61567164E-03    3     1000024       -16        15   # BR(~chi_30 -> ~chi_1+ nu_taub tau-)
     1.61567164E-03    3    -1000024        16       -15   # BR(~chi_30 -> ~chi_1- nu_tau  tau+)
#
#         PDG            Width
DECAY   1000035     4.51716650E+01   # neutralino4 decays
#          BR         NDA      ID1       ID2
     5.78514128E-03    2     1000022        23   # BR(~chi_40 -> ~chi_10   Z )
     5.34769120E-02    2     1000023        23   # BR(~chi_40 -> ~chi_20   Z )
     2.93055544E-02    2     1000025        23   # BR(~chi_40 -> ~chi_30   Z )
     8.63162509E-02    2     1000024       -24   # BR(~chi_40 -> ~chi_1+   W-)
     8.63162509E-02    2    -1000024        24   # BR(~chi_40 -> ~chi_1-   W+)
     7.14673567E-03    2     1000022        25   # BR(~chi_40 -> ~chi_10   h )
     3.48060838E-02    2     1000023        25   # BR(~chi_40 -> ~chi_20   h )
     4.55204590E-02    2     1000025        25   # BR(~chi_40 -> ~chi_30   h )
     1.62810088E-01    2     1000006        -6   # BR(~chi_40 -> ~t_1      tb)
     1.62810088E-01    2    -1000006         6   # BR(~chi_40 -> ~t_1*     t )
     1.62853218E-01    2     1000005        -5   # BR(~chi_40 -> ~b_1      bb)
     1.62853218E-01    2    -1000005         5   # BR(~chi_40 -> ~b_1*     b )
#
#         PDG            Width
DECAY        25     4.04936968E-03   # h decays
#          BR         NDA      ID1       ID2
     5.91709290E-01    2           5        -5   # BR(h -> b       bb     )
     6.44084993E-02    2         -15        15   # BR(h -> tau+    tau-   )
     2.28005117E-04    2         -13        13   # BR(h -> mu+     mu-    )
     4.83445631E-04    2           3        -3   # BR(h -> s       sb     )
     2.09952232E-02    2           4        -4   # BR(h -> c       cb     )
     6.86426901E-02    2          21        21   # BR(h -> g       g      )
     2.37814049E-03    2          22        22   # BR(h -> gam     gam    )
     1.63691533E-03    2          22        23   # BR(h -> Z       gam    )
     2.21469154E-01    2          24       -24   # BR(h -> W+      W-     )
     2.80486366E-02    2          23        23   # BR(h -> Z       Z      )
#
#         PDG            Width
DECAY        35     5.48096105E+01   # H decays
#          BR         NDA      ID1       ID2
     3.51136175E-01    2           5        -5   # BR(H -> b       bb     )
     6.04930465E-02    2         -15        15   # BR(H -> tau+    tau-   )
     2.13888760E-04    2         -13        13   # BR(H -> mu+     mu-    )
     2.52993518E-04    2           3        -3   # BR(H -> s       sb     )
     7.09646920E-08    2           4        -4   # BR(H -> c       cb     )
     7.11213965E-03    2           6        -6   # BR(H -> t       tb     )
     7.33943371E-07    2          21        21   # BR(H -> g       g      )
     8.30217918E-10    2          22        22   # BR(H -> gam     gam    )
     1.82705708E-09    2          23        22   # BR(H -> Z       gam    )
     1.87767362E-06    2          24       -24   # BR(H -> W+      W-     )
     9.38186347E-07    2          23        23   # BR(H -> Z       Z      )
     7.30106076E-06    2          25        25   # BR(H -> h       h      )
    -1.75773356E-24    2          36        36   # BR(H -> A       A      )
    -1.72205667E-20    2          23        36   # BR(H -> Z       A      )
     1.85213288E-03    2     1000024  -1000024   # BR(H -> ~chi_1+ ~chi_1-)
     1.62132091E-01    2     1000024  -1000037   # BR(H -> ~chi_1+ ~chi_2-)
     1.62132091E-01    2     1000037  -1000024   # BR(H -> ~chi_2+ ~chi_1-)
     2.05880213E-02    2     1000022   1000022   # BR(H -> ~chi_10 ~chi_10)
     8.24888216E-04    2     1000023   1000023   # BR(H -> ~chi_20 ~chi_20)
     1.18831275E-02    2     1000025   1000025   # BR(H -> ~chi_30 ~chi_30)
     2.78267551E-02    2     1000022   1000023   # BR(H -> ~chi_10 ~chi_20)
     1.54510245E-02    2     1000022   1000025   # BR(H -> ~chi_10 ~chi_30)
     2.15946610E-02    2     1000022   1000035   # BR(H -> ~chi_10 ~chi_40)
     1.01831406E-02    2     1000023   1000025   # BR(H -> ~chi_20 ~chi_30)
     8.09883293E-02    2     1000023   1000035   # BR(H -> ~chi_20 ~chi_40)
     6.00568937E-02    2     1000025   1000035   # BR(H -> ~chi_30 ~chi_40)
     5.29527450E-04    2     1000006  -1000006   # BR(H -> ~t_1    ~t_1*  )
     6.93684718E-05    2     2000006  -2000006   # BR(H -> ~t_2    ~t_2*  )
     2.33432776E-03    2     1000006  -2000006   # BR(H -> ~t_1    ~t_2*  )
     2.33432776E-03    2     2000006  -1000006   # BR(H -> ~t_2    ~t_1*  )
     1.24029792E-07    2     1000005  -1000005   # BR(H -> ~b_1    ~b_1*  )
#
#         PDG            Width
DECAY        36     5.48042314E+01   # A decays
#          BR         NDA      ID1       ID2
     3.51196310E-01    2           5        -5   # BR(A -> b       bb     )
     6.04992923E-02    2         -15        15   # BR(A -> tau+    tau-   )
     2.13910676E-04    2         -13        13   # BR(A -> mu+     mu-    )
     2.53060717E-04    2           3        -3   # BR(A -> s       sb     )
     7.14253766E-08    2           4        -4   # BR(A -> c       cb     )
     7.12596305E-03    2           6        -6   # BR(A -> t       tb     )
     1.46420500E-05    2          21        21   # BR(A -> g       g      )
     5.66986384E-08    2          22        22   # BR(A -> gam     gam    )
     1.60942527E-08    2          23        22   # BR(A -> Z       gam    )
     1.87390122E-06    2          23        25   # BR(A -> Z       h      )
     1.86007269E-03    2     1000024  -1000024   # BR(A -> ~chi_1+ ~chi_1-)
     1.62147370E-01    2     1000024  -1000037   # BR(A -> ~chi_1+ ~chi_2-)
     1.62147370E-01    2     1000037  -1000024   # BR(A -> ~chi_2+ ~chi_1-)
     1.78474137E-02    2     1000022   1000022   # BR(A -> ~chi_10 ~chi_10)
     1.03564608E-03    2     1000023   1000023   # BR(A -> ~chi_20 ~chi_20)
     9.89031178E-03    2     1000025   1000025   # BR(A -> ~chi_30 ~chi_30)
     3.41808608E-02    2     1000022   1000023   # BR(A -> ~chi_10 ~chi_20)
     1.25337483E-02    2     1000022   1000025   # BR(A -> ~chi_10 ~chi_30)
     2.21750650E-02    2     1000022   1000035   # BR(A -> ~chi_10 ~chi_40)
     1.12752348E-02    2     1000023   1000025   # BR(A -> ~chi_20 ~chi_30)
     7.93585228E-02    2     1000023   1000035   # BR(A -> ~chi_20 ~chi_40)
     6.10532889E-02    2     1000025   1000035   # BR(A -> ~chi_30 ~chi_40)
     2.59494899E-03    2     1000006  -2000006   # BR(A -> ~t_1    ~t_2*  )
     2.59494899E-03    2    -1000006   2000006   # BR(A -> ~t_1*   ~t_2   )
#
#         PDG            Width
DECAY        37     5.48417016E+01   # H+ decays
#          BR         NDA      ID1       ID2
     5.62518726E-04    2           4        -5   # BR(H+ -> c       bb     )
     6.04742409E-02    2         -15        16   # BR(H+ -> tau+    nu_tau )
     2.13822100E-04    2         -13        14   # BR(H+ -> mu+     nu_mu  )
     3.60011677E-06    2           2        -5   # BR(H+ -> u       bb     )
     1.21134043E-05    2           2        -3   # BR(H+ -> u       sb     )
     2.49211680E-04    2           4        -3   # BR(H+ -> c       sb     )
     3.58326084E-01    2           6        -5   # BR(H+ -> t       bb     )
     1.87479049E-06    2          24        25   # BR(H+ -> W+      h      )
     3.48318221E-14    2          24        36   # BR(H+ -> W+      A      )
     6.50964392E-02    2     1000024   1000022   # BR(H+ -> ~chi_1+ ~chi_10)
     2.88489377E-06    2     1000024   1000023   # BR(H+ -> ~chi_1+ ~chi_20)
     2.22090738E-02    2     1000024   1000025   # BR(H+ -> ~chi_1+ ~chi_30)
     1.62252939E-01    2     1000024   1000035   # BR(H+ -> ~chi_1+ ~chi_40)
     4.38072551E-02    2     1000037   1000022   # BR(H+ -> ~chi_2+ ~chi_10)
     1.60330133E-01    2     1000037   1000023   # BR(H+ -> ~chi_2+ ~chi_20)
     1.21239050E-01    2     1000037   1000025   # BR(H+ -> ~chi_2+ ~chi_30)
     2.75870264E-04    2     1000006  -1000005   # BR(H+ -> ~t_1    ~b_1*  )
     4.94288804E-03    2     2000006  -1000005   # BR(H+ -> ~t_2    ~b_1*  )
