#
#                              ======================
#                              | THE SUSYHIT OUTPUT |
#                              ======================
#
#
#              ------------------------------------------------------
#              |     This is the output of the SUSY-HIT package     |
#              |  created by A.Djouadi, M.Muehlleitner and M.Spira. |
#              |  In case of problems with SUSY-HIT email to        |
#              |           margarete.muehlleitner@kit.edu           |
#              |           michael.spira@psi.ch                     |
#              |           abdelhak.djouadi@cern.ch                 |
#              ------------------------------------------------------
#
#              ------------------------------------------------------
#              |  SUSY Les Houches Accord - MSSM Spectrum + Decays  |
#              |              based on the decay programs           |
#              |                                                    |
#              |                     SDECAY 1.5                     |
#              |                                                    |
#              |  Authors: M.Muhlleitner, A.Djouadi and Y.Mambrini  |
#              |  Ref.:    Comput.Phys.Commun.168(2005)46           |
#              |           [hep-ph/0311167]                         |
#              |                                                    |
#              |                     HDECAY 3.4                     |
#              |                                                    |
#              |  By: A.Djouadi,J.Kalinowski,M.Muhlleitner,M.Spira  |
#              |  Ref.:    Comput.Phys.Commun.108(1998)56           |
#              |           [hep-ph/9704448]                         |
#              |                                                    |
#              |                                                    |
#              |  If not stated otherwise all DRbar couplings and   |
#              |  soft SUSY breaking masses are given at the scale  |
#              |  Q=  0.12203289E+04
#              |                                                    |
#              ------------------------------------------------------
#
#
BLOCK DCINFO  # Decay Program information
     1   SDECAY/HDECAY # decay calculator
     2   1.5  /3.4    # version number
#
BLOCK SPINFO  # Spectrum calculator information
     1    SOFTSUSY    # spectrum calculator                
     2    3.7.3       # version number                     
#
BLOCK MODSEL  # Model selection
     1     0   #  nonUniversal                                     
#
BLOCK SMINPUTS  # Standard Model inputs
         1     1.27934000E+02   # alpha_em^-1(M_Z)^MSbar
         2     1.16639000E-05   # G_F [GeV^-2]
         3     1.17200000E-01   # alpha_S(M_Z)^MSbar
         4     9.11870000E+01   # M_Z pole mass
         5     4.19000000E+00   # mb(mb)^MSbar
         6     1.72500000E+02   # mt pole mass
         7     1.77690000E+00   # mtau pole mass
#
BLOCK MINPAR  # Input parameters - minimal models
         3     2.00000000E+01   # tanb                
#
BLOCK EXTPAR  # Input parameters - non-minimal models
         0    -1.00000000E+00   # Set                 
         1     9.99000000E+01   # M_1(MX)             
         2     1.99900000E+02   # M_2(MX)             
         3     2.20000000E+03   # M_3(MX)             
        11     2.94338000E+03   # At(MX)              
        12     0.00000000E+00   # Ab(MX)              
        13     0.00000000E+00   # Atau(MX)            
        23    -3.00000000E+03   # mu(MX)              
        25     2.00000000E+01   # tan                 
        26     3.00000000E+03   # mA(pole)            
        31     3.00000000E+03   # meL(MX)             
        32     3.00000000E+03   # mmuL(MX)            
        33     3.00000000E+03   # mtauL(MX)           
        34     3.00000000E+03   # meR(MX)             
        35     3.00000000E+03   # mmuR(MX)            
        36     3.00000000E+03   # mtauR(MX)           
        41     3.00000000E+03   # mqL1(MX)            
        42     3.00000000E+03   # mqL2(MX)            
        43     4.99900000E+02   # mqL3(MX)            
        44     3.00000000E+03   # muR(MX)             
        45     3.00000000E+03   # mcR(MX)             
        46     3.00000000E+03   # mtR(MX)             
        47     3.00000000E+03   # mdR(MX)             
        48     3.00000000E+03   # msR(MX)             
        49     3.00000000E+03   # mbR(MX)             
#
BLOCK MASS  # Mass Spectrum
# PDG code           mass       particle
        24     8.03966741E+01   # W+
        25     1.26225310E+02   # h
        35     3.00017595E+03   # H
        36     3.00000002E+03   # A
        37     3.00110515E+03   # H+
         5     4.81337004E+00   # b-quark pole mass calculated from mb(mb)_Msbar
   1000001     3.02357299E+03   # ~d_L
   2000001     3.01806088E+03   # ~d_R
   1000002     3.02265207E+03   # ~u_L
   2000002     3.02123949E+03   # ~u_R
   1000003     3.02357299E+03   # ~s_L
   2000003     3.01806088E+03   # ~s_R
   1000004     3.02265207E+03   # ~c_L
   2000004     3.02123949E+03   # ~c_R
   1000005     5.73393618E+02   # ~b_1
   2000005     3.01922768E+03   # ~b_2
   1000006     5.69661553E+02   # ~t_1
   2000006     3.01980099E+03   # ~t_2
   1000011     3.00736806E+03   # ~e_L
   2000011     2.99995683E+03   # ~e_R
   1000012     3.00597108E+03   # ~nu_eL
   1000013     3.00736806E+03   # ~mu_L
   2000013     2.99995683E+03   # ~mu_R
   1000014     3.00597108E+03   # ~nu_muL
   1000015     2.98628285E+03   # ~tau_1
   2000015     3.02244058E+03   # ~tau_2
   1000016     3.00645653E+03   # ~nu_tauL
   1000021     2.32897352E+03   # ~g
   1000022     1.01308320E+02   # ~chi_10
   1000023     2.16892306E+02   # ~chi_20
   1000025    -3.00650597E+03   # ~chi_30
   1000035     3.00660380E+03   # ~chi_40
   1000024     2.17051504E+02   # ~chi_1+
   1000037     3.00749049E+03   # ~chi_2+
#
BLOCK NMIX  # Neutralino Mixing Matrix
  1  1     9.99891906E-01   # N_11
  1  2     7.65021746E-04   # N_12
  1  3    -1.46810007E-02   # N_13
  1  4     2.45369884E-04   # N_14
  2  1    -3.82453744E-04   # N_21
  2  2     9.99660444E-01   # N_22
  2  3     2.60511122E-02   # N_23
  2  4     4.35355937E-04   # N_24
  3  1     1.02181401E-02   # N_31
  3  2    -1.87226631E-02   # N_32
  3  3     7.06778566E-01   # N_33
  3  4     7.07113223E-01   # N_34
  4  1    -1.05650645E-02   # N_41
  4  2     1.81072605E-02   # N_42
  4  3    -7.06802565E-01   # N_43
  4  4     7.07100163E-01   # N_44
#
BLOCK UMIX  # Chargino Mixing Matrix U
  1  1     9.99321866E-01   # U_11
  1  2     3.68213119E-02   # U_12
  2  1    -3.68213119E-02   # U_21
  2  2     9.99321866E-01   # U_22
#
BLOCK VMIX  # Chargino Mixing Matrix V
  1  1     9.99999811E-01   # V_11
  1  2    -6.14091888E-04   # V_12
  2  1    -6.14091888E-04   # V_21
  2  2    -9.99999811E-01   # V_22
#
BLOCK STOPMIX  # Stop Mixing Matrix
  1  1     9.98639845E-01   # cos(theta_t)
  1  2    -5.21388529E-02   # sin(theta_t)
  2  1     5.21388529E-02   # -sin(theta_t)
  2  2     9.98639845E-01   # cos(theta_t)
#
BLOCK SBOTMIX  # Sbottom Mixing Matrix
  1  1     9.99713619E-01   # cos(theta_b)
  1  2    -2.39307331E-02   # sin(theta_b)
  2  1     2.39307331E-02   # -sin(theta_b)
  2  2     9.99713619E-01   # cos(theta_b)
#
BLOCK STAUMIX  # Stau Mixing Matrix
  1  1    -7.06894891E-01   # cos(theta_tau)
  1  2     7.07318608E-01   # sin(theta_tau)
  2  1    -7.07318608E-01   # -sin(theta_tau)
  2  2    -7.06894891E-01   # cos(theta_tau)
#
BLOCK ALPHA  # Higgs mixing
          -5.00166195E-02   # Mixing angle in the neutral Higgs boson sector
#
BLOCK HMIX Q=  1.22032891E+03  # DRbar Higgs Parameters
         1    -3.00000000E+03   # mu(Q)MSSM           
         2     2.00000000E+01   # tan                 
         3     2.44494889E+02   # higgs               
         4     1.14373453E+07   # mA^2(Q)MSSM         
#
BLOCK GAUGE Q=  1.22032891E+03  # The gauge couplings
     1     3.61456685E-01   # gprime(Q) DRbar
     2     6.39468959E-01   # g(Q) DRbar
     3     1.03096442E+00   # g3(Q) DRbar
#
BLOCK AU Q=  1.22032891E+03  # The trilinear couplings
  1  1     0.00000000E+00   # A_u(Q) DRbar
  2  2     1.37686245E-06   # A_c(Q) DRbar
  3  3     2.94338000E+03   # A_t(Q) DRbar
#
BLOCK AD Q=  1.22032891E+03  # The trilinear couplings
  1  1     4.87302486E-07   # A_d(Q) DRbar
  2  2     4.87361924E-07   # A_s(Q) DRbar
  3  3     1.02164139E-06   # A_b(Q) DRbar
#
BLOCK AE Q=  1.22032891E+03  # The trilinear couplings
  1  1     2.35640646E-07   # A_e(Q) DRbar
  2  2     2.35652452E-07   # A_mu(Q) DRbar
  3  3     2.39023403E-07   # A_tau(Q) DRbar
#
BLOCK Yu Q=  1.22032891E+03  # The Yukawa couplings
  1  1     0.00000000E+00   # y_u(Q) DRbar
  2  2     0.00000000E+00   # y_c(Q) DRbar
  3  3     8.57779573E-01   # y_t(Q) DRbar
#
BLOCK Yd Q=  1.22032891E+03  # The Yukawa couplings
  1  1     0.00000000E+00   # y_d(Q) DRbar
  2  2     0.00000000E+00   # y_s(Q) DRbar
  3  3     4.04458188E-01   # y_b(Q) DRbar
#
BLOCK Ye Q=  1.22032891E+03  # The Yukawa couplings
  1  1     0.00000000E+00   # y_e(Q) DRbar
  2  2     0.00000000E+00   # y_mu(Q) DRbar
  3  3     2.03210904E-01   # y_tau(Q) DRbar
#
BLOCK MSOFT Q=  1.22032891E+03  # The soft SUSY breaking masses at the scale Q
         1     9.99000000E+01   # M_1(Q)              
         2     1.99900000E+02   # M_2(Q)              
         3     2.20000000E+03   # M_3(Q)              
        21    -6.10594971E+04   # M^2_Hd              
        22    -9.14581625E+06   # M^2_Hu              
        31     3.00000000E+03   # M_eL                
        32     3.00000000E+03   # M_muL               
        33     3.00000000E+03   # M_tauL              
        34     3.00000000E+03   # M_eR                
        35     3.00000000E+03   # M_muR               
        36     3.00000000E+03   # M_tauR              
        41     3.00000000E+03   # M_q1L               
        42     3.00000000E+03   # M_q2L               
        43     4.99899993E+02   # M_q3L               
        44     3.00000000E+03   # M_uR                
        45     3.00000000E+03   # M_cR                
        46     3.00000000E+03   # M_tR                
        47     3.00000000E+03   # M_dR                
        48     3.00000000E+03   # M_sR                
        49     3.00000000E+03   # M_bR                
#
#
#
#                             =================
#                             |The decay table|
#                             =================
#
# - The QCD corrections to the decays gluino -> squark  + quark
#                                     squark -> gaugino + quark_prime
#                                     squark -> squark_prime + Higgs
#                                     squark -> gluino  + quark
#   are included.
#
# - The multi-body decays for the inos, stops and sbottoms are included.
#
# - The loop induced decays for the gluino, neutralinos and stops
#   are included.
#
# - The SUSY decays of the top quark are included.
#
#
#         PDG            Width
DECAY         6     1.41958864E+00   # top decays
#          BR         NDA      ID1       ID2
     1.00000000E+00    2           5        24   # BR(t ->  b    W+)
#
#         PDG            Width
DECAY   1000021     8.22276345E+01   # gluino decays
#          BR         NDA      ID1       ID2
     2.48062020E-01    2     1000005        -5   # BR(~g -> ~b_1  bb)
     2.48062020E-01    2    -1000005         5   # BR(~g -> ~b_1* b )
     2.51937980E-01    2     1000006        -6   # BR(~g -> ~t_1  tb)
     2.51937980E-01    2    -1000006         6   # BR(~g -> ~t_1* t )
#
#         PDG            Width
DECAY   1000006     4.99880895E+00   # stop1 decays
#          BR         NDA      ID1       ID2
     1.34055613E-02    2     1000022         6   # BR(~t_1 -> ~chi_10 t )
     2.75166545E-01    2     1000023         6   # BR(~t_1 -> ~chi_20 t )
     7.11427894E-01    2     1000024         5   # BR(~t_1 -> ~chi_1+ b )
#
#         PDG            Width
DECAY   2000006     1.22715150E+02   # stop2 decays
#          BR         NDA      ID1       ID2
     5.35718138E-02    2     1000022         6   # BR(~t_2 -> ~chi_10 t )
     2.38088579E-04    2     1000023         6   # BR(~t_2 -> ~chi_20 t )
     0.00000000E+00    2     1000025         6   # BR(~t_2 -> ~chi_30 t )
     4.79120846E-04    2     1000024         5   # BR(~t_2 -> ~chi_1+ b )
     2.47827956E-05    2     1000037         5   # BR(~t_2 -> ~chi_2+ b )
     2.86481295E-01    2     1000021         6   # BR(~t_2 -> ~g      t )
     1.71839572E-01    2     1000006        25   # BR(~t_2 -> ~t_1    h )
     1.64043535E-01    2     1000006        23   # BR(~t_2 -> ~t_1    Z )
     3.23321792E-01    2     1000005        24   # BR(~t_2 -> ~b_1    W+)
#
#         PDG            Width
DECAY   1000005     4.68514621E+00   # sbottom1 decays
#          BR         NDA      ID1       ID2
     1.75741348E-02    2     1000022         5   # BR(~b_1 -> ~chi_10 b )
     3.84756726E-01    2     1000023         5   # BR(~b_1 -> ~chi_20 b )
     5.97669139E-01    2    -1000024         6   # BR(~b_1 -> ~chi_1- t )
#
#         PDG            Width
DECAY   2000005     5.73752176E+01   # sbottom2 decays
#          BR         NDA      ID1       ID2
     2.87933168E-02    2     1000022         5   # BR(~b_2 -> ~chi_10 b )
    -5.37449918E-08    2     1000023         5   # BR(~b_2 -> ~chi_20 b )
     6.35466101E-06    2     1000025         5   # BR(~b_2 -> ~chi_30 b )
     5.99043598E-06    2     1000035         5   # BR(~b_2 -> ~chi_40 b )
    -1.75248440E-07    2    -1000024         6   # BR(~b_2 -> ~chi_1- t )
     6.15825009E-01    2     1000021         5   # BR(~b_2 -> ~g      b )
     7.86618370E-02    2     1000005        25   # BR(~b_2 -> ~b_1    h )
     1.12399659E-01    2     1000005        23   # BR(~b_2 -> ~b_1    Z )
     1.64308062E-01    2     1000006       -24   # BR(~b_2 -> ~t_1    W-)
#
#         PDG            Width
DECAY   1000002     7.07586121E+01   # sup_L decays
#          BR         NDA      ID1       ID2
     5.90063512E-03    2     1000022         2   # BR(~u_L -> ~chi_10 u)
     1.63601517E-01    2     1000023         2   # BR(~u_L -> ~chi_20 u)
     6.36786739E-09    2     1000025         2   # BR(~u_L -> ~chi_30 u)
     5.79313280E-09    2     1000035         2   # BR(~u_L -> ~chi_40 u)
     3.27467874E-01    2     1000024         1   # BR(~u_L -> ~chi_1+ d)
     1.50570737E-11    2     1000037         1   # BR(~u_L -> ~chi_2+ d)
     5.03029962E-01    2     1000021         2   # BR(~u_L -> ~g      u)
#
#         PDG            Width
DECAY   2000002     4.21031021E+01   # sup_R decays
#          BR         NDA      ID1       ID2
     1.57309230E-01    2     1000022         2   # BR(~u_R -> ~chi_10 u)
     2.28510520E-08    2     1000023         2   # BR(~u_R -> ~chi_20 u)
     1.88255544E-09    2     1000025         2   # BR(~u_R -> ~chi_30 u)
     1.98658391E-09    2     1000035         2   # BR(~u_R -> ~chi_40 u)
     8.42690743E-01    2     1000021         2   # BR(~u_R -> ~g      u)
#
#         PDG            Width
DECAY   1000001     7.08092841E+01   # sdown_L decays
#          BR         NDA      ID1       ID2
     5.80323701E-03    2     1000022         1   # BR(~d_L -> ~chi_10 d)
     1.63583824E-01    2     1000023         1   # BR(~d_L -> ~chi_20 d)
     1.07097172E-08    2     1000025         1   # BR(~d_L -> ~chi_30 d)
     1.00336814E-08    2     1000035         1   # BR(~d_L -> ~chi_40 d)
     3.26894379E-01    2    -1000024         2   # BR(~d_L -> ~chi_1- u)
     6.06678985E-08    2    -1000037         2   # BR(~d_L -> ~chi_2- u)
     5.03718479E-01    2     1000021         1   # BR(~d_L -> ~g      d)
#
#         PDG            Width
DECAY   2000001     3.68781257E+01   # sdown_R decays
#          BR         NDA      ID1       ID2
     4.48504802E-02    2     1000022         1   # BR(~d_R -> ~chi_10 d)
     6.51496665E-09    2     1000023         1   # BR(~d_R -> ~chi_20 d)
     3.34826675E-10    2     1000025         1   # BR(~d_R -> ~chi_30 d)
     3.52059430E-10    2     1000035         1   # BR(~d_R -> ~chi_40 d)
     9.55149513E-01    2     1000021         1   # BR(~d_R -> ~g      d)
#
#         PDG            Width
DECAY   1000004     7.07586121E+01   # scharm_L decays
#          BR         NDA      ID1       ID2
     5.90063512E-03    2     1000022         4   # BR(~c_L -> ~chi_10 c)
     1.63601517E-01    2     1000023         4   # BR(~c_L -> ~chi_20 c)
     6.36786739E-09    2     1000025         4   # BR(~c_L -> ~chi_30 c)
     5.79313280E-09    2     1000035         4   # BR(~c_L -> ~chi_40 c)
     3.27467874E-01    2     1000024         3   # BR(~c_L -> ~chi_1+ s)
     1.50570737E-11    2     1000037         3   # BR(~c_L -> ~chi_2+ s)
     5.03029962E-01    2     1000021         4   # BR(~c_L -> ~g      c)
#
#         PDG            Width
DECAY   2000004     4.21031021E+01   # scharm_R decays
#          BR         NDA      ID1       ID2
     1.57309230E-01    2     1000022         4   # BR(~c_R -> ~chi_10 c)
     2.28510520E-08    2     1000023         4   # BR(~c_R -> ~chi_20 c)
     1.88255544E-09    2     1000025         4   # BR(~c_R -> ~chi_30 c)
     1.98658391E-09    2     1000035         4   # BR(~c_R -> ~chi_40 c)
     8.42690743E-01    2     1000021         4   # BR(~c_R -> ~g      c)
#
#         PDG            Width
DECAY   1000003     7.08092841E+01   # sstrange_L decays
#          BR         NDA      ID1       ID2
     5.80323701E-03    2     1000022         3   # BR(~s_L -> ~chi_10 s)
     1.63583824E-01    2     1000023         3   # BR(~s_L -> ~chi_20 s)
     1.07097172E-08    2     1000025         3   # BR(~s_L -> ~chi_30 s)
     1.00336814E-08    2     1000035         3   # BR(~s_L -> ~chi_40 s)
     3.26894379E-01    2    -1000024         4   # BR(~s_L -> ~chi_1- c)
     6.06678985E-08    2    -1000037         4   # BR(~s_L -> ~chi_2- c)
     5.03718479E-01    2     1000021         3   # BR(~s_L -> ~g      s)
#
#         PDG            Width
DECAY   2000003     3.68781257E+01   # sstrange_R decays
#          BR         NDA      ID1       ID2
     4.48504802E-02    2     1000022         3   # BR(~s_R -> ~chi_10 s)
     6.51496665E-09    2     1000023         3   # BR(~s_R -> ~chi_20 s)
     3.34826675E-10    2     1000025         3   # BR(~s_R -> ~chi_30 s)
     3.52059430E-10    2     1000035         3   # BR(~s_R -> ~chi_40 s)
     9.55149513E-01    2     1000021         3   # BR(~s_R -> ~g      s)
#
#         PDG            Width
DECAY   1000011     4.01802198E+01   # selectron_L decays
#          BR         NDA      ID1       ID2
     9.72930307E-02    2     1000022        11   # BR(~e_L -> ~chi_10 e-)
     3.00954543E-01    2     1000023        11   # BR(~e_L -> ~chi_20 e-)
     1.67692303E-11    2     1000025        11   # BR(~e_L -> ~chi_30 e-)
     1.15792641E-11    2     1000035        11   # BR(~e_L -> ~chi_40 e-)
     6.01752427E-01    2    -1000024        12   # BR(~e_L -> ~chi_1- nu_e)
#
#         PDG            Width
DECAY   2000011     1.55561716E+01   # selectron_R decays
#          BR         NDA      ID1       ID2
     9.99999855E-01    2     1000022        11   # BR(~e_R -> ~chi_10 e-)
     1.45107779E-07    2     1000023        11   # BR(~e_R -> ~chi_20 e-)
#
#         PDG            Width
DECAY   1000013     4.01802198E+01   # smuon_L decays
#          BR         NDA      ID1       ID2
     9.72930307E-02    2     1000022        13   # BR(~mu_L -> ~chi_10 mu-)
     3.00954543E-01    2     1000023        13   # BR(~mu_L -> ~chi_20 mu-)
     1.67692303E-11    2     1000025        13   # BR(~mu_L -> ~chi_30 mu-)
     1.15792641E-11    2     1000035        13   # BR(~mu_L -> ~chi_40 mu-)
     6.01752427E-01    2    -1000024        14   # BR(~mu_L -> ~chi_1- nu_mu)
#
#         PDG            Width
DECAY   2000013     1.55561716E+01   # smuon_R decays
#          BR         NDA      ID1       ID2
     9.99999855E-01    2     1000022        13   # BR(~mu_R -> ~chi_10 mu-)
     1.45107779E-07    2     1000023        13   # BR(~mu_R -> ~chi_20 mu-)
#
#         PDG            Width
DECAY   1000015     2.81521004E+01   # stau_1 decays
#          BR         NDA      ID1       ID2
     3.45698768E-01    2     1000022        15   # BR(~tau_1 -> ~chi_10  tau-)
     2.18160917E-01    2     1000023        15   # BR(~tau_1 -> ~chi_20  tau-)
     4.36140316E-01    2    -1000024        16   # BR(~tau_1 -> ~chi_1-  nu_tau)
#
#         PDG            Width
DECAY   2000015     2.75687380E+01   # stau_2 decays
#          BR         NDA      ID1       ID2
     3.53761320E-01    2     1000022        15   # BR(~tau_2 -> ~chi_10  tau-)
     2.15462317E-01    2     1000023        15   # BR(~tau_2 -> ~chi_20  tau-)
     5.92657297E-06    2     1000025        15   # BR(~tau_2 -> ~chi_30  tau-)
     4.67267828E-06    2     1000035        15   # BR(~tau_2 -> ~chi_40  tau-)
     4.30760313E-01    2    -1000024        16   # BR(~tau_2 -> ~chi_1-  nu_tau)
     5.45141672E-06    2    -1000037        16   # BR(~tau_2 -> ~chi_2-  nu_tau)
#
#         PDG            Width
DECAY   1000012     4.01833563E+01   # snu_eL decays
#          BR         NDA      ID1       ID2
     9.67149739E-02    2     1000022        12   # BR(~nu_eL -> ~chi_10 nu_e)
     3.01048638E-01    2     1000023        12   # BR(~nu_eL -> ~chi_20 nu_e)
     6.02236388E-01    2     1000024        11   # BR(~nu_eL -> ~chi_1+ e-)
#
#         PDG            Width
DECAY   1000014     4.01833563E+01   # snu_muL decays
#          BR         NDA      ID1       ID2
     9.67149739E-02    2     1000022        14   # BR(~nu_muL -> ~chi_10 nu_mu)
     3.01048638E-01    2     1000023        14   # BR(~nu_muL -> ~chi_20 nu_mu)
     6.02236388E-01    2     1000024        13   # BR(~nu_muL -> ~chi_1+ mu-)
#
#         PDG            Width
DECAY   1000016     4.01933168E+01   # snu_tauL decays
#          BR         NDA      ID1       ID2
     9.67066927E-02    2     1000022        16   # BR(~nu_tauL -> ~chi_10 nu_tau)
     3.01023657E-01    2     1000023        16   # BR(~nu_tauL -> ~chi_20 nu_tau)
     6.02269650E-01    2     1000024        15   # BR(~nu_tauL -> ~chi_1+ tau-)
#
#         PDG            Width
DECAY   1000024     1.11219921E-06   # chargino1+ decays
#          BR         NDA      ID1       ID2
     1.00000000E+00    2     1000022        24   # BR(~chi_1+ -> ~chi_10  W+)
#
#         PDG            Width
DECAY   1000037     9.96717033E+01   # chargino2+ decays
#          BR         NDA      ID1       ID2
     1.47975120E-01    2     1000006        -5   # BR(~chi_2+ -> ~t_1     bb)
     6.57325313E-01    2    -1000005         6   # BR(~chi_2+ -> ~b_1*    t )
     4.72302428E-14    2     1000012       -11   # BR(~chi_2+ -> ~nu_eL   e+  )
     4.72302428E-14    2     1000014       -13   # BR(~chi_2+ -> ~nu_muL  mu+ )
     1.10301005E-12    2    -1000011        12   # BR(~chi_2+ -> ~e_L+    nu_e)
     1.10301005E-12    2    -1000013        14   # BR(~chi_2+ -> ~mu_L+   nu_mu)
     9.56002042E-07    2    -1000015        16   # BR(~chi_2+ -> ~tau_1+  nu_tau)
     5.87196719E-02    2     1000024        23   # BR(~chi_2+ -> ~chi_1+  Z )
     1.85265100E-02    2     1000022        24   # BR(~chi_2+ -> ~chi_10  W+)
     5.72635948E-02    2     1000023        24   # BR(~chi_2+ -> ~chi_20  W+)
     6.01888338E-02    2     1000024        25   # BR(~chi_2+ -> ~chi_1+  h )
#
#         PDG            Width
DECAY   1000022     0.00000000E+00   # neutralino1 decays
#
#         PDG            Width
DECAY   1000023     2.79378916E-07   # neutralino2 decays
#          BR         NDA      ID1       ID2
     1.00000000E+00    2     1000022        23   # BR(~chi_20 -> ~chi_10   Z )
#
#         PDG            Width
DECAY   1000025     9.97337868E+01   # neutralino3 decays
#          BR         NDA      ID1       ID2
     9.75252210E-03    2     1000022        23   # BR(~chi_30 -> ~chi_10   Z )
     2.83659438E-02    2     1000023        23   # BR(~chi_30 -> ~chi_20   Z )
     5.72658815E-02    2     1000024       -24   # BR(~chi_30 -> ~chi_1+   W-)
     5.72658815E-02    2    -1000024        24   # BR(~chi_30 -> ~chi_1-   W+)
     8.17029954E-03    2     1000022        25   # BR(~chi_30 -> ~chi_10   h )
     2.35388484E-02    2     1000023        25   # BR(~chi_30 -> ~chi_20   h )
     3.34701585E-01    2     1000006        -6   # BR(~chi_30 -> ~t_1      tb)
     3.34701585E-01    2    -1000006         6   # BR(~chi_30 -> ~t_1*     t )
     7.31176122E-02    2     1000005        -5   # BR(~chi_30 -> ~b_1      bb)
     7.31176122E-02    2    -1000005         5   # BR(~chi_30 -> ~b_1*     b )
     1.54940154E-10    2     2000011       -11   # BR(~chi_30 -> ~e_R-     e+)
     1.54940154E-10    2    -2000011        11   # BR(~chi_30 -> ~e_R+     e-)
     1.54940154E-10    2     2000013       -13   # BR(~chi_30 -> ~mu_R-    mu+)
     1.54940154E-10    2    -2000013        13   # BR(~chi_30 -> ~mu_R+    mu-)
     1.11416647E-06    2     1000015       -15   # BR(~chi_30 -> ~tau_1-   tau+)
     1.11416647E-06    2    -1000015        15   # BR(~chi_30 -> ~tau_1+   tau-)
     4.65792422E-12    2     1000012       -12   # BR(~chi_30 -> ~nu_eL    nu_eb)
     4.65792422E-12    2    -1000012        12   # BR(~chi_30 -> ~nu_eL*   nu_e )
     4.65792422E-12    2     1000014       -14   # BR(~chi_30 -> ~nu_muL   nu_mub)
     4.65792422E-12    2    -1000014        14   # BR(~chi_30 -> ~nu_muL*  nu_mu )
     3.98006819E-14    2     1000016       -16   # BR(~chi_30 -> ~nu_tau1  nu_taub)
     3.98006819E-14    2    -1000016        16   # BR(~chi_30 -> ~nu_tau1* nu_tau )
#
#         PDG            Width
DECAY   1000035     1.00052172E+02   # neutralino4 decays
#          BR         NDA      ID1       ID2
     9.09738525E-03    2     1000022        23   # BR(~chi_40 -> ~chi_10   Z )
     3.02608576E-02    2     1000023        23   # BR(~chi_40 -> ~chi_20   Z )
     5.70811470E-02    2     1000024       -24   # BR(~chi_40 -> ~chi_1+   W-)
     5.70811470E-02    2    -1000024        24   # BR(~chi_40 -> ~chi_1-   W+)
     1.13868453E-02    2     1000022        25   # BR(~chi_40 -> ~chi_10   h )
     3.82915385E-02    2     1000023        25   # BR(~chi_40 -> ~chi_20   h )
     3.25501893E-01    2     1000006        -6   # BR(~chi_40 -> ~t_1      tb)
     3.25501893E-01    2    -1000006         6   # BR(~chi_40 -> ~t_1*     t )
     7.28977046E-02    2     1000005        -5   # BR(~chi_40 -> ~b_1      bb)
     7.28977046E-02    2    -1000005         5   # BR(~chi_40 -> ~b_1*     b )
     1.70071293E-10    2     2000011       -11   # BR(~chi_40 -> ~e_R-     e+)
     1.70071293E-10    2    -2000011        11   # BR(~chi_40 -> ~e_R+     e-)
     1.70071293E-10    2     2000013       -13   # BR(~chi_40 -> ~mu_R-    mu+)
     1.70071293E-10    2    -2000013        13   # BR(~chi_40 -> ~mu_R+    mu-)
     9.41452794E-07    2     1000015       -15   # BR(~chi_40 -> ~tau_1-   tau+)
     9.41452794E-07    2    -1000015        15   # BR(~chi_40 -> ~tau_1+   tau-)
     6.27594301E-12    2     1000012       -12   # BR(~chi_40 -> ~nu_eL    nu_eb)
     6.27594301E-12    2    -1000012        12   # BR(~chi_40 -> ~nu_eL*   nu_e )
     6.27594301E-12    2     1000014       -14   # BR(~chi_40 -> ~nu_muL   nu_mub)
     6.27594301E-12    2    -1000014        14   # BR(~chi_40 -> ~nu_muL*  nu_mu )
     3.40059229E-13    2     1000016       -16   # BR(~chi_40 -> ~nu_tau1  nu_taub)
     3.40059229E-13    2    -1000016        16   # BR(~chi_40 -> ~nu_tau1* nu_tau )
#
#         PDG            Width
DECAY        25     3.79713251E-03   # h decays
#          BR         NDA      ID1       ID2
     5.45281914E-01    2           5        -5   # BR(h -> b       bb     )
     6.89651793E-02    2         -15        15   # BR(h -> tau+    tau-   )
     2.44133076E-04    2         -13        13   # BR(h -> mu+     mu-    )
     5.17192130E-04    2           3        -3   # BR(h -> s       sb     )
     2.24712653E-02    2           4        -4   # BR(h -> c       cb     )
     7.42293830E-02    2          21        21   # BR(h -> g       g      )
     2.58172140E-03    2          22        22   # BR(h -> gam     gam    )
     1.83313139E-03    2          22        23   # BR(h -> Z       gam    )
     2.51807993E-01    2          24       -24   # BR(h -> W+      W-     )
     3.20680870E-02    2          23        23   # BR(h -> Z       Z      )
#
#         PDG            Width
DECAY        35     4.16601738E+01   # H decays
#          BR         NDA      ID1       ID2
     9.10019732E-01    2           5        -5   # BR(H -> b       bb     )
     5.96935071E-02    2         -15        15   # BR(H -> tau+    tau-   )
     2.11061976E-04    2         -13        13   # BR(H -> mu+     mu-    )
     2.59183704E-04    2           3        -3   # BR(H -> s       sb     )
     7.26542867E-08    2           4        -4   # BR(H -> c       cb     )
     7.24773536E-03    2           6        -6   # BR(H -> t       tb     )
     4.09961530E-06    2          21        21   # BR(H -> g       g      )
     3.68060777E-08    2          22        22   # BR(H -> gam     gam    )
     2.96552851E-09    2          23        22   # BR(H -> Z       gam    )
     7.18021757E-07    2          24       -24   # BR(H -> W+      W-     )
     3.58568081E-07    2          23        23   # BR(H -> Z       Z      )
     4.85925866E-06    2          25        25   # BR(H -> h       h      )
     1.88360779E-25    2          36        36   # BR(H -> A       A      )
     4.43328857E-18    2          23        36   # BR(H -> Z       A      )
     8.01868586E-04    2     1000024  -1000024   # BR(H -> ~chi_1+ ~chi_1-)
     3.71935823E-05    2     1000022   1000022   # BR(H -> ~chi_10 ~chi_10)
     4.01293966E-04    2     1000023   1000023   # BR(H -> ~chi_20 ~chi_20)
     2.44883674E-04    2     1000022   1000023   # BR(H -> ~chi_10 ~chi_20)
     2.10680259E-02    2     1000006  -1000006   # BR(H -> ~t_1    ~t_1*  )
     5.36645636E-06    2     1000005  -1000005   # BR(H -> ~b_1    ~b_1*  )
#
#         PDG            Width
DECAY        36     4.07853168E+01   # A decays
#          BR         NDA      ID1       ID2
     9.29534864E-01    2           5        -5   # BR(A -> b       bb     )
     6.09708156E-02    2         -15        15   # BR(A -> tau+    tau-   )
     2.15577932E-04    2         -13        13   # BR(A -> mu+     mu-    )
     2.64774466E-04    2           3        -3   # BR(A -> s       sb     )
     7.47156011E-08    2           4        -4   # BR(A -> c       cb     )
     7.44925864E-03    2           6        -6   # BR(A -> t       tb     )
     2.19373531E-05    2          21        21   # BR(A -> g       g      )
     5.19047350E-08    2          22        22   # BR(A -> gam     gam    )
     2.15937425E-08    2          23        22   # BR(A -> Z       gam    )
     7.30517060E-07    2          23        25   # BR(A -> Z       h      )
     8.33752938E-04    2     1000024  -1000024   # BR(A -> ~chi_1+ ~chi_1-)
     3.82912976E-05    2     1000022   1000022   # BR(A -> ~chi_10 ~chi_10)
     4.17233580E-04    2     1000023   1000023   # BR(A -> ~chi_20 ~chi_20)
     2.52615635E-04    2     1000022   1000023   # BR(A -> ~chi_10 ~chi_20)
#
#         PDG            Width
DECAY        37     4.42287084E+01   # H+ decays
#          BR         NDA      ID1       ID2
     1.48109691E-03    2           4        -5   # BR(H+ -> c       bb     )
     5.62446920E-02    2         -15        16   # BR(H+ -> tau+    nu_tau )
     1.98867512E-04    2         -13        14   # BR(H+ -> mu+     nu_mu  )
     9.47900866E-06    2           2        -5   # BR(H+ -> u       bb     )
     1.16869281E-05    2           2        -3   # BR(H+ -> u       sb     )
     2.40437691E-04    2           4        -3   # BR(H+ -> c       sb     )
     9.31081614E-01    2           6        -5   # BR(H+ -> t       bb     )
     6.74810581E-07    2          24        25   # BR(H+ -> W+      h      )
     4.90377676E-14    2          24        36   # BR(H+ -> W+      A      )
     4.64548217E-04    2     1000024   1000022   # BR(H+ -> ~chi_1+ ~chi_10)
     6.82423909E-11    2     1000024   1000023   # BR(H+ -> ~chi_1+ ~chi_20)
     1.02669025E-02    2     1000006  -1000005   # BR(H+ -> ~t_1    ~b_1*  )
