#  ISAJET SUSY parameters in SUSY Les Houches Accord 2 format
#  Created by ISALHA 2.0 Last revision: H Baer 27 May 2014
Block SPINFO   # Program information
     1   ISASUGRA/ISASUSY from ISAJET   # Spectrum Calculator
     2   7.87   18-JUL-2017 13:55:55    # Version number
Block MODSEL   # Model selection
     1    13   # Non-universal supergravity model                  
Block SMINPUTS   # Standard Model inputs
     1     1.28000000E+02   # alpha_em^(-1)
     2     1.16570000E-05   # G_Fermi
     3     1.19999997E-01   # alpha_s(M_Z)
     4     9.11699982E+01   # m_{Z}(pole)
     5     4.19999981E+00   # m_{b}(m_{b})
     6     1.72500000E+02   # m_{top}(pole)
     7     1.77699995E+00   # m_{tau}(pole)
Block MINPAR   # SUSY breaking input parameters
     1     5.00000000E+03   # m_0
     2     8.00000000E+03   # m_{1/2}
     3     1.50000000E+01   # tan(beta)
     4     1.00000000E+00   # sign(mu)
     5    -8.00000000E+03   # A_0
Block EXTPAR   # Non-universal SUSY breaking parameters
     0     9.13460516E+15   # Input scale
    21    -1.95910740E+07   # Down type Higgs mass squared
    22     1.32168672E+08   #  Up  type Higgs mass squared
Block MASS   # Scalar and gaugino mass spectrum
#  PDG code   mass                 particle
         6     1.72500000E+02   #  top            
        24     8.04229965E+01   #  W^+
        25     1.25957458E+02   #  h^0            
        35     1.00666949E+03   #  H^0            
        36     1.00000000E+03   #  A^0            
        37     1.00322870E+03   #  H^+            
   1000001     1.45813428E+04   #  dnl            
   1000002     1.45811074E+04   #  upl            
   1000003     1.45813428E+04   #  stl            
   1000004     1.45811074E+04   #  chl            
   1000005     1.25572373E+04   #  b1             
   1000006     9.49055176E+03   #  t1             
   1000011     7.40306250E+03   #  el-            
   1000012     7.39068262E+03   #  nuel           
   1000013     7.40306250E+03   #  mul-           
   1000014     7.39068262E+03   #  numl           
   1000015     4.91854346E+03   #  tau1           
   1000016     7.30261084E+03   #  nutl           
   1000021     1.54271650E+04   #  glss           
   1000022     1.56949570E+02   #  z1ss           
   1000023    -1.58260727E+02   #  z2ss           
   1000024     1.65190796E+02   #  w1ss           
   1000025     3.68265210E+03   #  z3ss           
   1000035     6.68306934E+03   #  z4ss           
   1000037     6.59558350E+03   #  w2ss           
   1000039     1.00000002E+20   #  gvss
   2000001     1.37974219E+04   #  dnr            
   2000002     1.41545879E+04   #  upr            
   2000003     1.37974219E+04   #  str            
   2000004     1.41545879E+04   #  chr            
   2000005     1.35372832E+04   #  b2             
   2000006     1.26026494E+04   #  t2             
   2000011     5.10972314E+03   #  er-            
   2000013     5.10972314E+03   #  mur-           
   2000015     7.31952930E+03   #  tau2           
Block ALPHA   # Effective Higgs mixing parameter
         -6.81687370E-02   # alpha
Block STOPMIX   # stop mixing matrix
  1  1     3.04215252E-02   # O_{11}
  1  2     9.99537170E-01   # O_{12}
  2  1    -9.99537170E-01   # O_{21}
  2  2     3.04215252E-02   # O_{22}
Block SBOTMIX   # sbottom mixing matrix
  1  1     9.99967039E-01   # O_{11}
  1  2     8.11748393E-03   # O_{12}
  2  1    -8.11748393E-03   # O_{21}
  2  2     9.99967039E-01   # O_{22}
Block STAUMIX   # stau mixing matrix
  1  1     1.81062520E-03   # O_{11}
  1  2    -9.99998331E-01   # O_{12}
  2  1     9.99998331E-01   # O_{21}
  2  2     1.81062520E-03   # O_{22}
Block NMIX   # neutralino mixing matrix
  1  1    -8.66461638E-03   #
  1  2     8.67159478E-03   #
  1  3    -7.08532035E-01   #
  1  4     7.05572248E-01   #
  2  1    -6.91645360E-03   #
  2  2     6.71087112E-03   #
  2  3     7.05676258E-01   #
  2  4     7.08469033E-01   #
  3  1     9.99863625E-01   #
  3  2     1.23669803E-02   #
  3  3    -1.24111201E-03   #
  3  4     1.08802812E-02   #
  4  1     1.22454017E-02   #
  4  2    -9.99863446E-01   #
  4  3    -1.42402982E-03   #
  4  4     1.10087516E-02   #
Block UMIX   # chargino U mixing matrix
  1  1    -1.64762267E-03   # U_{11}
  1  2     9.99998629E-01   # U_{12}
  2  1    -9.99998629E-01   # U_{21}
  2  2    -1.64762267E-03   # U_{22}
Block VMIX   # chargino V mixing matrix
  1  1    -1.69742610E-02   # V_{11}
  1  2     9.99855936E-01   # V_{12}
  2  1    -9.99855936E-01   # V_{21}
  2  2    -1.69742610E-02   # V_{22}
Block GAUGE Q=  1.06289434E+04   #
     1     3.57521415E-01   # g`
     2     6.52393401E-01   # g_2
     3     1.21948302E+00   # g_3
Block YU Q=  1.06289434E+04   #
  3  3     7.83966660E-01   # y_t
Block YD Q=  1.06289434E+04   #
  3  3     1.71955630E-01   # y_b
Block YE Q=  1.06289434E+04   #
  3  3     1.47096857E-01   # y_tau
Block HMIX Q=  1.06289434E+04   # Higgs mixing parameters
     1     1.50000000E+02   # mu(Q)
     2     1.41384926E+01   # tan(beta)(Q)
     3     2.53292801E+02   # Higgs vev at Q
     4     1.00000000E+06   # m_A^2(Q)
Block MSOFT Q=  1.06289434E+04   # DRbar SUSY breaking parameters
     1     3.72247046E+03   # M_1(Q)          
     2     6.52679932E+03   # M_2(Q)          
     3     1.48733828E+04   # M_3(Q)          
    21     1.00259706E+06   # MHd^2(Q)        
    22     9.07477375E+05   # MHu^2(Q)        
    31     7.34641992E+03   # MeL(Q)          
    32     7.34641992E+03   # MmuL(Q)         
    33     7.26087305E+03   # MtauL(Q)        
    34     5.10153369E+03   # MeR(Q)          
    35     5.10153369E+03   # MmuR(Q)         
    36     4.90202295E+03   # MtauR(Q)        
    41     1.38532822E+04   # MqL1(Q)         
    42     1.38532822E+04   # MqL2(Q)         
    43     1.20871777E+04   # MqL3(Q)         
    44     1.34402432E+04   # MuR(Q)          
    45     1.34402432E+04   # McR(Q)          
    46     9.34663379E+03   # MtR(Q)          
    47     1.30963838E+04   # MdR(Q)          
    48     1.30963838E+04   # MsR(Q)          
    49     1.30325957E+04   # MbR(Q)          
Block AU Q=  1.06289434E+04   #
  1  1    -1.46039404E+04   # A_u
  2  2    -1.46039404E+04   # A_c
  3  3    -1.46039404E+04   # A_t
Block AD Q=  1.06289434E+04   #
  1  1    -2.24077129E+04   # A_d
  2  2    -2.24077129E+04   # A_s
  3  3    -2.24077129E+04   # A_b
Block AE Q=  1.06289434E+04   #
  1  1    -1.18583203E+04   # A_e
  2  2    -1.18583203E+04   # A_mu
  3  3    -1.18583203E+04   # A_tau
#  ISAJET decay tables in SUSY Les Houches accord format
#  Created by ISALHD. Last revision: C. Balazs, 2005 May 25
Block DCINFO                           # Program information
     1   ISASUGRA from ISAJET          # Spectrum Calculator
     2   7.87   18-JUL-2017 13:55:55   # Version number
#         PDG         Width
DECAY         6  1.46776152E+00   # TP    decays
#          BR          NDA       ID1       ID2       ID3       ID4
      3.33333313E-01    3            2        -1         5             # TP     -->  UP     DB     BT          
      3.33333313E-01    3            4        -3         5             # TP     -->  CH     SB     BT          
      1.11111097E-01    3          -11        12         5             # TP     -->  E+     NUE    BT          
      1.11111097E-01    3          -13        14         5             # TP     -->  MU+    NUM    BT          
      1.11111097E-01    3          -15        16         5             # TP     -->  TAU+   NUT    BT          
#         PDG         Width
DECAY   1000021  2.32638779E+02   # GLSS  decays
#          BR          NDA       ID1       ID2       ID3       ID4
      6.78389613E-03    2     -1000002         2                       # GLSS   -->  UBL    UP                 
      6.78389613E-03    2      1000002        -2                       # GLSS   -->  UPL    UB                 
      6.78022811E-03    2     -1000001         1                       # GLSS   -->  DBL    DN                 
      6.78022811E-03    2      1000001        -1                       # GLSS   -->  DNL    DB                 
      1.49146561E-02    2     -2000002         2                       # GLSS   -->  UBR    UP                 
      1.49146561E-02    2      2000002        -2                       # GLSS   -->  UPR    UB                 
      2.38743890E-02    2     -2000001         1                       # GLSS   -->  DBR    DN                 
      2.38743890E-02    2      2000001        -1                       # GLSS   -->  DNR    DB                 
      6.78022811E-03    2     -1000003         3                       # GLSS   -->  SBL    ST                 
      6.78022811E-03    2      1000003        -3                       # GLSS   -->  STL    SB                 
      2.38743890E-02    2     -2000003         3                       # GLSS   -->  SBR    ST                 
      2.38743890E-02    2      2000003        -3                       # GLSS   -->  STR    SB                 
      6.78388868E-03    2     -1000004         4                       # GLSS   -->  CBL    CH                 
      6.78388868E-03    2      1000004        -4                       # GLSS   -->  CHL    CB                 
      1.49146477E-02    2     -2000004         4                       # GLSS   -->  CBR    CH                 
      1.49146477E-02    2      2000004        -4                       # GLSS   -->  CHR    CB                 
      6.78823665E-02    2     -1000005         5                       # GLSS   -->  BB1    BT                 
      6.78823665E-02    2      1000005        -5                       # GLSS   -->  BT1    BB                 
      3.15366536E-02    2     -2000005         5                       # GLSS   -->  BB2    BT                 
      3.15366536E-02    2      2000005        -5                       # GLSS   -->  BT2    BB                 
      2.29738355E-01    2     -1000006         6                       # GLSS   -->  TB1    TP                 
      2.29738355E-01    2      1000006        -6                       # GLSS   -->  TP1    TB                 
      6.61363527E-02    2     -2000006         6                       # GLSS   -->  TB2    TP                 
      6.61363527E-02    2      2000006        -6                       # GLSS   -->  TP2    TB                 
#         PDG         Width
DECAY   1000002  1.17850258E+02   # UPL   decays
#          BR          NDA       ID1       ID2       ID3       ID4
      2.61306413E-05    2      1000022         2                       # UPL    -->  Z1SS   UP                 
      1.54298850E-05    2      1000023         2                       # UPL    -->  Z2SS   UP                 
      1.74554680E-02    2      1000025         2                       # UPL    -->  Z3SS   UP                 
      3.23426723E-01    2      1000035         2                       # UPL    -->  Z4SS   UP                 
      3.00035288E-04    2      1000024         1                       # UPL    -->  W1SS+  DN                 
      6.58776224E-01    2      1000037         1                       # UPL    -->  W2SS+  DN                 
#         PDG         Width
DECAY   1000001  1.17702866E+02   # DNL   decays
#          BR          NDA       ID1       ID2       ID3       ID4
      5.48697644E-05    2      1000022         1                       # DNL    -->  Z1SS   DN                 
      3.31825613E-05    2      1000023         1                       # DNL    -->  Z2SS   DN                 
      1.33359767E-02    2      1000025         1                       # DNL    -->  Z3SS   DN                 
      3.26762050E-01    2      1000035         1                       # DNL    -->  Z4SS   DN                 
      2.83045711E-06    2     -1000024         2                       # DNL    -->  W1SS-  UP                 
      6.59811080E-01    2     -1000037         2                       # DNL    -->  W2SS-  UP                 
#         PDG         Width
DECAY   1000003  1.17702866E+02   # STL   decays
#          BR          NDA       ID1       ID2       ID3       ID4
      5.48697644E-05    2      1000022         3                       # STL    -->  Z1SS   ST                 
      3.31825613E-05    2      1000023         3                       # STL    -->  Z2SS   ST                 
      1.33359767E-02    2      1000025         3                       # STL    -->  Z3SS   ST                 
      3.26762050E-01    2      1000035         3                       # STL    -->  Z4SS   ST                 
      2.83045711E-06    2     -1000024         4                       # STL    -->  W1SS-  CH                 
      6.59811080E-01    2     -1000037         4                       # STL    -->  W2SS-  CH                 
#         PDG         Width
DECAY   1000004  1.17850258E+02   # CHL   decays
#          BR          NDA       ID1       ID2       ID3       ID4
      2.61306413E-05    2      1000022         4                       # CHL    -->  Z1SS   CH                 
      1.54298850E-05    2      1000023         4                       # CHL    -->  Z2SS   CH                 
      1.74554698E-02    2      1000025         4                       # CHL    -->  Z3SS   CH                 
      3.23426723E-01    2      1000035         4                       # CHL    -->  Z4SS   CH                 
      3.00035288E-04    2      1000024         3                       # CHL    -->  W1SS+  ST                 
      6.58776224E-01    2      1000037         3                       # CHL    -->  W2SS+  ST                 
#         PDG         Width
DECAY   1000005  3.30863861E+02   # BT1   decays
#          BR          NDA       ID1       ID2       ID3       ID4
      1.19214095E-02    2      1000022         5                       # BT1    -->  Z1SS   BT                 
      1.18021034E-02    2      1000023         5                       # BT1    -->  Z2SS   BT                 
      3.89435724E-03    2      1000025         5                       # BT1    -->  Z3SS   BT                 
      8.24124441E-02    2      1000035         5                       # BT1    -->  Z4SS   BT                 
      4.37227726E-01    2     -1000024         6                       # BT1    -->  W1SS-  TP                 
      1.67601883E-01    2     -1000037         6                       # BT1    -->  W2SS-  TP                 
      2.83856869E-01    2          -24   1000006                       # BT1    -->  W-     TP1                
      1.28325529E-03    2          -37   1000006                       # BT1    -->  H-     TP1                
#         PDG         Width
DECAY   1000006  2.34177795E+02   # TP1   decays
#          BR          NDA       ID1       ID2       ID3       ID4
      2.32556835E-01    2      1000022         6                       # TP1    -->  Z1SS   TP                 
      2.34449446E-01    2      1000023         6                       # TP1    -->  Z2SS   TP                 
      6.60062656E-02    2      1000025         6                       # TP1    -->  Z3SS   TP                 
      8.98192320E-06    2      1000035         6                       # TP1    -->  Z4SS   TP                 
      4.66968268E-01    2      1000024         5                       # TP1    -->  W1SS+  BT                 
      1.01691230E-05    2      1000037         5                       # TP1    -->  W2SS+  BT                 
#         PDG         Width
DECAY   2000002  2.78113461E+01   # UPR   decays
#          BR          NDA       ID1       ID2       ID3       ID4
      8.63541791E-05    2      1000022         2                       # UPR    -->  Z1SS   UP                 
      5.50237201E-05    2      1000023         2                       # UPR    -->  Z2SS   UP                 
      9.99754488E-01    2      1000025         2                       # UPR    -->  Z3SS   UP                 
      1.04175153E-04    2      1000035         2                       # UPR    -->  Z4SS   UP                 
#         PDG         Width
DECAY   2000001  6.72587204E+00   # DNR   decays
#          BR          NDA       ID1       ID2       ID3       ID4
      8.70145595E-05    2      1000022         1                       # DNR    -->  Z1SS   DN                 
      5.54444850E-05    2      1000023         1                       # DNR    -->  Z2SS   DN                 
      9.99755740E-01    2      1000025         1                       # DNR    -->  Z3SS   DN                 
      1.01838377E-04    2      1000035         1                       # DNR    -->  Z4SS   DN                 
#         PDG         Width
DECAY   2000003  6.72587204E+00   # STR   decays
#          BR          NDA       ID1       ID2       ID3       ID4
      8.70145595E-05    2      1000022         3                       # STR    -->  Z1SS   ST                 
      5.54444850E-05    2      1000023         3                       # STR    -->  Z2SS   ST                 
      9.99755740E-01    2      1000025         3                       # STR    -->  Z3SS   ST                 
      1.01838377E-04    2      1000035         3                       # STR    -->  Z4SS   ST                 
#         PDG         Width
DECAY   2000004  2.78113461E+01   # CHR   decays
#          BR          NDA       ID1       ID2       ID3       ID4
      8.63541791E-05    2      1000022         4                       # CHR    -->  Z1SS   CH                 
      5.50237128E-05    2      1000023         4                       # CHR    -->  Z2SS   CH                 
      9.99754488E-01    2      1000025         4                       # CHR    -->  Z3SS   CH                 
      1.04175153E-04    2      1000035         4                       # CHR    -->  Z4SS   CH                 
#         PDG         Width
DECAY   2000005  2.39678345E+01   # BT2   decays
#          BR          NDA       ID1       ID2       ID3       ID4
      1.76911861E-01    2      1000022         5                       # BT2    -->  Z1SS   BT                 
      1.75729886E-01    2      1000023         5                       # BT2    -->  Z2SS   BT                 
      2.73621917E-01    2      1000025         5                       # BT2    -->  Z3SS   BT                 
      1.30004526E-04    2      1000035         5                       # BT2    -->  Z4SS   BT                 
      3.52888763E-01    2     -1000024         6                       # BT2    -->  W1SS-  TP                 
      2.03009622E-04    2     -1000037         6                       # BT2    -->  W2SS-  TP                 
      5.39809174E-04    2          -24   1000006                       # BT2    -->  W-     TP1                
      1.03910519E-02    2          -24   2000006                       # BT2    -->  W-     TP2                
      6.03150064E-03    2           23   1000005                       # BT2    -->  Z0     BT1                
      2.20375066E-03    2           25   1000005                       # BT2    -->  HL0    BT1                
      1.34856487E-03    2          -37   1000006                       # BT2    -->  H-     TP1                
#         PDG         Width
DECAY   2000006  3.58578461E+02   # TP2   decays
#          BR          NDA       ID1       ID2       ID3       ID4
      2.20240019E-02    2      1000024         5                       # TP2    -->  W1SS+  BT                 
      1.55997455E-01    2      1000037         5                       # TP2    -->  W2SS+  BT                 
      1.37870803E-01    2           23   1000006                       # TP2    -->  Z0     TP1                
      1.97177887E-01    2           25   1000006                       # TP2    -->  HL0    TP1                
      6.26775785E-04    2           35   1000006                       # TP2    -->  HH0    TP1                
      5.95196791E-04    2           36   1000006                       # TP2    -->  HA0    TP1                
      2.01516092E-01    2      1000022         6                       # TP2    -->  Z1SS   TP                 
      2.03194425E-01    2      1000023         6                       # TP2    -->  Z2SS   TP                 
      4.88319295E-03    2      1000025         6                       # TP2    -->  Z3SS   TP                 
      7.61141703E-02    2      1000035         6                       # TP2    -->  Z4SS   TP                 
#         PDG         Width
DECAY   1000011  9.27680874E+00   # EL-   decays
#          BR          NDA       ID1       ID2       ID3       ID4
      5.12909901E-05    2      1000022        11                       # EL-    -->  Z1SS   E-                 
      2.84084490E-05    2      1000023        11                       # EL-    -->  Z2SS   E-                 
      6.00656986E-01    2      1000025        11                       # EL-    -->  Z3SS   E-                 
      1.13457829E-01    2      1000035        11                       # EL-    -->  Z4SS   E-                 
      1.82195563E-05    2     -1000024        12                       # EL-    -->  W1SS-  NUE                
      2.85787284E-01    2     -1000037        12                       # EL-    -->  W2SS-  NUE                
#         PDG         Width
DECAY   1000013  9.27680874E+00   # MUL-  decays
#          BR          NDA       ID1       ID2       ID3       ID4
      5.12909901E-05    2      1000022        13                       # MUL-   -->  Z1SS   MU-                
      2.84084490E-05    2      1000023        13                       # MUL-   -->  Z2SS   MU-                
      6.00656986E-01    2      1000025        13                       # MUL-   -->  Z3SS   MU-                
      1.13457829E-01    2      1000035        13                       # MUL-   -->  Z4SS   MU-                
      1.82195563E-05    2     -1000024        14                       # MUL-   -->  W1SS-  NUM                
      2.85787284E-01    2     -1000037        14                       # MUL-   -->  W2SS-  NUM                
#         PDG         Width
DECAY   1000015  9.31767178E+00   # TAU1- decays
#          BR          NDA       ID1       ID2       ID3       ID4
      1.21034369E-01    2      1000022        15                       # TAU1-  -->  Z1SS   TAU-               
      1.20029829E-01    2      1000023        15                       # TAU1-  -->  Z2SS   TAU-               
      5.18250465E-01    2      1000025        15                       # TAU1-  -->  Z3SS   TAU-               
      2.40685329E-01    2     -1000024        16                       # TAU1-  -->  W1SS-  NUT                
#         PDG         Width
DECAY   1000012  8.72562218E+00   # NUEL  decays
#          BR          NDA       ID1       ID2       ID3       ID4
      6.42849714E-04    2      1000022        12                       # NUEL   -->  Z1SS   NUE                
      3.93638329E-04    2      1000023        12                       # NUEL   -->  Z2SS   NUE                
      5.81358075E-01    2      1000025        12                       # NUEL   -->  Z3SS   NUE                
      1.20083176E-01    2      1000035        12                       # NUEL   -->  Z4SS   NUE                
      2.05247547E-03    2      1000024        11                       # NUEL   -->  W1SS+  E-                 
      2.95469791E-01    2      1000037        11                       # NUEL   -->  W2SS+  E-                 
#         PDG         Width
DECAY   1000014  8.72562218E+00   # NUML  decays
#          BR          NDA       ID1       ID2       ID3       ID4
      6.42849714E-04    2      1000022        14                       # NUML   -->  Z1SS   NUM                
      3.93638329E-04    2      1000023        14                       # NUML   -->  Z2SS   NUM                
      5.81358075E-01    2      1000025        14                       # NUML   -->  Z3SS   NUM                
      1.20083176E-01    2      1000035        14                       # NUML   -->  Z4SS   NUM                
      2.05247547E-03    2      1000024        13                       # NUML   -->  W1SS+  MU-                
      2.95469791E-01    2      1000037        13                       # NUML   -->  W2SS+  MU-                
#         PDG         Width
DECAY   1000016  1.57275791E+01   # NUTL  decays
#          BR          NDA       ID1       ID2       ID3       ID4
      3.52393632E-04    2      1000022        16                       # NUTL   -->  Z1SS   NUT                
      2.15782289E-04    2      1000023        16                       # NUTL   -->  Z2SS   NUT                
      3.13604385E-01    2      1000025        16                       # NUTL   -->  Z3SS   NUT                
      5.22795916E-02    2      1000035        16                       # NUTL   -->  Z4SS   NUT                
      2.13099942E-01    2      1000024        15                       # NUTL   -->  W1SS+  TAU-               
      1.32681131E-01    2      1000037        15                       # NUTL   -->  W2SS+  TAU-               
      8.60071834E-03    2           24   1000015                       # NUTL   -->  W+     TAU1-              
      2.79166102E-01    2           37   1000015                       # NUTL   -->  H+     TAU1-              
#         PDG         Width
DECAY   2000011  6.00374842E+00   # ER-   decays
#          BR          NDA       ID1       ID2       ID3       ID4
      3.24378838E-04    2      1000022        11                       # ER-    -->  Z1SS   E-                 
      2.06684039E-04    2      1000023        11                       # ER-    -->  Z2SS   E-                 
      9.99468982E-01    2      1000025        11                       # ER-    -->  Z3SS   E-                 
      1.08437373E-17    3      1000015        11       -15             # ER-    -->  TAU1-  E-     TAU+        
      1.87006842E-17    3     -1000015        11        15             # ER-    -->  TAU1+  E-     TAU-        
      5.14238582E-29    3      1000015        12       -16             # ER-    -->  TAU1-  NUE    ANUT        
#         PDG         Width
DECAY   2000013  6.00374842E+00   # MUR-  decays
#          BR          NDA       ID1       ID2       ID3       ID4
      3.24378838E-04    2      1000022        13                       # MUR-   -->  Z1SS   MU-                
      2.06684039E-04    2      1000023        13                       # MUR-   -->  Z2SS   MU-                
      9.99468982E-01    2      1000025        13                       # MUR-   -->  Z3SS   MU-                
      1.08437373E-17    3      1000015        13       -15             # MUR-   -->  TAU1-  MU-    TAU+        
      1.87006842E-17    3     -1000015        13        15             # MUR-   -->  TAU1+  MU-    TAU-        
      5.46963927E-24    3      1000015        14       -16             # MUR-   -->  TAU1-  NUM    ANUT        
#         PDG         Width
DECAY   2000015  1.62779121E+01   # TAU2- decays
#          BR          NDA       ID1       ID2       ID3       ID4
      1.03117056E-01    2      1000022        15                       # TAU2-  -->  Z1SS   TAU-               
      1.02235220E-01    2      1000023        15                       # TAU2-  -->  Z2SS   TAU-               
      3.33365709E-01    2      1000025        15                       # TAU2-  -->  Z3SS   TAU-               
      5.16577251E-02    2      1000035        15                       # TAU2-  -->  Z4SS   TAU-               
      1.61958924E-05    2     -1000024        16                       # TAU2-  -->  W1SS-  NUT                
      1.33837000E-01    2     -1000037        16                       # TAU2-  -->  W2SS-  NUT                
      4.28604009E-03    2           23   1000015                       # TAU2-  -->  Z0     TAU1-              
      9.78472177E-04    2           25   1000015                       # TAU2-  -->  HL0    TAU1-              
      1.35369822E-01    2           36   1000015                       # TAU2-  -->  HA0    TAU1-              
      1.35136709E-01    2           35   1000015                       # TAU2-  -->  HH0    TAU1-              
#         PDG         Width
DECAY   1000023  8.30975653E-12   # Z2SS  decays
#          BR          NDA       ID1       ID2       ID3       ID4
      7.31062889E-01    2      1000022        22                       # Z2SS   -->  Z1SS   GM                 
      5.82033992E-02    3      1000022         2        -2             # Z2SS   -->  Z1SS   UP     UB          
      7.50536770E-02    3      1000022         1        -1             # Z2SS   -->  Z1SS   DN     DB          
      1.70258880E-02    3      1000022        11       -11             # Z2SS   -->  Z1SS   E-     E+          
      1.70258880E-02    3      1000022        13       -13             # Z2SS   -->  Z1SS   MU-    MU+         
      3.38761620E-02    3      1000022        12       -12             # Z2SS   -->  Z1SS   NUE    ANUE        
      3.38761620E-02    3      1000022        14       -14             # Z2SS   -->  Z1SS   NUM    ANUM        
      3.38761620E-02    3      1000022        16       -16             # Z2SS   -->  Z1SS   NUT    ANUT        
#         PDG         Width
DECAY   1000025  1.62286358E+01   # Z3SS  decays
#          BR          NDA       ID1       ID2       ID3       ID4
      1.54425521E-08    2      1000022        22                       # Z3SS   -->  Z1SS   GM                 
      1.63835807E-08    2      1000023        22                       # Z3SS   -->  Z2SS   GM                 
      1.25920743E-01    2      1000024       -24                       # Z3SS   -->  W1SS+  W-                 
      1.25920743E-01    2     -1000024        24                       # Z3SS   -->  W1SS-  W+                 
      1.27541676E-01    2      1000024       -37                       # Z3SS   -->  W1SS+  H-                 
      1.27541676E-01    2     -1000024        37                       # Z3SS   -->  W1SS-  H+                 
      4.66346852E-02    2      1000022        23                       # Z3SS   -->  Z1SS   Z0                 
      7.43422136E-02    2      1000023        23                       # Z3SS   -->  Z2SS   Z0                 
      3.85361014E-11    3      1000022         2        -2             # Z3SS   -->  Z1SS   UP     UB          
      6.96769508E-12    3      1000022         1        -1             # Z3SS   -->  Z1SS   DN     DB          
      6.96769508E-12    3      1000022         3        -3             # Z3SS   -->  Z1SS   ST     SB          
      3.85361014E-11    3      1000022         4        -4             # Z3SS   -->  Z1SS   CH     CB          
      1.38179752E-08    3      1000022         5        -5             # Z3SS   -->  Z1SS   BT     BB          
      5.64559688E-09    3      1000022        11       -11             # Z3SS   -->  Z1SS   E-     E+          
      5.64559688E-09    3      1000022        13       -13             # Z3SS   -->  Z1SS   MU-    MU+         
      4.77547701E-06    3      1000022        15       -15             # Z3SS   -->  Z1SS   TAU-   TAU+        
      4.52154786E-10    3      1000022        12       -12             # Z3SS   -->  Z1SS   NUE    ANUE        
      4.52154786E-10    3      1000022        14       -14             # Z3SS   -->  Z1SS   NUM    ANUM        
      4.77099749E-10    3      1000022        16       -16             # Z3SS   -->  Z1SS   NUT    ANUT        
      2.07733223E-11    3      1000023         2        -2             # Z3SS   -->  Z2SS   UP     UB          
      3.65220961E-12    3      1000023         1        -1             # Z3SS   -->  Z2SS   DN     DB          
      3.65220961E-12    3      1000023         3        -3             # Z3SS   -->  Z2SS   ST     SB          
      2.07733223E-11    3      1000023         4        -4             # Z3SS   -->  Z2SS   CH     CB          
      1.36997498E-08    3      1000023         5        -5             # Z3SS   -->  Z2SS   BT     BB          
      3.14383630E-09    3      1000023        11       -11             # Z3SS   -->  Z2SS   E-     E+          
      3.14383630E-09    3      1000023        13       -13             # Z3SS   -->  Z2SS   MU-    MU+         
      4.73424598E-06    3      1000023        15       -15             # Z3SS   -->  Z2SS   TAU-   TAU+        
      2.37800196E-10    3      1000023        12       -12             # Z3SS   -->  Z2SS   NUE    ANUE        
      2.37800196E-10    3      1000023        14       -14             # Z3SS   -->  Z2SS   NUM    ANUM        
      2.51008270E-10    3      1000023        16       -16             # Z3SS   -->  Z2SS   NUT    ANUT        
      8.43582451E-02    2      1000022        25                       # Z3SS   -->  Z1SS   HL0                
      5.59018888E-02    2      1000022        35                       # Z3SS   -->  Z1SS   HH0                
      6.10041395E-02    2      1000022        36                       # Z3SS   -->  Z1SS   HA0                
      5.45058772E-02    2      1000023        25                       # Z3SS   -->  Z2SS   HL0                
      6.05670922E-02    2      1000023        35                       # Z3SS   -->  Z2SS   HH0                
      5.57514466E-02    2      1000023        36                       # Z3SS   -->  Z2SS   HA0                
#         PDG         Width
DECAY   1000035  1.12724724E+02   # Z4SS  decays
#          BR          NDA       ID1       ID2       ID3       ID4
      8.29267144E-09    2      1000022        22                       # Z4SS   -->  Z1SS   GM                 
      8.63663363E-09    2      1000023        22                       # Z4SS   -->  Z2SS   GM                 
      3.95620159E-09    2      1000025        22                       # Z4SS   -->  Z3SS   GM                 
      1.45940527E-01    2      1000024       -24                       # Z4SS   -->  W1SS+  W-                 
      1.45940527E-01    2     -1000024        24                       # Z4SS   -->  W1SS-  W+                 
      1.16794467E-01    2      1000024       -37                       # Z4SS   -->  W1SS+  H-                 
      1.16794467E-01    2     -1000024        37                       # Z4SS   -->  W1SS-  H+                 
      1.26247153E-06    2      1000037       -24                       # Z4SS   -->  W2SS+  W-                 
      1.26247153E-06    2     -1000037        24                       # Z4SS   -->  W2SS-  W+                 
      3.98124419E-02    2      1000022        23                       # Z4SS   -->  Z1SS   Z0                 
      6.75568506E-02    2      1000023        23                       # Z4SS   -->  Z2SS   Z0                 
      4.11062820E-06    2      1000025        23                       # Z4SS   -->  Z3SS   Z0                 
      2.29641764E-10    3      1000022         2        -2             # Z4SS   -->  Z1SS   UP     UB          
      4.85869123E-10    3      1000022         1        -1             # Z4SS   -->  Z1SS   DN     DB          
      4.85869123E-10    3      1000022         3        -3             # Z4SS   -->  Z1SS   ST     SB          
      2.29641764E-10    3      1000022         4        -4             # Z4SS   -->  Z1SS   CH     CB          
      6.42140151E-07    3      1000022         5        -5             # Z4SS   -->  Z1SS   BT     BB          
      7.96345045E-10    3      1000022        11       -11             # Z4SS   -->  Z1SS   E-     E+          
      7.96345045E-10    3      1000022        13       -13             # Z4SS   -->  Z1SS   MU-    MU+         
      3.02221997E-06    3      1000022        15       -15             # Z4SS   -->  Z1SS   TAU-   TAU+        
      9.78614523E-09    3      1000022        12       -12             # Z4SS   -->  Z1SS   NUE    ANUE        
      9.78614523E-09    3      1000022        14       -14             # Z4SS   -->  Z1SS   NUM    ANUM        
      1.07613527E-08    3      1000022        16       -16             # Z4SS   -->  Z1SS   NUT    ANUT        
      1.24334196E-10    3      1000023         2        -2             # Z4SS   -->  Z2SS   UP     UB          
      2.69414269E-10    3      1000023         1        -1             # Z4SS   -->  Z2SS   DN     DB          
      2.69414269E-10    3      1000023         3        -3             # Z4SS   -->  Z2SS   ST     SB          
      1.24334196E-10    3      1000023         4        -4             # Z4SS   -->  Z2SS   CH     CB          
      6.36404820E-07    3      1000023         5        -5             # Z4SS   -->  Z2SS   BT     BB          
      4.16344043E-10    3      1000023        11       -11             # Z4SS   -->  Z2SS   E-     E+          
      4.16344043E-10    3      1000023        13       -13             # Z4SS   -->  Z2SS   MU-    MU+         
      2.99620024E-06    3      1000023        15       -15             # Z4SS   -->  Z2SS   TAU-   TAU+        
      5.65766189E-09    3      1000023        12       -12             # Z4SS   -->  Z2SS   NUE    ANUE        
      5.65766189E-09    3      1000023        14       -14             # Z4SS   -->  Z2SS   NUM    ANUM        
      6.23145935E-09    3      1000023        16       -16             # Z4SS   -->  Z2SS   NUT    ANUT        
      2.85568778E-08    3      1000025         2        -2             # Z4SS   -->  Z3SS   UP     UB          
      2.19585363E-08    3      1000025         1        -1             # Z4SS   -->  Z3SS   DN     DB          
      2.19585363E-08    3      1000025         3        -3             # Z4SS   -->  Z3SS   ST     SB          
      2.85568778E-08    3      1000025         4        -4             # Z4SS   -->  Z3SS   CH     CB          
      4.44973303E-08    3      1000025         5        -5             # Z4SS   -->  Z3SS   BT     BB          
      4.09423183E-06    3      1000025        11       -11             # Z4SS   -->  Z3SS   E-     E+          
      4.09423183E-06    3      1000025        13       -13             # Z4SS   -->  Z3SS   MU-    MU+         
      4.56587077E-06    3      1000025        15       -15             # Z4SS   -->  Z3SS   TAU-   TAU+        
      3.90498462E-06    3      1000025        12       -12             # Z4SS   -->  Z3SS   NUE    ANUE        
      3.90498462E-06    3      1000025        14       -14             # Z4SS   -->  Z3SS   NUM    ANUM        
      4.38577990E-06    3      1000025        16       -16             # Z4SS   -->  Z3SS   NUT    ANUT        
      7.48099983E-02    2      1000022        25                       # Z4SS   -->  Z1SS   HL0                
      5.49294315E-02    2      1000022        35                       # Z4SS   -->  Z1SS   HH0                
      6.53712824E-02    2      1000022        36                       # Z4SS   -->  Z1SS   HA0                
      5.22116274E-02    2      1000023        25                       # Z4SS   -->  Z2SS   HL0                
      6.50316775E-02    2      1000023        35                       # Z4SS   -->  Z2SS   HH0                
      5.46820611E-02    2      1000023        36                       # Z4SS   -->  Z2SS   HA0                
      6.00867206E-05    2      1000025        25                       # Z4SS   -->  Z3SS   HL0                
      1.43836004E-07    2      1000025        35                       # Z4SS   -->  Z3SS   HH0                
      1.43284339E-07    2      1000025        36                       # Z4SS   -->  Z3SS   HA0                
      3.90166269E-06    2      2000011       -11                       # Z4SS   -->  ER-    E+                 
      3.90166269E-06    2     -2000011        11                       # Z4SS   -->  ER+    E-                 
      3.90166269E-06    2      2000013       -13                       # Z4SS   -->  MUR-   MU+                
      3.90166269E-06    2     -2000013        13                       # Z4SS   -->  MUR+   MU-                
      4.88313253E-06    2      1000015       -15                       # Z4SS   -->  TAU1-  TAU+               
      4.88313253E-06    2     -1000015        15                       # Z4SS   -->  TAU1+  TAU-               
#         PDG         Width
DECAY   1000024  6.54083010E-08   # W1SS+ decays
#          BR          NDA       ID1       ID2       ID3       ID4
      2.33964413E-01    3      1000022         2        -1             # W1SS+  -->  Z1SS   UP     DB          
      2.33964413E-01    3      1000022         4        -3             # W1SS+  -->  Z1SS   CH     SB          
      7.79881403E-02    3      1000022       -11        12             # W1SS+  -->  Z1SS   E+     NUE         
      7.79881403E-02    3      1000022       -13        14             # W1SS+  -->  Z1SS   MU+    NUM         
      7.79892802E-02    3      1000022       -15        16             # W1SS+  -->  Z1SS   TAU+   NUT         
      9.93683785E-02    3      1000023         2        -1             # W1SS+  -->  Z2SS   UP     DB          
      9.93683785E-02    3      1000023         4        -3             # W1SS+  -->  Z2SS   CH     SB          
      3.31227928E-02    3      1000023       -11        12             # W1SS+  -->  Z2SS   E+     NUE         
      3.31227928E-02    3      1000023       -13        14             # W1SS+  -->  Z2SS   MU+    NUM         
      3.31232511E-02    3      1000023       -15        16             # W1SS+  -->  Z2SS   TAU+   NUT         
#         PDG         Width
DECAY   1000037  1.21374908E+02   # W2SS+ decays
#          BR          NDA       ID1       ID2       ID3       ID4
      5.68187664E-10    3      1000022         2        -1             # W2SS+  -->  Z1SS   UP     DB          
      5.68187664E-10    3      1000022         4        -3             # W2SS+  -->  Z1SS   CH     SB          
      8.29443980E-09    3      1000022       -11        12             # W2SS+  -->  Z1SS   E+     NUE         
      8.29443980E-09    3      1000022       -13        14             # W2SS+  -->  Z1SS   MU+    NUM         
      2.53872918E-06    3      1000022       -15        16             # W2SS+  -->  Z1SS   TAU+   NUT         
      9.46105197E-02    2      1000022        24                       # W2SS+  -->  Z1SS   W+                 
      1.08866699E-01    2      1000022        37                       # W2SS+  -->  Z1SS   H+                 
      3.70140224E-10    3      1000023         2        -1             # W2SS+  -->  Z2SS   UP     DB          
      3.70140224E-10    3      1000023         4        -3             # W2SS+  -->  Z2SS   CH     SB          
      5.20167154E-09    3      1000023       -11        12             # W2SS+  -->  Z2SS   E+     NUE         
      5.20167154E-09    3      1000023       -13        14             # W2SS+  -->  Z2SS   MU+    NUM         
      2.51401161E-06    3      1000023       -15        16             # W2SS+  -->  Z2SS   TAU+   NUT         
      9.20898542E-02    2      1000023        24                       # W2SS+  -->  Z2SS   W+                 
      1.07984632E-01    2      1000023        37                       # W2SS+  -->  Z2SS   H+                 
      4.07993994E-08    3      1000025         2        -1             # W2SS+  -->  Z3SS   UP     DB          
      4.07993994E-08    3      1000025         4        -3             # W2SS+  -->  Z3SS   CH     SB          
      6.17598653E-06    3      1000025       -11        12             # W2SS+  -->  Z3SS   E+     NUE         
      6.17598653E-06    3      1000025       -13        14             # W2SS+  -->  Z3SS   MU+    NUM         
      6.87860620E-06    3      1000025       -15        16             # W2SS+  -->  Z3SS   TAU+   NUT         
      1.51603565E-01    2      1000025        24                       # W2SS+  -->  Z3SS   W+                 
      2.10211525E-07    2      1000025        37                       # W2SS+  -->  Z3SS   H+                 
      2.17042000E-07    2     -1000015        16                       # W2SS+  -->  TAU1+  NUT                
      1.13091029E-01    2      1000024        23                       # W2SS+  -->  W1SS+  Z0                 
      2.19510077E-09    3      1000024         1        -1             # W2SS+  -->  W1SS+  DN     DB          
      2.19510077E-09    3      1000024         3        -3             # W2SS+  -->  W1SS+  ST     SB          
      2.06862340E-11    3      1000024         2        -2             # W2SS+  -->  W1SS+  UP     UB          
      2.06862340E-11    3      1000024         4        -4             # W2SS+  -->  W1SS+  CH     CB          
      2.31074562E-10    3      1000024        12       -12             # W2SS+  -->  W1SS+  NUE    ANUE        
      2.31074562E-10    3      1000024        14       -14             # W2SS+  -->  W1SS+  NUM    ANUM        
      2.48273366E-08    3      1000024        11       -11             # W2SS+  -->  W1SS+  E-     E+          
      2.48273366E-08    3      1000024        13       -13             # W2SS+  -->  W1SS+  MU-    MU+         
      2.72082445E-08    3      1000024        15       -15             # W2SS+  -->  W1SS+  TAU-   TAU+        
      1.15028210E-01    2      1000024        25                       # W2SS+  -->  W1SS+  HL0                
      1.08307675E-01    2      1000024        35                       # W2SS+  -->  W1SS+  HH0                
      1.08392954E-01    2      1000024        36                       # W2SS+  -->  W1SS+  HA0                
#         PDG         Width
DECAY        25  4.04847087E-03   # HL0   decays
#          BR          NDA       ID1       ID2       ID3       ID4
      5.54410784E-09    2           11       -11                       # HL0    -->  E-     E+                 
      2.34081250E-04    2           13       -13                       # HL0    -->  MU-    MU+                
      6.69646934E-02    2           15       -15                       # HL0    -->  TAU-   TAU+               
      6.94902383E-06    2            1        -1                       # HL0    -->  DN     DB                 
      2.80775456E-03    2            3        -3                       # HL0    -->  ST     SB                 
      6.01631701E-01    2            5        -5                       # HL0    -->  BT     BB                 
      2.11997212E-06    2            2        -2                       # HL0    -->  UP     UB                 
      3.93578149E-02    2            4        -4                       # HL0    -->  CH     CB                 
      2.64754682E-03    2           22        22                       # HL0    -->  GM     GM                 
      5.31958118E-02    2           21        21                       # HL0    -->  GL     GL                 
      1.16273109E-02    3           24        11       -12             # HL0    -->  W+     E-     ANUE        
      1.16273109E-02    3           24        13       -14             # HL0    -->  W+     MU-    ANUM        
      1.16273109E-02    3           24        15       -16             # HL0    -->  W+     TAU-   ANUT        
      3.48819345E-02    3           24        -2         1             # HL0    -->  W+     UB     DN          
      3.48819345E-02    3           24        -4         3             # HL0    -->  W+     CB     ST          
      1.16273109E-02    3          -24       -11        12             # HL0    -->  W-     E+     NUE         
      1.16273109E-02    3          -24       -13        14             # HL0    -->  W-     MU+    NUM         
      1.16273109E-02    3          -24       -15        16             # HL0    -->  W-     TAU+   NUT         
      3.48819345E-02    3          -24         2        -1             # HL0    -->  W-     UP     DB          
      3.48819345E-02    3          -24         4        -3             # HL0    -->  W-     CH     SB          
      1.63176772E-03    3           23        12       -12             # HL0    -->  Z0     NUE    ANUE        
      1.63176772E-03    3           23        14       -14             # HL0    -->  Z0     NUM    ANUM        
      1.63176772E-03    3           23        16       -16             # HL0    -->  Z0     NUT    ANUT        
      8.21252295E-04    3           23        11       -11             # HL0    -->  Z0     E-     E+          
      8.21252295E-04    3           23        13       -13             # HL0    -->  Z0     MU-    MU+         
      8.21252295E-04    3           23        15       -15             # HL0    -->  Z0     TAU-   TAU+        
      2.81354063E-03    3           23         2        -2             # HL0    -->  Z0     UP     UB          
      2.81354063E-03    3           23         4        -4             # HL0    -->  Z0     CH     CB          
      3.62453354E-03    3           23         1        -1             # HL0    -->  Z0     DN     DB          
      3.62453354E-03    3           23         3        -3             # HL0    -->  Z0     ST     SB          
      3.62453354E-03    3           23         5        -5             # HL0    -->  Z0     BT     BB          
#         PDG         Width
DECAY        35  3.53264165E+00   # HH0   decays
#          BR          NDA       ID1       ID2       ID3       ID4
      1.08935332E-08    2           11       -11                       # HH0    -->  E-     E+                 
      4.59944567E-04    2           13       -13                       # HH0    -->  MU-    MU+                
      1.31732732E-01    2           15       -15                       # HH0    -->  TAU-   TAU+               
      1.33446265E-05    2            1        -1                       # HH0    -->  DN     DB                 
      5.39190462E-03    2            3        -3                       # HH0    -->  ST     SB                 
      8.03457916E-01    2            5        -5                       # HH0    -->  BT     BB                 
      8.84601281E-11    2            2        -2                       # HH0    -->  UP     UB                 
      1.24578298E-06    2            4        -4                       # HH0    -->  CH     CB                 
      5.68296909E-02    2            6        -6                       # HH0    -->  TP     TB                 
      1.52258067E-07    2           22        22                       # HH0    -->  GM     GM                 
      2.30837850E-05    2           21        21                       # HH0    -->  GL     GL                 
      2.31674421E-04    2           24       -24                       # HH0    -->  W+     W-                 
      1.17624841E-04    2           23        23                       # HH0    -->  Z0     Z0                 
      1.61189280E-04    2      1000022   1000022                       # HH0    -->  Z1SS   Z1SS               
      1.15230569E-05    2      1000022   1000023                       # HH0    -->  Z1SS   Z2SS               
      1.28347674E-04    2      1000023   1000023                       # HH0    -->  Z2SS   Z2SS               
      5.72235032E-04    2      1000024  -1000024                       # HH0    -->  W1SS+  W1SS-              
      8.67416966E-04    2           25        25                       # HH0    -->  HL0    HL0                
#         PDG         Width
DECAY        36  3.51937056E+00   # HA0   decays
#          BR          NDA       ID1       ID2       ID3       ID4
      1.08645120E-08    2           11       -11                       # HA0    -->  E-     E+                 
      4.58719296E-04    2           13       -13                       # HA0    -->  MU-    MU+                
      1.31383419E-01    2           15       -15                       # HA0    -->  TAU-   TAU+               
      1.33098101E-05    2            1        -1                       # HA0    -->  DN     DB                 
      5.37783699E-03    2            3        -3                       # HA0    -->  ST     SB                 
      8.01397562E-01    2            5        -5                       # HA0    -->  BT     BB                 
      8.41228059E-11    2            2        -2                       # HA0    -->  UP     UB                 
      1.18563310E-06    2            4        -4                       # HA0    -->  CH     CB                 
      6.00751527E-02    2            6        -6                       # HA0    -->  TP     TB                 
      3.27665305E-07    2           22        22                       # HA0    -->  GM     GM                 
      7.15128699E-05    2           21        21                       # HA0    -->  GL     GL                 
      2.32957580E-04    2      1000022   1000022                       # HA0    -->  Z1SS   Z1SS               
      8.29292730E-07    2      1000022   1000023                       # HA0    -->  Z1SS   Z2SS               
      1.08233573E-04    2      1000023   1000023                       # HA0    -->  Z2SS   Z2SS               
      6.56047661E-04    2      1000024  -1000024                       # HA0    -->  W1SS+  W1SS-              
      2.22806833E-04    2           25        23                       # HA0    -->  HL0    Z0                 
#         PDG         Width
DECAY        37  3.11819959E+00   # H+    decays
#          BR          NDA       ID1       ID2       ID3       ID4
      1.23018742E-08    2           12       -11                       # H+     -->  NUE    E+                 
      5.19407331E-04    2           14       -13                       # H+     -->  NUM    MU+                
      1.48765281E-01    2           16       -15                       # H+     -->  NUT    TAU+               
      1.38523637E-05    2            2        -1                       # H+     -->  UP     DB                 
      5.59823308E-03    2            4        -3                       # H+     -->  CH     SB                 
      8.44817460E-01    2            6        -5                       # H+     -->  TP     BB                 
      6.83187773E-06    2      1000024   1000022                       # H+     -->  W1SS+  Z1SS               
      2.67251853E-05    2      1000024   1000023                       # H+     -->  W1SS+  Z2SS               
      2.52191239E-04    2           25        24                       # H+     -->  HL0    W+                 
