#  ISAJET SUSY parameters in SUSY Les Houches Accord 2 format
#  Created by ISALHA 2.0 Last revision: H Baer 27 May 2014
Block SPINFO   # Program information
     1   ISASUGRA/ISASUSY from ISAJET   # Spectrum Calculator
     2   7.87   18-JUL-2017 13:55:55    # Version number
Block MODSEL   # Model selection
     1    13   # Non-universal supergravity model                  
Block SMINPUTS   # Standard Model inputs
     1     1.28000000E+02   # alpha_em^(-1)
     2     1.16570000E-05   # G_Fermi
     3     1.19999997E-01   # alpha_s(M_Z)
     4     9.11699982E+01   # m_{Z}(pole)
     5     4.19999981E+00   # m_{b}(m_{b})
     6     1.72500000E+02   # m_{top}(pole)
     7     1.77699995E+00   # m_{tau}(pole)
Block MINPAR   # SUSY breaking input parameters
     1     5.00000000E+03   # m_0
     2     1.20000000E+03   # m_{1/2}
     3     1.50000000E+01   # tan(beta)
     4     1.00000000E+00   # sign(mu)
     5    -8.00000000E+03   # A_0
Block EXTPAR   # Non-universal SUSY breaking parameters
     0     1.61671320E+16   # Input scale
    21     2.67909550E+06   # Down type Higgs mass squared
    22     4.16195760E+07   #  Up  type Higgs mass squared
Block MASS   # Scalar and gaugino mass spectrum
#  PDG code   mass                 particle
         6     1.72500000E+02   #  top            
        24     8.04229965E+01   #  W^+
        25     1.24906464E+02   #  h^0            
        35     1.00666779E+03   #  H^0            
        36     1.00000000E+03   #  A^0            
        37     1.00322870E+03   #  H^+            
   1000001     5.44115576E+03   #  dnl            
   1000002     5.44056104E+03   #  upl            
   1000003     5.44115576E+03   #  stl            
   1000004     5.44056104E+03   #  chl            
   1000005     3.91662305E+03   #  b1             
   1000006     1.83011963E+03   #  t1             
   1000011     5.14840527E+03   #  el-            
   1000012     5.15289502E+03   #  nuel           
   1000013     5.14840527E+03   #  mul-           
   1000014     5.15289502E+03   #  numl           
   1000015     4.65401416E+03   #  tau1           
   1000016     5.07807813E+03   #  nutl           
   1000021     2.83289966E+03   #  glss           
   1000022     9.72915115E+01   #  z1ss           
   1000023    -1.06676575E+02   #  z2ss           
   1000024     1.05708473E+02   #  w1ss           
   1000025     5.37728516E+02   #  z3ss           
   1000035     1.03020642E+03   #  z4ss           
   1000037     1.01640332E+03   #  w2ss           
   1000039     1.00000002E+20   #  gvss
   2000001     5.38487695E+03   #  dnr            
   2000002     5.56473926E+03   #  upr            
   2000003     5.38487695E+03   #  str            
   2000004     5.56473926E+03   #  chr            
   2000005     5.20593848E+03   #  b2             
   2000006     3.89306030E+03   #  t2             
   2000011     4.81839404E+03   #  er-            
   2000013     4.81839404E+03   #  mur-           
   2000015     5.07203955E+03   #  tau2           
Block ALPHA   # Effective Higgs mixing parameter
         -6.81362078E-02   # alpha
Block STOPMIX   # stop mixing matrix
  1  1     5.71280234E-02   # O_{11}
  1  2     9.98366833E-01   # O_{12}
  2  1    -9.98366833E-01   # O_{21}
  2  2     5.71280234E-02   # O_{22}
Block SBOTMIX   # sbottom mixing matrix
  1  1     9.99994159E-01   # O_{11}
  1  2     3.42092663E-03   # O_{12}
  2  1    -3.42092663E-03   # O_{21}
  2  2     9.99994159E-01   # O_{22}
Block STAUMIX   # stau mixing matrix
  1  1     7.32518220E-03   # O_{11}
  1  2     9.99973178E-01   # O_{12}
  2  1    -9.99973178E-01   # O_{21}
  2  2     7.32518220E-03   # O_{22}
Block NMIX   # neutralino mixing matrix
  1  1    -7.08379671E-02   #
  1  2     6.39302582E-02   #
  1  3    -7.21271276E-01   #
  1  4     6.86048627E-01   #
  2  1     4.41377275E-02   #
  2  2    -4.44708392E-02   #
  2  3    -6.92172170E-01   #
  2  4    -7.19007552E-01   #
  3  1     9.96461689E-01   #
  3  2     1.64123029E-02   #
  3  3    -2.04593819E-02   #
  3  4     7.98504949E-02   #
  4  1    -9.89405811E-03   #
  4  2     9.96828079E-01   #
  4  3     1.57152675E-02   #
  4  4    -7.73902684E-02   #
Block UMIX   # chargino U mixing matrix
  1  1    -2.00879499E-02   # U_{11}
  1  2     9.99798238E-01   # U_{12}
  2  1    -9.99798238E-01   # U_{21}
  2  2    -2.00879499E-02   # U_{22}
Block VMIX   # chargino V mixing matrix
  1  1    -1.08536258E-01   # V_{11}
  1  2     9.94092464E-01   # V_{12}
  2  1    -9.94092464E-01   # V_{21}
  2  2    -1.08536258E-01   # V_{22}
Block GAUGE Q=  2.65139917E+03   #
     1     3.57524991E-01   # g`
     2     6.52378798E-01   # g_2
     3     1.21927798E+00   # g_3
Block YU Q=  2.65139917E+03   #
  3  3     8.20305169E-01   # y_t
Block YD Q=  2.65139917E+03   #
  3  3     1.90161020E-01   # y_b
Block YE Q=  2.65139917E+03   #
  3  3     1.50425240E-01   # y_tau
Block HMIX Q=  2.65139917E+03   # Higgs mixing parameters
     1     1.00000000E+02   # mu(Q)
     2     1.43443213E+01   # tan(beta)(Q)
     3     2.52297333E+02   # Higgs vev at Q
     4     1.00000000E+06   # m_A^2(Q)
Block MSOFT Q=  2.65139917E+03   # DRbar SUSY breaking parameters
     1     5.32878052E+02   # M_1(Q)          
     2     9.71219910E+02   # M_2(Q)          
     3     2.53279492E+03   # M_3(Q)          
    21     9.61844250E+05   # MHd^2(Q)        
    22    -4.24580742E+04   # MHu^2(Q)        
    31     5.13144141E+03   # MeL(Q)          
    32     5.13144141E+03   # MmuL(Q)         
    33     5.05865234E+03   # MtauL(Q)        
    34     4.81473828E+03   # MeR(Q)          
    35     4.81473828E+03   # MmuR(Q)         
    36     4.65192090E+03   # MtauR(Q)        
    41     5.32248779E+03   # MqL1(Q)         
    42     5.32248779E+03   # MqL2(Q)         
    43     3.83981885E+03   # MqL3(Q)         
    44     5.44638721E+03   # MuR(Q)          
    45     5.44638721E+03   # McR(Q)          
    46     1.83079419E+03   # MtR(Q)          
    47     5.26650586E+03   # MdR(Q)          
    48     5.26650586E+03   # MsR(Q)          
    49     5.14536426E+03   # MbR(Q)          
Block AU Q=  2.65139917E+03   #
  1  1    -4.96155713E+03   # A_u
  2  2    -4.96155713E+03   # A_c
  3  3    -4.96155713E+03   # A_t
Block AD Q=  2.65139917E+03   #
  1  1    -9.59695020E+03   # A_d
  2  2    -9.59695020E+03   # A_s
  3  3    -9.59695020E+03   # A_b
Block AE Q=  2.65139917E+03   #
  1  1    -8.32952832E+03   # A_e
  2  2    -8.32952832E+03   # A_mu
  3  3    -8.32952832E+03   # A_tau
#  ISAJET decay tables in SUSY Les Houches accord format
#  Created by ISALHD. Last revision: C. Balazs, 2005 May 25
Block DCINFO                           # Program information
     1   ISASUGRA from ISAJET          # Spectrum Calculator
     2   7.87   18-JUL-2017 13:55:55   # Version number
#         PDG         Width
DECAY         6  1.46776152E+00   # TP    decays
#          BR          NDA       ID1       ID2       ID3       ID4
      3.33333313E-01    3            2        -1         5             # TP     -->  UP     DB     BT          
      3.33333313E-01    3            4        -3         5             # TP     -->  CH     SB     BT          
      1.11111097E-01    3          -11        12         5             # TP     -->  E+     NUE    BT          
      1.11111097E-01    3          -13        14         5             # TP     -->  MU+    NUM    BT          
      1.11111097E-01    3          -15        16         5             # TP     -->  TAU+   NUT    BT          
#         PDG         Width
DECAY   1000021  1.93884926E+01   # GLSS  decays
#          BR          NDA       ID1       ID2       ID3       ID4
      3.91975334E-07    3      1000024         1        -2             # GLSS   -->  W1SS+  DN     UB          
      3.91975334E-07    3     -1000024         2        -1             # GLSS   -->  W1SS-  UP     DB          
      3.91975334E-07    3      1000024         3        -4             # GLSS   -->  W1SS+  ST     CB          
      3.91975334E-07    3     -1000024         4        -3             # GLSS   -->  W1SS-  CH     SB          
      2.52124271E-04    3      1000024         5        -6             # GLSS   -->  W1SS+  BT     TB          
      2.52124271E-04    3     -1000024         6        -5             # GLSS   -->  W1SS-  TP     BB          
      3.67361572E-05    3      1000037         1        -2             # GLSS   -->  W2SS+  DN     UB          
      3.67361572E-05    3     -1000037         2        -1             # GLSS   -->  W2SS-  UP     DB          
      3.67361572E-05    3      1000037         3        -4             # GLSS   -->  W2SS+  ST     CB          
      3.67361572E-05    3     -1000037         4        -3             # GLSS   -->  W2SS-  CH     SB          
      1.95887740E-04    3      1000037         5        -6             # GLSS   -->  W2SS+  BT     TB          
      1.95887740E-04    3     -1000037         6        -5             # GLSS   -->  W2SS-  TP     BB          
      2.21660866E-06    2      1000022        21                       # GLSS   -->  Z1SS   GL                 
      1.67984822E-07    3      1000022         2        -2             # GLSS   -->  Z1SS   UP     UB          
      2.21013750E-07    3      1000022         1        -1             # GLSS   -->  Z1SS   DN     DB          
      2.21013750E-07    3      1000022         3        -3             # GLSS   -->  Z1SS   ST     SB          
      1.67984822E-07    3      1000022         4        -4             # GLSS   -->  Z1SS   CH     CB          
      2.62322428E-05    3      1000022         5        -5             # GLSS   -->  Z1SS   BT     BB          
      2.21478374E-04    3      1000022         6        -6             # GLSS   -->  Z1SS   TP     TB          
      2.42143688E-06    2      1000023        21                       # GLSS   -->  Z2SS   GL                 
      6.65365505E-08    3      1000023         2        -2             # GLSS   -->  Z2SS   UP     UB          
      8.90327883E-08    3      1000023         1        -1             # GLSS   -->  Z2SS   DN     DB          
      8.90327883E-08    3      1000023         3        -3             # GLSS   -->  Z2SS   ST     SB          
      6.65365505E-08    3      1000023         4        -4             # GLSS   -->  Z2SS   CH     CB          
      2.36663527E-05    3      1000023         5        -5             # GLSS   -->  Z2SS   BT     BB          
      2.42925991E-04    3      1000023         6        -6             # GLSS   -->  Z2SS   TP     TB          
      4.98063422E-08    2      1000025        21                       # GLSS   -->  Z3SS   GL                 
      1.63111508E-05    3      1000025         2        -2             # GLSS   -->  Z3SS   UP     UB          
      5.23816880E-06    3      1000025         1        -1             # GLSS   -->  Z3SS   DN     DB          
      5.23816880E-06    3      1000025         3        -3             # GLSS   -->  Z3SS   ST     SB          
      1.63111508E-05    3      1000025         4        -4             # GLSS   -->  Z3SS   CH     CB          
      9.42852967E-06    3      1000025         5        -5             # GLSS   -->  Z3SS   BT     BB          
      7.86173223E-06    3      1000025         6        -6             # GLSS   -->  Z3SS   TP     TB          
      3.03364729E-08    2      1000035        21                       # GLSS   -->  Z4SS   GL                 
      1.79060225E-05    3      1000035         2        -2             # GLSS   -->  Z4SS   UP     UB          
      1.80269508E-05    3      1000035         1        -1             # GLSS   -->  Z4SS   DN     DB          
      1.80269508E-05    3      1000035         3        -3             # GLSS   -->  Z4SS   ST     SB          
      1.79060225E-05    3      1000035         4        -4             # GLSS   -->  Z4SS   CH     CB          
      9.45838838E-05    3      1000035         5        -5             # GLSS   -->  Z4SS   BT     BB          
      9.73259303E-05    3      1000035         6        -6             # GLSS   -->  Z4SS   TP     TB          
      4.99055594E-01    2     -1000006         6                       # GLSS   -->  TB1    TP                 
      4.99055594E-01    2      1000006        -6                       # GLSS   -->  TP1    TB                 
#         PDG         Width
DECAY   1000002  2.15952835E+02   # UPL   decays
#          BR          NDA       ID1       ID2       ID3       ID4
      2.75134953E-04    2      1000022         2                       # UPL    -->  Z1SS   UP                 
      1.40279983E-04    2      1000023         2                       # UPL    -->  Z2SS   UP                 
      4.11670748E-03    2      1000025         2                       # UPL    -->  Z3SS   UP                 
      9.75978822E-02    2      1000035         2                       # UPL    -->  Z4SS   UP                 
      7.00153649E-01    2      1000021         2                       # UPL    -->  GLSS   UP                 
      2.49659782E-03    2      1000024         1                       # UPL    -->  W1SS+  DN                 
      1.95219725E-01    2      1000037         1                       # UPL    -->  W2SS+  DN                 
#         PDG         Width
DECAY   1000001  2.15958847E+02   # DNL   decays
#          BR          NDA       ID1       ID2       ID3       ID4
      6.26903377E-04    2      1000022         1                       # DNL    -->  Z1SS   DN                 
      2.92726705E-04    2      1000023         1                       # DNL    -->  Z2SS   DN                 
      2.87071150E-03    2      1000025         1                       # DNL    -->  Z3SS   DN                 
      9.83199626E-02    2      1000035         1                       # DNL    -->  Z4SS   DN                 
      7.00317860E-01    2      1000021         1                       # DNL    -->  GLSS   DN                 
      8.55274629E-05    2     -1000024         2                       # DNL    -->  W1SS-  UP                 
      1.97486356E-01    2     -1000037         2                       # DNL    -->  W2SS-  UP                 
#         PDG         Width
DECAY   1000003  2.15958832E+02   # STL   decays
#          BR          NDA       ID1       ID2       ID3       ID4
      6.26903435E-04    2      1000022         3                       # STL    -->  Z1SS   ST                 
      2.92726734E-04    2      1000023         3                       # STL    -->  Z2SS   ST                 
      2.87071173E-03    2      1000025         3                       # STL    -->  Z3SS   ST                 
      9.83199701E-02    2      1000035         3                       # STL    -->  Z4SS   ST                 
      7.00317919E-01    2      1000021         3                       # STL    -->  GLSS   ST                 
      8.55274702E-05    2     -1000024         4                       # STL    -->  W1SS-  CH                 
      1.97486341E-01    2     -1000037         4                       # STL    -->  W2SS-  CH                 
#         PDG         Width
DECAY   1000004  2.15952789E+02   # CHL   decays
#          BR          NDA       ID1       ID2       ID3       ID4
      2.75134953E-04    2      1000022         4                       # CHL    -->  Z1SS   CH                 
      1.40280012E-04    2      1000023         4                       # CHL    -->  Z2SS   CH                 
      4.11670795E-03    2      1000025         4                       # CHL    -->  Z3SS   CH                 
      9.75978896E-02    2      1000035         4                       # CHL    -->  Z4SS   CH                 
      7.00153589E-01    2      1000021         4                       # CHL    -->  GLSS   CH                 
      2.49659829E-03    2      1000024         3                       # CHL    -->  W1SS+  ST                 
      1.95219770E-01    2      1000037         3                       # CHL    -->  W2SS+  ST                 
#         PDG         Width
DECAY   1000005  2.05420441E+02   # BT1   decays
#          BR          NDA       ID1       ID2       ID3       ID4
      7.96994474E-03    2      1000022         5                       # BT1    -->  Z1SS   BT                 
      7.09598092E-03    2      1000023         5                       # BT1    -->  Z2SS   BT                 
      2.13624164E-03    2      1000025         5                       # BT1    -->  Z3SS   BT                 
      6.93458468E-02    2      1000035         5                       # BT1    -->  Z4SS   BT                 
      2.33494341E-01    2      1000021         5                       # BT1    -->  GLSS   BT                 
      2.40812987E-01    2     -1000024         6                       # BT1    -->  W1SS-  TP                 
      1.42349675E-01    2     -1000037         6                       # BT1    -->  W2SS-  TP                 
      2.95932323E-01    2          -24   1000006                       # BT1    -->  W-     TP1                
      8.62673332E-04    2          -37   1000006                       # BT1    -->  H-     TP1                
#         PDG         Width
DECAY   1000006  4.96778603E+01   # TP1   decays
#          BR          NDA       ID1       ID2       ID3       ID4
      2.19647735E-01    2      1000022         6                       # TP1    -->  Z1SS   TP                 
      2.40767539E-01    2      1000023         6                       # TP1    -->  Z2SS   TP                 
      7.04416558E-02    2      1000025         6                       # TP1    -->  Z3SS   TP                 
      4.24208411E-04    2      1000035         6                       # TP1    -->  Z4SS   TP                 
      4.67837900E-01    2      1000024         5                       # TP1    -->  W1SS+  BT                 
      8.80890875E-04    2      1000037         5                       # TP1    -->  W2SS+  BT                 
#         PDG         Width
DECAY   2000002  1.71803116E+02   # UPR   decays
#          BR          NDA       ID1       ID2       ID3       ID4
      3.67194938E-04    2      1000022         2                       # UPR    -->  Z1SS   UP                 
      1.42538018E-04    2      1000023         2                       # UPR    -->  Z2SS   UP                 
      7.13514239E-02    2      1000025         2                       # UPR    -->  Z3SS   UP                 
      6.68478333E-06    2      1000035         2                       # UPR    -->  Z4SS   UP                 
      9.28132117E-01    2      1000021         2                       # UPR    -->  GLSS   UP                 
#         PDG         Width
DECAY   2000001  1.50462906E+02   # DNR   decays
#          BR          NDA       ID1       ID2       ID3       ID4
      1.01426434E-04    2      1000022         1                       # DNR    -->  Z1SS   DN                 
      3.93714727E-05    2      1000023         1                       # DNR    -->  Z2SS   DN                 
      1.96842570E-02    2      1000025         1                       # DNR    -->  Z3SS   DN                 
      1.83765383E-06    2      1000035         1                       # DNR    -->  Z4SS   DN                 
      9.80173111E-01    2      1000021         1                       # DNR    -->  GLSS   DN                 
#         PDG         Width
DECAY   2000003  1.50462906E+02   # STR   decays
#          BR          NDA       ID1       ID2       ID3       ID4
      1.01426434E-04    2      1000022         3                       # STR    -->  Z1SS   ST                 
      3.93714727E-05    2      1000023         3                       # STR    -->  Z2SS   ST                 
      1.96842570E-02    2      1000025         3                       # STR    -->  Z3SS   ST                 
      1.83765383E-06    2      1000035         3                       # STR    -->  Z4SS   ST                 
      9.80173111E-01    2      1000021         3                       # STR    -->  GLSS   ST                 
#         PDG         Width
DECAY   2000004  1.71803101E+02   # CHR   decays
#          BR          NDA       ID1       ID2       ID3       ID4
      3.67194880E-04    2      1000022         4                       # CHR    -->  Z1SS   CH                 
      1.42538018E-04    2      1000023         4                       # CHR    -->  Z2SS   CH                 
      7.13514239E-02    2      1000025         4                       # CHR    -->  Z3SS   CH                 
      6.68478242E-06    2      1000035         4                       # CHR    -->  Z4SS   CH                 
      9.28132117E-01    2      1000021         4                       # CHR    -->  GLSS   CH                 
#         PDG         Width
DECAY   2000005  1.82253784E+02   # BT2   decays
#          BR          NDA       ID1       ID2       ID3       ID4
      1.12654800E-02    2      1000022         5                       # BT2    -->  Z1SS   BT                 
      1.03705954E-02    2      1000023         5                       # BT2    -->  Z2SS   BT                 
      1.57010891E-02    2      1000025         5                       # BT2    -->  Z3SS   BT                 
      1.27402445E-05    2      1000035         5                       # BT2    -->  Z4SS   BT                 
      7.43190229E-01    2      1000021         5                       # BT2    -->  GLSS   BT                 
      2.14851294E-02    2     -1000024         6                       # BT2    -->  W1SS-  TP                 
      1.98340585E-05    2     -1000037         6                       # BT2    -->  W2SS-  TP                 
      1.29400105E-05    2          -24   1000006                       # BT2    -->  W-     TP1                
      5.00380062E-04    2          -24   2000006                       # BT2    -->  W-     TP2                
      2.42283175E-04    2           23   1000005                       # BT2    -->  Z0     BT1                
      4.75053181E-04    2           25   1000005                       # BT2    -->  HL0    BT1                
      4.83129732E-02    2           36   1000005                       # BT2    -->  HA0    BT1                
      4.78042476E-02    2           35   1000005                       # BT2    -->  HH0    BT1                
      4.44808364E-04    2          -37   1000006                       # BT2    -->  H-     TP1                
      1.00162178E-01    2          -37   2000006                       # BT2    -->  H-     TP2                
#         PDG         Width
DECAY   2000006  2.17824402E+02   # TP2   decays
#          BR          NDA       ID1       ID2       ID3       ID4
      2.06118464E-01    2      1000021         6                       # TP2    -->  GLSS   TP                 
      1.36421919E-02    2      1000024         5                       # TP2    -->  W1SS+  BT                 
      1.30687967E-01    2      1000037         5                       # TP2    -->  W2SS+  BT                 
      1.36882946E-01    2           23   1000006                       # TP2    -->  Z0     TP1                
      2.16310814E-01    2           25   1000006                       # TP2    -->  HL0    TP1                
      4.29827662E-04    2           35   1000006                       # TP2    -->  HH0    TP1                
      4.07951855E-04    2           36   1000006                       # TP2    -->  HA0    TP1                
      1.06655374E-01    2      1000022         6                       # TP2    -->  Z1SS   TP                 
      1.17400303E-01    2      1000023         6                       # TP2    -->  Z2SS   TP                 
      4.92039276E-03    2      1000025         6                       # TP2    -->  Z3SS   TP                 
      6.65437356E-02    2      1000035         6                       # TP2    -->  Z4SS   TP                 
#         PDG         Width
DECAY   1000011  6.64278107E+01   # EL-   decays
#          BR          NDA       ID1       ID2       ID3       ID4
      2.03691714E-04    2      1000022        11                       # EL-    -->  Z1SS   E-                 
      1.33159629E-04    2      1000023        11                       # EL-    -->  Z2SS   E-                 
      1.01555198E-01    2      1000025        11                       # EL-    -->  Z3SS   E-                 
      2.95480996E-01    2      1000035        11                       # EL-    -->  Z4SS   E-                 
      2.63069116E-04    2     -1000024        12                       # EL-    -->  W1SS-  NUE                
      6.02363884E-01    2     -1000037        12                       # EL-    -->  W2SS-  NUE                
#         PDG         Width
DECAY   1000013  6.64278107E+01   # MUL-  decays
#          BR          NDA       ID1       ID2       ID3       ID4
      2.03691714E-04    2      1000022        13                       # MUL-   -->  Z1SS   MU-                
      1.33159629E-04    2      1000023        13                       # MUL-   -->  Z2SS   MU-                
      1.01555198E-01    2      1000025        13                       # MUL-   -->  Z3SS   MU-                
      2.95480996E-01    2      1000035        13                       # MUL-   -->  Z4SS   MU-                
      2.63069116E-04    2     -1000024        14                       # MUL-   -->  W1SS-  NUM                
      6.02363884E-01    2     -1000037        14                       # MUL-   -->  W2SS-  NUM                
#         PDG         Width
DECAY   1000015  2.74425869E+01   # TAU1- decays
#          BR          NDA       ID1       ID2       ID3       ID4
      4.62251082E-02    2      1000022        15                       # TAU1-  -->  Z1SS   TAU-               
      3.98542210E-02    2      1000023        15                       # TAU1-  -->  Z2SS   TAU-               
      8.33739638E-01    2      1000025        15                       # TAU1-  -->  Z3SS   TAU-               
      7.83946962E-05    2      1000035        15                       # TAU1-  -->  Z4SS   TAU-               
      8.00940767E-02    2     -1000024        16                       # TAU1-  -->  W1SS-  NUT                
      8.52108587E-06    2     -1000037        16                       # TAU1-  -->  W2SS-  NUT                
#         PDG         Width
DECAY   1000012  6.65115585E+01   # NUEL  decays
#          BR          NDA       ID1       ID2       ID3       ID4
      3.44814756E-03    2      1000022        12                       # NUEL   -->  Z1SS   NUE                
      1.53916399E-03    2      1000023        12                       # NUEL   -->  Z2SS   NUE                
      9.00484771E-02    2      1000025        12                       # NUEL   -->  Z3SS   NUE                
      3.01926285E-01    2      1000035        12                       # NUEL   -->  Z4SS   NUE                
      7.67680351E-03    2      1000024        11                       # NUEL   -->  W1SS+  E-                 
      5.95361114E-01    2      1000037        11                       # NUEL   -->  W2SS+  E-                 
#         PDG         Width
DECAY   1000014  6.65115585E+01   # NUML  decays
#          BR          NDA       ID1       ID2       ID3       ID4
      3.44814756E-03    2      1000022        14                       # NUML   -->  Z1SS   NUM                
      1.53916399E-03    2      1000023        14                       # NUML   -->  Z2SS   NUM                
      9.00484771E-02    2      1000025        14                       # NUML   -->  Z3SS   NUM                
      3.01926285E-01    2      1000035        14                       # NUML   -->  Z4SS   NUM                
      7.67680351E-03    2      1000024        13                       # NUML   -->  W1SS+  MU-                
      5.95361114E-01    2      1000037        13                       # NUML   -->  W2SS+  MU-                
#         PDG         Width
DECAY   1000016  6.78138046E+01   # NUTL  decays
#          BR          NDA       ID1       ID2       ID3       ID4
      3.33275786E-03    2      1000022        16                       # NUTL   -->  Z1SS   NUT                
      1.48765056E-03    2      1000023        16                       # NUTL   -->  Z2SS   NUT                
      8.69800299E-02    2      1000025        16                       # NUTL   -->  Z3SS   NUT                
      2.91107833E-01    2      1000035        16                       # NUTL   -->  Z4SS   NUT                
      4.27486449E-02    2      1000024        15                       # NUTL   -->  W1SS+  TAU-               
      5.74081540E-01    2      1000037        15                       # NUTL   -->  W2SS+  TAU-               
      2.61624751E-04    2           24   1000015                       # NUTL   -->  W+     TAU1-              
#         PDG         Width
DECAY   2000011  2.39048862E+01   # ER-   decays
#          BR          NDA       ID1       ID2       ID3       ID4
      5.14034694E-03    2      1000022        11                       # ER-    -->  Z1SS   E-                 
      1.99530134E-03    2      1000023        11                       # ER-    -->  Z2SS   E-                 
      9.92772996E-01    2      1000025        11                       # ER-    -->  Z3SS   E-                 
      9.13946860E-05    2      1000035        11                       # ER-    -->  Z4SS   E-                 
#         PDG         Width
DECAY   2000013  2.39048862E+01   # MUR-  decays
#          BR          NDA       ID1       ID2       ID3       ID4
      5.14034694E-03    2      1000022        13                       # MUR-   -->  Z1SS   MU-                
      1.99530134E-03    2      1000023        13                       # MUR-   -->  Z2SS   MU-                
      9.92772996E-01    2      1000025        13                       # MUR-   -->  Z3SS   MU-                
      9.13946860E-05    2      1000035        13                       # MUR-   -->  Z4SS   MU-                
#         PDG         Width
DECAY   2000015  6.76953049E+01   # TAU2- decays
#          BR          NDA       ID1       ID2       ID3       ID4
      1.84817202E-02    2      1000022        15                       # TAU2-  -->  Z1SS   TAU-               
      1.71445981E-02    2      1000023        15                       # TAU2-  -->  Z2SS   TAU-               
      9.81549770E-02    2      1000025        15                       # TAU2-  -->  Z3SS   TAU-               
      2.84940839E-01    2      1000035        15                       # TAU2-  -->  Z4SS   TAU-               
      2.12266852E-04    2     -1000024        16                       # TAU2-  -->  W1SS-  NUT                
      5.80895185E-01    2     -1000037        16                       # TAU2-  -->  W2SS-  NUT                
      1.25094215E-04    2           23   1000015                       # TAU2-  -->  Z0     TAU1-              
      4.53283210E-05    2           25   1000015                       # TAU2-  -->  HL0    TAU1-              
#         PDG         Width
DECAY   1000023  5.83514534E-08   # Z2SS  decays
#          BR          NDA       ID1       ID2       ID3       ID4
      2.66488101E-02    2      1000022        22                       # Z2SS   -->  Z1SS   GM                 
      1.37065396E-01    3      1000022         2        -2             # Z2SS   -->  Z1SS   UP     UB          
      1.76746279E-01    3      1000022         1        -1             # Z2SS   -->  Z1SS   DN     DB          
      1.76746279E-01    3      1000022         3        -3             # Z2SS   -->  Z1SS   ST     SB          
      1.37065396E-01    3      1000022         4        -4             # Z2SS   -->  Z1SS   CH     CB          
      4.00947891E-02    3      1000022        11       -11             # Z2SS   -->  Z1SS   E-     E+          
      4.00947891E-02    3      1000022        13       -13             # Z2SS   -->  Z1SS   MU-    MU+         
      2.62088925E-02    3      1000022        15       -15             # Z2SS   -->  Z1SS   TAU-   TAU+        
      7.97764137E-02    3      1000022        12       -12             # Z2SS   -->  Z1SS   NUE    ANUE        
      7.97764137E-02    3      1000022        14       -14             # Z2SS   -->  Z1SS   NUM    ANUM        
      7.97764659E-02    3      1000022        16       -16             # Z2SS   -->  Z1SS   NUT    ANUT        
#         PDG         Width
DECAY   1000025  1.20751524E+00   # Z3SS  decays
#          BR          NDA       ID1       ID2       ID3       ID4
      9.85518014E-08    2      1000022        22                       # Z3SS   -->  Z1SS   GM                 
      8.67672014E-08    2      1000023        22                       # Z3SS   -->  Z2SS   GM                 
      2.61981726E-01    2      1000024       -24                       # Z3SS   -->  W1SS+  W-                 
      2.61981726E-01    2     -1000024        24                       # Z3SS   -->  W1SS-  W+                 
      6.33625761E-02    2      1000022        23                       # Z3SS   -->  Z1SS   Z0                 
      1.85336158E-01    2      1000023        23                       # Z3SS   -->  Z2SS   Z0                 
      8.51762827E-11    3      1000022         2        -2             # Z3SS   -->  Z1SS   UP     UB          
      1.54555205E-11    3      1000022         1        -1             # Z3SS   -->  Z1SS   DN     DB          
      1.54555205E-11    3      1000022         3        -3             # Z3SS   -->  Z1SS   ST     SB          
      8.51762827E-11    3      1000022         4        -4             # Z3SS   -->  Z1SS   CH     CB          
      1.24357507E-06    3      1000022         5        -5             # Z3SS   -->  Z1SS   BT     BB          
      2.42722814E-10    3      1000022        11       -11             # Z3SS   -->  Z1SS   E-     E+          
      2.42722814E-10    3      1000022        13       -13             # Z3SS   -->  Z1SS   MU-    MU+         
      2.65190181E-07    3      1000022        15       -15             # Z3SS   -->  Z1SS   TAU-   TAU+        
      7.45203690E-11    3      1000022        12       -12             # Z3SS   -->  Z1SS   NUE    ANUE        
      7.45203690E-11    3      1000022        14       -14             # Z3SS   -->  Z1SS   NUM    ANUM        
      7.90312538E-11    3      1000022        16       -16             # Z3SS   -->  Z1SS   NUT    ANUT        
      1.79811947E-11    3      1000023         2        -2             # Z3SS   -->  Z2SS   UP     UB          
      3.60171138E-12    3      1000023         1        -1             # Z3SS   -->  Z2SS   DN     DB          
      3.60171138E-12    3      1000023         3        -3             # Z3SS   -->  Z2SS   ST     SB          
      1.79811947E-11    3      1000023         4        -4             # Z3SS   -->  Z2SS   CH     CB          
      1.11183749E-06    3      1000023         5        -5             # Z3SS   -->  Z2SS   BT     BB          
      5.08237410E-11    3      1000023        11       -11             # Z3SS   -->  Z2SS   E-     E+          
      5.08237410E-11    3      1000023        13       -13             # Z3SS   -->  Z2SS   MU-    MU+         
      2.36826509E-07    3      1000023        15       -15             # Z3SS   -->  Z2SS   TAU-   TAU+        
      1.76914455E-11    3      1000023        12       -12             # Z3SS   -->  Z2SS   NUE    ANUE        
      1.76914455E-11    3      1000023        14       -14             # Z3SS   -->  Z2SS   NUM    ANUM        
      1.87631837E-11    3      1000023        16       -16             # Z3SS   -->  Z2SS   NUT    ANUT        
      1.66205600E-01    2      1000022        25                       # Z3SS   -->  Z1SS   HL0                
      6.11291677E-02    2      1000023        25                       # Z3SS   -->  Z2SS   HL0                
#         PDG         Width
DECAY   1000035  8.36770344E+00   # Z4SS  decays
#          BR          NDA       ID1       ID2       ID3       ID4
      1.55163264E-06    2      1000022        22                       # Z4SS   -->  Z1SS   GM                 
      2.52512632E-06    2      1000023        22                       # Z4SS   -->  Z2SS   GM                 
      2.05204898E-09    2      1000025        22                       # Z4SS   -->  Z3SS   GM                 
      2.44594023E-01    2      1000024       -24                       # Z4SS   -->  W1SS+  W-                 
      2.44594023E-01    2     -1000024        24                       # Z4SS   -->  W1SS-  W+                 
      1.02692539E-07    3     -1000037         2        -1             # Z4SS   -->  W2SS-  UP     DB          
      3.42308439E-08    3     -1000037        12       -11             # Z4SS   -->  W2SS-  NUE    E+          
      3.42308439E-08    3     -1000037        14       -13             # Z4SS   -->  W2SS-  NUM    MU+         
      1.02692539E-07    3      1000037         1        -2             # Z4SS   -->  W2SS+  DN     UB          
      3.42308439E-08    3      1000037        11       -12             # Z4SS   -->  W2SS+  E-     ANUE        
      3.42308439E-08    3      1000037        13       -14             # Z4SS   -->  W2SS+  MU-    ANUM        
      1.02692539E-07    3     -1000037         4        -3             # Z4SS   -->  W2SS-  CH     SB          
      3.42308439E-08    3     -1000037        16       -15             # Z4SS   -->  W2SS-  NUT    TAU+        
      1.02692539E-07    3      1000037         3        -4             # Z4SS   -->  W2SS+  ST     CB          
      3.42308439E-08    3      1000037        15       -16             # Z4SS   -->  W2SS+  TAU-   ANUT        
      7.34448507E-02    2      1000022        23                       # Z4SS   -->  Z1SS   Z0                 
      1.83626920E-01    2      1000023        23                       # Z4SS   -->  Z2SS   Z0                 
      5.94857382E-04    2      1000025        23                       # Z4SS   -->  Z3SS   Z0                 
      6.42712217E-10    3      1000022         2        -2             # Z4SS   -->  Z1SS   UP     UB          
      1.47428381E-09    3      1000022         1        -1             # Z4SS   -->  Z1SS   DN     DB          
      1.47428381E-09    3      1000022         3        -3             # Z4SS   -->  Z1SS   ST     SB          
      6.42712217E-10    3      1000022         4        -4             # Z4SS   -->  Z1SS   CH     CB          
      7.08733642E-05    3      1000022         5        -5             # Z4SS   -->  Z1SS   BT     BB          
      6.41407691E-11    3      1000022        11       -11             # Z4SS   -->  Z1SS   E-     E+          
      6.41407691E-11    3      1000022        13       -13             # Z4SS   -->  Z1SS   MU-    MU+         
      1.45967388E-05    3      1000022        15       -15             # Z4SS   -->  Z1SS   TAU-   TAU+        
      1.10456011E-09    3      1000022        12       -12             # Z4SS   -->  Z1SS   NUE    ANUE        
      1.10456011E-09    3      1000022        14       -14             # Z4SS   -->  Z1SS   NUM    ANUM        
      1.17222831E-09    3      1000022        16       -16             # Z4SS   -->  Z1SS   NUT    ANUT        
      2.27921640E-10    3      1000023         2        -2             # Z4SS   -->  Z2SS   UP     UB          
      4.78813933E-10    3      1000023         1        -1             # Z4SS   -->  Z2SS   DN     DB          
      4.78813933E-10    3      1000023         3        -3             # Z4SS   -->  Z2SS   ST     SB          
      2.27921640E-10    3      1000023         4        -4             # Z4SS   -->  Z2SS   CH     CB          
      6.35903780E-05    3      1000023         5        -5             # Z4SS   -->  Z2SS   BT     BB          
      2.91590502E-11    3      1000023        11       -11             # Z4SS   -->  Z2SS   E-     E+          
      2.91590502E-11    3      1000023        13       -13             # Z4SS   -->  Z2SS   MU-    MU+         
      1.30952421E-05    3      1000023        15       -15             # Z4SS   -->  Z2SS   TAU-   TAU+        
      3.43079259E-10    3      1000023        12       -12             # Z4SS   -->  Z2SS   NUE    ANUE        
      3.43079259E-10    3      1000023        14       -14             # Z4SS   -->  Z2SS   NUM    ANUM        
      3.64139663E-10    3      1000023        16       -16             # Z4SS   -->  Z2SS   NUT    ANUT        
      1.79644510E-09    3      1000025         2        -2             # Z4SS   -->  Z3SS   UP     UB          
      1.26045363E-09    3      1000025         1        -1             # Z4SS   -->  Z3SS   DN     DB          
      1.26045363E-09    3      1000025         3        -3             # Z4SS   -->  Z3SS   ST     SB          
      1.79644510E-09    3      1000025         4        -4             # Z4SS   -->  Z3SS   CH     CB          
      7.94253108E-09    3      1000025         5        -5             # Z4SS   -->  Z3SS   BT     BB          
      5.98841821E-09    3      1000025        11       -11             # Z4SS   -->  Z3SS   E-     E+          
      5.98841821E-09    3      1000025        13       -13             # Z4SS   -->  Z3SS   MU-    MU+         
      6.98966174E-09    3      1000025        15       -15             # Z4SS   -->  Z3SS   TAU-   TAU+        
      5.40636336E-09    3      1000025        12       -12             # Z4SS   -->  Z3SS   NUE    ANUE        
      5.40636336E-09    3      1000025        14       -14             # Z4SS   -->  Z3SS   NUM    ANUM        
      5.74040149E-09    3      1000025        16       -16             # Z4SS   -->  Z3SS   NUT    ANUT        
      1.58232629E-01    2      1000022        25                       # Z4SS   -->  Z1SS   HL0                
      8.84332433E-02    2      1000023        25                       # Z4SS   -->  Z2SS   HL0                
      6.31239358E-03    2      1000025        25                       # Z4SS   -->  Z3SS   HL0                
#         PDG         Width
DECAY   1000024  4.88524172E-08   # W1SS+ decays
#          BR          NDA       ID1       ID2       ID3       ID4
      3.33332568E-01    3      1000022         2        -1             # W1SS+  -->  Z1SS   UP     DB          
      3.33332568E-01    3      1000022         4        -3             # W1SS+  -->  Z1SS   CH     SB          
      1.11110993E-01    3      1000022       -11        12             # W1SS+  -->  Z1SS   E+     NUE         
      1.11110993E-01    3      1000022       -13        14             # W1SS+  -->  Z1SS   MU+    NUM         
      1.11112811E-01    3      1000022       -15        16             # W1SS+  -->  Z1SS   TAU+   NUT         
#         PDG         Width
DECAY   1000037  8.22313881E+00   # W2SS+ decays
#          BR          NDA       ID1       ID2       ID3       ID4
      1.45996226E-09    3      1000022         2        -1             # W2SS+  -->  Z1SS   UP     DB          
      1.45996226E-09    3      1000022         4        -3             # W2SS+  -->  Z1SS   CH     SB          
      8.65271688E-10    3      1000022       -11        12             # W2SS+  -->  Z1SS   E+     NUE         
      8.65271688E-10    3      1000022       -13        14             # W2SS+  -->  Z1SS   MU+    NUM         
      1.28126785E-05    3      1000022       -15        16             # W2SS+  -->  Z1SS   TAU+   NUT         
      2.42104232E-01    2      1000022        24                       # W2SS+  -->  Z1SS   W+                 
      9.54341495E-10    3      1000023         2        -1             # W2SS+  -->  Z2SS   UP     DB          
      9.54341495E-10    3      1000023         4        -3             # W2SS+  -->  Z2SS   CH     SB          
      4.65300382E-10    3      1000023       -11        12             # W2SS+  -->  Z2SS   E+     NUE         
      4.65300382E-10    3      1000023       -13        14             # W2SS+  -->  Z2SS   MU+    NUM         
      1.10363990E-05    3      1000023       -15        16             # W2SS+  -->  Z2SS   TAU+   NUT         
      2.46228278E-01    2      1000023        24                       # W2SS+  -->  Z2SS   W+                 
      2.72738099E-09    3      1000025         2        -1             # W2SS+  -->  Z3SS   UP     DB          
      2.72738099E-09    3      1000025         4        -3             # W2SS+  -->  Z3SS   CH     SB          
      1.02215898E-08    3      1000025       -11        12             # W2SS+  -->  Z3SS   E+     NUE         
      1.02215898E-08    3      1000025       -13        14             # W2SS+  -->  Z3SS   MU+    NUM         
      1.13991332E-08    3      1000025       -15        16             # W2SS+  -->  Z3SS   TAU+   NUT         
      1.08925374E-02    2      1000025        24                       # W2SS+  -->  Z3SS   W+                 
      2.44901150E-01    2      1000024        23                       # W2SS+  -->  W1SS+  Z0                 
      4.68072825E-09    3      1000024         1        -1             # W2SS+  -->  W1SS+  DN     DB          
      4.68072825E-09    3      1000024         3        -3             # W2SS+  -->  W1SS+  ST     SB          
      1.62111352E-10    3      1000024         2        -2             # W2SS+  -->  W1SS+  UP     UB          
      1.62111352E-10    3      1000024         4        -4             # W2SS+  -->  W1SS+  CH     CB          
      6.76494694E-11    3      1000024        12       -12             # W2SS+  -->  W1SS+  NUE    ANUE        
      6.76494694E-11    3      1000024        14       -14             # W2SS+  -->  W1SS+  NUM    ANUM        
      1.02061234E-10    3      1000024        16       -16             # W2SS+  -->  W1SS+  NUT    ANUT        
      1.94550509E-09    3      1000024        11       -11             # W2SS+  -->  W1SS+  E-     E+          
      1.94550509E-09    3      1000024        13       -13             # W2SS+  -->  W1SS+  MU-    MU+         
      2.06473771E-09    3      1000024        15       -15             # W2SS+  -->  W1SS+  TAU-   TAU+        
      2.55849987E-01    2      1000024        25                       # W2SS+  -->  W1SS+  HL0                
#         PDG         Width
DECAY        25  3.90469865E-03   # HL0   decays
#          BR          NDA       ID1       ID2       ID3       ID4
      5.69485081E-09    2           11       -11                       # HL0    -->  E-     E+                 
      2.40445850E-04    2           13       -13                       # HL0    -->  MU-    MU+                
      6.87840506E-02    2           15       -15                       # HL0    -->  TAU-   TAU+               
      7.13884583E-06    2            1        -1                       # HL0    -->  DN     DB                 
      2.88445177E-03    2            3        -3                       # HL0    -->  ST     SB                 
      6.18012071E-01    2            5        -5                       # HL0    -->  BT     BB                 
      2.17996831E-06    2            2        -2                       # HL0    -->  UP     UB                 
      4.05231528E-02    2            4        -4                       # HL0    -->  CH     CB                 
      2.67819990E-03    2           22        22                       # HL0    -->  GM     GM                 
      5.26906177E-02    2           21        21                       # HL0    -->  GL     GL                 
      1.07104527E-02    3           24        11       -12             # HL0    -->  W+     E-     ANUE        
      1.07104527E-02    3           24        13       -14             # HL0    -->  W+     MU-    ANUM        
      1.07104527E-02    3           24        15       -16             # HL0    -->  W+     TAU-   ANUT        
      3.21313590E-02    3           24        -2         1             # HL0    -->  W+     UB     DN          
      3.21313590E-02    3           24        -4         3             # HL0    -->  W+     CB     ST          
      1.07104527E-02    3          -24       -11        12             # HL0    -->  W-     E+     NUE         
      1.07104527E-02    3          -24       -13        14             # HL0    -->  W-     MU+    NUM         
      1.07104527E-02    3          -24       -15        16             # HL0    -->  W-     TAU+   NUT         
      3.21313590E-02    3          -24         2        -1             # HL0    -->  W-     UP     DB          
      3.21313590E-02    3          -24         4        -3             # HL0    -->  W-     CH     SB          
      1.46282976E-03    3           23        12       -12             # HL0    -->  Z0     NUE    ANUE        
      1.46282976E-03    3           23        14       -14             # HL0    -->  Z0     NUM    ANUM        
      1.46282976E-03    3           23        16       -16             # HL0    -->  Z0     NUT    ANUT        
      7.36227550E-04    3           23        11       -11             # HL0    -->  Z0     E-     E+          
      7.36227550E-04    3           23        13       -13             # HL0    -->  Z0     MU-    MU+         
      7.36227550E-04    3           23        15       -15             # HL0    -->  Z0     TAU-   TAU+        
      2.52225297E-03    3           23         2        -2             # HL0    -->  Z0     UP     UB          
      2.52225297E-03    3           23         4        -4             # HL0    -->  Z0     CH     CB          
      3.24928341E-03    3           23         1        -1             # HL0    -->  Z0     DN     DB          
      3.24928341E-03    3           23         3        -3             # HL0    -->  Z0     ST     SB          
      3.24928341E-03    3           23         5        -5             # HL0    -->  Z0     BT     BB          
#         PDG         Width
DECAY        35  4.28378534E+00   # HH0   decays
#          BR          NDA       ID1       ID2       ID3       ID4
      8.98342378E-09    2           11       -11                       # HH0    -->  E-     E+                 
      3.79296311E-04    2           13       -13                       # HH0    -->  MU-    MU+                
      1.08634256E-01    2           15       -15                       # HH0    -->  TAU-   TAU+               
      1.10047340E-05    2            1        -1                       # HH0    -->  DN     DB                 
      4.44646925E-03    2            3        -3                       # HH0    -->  ST     SB                 
      6.63352489E-01    2            5        -5                       # HH0    -->  BT     BB                 
      7.28794108E-11    2            2        -2                       # HH0    -->  UP     UB                 
      1.02636011E-06    2            4        -4                       # HH0    -->  CH     CB                 
      4.68201116E-02    2            6        -6                       # HH0    -->  TP     TB                 
      2.12534005E-07    2           22        22                       # HH0    -->  GM     GM                 
      2.20017137E-05    2           21        21                       # HH0    -->  GL     GL                 
      1.83363358E-04    2           24       -24                       # HH0    -->  W+     W-                 
      9.30965398E-05    2           23        23                       # HH0    -->  Z0     Z0                 
      8.95181112E-03    2      1000022   1000022                       # HH0    -->  Z1SS   Z1SS               
      8.61388049E-04    2      1000022   1000023                       # HH0    -->  Z1SS   Z2SS               
      5.26456572E-02    2      1000022   1000025                       # HH0    -->  Z1SS   Z3SS               
      4.77035111E-03    2      1000023   1000023                       # HH0    -->  Z2SS   Z2SS               
      8.70207548E-02    2      1000023   1000025                       # HH0    -->  Z2SS   Z3SS               
      2.11297385E-02    2      1000024  -1000024                       # HH0    -->  W1SS+  W1SS-              
      6.76981814E-04    2           25        25                       # HH0    -->  HL0    HL0                
#         PDG         Width
DECAY        36  4.27001524E+00   # HA0   decays
#          BR          NDA       ID1       ID2       ID3       ID4
      8.95459173E-09    2           11       -11                       # HA0    -->  E-     E+                 
      3.78079014E-04    2           13       -13                       # HA0    -->  MU-    MU+                
      1.08286954E-01    2           15       -15                       # HA0    -->  TAU-   TAU+               
      1.09700204E-05    2            1        -1                       # HA0    -->  DN     DB                 
      4.43244353E-03    2            3        -3                       # HA0    -->  ST     SB                 
      6.61289573E-01    2            5        -5                       # HA0    -->  BT     BB                 
      6.93344895E-11    2            2        -2                       # HA0    -->  UP     UB                 
      9.77205445E-07    2            4        -4                       # HA0    -->  CH     CB                 
      4.95142788E-02    2            6        -6                       # HA0    -->  TP     TB                 
      1.82748053E-07    2           22        22                       # HA0    -->  GM     GM                 
      6.92072936E-05    2           21        21                       # HA0    -->  GL     GL                 
      1.19848959E-02    2      1000022   1000022                       # HA0    -->  Z1SS   Z1SS               
      1.69126652E-04    2      1000022   1000023                       # HA0    -->  Z1SS   Z2SS               
      8.99117440E-02    2      1000022   1000025                       # HA0    -->  Z1SS   Z3SS               
      3.75970965E-03    2      1000023   1000023                       # HA0    -->  Z2SS   Z2SS               
      4.68669459E-02    2      1000023   1000025                       # HA0    -->  Z2SS   Z3SS               
      2.31485032E-02    2      1000024  -1000024                       # HA0    -->  W1SS+  W1SS-              
      1.76395348E-04    2           25        23                       # HA0    -->  HL0    Z0                 
#         PDG         Width
DECAY        37  3.79230261E+00   # H+    decays
#          BR          NDA       ID1       ID2       ID3       ID4
      1.01151469E-08    2           12       -11                       # H+     -->  NUE    E+                 
      4.27079765E-04    2           14       -13                       # H+     -->  NUM    MU+                
      1.22321427E-01    2           16       -15                       # H+     -->  NUT    TAU+               
      1.13900287E-05    2            2        -1                       # H+     -->  UP     DB                 
      4.60311584E-03    2            4        -3                       # H+     -->  CH     SB                 
      6.95402443E-01    2            6        -5                       # H+     -->  TP     BB                 
      5.10631071E-05    2      1000024   1000022                       # H+     -->  W1SS+  Z1SS               
      1.73387444E-03    2      1000024   1000023                       # H+     -->  W1SS+  Z2SS               
      1.75250441E-01    2      1000024   1000025                       # H+     -->  W1SS+  Z3SS               
      1.99181741E-04    2           25        24                       # H+     -->  HL0    W+                 
