#  ISAJET SUSY parameters in SUSY Les Houches Accord 2 format
#  Created by ISALHA 2.0 Last revision: H Baer 27 May 2014
Block SPINFO   # Program information
     1   ISASUGRA/ISASUSY from ISAJET   # Spectrum Calculator
     2   7.87   18-JUL-2017 13:55:55    # Version number
Block MODSEL   # Model selection
     1    13   # Non-universal supergravity model                  
Block SMINPUTS   # Standard Model inputs
     1     1.28000000E+02   # alpha_em^(-1)
     2     1.16570000E-05   # G_Fermi
     3     1.19999997E-01   # alpha_s(M_Z)
     4     9.11699982E+01   # m_{Z}(pole)
     5     4.19999981E+00   # m_{b}(m_{b})
     6     1.72500000E+02   # m_{top}(pole)
     7     1.77699995E+00   # m_{tau}(pole)
Block MINPAR   # SUSY breaking input parameters
     1     5.00000000E+03   # m_0
     2     1.20000000E+03   # m_{1/2}
     3     1.50000000E+01   # tan(beta)
     4     1.00000000E+00   # sign(mu)
     5    -8.00000000E+03   # A_0
Block EXTPAR   # Non-universal SUSY breaking parameters
     0     1.61012451E+16   # Input scale
    21     2.67900525E+06   # Down type Higgs mass squared
    22     4.15987920E+07   #  Up  type Higgs mass squared
Block MASS   # Scalar and gaugino mass spectrum
#  PDG code   mass                 particle
         6     1.72500000E+02   #  top            
        24     8.04229965E+01   #  W^+
        25     1.24893082E+02   #  h^0            
        35     1.00666772E+03   #  H^0            
        36     1.00000000E+03   #  A^0            
        37     1.00322870E+03   #  H^+            
   1000001     5.44112646E+03   #  dnl            
   1000002     5.44053223E+03   #  upl            
   1000003     5.44112646E+03   #  stl            
   1000004     5.44053223E+03   #  chl            
   1000005     3.91709766E+03   #  b1             
   1000006     1.83220508E+03   #  t1             
   1000011     5.14833545E+03   #  el-            
   1000012     5.15281885E+03   #  nuel           
   1000013     5.14833545E+03   #  mul-           
   1000014     5.15281885E+03   #  numl           
   1000015     4.65415430E+03   #  tau1           
   1000016     5.07798926E+03   #  nutl           
   1000021     2.83305127E+03   #  glss           
   1000022     1.07480385E+02   #  z1ss           
   1000023    -1.16928886E+02   #  z2ss           
   1000024     1.16264648E+02   #  w1ss           
   1000025     5.37921021E+02   #  z3ss           
   1000035     1.03035193E+03   #  z4ss           
   1000037     1.01653168E+03   #  w2ss           
   1000039     1.00000002E+20   #  gvss
   2000001     5.38487988E+03   #  dnr            
   2000002     5.56461816E+03   #  upr            
   2000003     5.38487988E+03   #  str            
   2000004     5.56461865E+03   #  chr            
   2000005     5.20585059E+03   #  b2             
   2000006     3.89358618E+03   #  t2             
   2000011     4.81854395E+03   #  er-            
   2000013     4.81854395E+03   #  mur-           
   2000015     5.07195605E+03   #  tau2           
Block ALPHA   # Effective Higgs mixing parameter
         -6.81351051E-02   # alpha
Block STOPMIX   # stop mixing matrix
  1  1     5.71595617E-02   # O_{11}
  1  2     9.98365045E-01   # O_{12}
  2  1    -9.98365045E-01   # O_{21}
  2  2     5.71595617E-02   # O_{22}
Block SBOTMIX   # sbottom mixing matrix
  1  1     9.99994099E-01   # O_{11}
  1  2     3.44333635E-03   # O_{12}
  2  1    -3.44333635E-03   # O_{21}
  2  2     9.99994099E-01   # O_{22}
Block STAUMIX   # stau mixing matrix
  1  1     7.39754038E-03   # O_{11}
  1  2     9.99972641E-01   # O_{12}
  2  1    -9.99972641E-01   # O_{21}
  2  2     7.39754038E-03   # O_{22}
Block NMIX   # neutralino mixing matrix
  1  1     7.25890175E-02   #
  1  2    -6.47029951E-02   #
  1  3     7.19829559E-01   #
  1  4    -6.87306166E-01   #
  2  1    -4.33482677E-02   #
  2  2     4.39683795E-02   #
  2  3     6.93602800E-01   #
  2  4     7.17706740E-01   #
  3  1     9.96370018E-01   #
  3  2     1.65559333E-02   #
  3  3    -2.21017264E-02   #
  3  4     8.05243105E-02   #
  4  1     9.92493704E-03   #
  4  2    -9.96797979E-01   #
  4  3    -1.64972637E-02   #
  4  4     7.76090324E-02   #
Block UMIX   # chargino U mixing matrix
  1  1    -2.12862231E-02   # U_{11}
  1  2     9.99773443E-01   # U_{12}
  2  1    -9.99773443E-01   # U_{21}
  2  2    -2.12862231E-02   # U_{22}
Block VMIX   # chargino V mixing matrix
  1  1    -1.08805738E-01   # V_{11}
  1  2     9.94063020E-01   # V_{12}
  2  1    -9.94063020E-01   # V_{21}
  2  2    -1.08805738E-01   # V_{22}
Block GAUGE Q=  2.65301563E+03   #
     1     3.57518226E-01   # g`
     2     6.52396798E-01   # g_2
     3     1.21958792E+00   # g_3
Block YU Q=  2.65301563E+03   #
  3  3     8.20179760E-01   # y_t
Block YD Q=  2.65301563E+03   #
  3  3     1.90213650E-01   # y_b
Block YE Q=  2.65301563E+03   #
  3  3     1.50439560E-01   # y_tau
Block HMIX Q=  2.65301563E+03   # Higgs mixing parameters
     1     1.10000000E+02   # mu(Q)
     2     1.43444576E+01   # tan(beta)(Q)
     3     2.52297333E+02   # Higgs vev at Q
     4     1.00000000E+06   # m_A^2(Q)
Block MSOFT Q=  2.65301563E+03   # DRbar SUSY breaking parameters
     1     5.33044983E+02   # M_1(Q)          
     2     9.71337097E+02   # M_2(Q)          
     3     2.53292065E+03   # M_3(Q)          
    21     9.59686563E+05   # MHd^2(Q)        
    22    -4.80506484E+04   # MHu^2(Q)        
    31     5.13136816E+03   # MeL(Q)          
    32     5.13136816E+03   # MmuL(Q)         
    33     5.05856641E+03   # MtauL(Q)        
    34     4.81488770E+03   # MeR(Q)          
    35     4.81488770E+03   # MmuR(Q)         
    36     4.65206689E+03   # MtauR(Q)        
    41     5.32245264E+03   # MqL1(Q)         
    42     5.32245264E+03   # MqL2(Q)         
    43     3.84026221E+03   # MqL3(Q)         
    44     5.44626074E+03   # MuR(Q)          
    45     5.44626074E+03   # McR(Q)          
    46     1.83281531E+03   # MtR(Q)          
    47     5.26650244E+03   # MdR(Q)          
    48     5.26650244E+03   # MsR(Q)          
    49     5.14523828E+03   # MbR(Q)          
Block AU Q=  2.65301563E+03   #
  1  1    -4.96276855E+03   # A_u
  2  2    -4.96276855E+03   # A_c
  3  3    -4.96276855E+03   # A_t
Block AD Q=  2.65301563E+03   #
  1  1    -9.59639160E+03   # A_d
  2  2    -9.59639160E+03   # A_s
  3  3    -9.59639160E+03   # A_b
Block AE Q=  2.65301563E+03   #
  1  1    -8.32911914E+03   # A_e
  2  2    -8.32911914E+03   # A_mu
  3  3    -8.32911914E+03   # A_tau
#  ISAJET decay tables in SUSY Les Houches accord format
#  Created by ISALHD. Last revision: C. Balazs, 2005 May 25
Block DCINFO                           # Program information
     1   ISASUGRA from ISAJET          # Spectrum Calculator
     2   7.87   18-JUL-2017 13:55:55   # Version number
#         PDG         Width
DECAY         6  1.46776152E+00   # TP    decays
#          BR          NDA       ID1       ID2       ID3       ID4
      3.33333313E-01    3            2        -1         5             # TP     -->  UP     DB     BT          
      3.33333313E-01    3            4        -3         5             # TP     -->  CH     SB     BT          
      1.11111097E-01    3          -11        12         5             # TP     -->  E+     NUE    BT          
      1.11111097E-01    3          -13        14         5             # TP     -->  MU+    NUM    BT          
      1.11111097E-01    3          -15        16         5             # TP     -->  TAU+   NUT    BT          
#         PDG         Width
DECAY   1000021  1.93272705E+01   # GLSS  decays
#          BR          NDA       ID1       ID2       ID3       ID4
      3.97391432E-07    3      1000024         1        -2             # GLSS   -->  W1SS+  DN     UB          
      3.97391432E-07    3     -1000024         2        -1             # GLSS   -->  W1SS-  UP     DB          
      3.97391432E-07    3      1000024         3        -4             # GLSS   -->  W1SS+  ST     CB          
      3.97391432E-07    3     -1000024         4        -3             # GLSS   -->  W1SS-  CH     SB          
      2.52274243E-04    3      1000024         5        -6             # GLSS   -->  W1SS+  BT     TB          
      2.52274243E-04    3     -1000024         6        -5             # GLSS   -->  W1SS-  TP     BB          
      3.68581168E-05    3      1000037         1        -2             # GLSS   -->  W2SS+  DN     UB          
      3.68581168E-05    3     -1000037         2        -1             # GLSS   -->  W2SS-  UP     DB          
      3.68581168E-05    3      1000037         3        -4             # GLSS   -->  W2SS+  ST     CB          
      3.68581168E-05    3     -1000037         4        -3             # GLSS   -->  W2SS-  CH     SB          
      1.96429028E-04    3      1000037         5        -6             # GLSS   -->  W2SS+  BT     TB          
      1.96429028E-04    3     -1000037         6        -5             # GLSS   -->  W2SS-  TP     BB          
      2.22970971E-06    2      1000022        21                       # GLSS   -->  Z1SS   GL                 
      1.74881635E-07    3      1000022         2        -2             # GLSS   -->  Z1SS   UP     UB          
      2.29522456E-07    3      1000022         1        -1             # GLSS   -->  Z1SS   DN     DB          
      2.29522456E-07    3      1000022         3        -3             # GLSS   -->  Z1SS   ST     SB          
      1.74881620E-07    3      1000022         4        -4             # GLSS   -->  Z1SS   CH     CB          
      2.62131198E-05    3      1000022         5        -5             # GLSS   -->  Z1SS   BT     BB          
      2.22472721E-04    3      1000022         6        -6             # GLSS   -->  Z1SS   TP     TB          
      2.41756129E-06    2      1000023        21                       # GLSS   -->  Z2SS   GL                 
      6.44653255E-08    3      1000023         2        -2             # GLSS   -->  Z2SS   UP     UB          
      8.63238228E-08    3      1000023         1        -1             # GLSS   -->  Z2SS   DN     DB          
      8.63238228E-08    3      1000023         3        -3             # GLSS   -->  Z2SS   ST     SB          
      6.44653255E-08    3      1000023         4        -4             # GLSS   -->  Z2SS   CH     CB          
      2.37891800E-05    3      1000023         5        -5             # GLSS   -->  Z2SS   BT     BB          
      2.42142822E-04    3      1000023         6        -6             # GLSS   -->  Z2SS   TP     TB          
      4.93312022E-08    2      1000025        21                       # GLSS   -->  Z3SS   GL                 
      1.63661916E-05    3      1000025         2        -2             # GLSS   -->  Z3SS   UP     UB          
      5.25328642E-06    3      1000025         1        -1             # GLSS   -->  Z3SS   DN     DB          
      5.25328642E-06    3      1000025         3        -3             # GLSS   -->  Z3SS   ST     SB          
      1.63661844E-05    3      1000025         4        -4             # GLSS   -->  Z3SS   CH     CB          
      9.45183729E-06    3      1000025         5        -5             # GLSS   -->  Z3SS   BT     BB          
      7.92706578E-06    3      1000025         6        -6             # GLSS   -->  Z3SS   TP     TB          
      3.05460688E-08    2      1000035        21                       # GLSS   -->  Z4SS   GL                 
      1.79646468E-05    3      1000035         2        -2             # GLSS   -->  Z4SS   UP     UB          
      1.80863972E-05    3      1000035         1        -1             # GLSS   -->  Z4SS   DN     DB          
      1.80863972E-05    3      1000035         3        -3             # GLSS   -->  Z4SS   ST     SB          
      1.79646468E-05    3      1000035         4        -4             # GLSS   -->  Z4SS   CH     CB          
      9.48358502E-05    3      1000035         5        -5             # GLSS   -->  Z4SS   BT     BB          
      9.76021620E-05    3      1000035         6        -6             # GLSS   -->  Z4SS   TP     TB          
      4.99053985E-01    2     -1000006         6                       # GLSS   -->  TB1    TP                 
      4.99053985E-01    2      1000006        -6                       # GLSS   -->  TP1    TB                 
#         PDG         Width
DECAY   1000002  2.15937408E+02   # UPL   decays
#          BR          NDA       ID1       ID2       ID3       ID4
      2.80016422E-04    2      1000022         2                       # UPL    -->  Z1SS   UP                 
      1.37522133E-04    2      1000023         2                       # UPL    -->  Z2SS   UP                 
      4.12217062E-03    2      1000025         2                       # UPL    -->  Z3SS   UP                 
      9.75951925E-02    2      1000035         2                       # UPL    -->  Z4SS   UP                 
      7.00138986E-01    2      1000021         2                       # UPL    -->  GLSS   UP                 
      2.50877906E-03    2      1000024         1                       # UPL    -->  W1SS+  DN                 
      1.95217341E-01    2      1000037         1                       # UPL    -->  W2SS+  DN                 
#         PDG         Width
DECAY   1000001  2.15943466E+02   # DNL   decays
#          BR          NDA       ID1       ID2       ID3       ID4
      6.44809275E-04    2      1000022         1                       # DNL    -->  Z1SS   DN                 
      2.85537506E-04    2      1000023         1                       # DNL    -->  Z2SS   DN                 
      2.86531821E-03    2      1000025         1                       # DNL    -->  Z3SS   DN                 
      9.83194932E-02    2      1000035         1                       # DNL    -->  Z4SS   DN                 
      7.00303018E-01    2      1000021         1                       # DNL    -->  GLSS   DN                 
      9.60265606E-05    2     -1000024         2                       # DNL    -->  W1SS-  UP                 
      1.97485790E-01    2     -1000037         2                       # DNL    -->  W2SS-  UP                 
#         PDG         Width
DECAY   1000003  2.15943466E+02   # STL   decays
#          BR          NDA       ID1       ID2       ID3       ID4
      6.44809275E-04    2      1000022         3                       # STL    -->  Z1SS   ST                 
      2.85537506E-04    2      1000023         3                       # STL    -->  Z2SS   ST                 
      2.86531821E-03    2      1000025         3                       # STL    -->  Z3SS   ST                 
      9.83194932E-02    2      1000035         3                       # STL    -->  Z4SS   ST                 
      7.00303018E-01    2      1000021         3                       # STL    -->  GLSS   ST                 
      9.60265606E-05    2     -1000024         4                       # STL    -->  W1SS-  CH                 
      1.97485775E-01    2     -1000037         4                       # STL    -->  W2SS-  CH                 
#         PDG         Width
DECAY   1000004  2.15937363E+02   # CHL   decays
#          BR          NDA       ID1       ID2       ID3       ID4
      2.80016422E-04    2      1000022         4                       # CHL    -->  Z1SS   CH                 
      1.37522147E-04    2      1000023         4                       # CHL    -->  Z2SS   CH                 
      4.12217155E-03    2      1000025         4                       # CHL    -->  Z3SS   CH                 
      9.75951999E-02    2      1000035         4                       # CHL    -->  Z4SS   CH                 
      7.00138927E-01    2      1000021         4                       # CHL    -->  GLSS   CH                 
      2.50877952E-03    2      1000024         3                       # CHL    -->  W1SS+  ST                 
      1.95217386E-01    2      1000037         3                       # CHL    -->  W2SS+  ST                 
#         PDG         Width
DECAY   1000005  2.05392532E+02   # BT1   decays
#          BR          NDA       ID1       ID2       ID3       ID4
      7.95798283E-03    2      1000022         5                       # BT1    -->  Z1SS   BT                 
      7.12260418E-03    2      1000023         5                       # BT1    -->  Z2SS   BT                 
      2.13340274E-03    2      1000025         5                       # BT1    -->  Z3SS   BT                 
      6.93600252E-02    2      1000035         5                       # BT1    -->  Z4SS   BT                 
      2.33621180E-01    2      1000021         5                       # BT1    -->  GLSS   BT                 
      2.40722284E-01    2     -1000024         6                       # BT1    -->  W1SS-  TP                 
      1.42392635E-01    2     -1000037         6                       # BT1    -->  W2SS-  TP                 
      2.95900285E-01    2          -24   1000006                       # BT1    -->  W-     TP1                
      7.89538375E-04    2          -37   1000006                       # BT1    -->  H-     TP1                
#         PDG         Width
DECAY   1000006  4.96598892E+01   # TP1   decays
#          BR          NDA       ID1       ID2       ID3       ID4
      2.20454469E-01    2      1000022         6                       # TP1    -->  Z1SS   TP                 
      2.39883944E-01    2      1000023         6                       # TP1    -->  Z2SS   TP                 
      7.06007928E-02    2      1000025         6                       # TP1    -->  Z3SS   TP                 
      4.29331471E-04    2      1000035         6                       # TP1    -->  Z4SS   TP                 
      4.67741191E-01    2      1000024         5                       # TP1    -->  W1SS+  BT                 
      8.90308234E-04    2      1000037         5                       # TP1    -->  W2SS+  BT                 
#         PDG         Width
DECAY   2000002  1.71782730E+02   # UPR   decays
#          BR          NDA       ID1       ID2       ID3       ID4
      3.85558116E-04    2      1000022         2                       # UPR    -->  Z1SS   UP                 
      1.37477633E-04    2      1000023         2                       # UPR    -->  Z2SS   UP                 
      7.13441670E-02    2      1000025         2                       # UPR    -->  Z3SS   UP                 
      6.72706892E-06    2      1000035         2                       # UPR    -->  Z4SS   UP                 
      9.28126097E-01    2      1000021         2                       # UPR    -->  GLSS   UP                 
#         PDG         Width
DECAY   2000001  1.50450989E+02   # DNR   decays
#          BR          NDA       ID1       ID2       ID3       ID4
      1.06495929E-04    2      1000022         1                       # DNR    -->  Z1SS   DN                 
      3.79726735E-05    2      1000023         1                       # DNR    -->  Z2SS   DN                 
      1.96819138E-02    2      1000025         1                       # DNR    -->  Z3SS   DN                 
      1.84924988E-06    2      1000035         1                       # DNR    -->  Z4SS   DN                 
      9.80171800E-01    2      1000021         1                       # DNR    -->  GLSS   DN                 
#         PDG         Width
DECAY   2000003  1.50450989E+02   # STR   decays
#          BR          NDA       ID1       ID2       ID3       ID4
      1.06495929E-04    2      1000022         3                       # STR    -->  Z1SS   ST                 
      3.79726735E-05    2      1000023         3                       # STR    -->  Z2SS   ST                 
      1.96819138E-02    2      1000025         3                       # STR    -->  Z3SS   ST                 
      1.84924988E-06    2      1000035         3                       # STR    -->  Z4SS   ST                 
      9.80171800E-01    2      1000021         3                       # STR    -->  GLSS   ST                 
#         PDG         Width
DECAY   2000004  1.71782730E+02   # CHR   decays
#          BR          NDA       ID1       ID2       ID3       ID4
      3.85558116E-04    2      1000022         4                       # CHR    -->  Z1SS   CH                 
      1.37477648E-04    2      1000023         4                       # CHR    -->  Z2SS   CH                 
      7.13441670E-02    2      1000025         4                       # CHR    -->  Z3SS   CH                 
      6.72706801E-06    2      1000035         4                       # CHR    -->  Z4SS   CH                 
      9.28126097E-01    2      1000021         4                       # CHR    -->  GLSS   CH                 
#         PDG         Width
DECAY   2000005  1.82196747E+02   # BT2   decays
#          BR          NDA       ID1       ID2       ID3       ID4
      1.12319319E-02    2      1000022         5                       # BT2    -->  Z1SS   BT                 
      1.04191396E-02    2      1000023         5                       # BT2    -->  Z2SS   BT                 
      1.57044102E-02    2      1000025         5                       # BT2    -->  Z3SS   BT                 
      1.35629107E-05    2      1000035         5                       # BT2    -->  Z4SS   BT                 
      7.43323267E-01    2      1000021         5                       # BT2    -->  GLSS   BT                 
      2.14980021E-02    2     -1000024         6                       # BT2    -->  W1SS-  TP                 
      2.14784450E-05    2     -1000037         6                       # BT2    -->  W2SS-  TP                 
      1.31151610E-05    2          -24   1000006                       # BT2    -->  W-     TP1                
      5.06499200E-04    2          -24   2000006                       # BT2    -->  W-     TP2                
      2.45265313E-04    2           23   1000005                       # BT2    -->  Z0     BT1                
      4.87641286E-04    2           25   1000005                       # BT2    -->  HL0    BT1                
      4.82673198E-02    2           36   1000005                       # BT2    -->  HA0    BT1                
      4.77578156E-02    2           35   1000005                       # BT2    -->  HH0    BT1                
      4.45498619E-04    2          -37   1000006                       # BT2    -->  H-     TP1                
      1.00065015E-01    2          -37   2000006                       # BT2    -->  H-     TP2                
#         PDG         Width
DECAY   2000006  2.17811890E+02   # TP2   decays
#          BR          NDA       ID1       ID2       ID3       ID4
      2.06233189E-01    2      1000021         6                       # TP2    -->  GLSS   TP                 
      1.36500401E-02    2      1000024         5                       # TP2    -->  W1SS+  BT                 
      1.30711779E-01    2      1000037         5                       # TP2    -->  W2SS+  BT                 
      1.36862144E-01    2           23   1000006                       # TP2    -->  Z0     TP1                
      2.16331899E-01    2           25   1000006                       # TP2    -->  HL0    TP1                
      3.94489791E-04    2           35   1000006                       # TP2    -->  HH0    TP1                
      3.73312010E-04    2           36   1000006                       # TP2    -->  HA0    TP1                
      1.06993638E-01    2      1000022         6                       # TP2    -->  Z1SS   TP                 
      1.16934009E-01    2      1000023         6                       # TP2    -->  Z2SS   TP                 
      4.95310035E-03    2      1000025         6                       # TP2    -->  Z3SS   TP                 
      6.65623918E-02    2      1000035         6                       # TP2    -->  Z4SS   TP                 
#         PDG         Width
DECAY   1000011  6.64256439E+01   # EL-   decays
#          BR          NDA       ID1       ID2       ID3       ID4
      2.00584356E-04    2      1000022        11                       # EL-    -->  Z1SS   E-                 
      1.32237459E-04    2      1000023        11                       # EL-    -->  Z2SS   E-                 
      1.01589054E-01    2      1000025        11                       # EL-    -->  Z3SS   E-                 
      2.95450956E-01    2      1000035        11                       # EL-    -->  Z4SS   E-                 
      2.95343401E-04    2     -1000024        12                       # EL-    -->  W1SS-  NUE                
      6.02331758E-01    2     -1000037        12                       # EL-    -->  W2SS-  NUE                
#         PDG         Width
DECAY   1000013  6.64256439E+01   # MUL-  decays
#          BR          NDA       ID1       ID2       ID3       ID4
      2.00584356E-04    2      1000022        13                       # MUL-   -->  Z1SS   MU-                
      1.32237459E-04    2      1000023        13                       # MUL-   -->  Z2SS   MU-                
      1.01589054E-01    2      1000025        13                       # MUL-   -->  Z3SS   MU-                
      2.95450956E-01    2      1000035        13                       # MUL-   -->  Z4SS   MU-                
      2.95343401E-04    2     -1000024        14                       # MUL-   -->  W1SS-  NUM                
      6.02331758E-01    2     -1000037        14                       # MUL-   -->  W2SS-  NUM                
#         PDG         Width
DECAY   1000015  2.74430256E+01   # TAU1- decays
#          BR          NDA       ID1       ID2       ID3       ID4
      4.62811477E-02    2      1000022        15                       # TAU1-  -->  Z1SS   TAU-               
      3.99529338E-02    2      1000023        15                       # TAU1-  -->  Z2SS   TAU-               
      8.33584666E-01    2      1000025        15                       # TAU1-  -->  Z3SS   TAU-               
      7.83681608E-05    2      1000035        15                       # TAU1-  -->  Z4SS   TAU-               
      8.00957158E-02    2     -1000024        16                       # TAU1-  -->  W1SS-  NUT                
      7.16997465E-06    2     -1000037        16                       # TAU1-  -->  W2SS-  NUT                
#         PDG         Width
DECAY   1000012  6.65092392E+01   # NUEL  decays
#          BR          NDA       ID1       ID2       ID3       ID4
      3.56496940E-03    2      1000022        12                       # NUEL   -->  Z1SS   NUE                
      1.49728241E-03    2      1000023        12                       # NUEL   -->  Z2SS   NUE                
      8.99830535E-02    2      1000025        12                       # NUEL   -->  Z3SS   NUE                
      3.01916599E-01    2      1000035        12                       # NUEL   -->  Z4SS   NUE                
      7.71376258E-03    2      1000024        11                       # NUEL   -->  W1SS+  E-                 
      5.95324278E-01    2      1000037        11                       # NUEL   -->  W2SS+  E-                 
#         PDG         Width
DECAY   1000014  6.65092392E+01   # NUML  decays
#          BR          NDA       ID1       ID2       ID3       ID4
      3.56496940E-03    2      1000022        14                       # NUML   -->  Z1SS   NUM                
      1.49728241E-03    2      1000023        14                       # NUML   -->  Z2SS   NUM                
      8.99830535E-02    2      1000025        14                       # NUML   -->  Z3SS   NUM                
      3.01916599E-01    2      1000035        14                       # NUML   -->  Z4SS   NUM                
      7.71376258E-03    2      1000024        13                       # NUML   -->  W1SS+  MU-                
      5.95324278E-01    2      1000037        13                       # NUML   -->  W2SS+  MU-                
#         PDG         Width
DECAY   1000016  6.78115692E+01   # NUTL  decays
#          BR          NDA       ID1       ID2       ID3       ID4
      3.44563811E-03    2      1000022        16                       # NUTL   -->  Z1SS   NUT                
      1.44715642E-03    2      1000023        16                       # NUTL   -->  Z2SS   NUT                
      8.69163722E-02    2      1000025        16                       # NUTL   -->  Z3SS   NUT                
      2.91096807E-01    2      1000035        16                       # NUTL   -->  Z4SS   NUT                
      4.27832119E-02    2      1000024        15                       # NUTL   -->  W1SS+  TAU-               
      5.74044347E-01    2      1000037        15                       # NUTL   -->  W2SS+  TAU-               
      2.66397576E-04    2           24   1000015                       # NUTL   -->  W+     TAU1-              
#         PDG         Width
DECAY   2000011  2.39053192E+01   # ER-   decays
#          BR          NDA       ID1       ID2       ID3       ID4
      5.39671723E-03    2      1000022        11                       # ER-    -->  Z1SS   E-                 
      1.92420755E-03    2      1000023        11                       # ER-    -->  Z2SS   E-                 
      9.92587090E-01    2      1000025        11                       # ER-    -->  Z3SS   E-                 
      9.19653103E-05    2      1000035        11                       # ER-    -->  Z4SS   E-                 
#         PDG         Width
DECAY   2000013  2.39053192E+01   # MUR-  decays
#          BR          NDA       ID1       ID2       ID3       ID4
      5.39671723E-03    2      1000022        13                       # MUR-   -->  Z1SS   MU-                
      1.92420755E-03    2      1000023        13                       # MUR-   -->  Z2SS   MU-                
      9.92587090E-01    2      1000025        13                       # MUR-   -->  Z3SS   MU-                
      9.19653103E-05    2      1000035        13                       # MUR-   -->  Z4SS   MU-                
#         PDG         Width
DECAY   2000015  6.76930771E+01   # TAU2- decays
#          BR          NDA       ID1       ID2       ID3       ID4
      1.84031390E-02    2      1000022        15                       # TAU2-  -->  Z1SS   TAU-               
      1.72140934E-02    2      1000023        15                       # TAU2-  -->  Z2SS   TAU-               
      9.81915742E-02    2      1000025        15                       # TAU2-  -->  Z3SS   TAU-               
      2.84912586E-01    2      1000035        15                       # TAU2-  -->  Z4SS   TAU-               
      2.40424284E-04    2     -1000024        16                       # TAU2-  -->  W1SS-  NUT                
      5.80864191E-01    2     -1000037        16                       # TAU2-  -->  W2SS-  NUT                
      1.27375446E-04    2           23   1000015                       # TAU2-  -->  Z0     TAU1-              
      4.66667225E-05    2           25   1000015                       # TAU2-  -->  HL0    TAU1-              
#         PDG         Width
DECAY   1000023  6.10631474E-08   # Z2SS  decays
#          BR          NDA       ID1       ID2       ID3       ID4
      2.69585997E-02    2      1000022        22                       # Z2SS   -->  Z1SS   GM                 
      1.37001887E-01    3      1000022         2        -2             # Z2SS   -->  Z1SS   UP     UB          
      1.76664323E-01    3      1000022         1        -1             # Z2SS   -->  Z1SS   DN     DB          
      1.76664323E-01    3      1000022         3        -3             # Z2SS   -->  Z1SS   ST     SB          
      1.37001902E-01    3      1000022         4        -4             # Z2SS   -->  Z1SS   CH     CB          
      4.00761887E-02    3      1000022        11       -11             # Z2SS   -->  Z1SS   E-     E+          
      4.00761887E-02    3      1000022        13       -13             # Z2SS   -->  Z1SS   MU-    MU+         
      2.63382979E-02    3      1000022        15       -15             # Z2SS   -->  Z1SS   TAU-   TAU+        
      7.97394440E-02    3      1000022        12       -12             # Z2SS   -->  Z1SS   NUE    ANUE        
      7.97394440E-02    3      1000022        14       -14             # Z2SS   -->  Z1SS   NUM    ANUM        
      7.97394738E-02    3      1000022        16       -16             # Z2SS   -->  Z1SS   NUT    ANUT        
#         PDG         Width
DECAY   1000025  1.20722830E+00   # Z3SS  decays
#          BR          NDA       ID1       ID2       ID3       ID4
      9.67734621E-08    2      1000022        22                       # Z3SS   -->  Z1SS   GM                 
      8.32835241E-08    2      1000023        22                       # Z3SS   -->  Z2SS   GM                 
      2.61804640E-01    2      1000024       -24                       # Z3SS   -->  W1SS+  W-                 
      2.61804640E-01    2     -1000024        24                       # Z3SS   -->  W1SS-  W+                 
      6.04494549E-02    2      1000022        23                       # Z3SS   -->  Z1SS   Z0                 
      1.88147962E-01    2      1000023        23                       # Z3SS   -->  Z2SS   Z0                 
      8.61292912E-11    3      1000022         2        -2             # Z3SS   -->  Z1SS   UP     UB          
      1.54408014E-11    3      1000022         1        -1             # Z3SS   -->  Z1SS   DN     DB          
      1.54408014E-11    3      1000022         3        -3             # Z3SS   -->  Z1SS   ST     SB          
      8.61292565E-11    3      1000022         4        -4             # Z3SS   -->  Z1SS   CH     CB          
      1.16132389E-06    3      1000022         5        -5             # Z3SS   -->  Z1SS   BT     BB          
      2.45610920E-10    3      1000022        11       -11             # Z3SS   -->  Z1SS   E-     E+          
      2.45610920E-10    3      1000022        13       -13             # Z3SS   -->  Z1SS   MU-    MU+         
      2.47654384E-07    3      1000022        15       -15             # Z3SS   -->  Z1SS   TAU-   TAU+        
      7.43212505E-11    3      1000022        12       -12             # Z3SS   -->  Z1SS   NUE    ANUE        
      7.43212505E-11    3      1000022        14       -14             # Z3SS   -->  Z1SS   NUM    ANUM        
      7.88212828E-11    3      1000022        16       -16             # Z3SS   -->  Z1SS   NUT    ANUT        
      1.60498472E-11    3      1000023         2        -2             # Z3SS   -->  Z2SS   UP     UB          
      3.23019107E-12    3      1000023         1        -1             # Z3SS   -->  Z2SS   DN     DB          
      3.23019107E-12    3      1000023         3        -3             # Z3SS   -->  Z2SS   ST     SB          
      1.60498437E-11    3      1000023         4        -4             # Z3SS   -->  Z2SS   CH     CB          
      1.04493131E-06    3      1000023         5        -5             # Z3SS   -->  Z2SS   BT     BB          
      4.53289628E-11    3      1000023        11       -11             # Z3SS   -->  Z2SS   E-     E+          
      4.53289628E-11    3      1000023        13       -13             # Z3SS   -->  Z2SS   MU-    MU+         
      2.22544017E-07    3      1000023        15       -15             # Z3SS   -->  Z2SS   TAU-   TAU+        
      1.58933509E-11    3      1000023        12       -12             # Z3SS   -->  Z2SS   NUE    ANUE        
      1.58933509E-11    3      1000023        14       -14             # Z3SS   -->  Z2SS   NUM    ANUM        
      1.68564329E-11    3      1000023        16       -16             # Z3SS   -->  Z2SS   NUT    ANUT        
      1.70591593E-01    2      1000022        25                       # Z3SS   -->  Z1SS   HL0                
      5.71987517E-02    2      1000023        25                       # Z3SS   -->  Z2SS   HL0                
#         PDG         Width
DECAY   1000035  8.38602734E+00   # Z4SS  decays
#          BR          NDA       ID1       ID2       ID3       ID4
      1.54394866E-06    2      1000022        22                       # Z4SS   -->  Z1SS   GM                 
      2.50836479E-06    2      1000023        22                       # Z4SS   -->  Z2SS   GM                 
      2.62986077E-09    2      1000025        22                       # Z4SS   -->  Z3SS   GM                 
      2.44442180E-01    2      1000024       -24                       # Z4SS   -->  W1SS+  W-                 
      2.44442180E-01    2     -1000024        24                       # Z4SS   -->  W1SS-  W+                 
      1.02519003E-07    3     -1000037         2        -1             # Z4SS   -->  W2SS-  UP     DB          
      3.41730022E-08    3     -1000037        12       -11             # Z4SS   -->  W2SS-  NUE    E+          
      3.41730022E-08    3     -1000037        14       -13             # Z4SS   -->  W2SS-  NUM    MU+         
      1.02519003E-07    3      1000037         1        -2             # Z4SS   -->  W2SS+  DN     UB          
      3.41730022E-08    3      1000037        11       -12             # Z4SS   -->  W2SS+  E-     ANUE        
      3.41730022E-08    3      1000037        13       -14             # Z4SS   -->  W2SS+  MU-    ANUM        
      1.02519003E-07    3     -1000037         4        -3             # Z4SS   -->  W2SS-  CH     SB          
      3.41730022E-08    3     -1000037        16       -15             # Z4SS   -->  W2SS-  NUT    TAU+        
      1.02519003E-07    3      1000037         3        -4             # Z4SS   -->  W2SS+  ST     CB          
      3.41730022E-08    3      1000037        15       -16             # Z4SS   -->  W2SS+  TAU-   ANUT        
      7.18977600E-02    2      1000022        23                       # Z4SS   -->  Z1SS   Z0                 
      1.85431778E-01    2      1000023        23                       # Z4SS   -->  Z2SS   Z0                 
      5.98943152E-04    2      1000025        23                       # Z4SS   -->  Z3SS   Z0                 
      6.51446286E-10    3      1000022         2        -2             # Z4SS   -->  Z1SS   UP     UB          
      1.51023838E-09    3      1000022         1        -1             # Z4SS   -->  Z1SS   DN     DB          
      1.51023838E-09    3      1000022         3        -3             # Z4SS   -->  Z1SS   ST     SB          
      6.51446286E-10    3      1000022         4        -4             # Z4SS   -->  Z1SS   CH     CB          
      6.56885313E-05    3      1000022         5        -5             # Z4SS   -->  Z1SS   BT     BB          
      6.29167829E-11    3      1000022        11       -11             # Z4SS   -->  Z1SS   E-     E+          
      6.29167829E-11    3      1000022        13       -13             # Z4SS   -->  Z1SS   MU-    MU+         
      1.35172886E-05    3      1000022        15       -15             # Z4SS   -->  Z1SS   TAU-   TAU+        
      1.13749943E-09    3      1000022        12       -12             # Z4SS   -->  Z1SS   NUE    ANUE        
      1.13749943E-09    3      1000022        14       -14             # Z4SS   -->  Z1SS   NUM    ANUM        
      1.20720223E-09    3      1000022        16       -16             # Z4SS   -->  Z1SS   NUT    ANUT        
      2.15891541E-10    3      1000023         2        -2             # Z4SS   -->  Z2SS   UP     UB          
      4.51285204E-10    3      1000023         1        -1             # Z4SS   -->  Z2SS   DN     DB          
      4.51285204E-10    3      1000023         3        -3             # Z4SS   -->  Z2SS   ST     SB          
      2.15891541E-10    3      1000023         4        -4             # Z4SS   -->  Z2SS   CH     CB          
      5.94841331E-05    3      1000023         5        -5             # Z4SS   -->  Z2SS   BT     BB          
      2.79813412E-11    3      1000023        11       -11             # Z4SS   -->  Z2SS   E-     E+          
      2.79813412E-11    3      1000023        13       -13             # Z4SS   -->  Z2SS   MU-    MU+         
      1.22394249E-05    3      1000023        15       -15             # Z4SS   -->  Z2SS   TAU-   TAU+        
      3.22527338E-10    3      1000023        12       -12             # Z4SS   -->  Z2SS   NUE    ANUE        
      3.22527338E-10    3      1000023        14       -14             # Z4SS   -->  Z2SS   NUM    ANUM        
      3.42333495E-10    3      1000023        16       -16             # Z4SS   -->  Z2SS   NUT    ANUT        
      1.79437931E-09    3      1000025         2        -2             # Z4SS   -->  Z3SS   UP     UB          
      1.25499966E-09    3      1000025         1        -1             # Z4SS   -->  Z3SS   DN     DB          
      1.25499966E-09    3      1000025         3        -3             # Z4SS   -->  Z3SS   ST     SB          
      1.79437931E-09    3      1000025         4        -4             # Z4SS   -->  Z3SS   CH     CB          
      8.50034798E-09    3      1000025         5        -5             # Z4SS   -->  Z3SS   BT     BB          
      5.97596950E-09    3      1000025        11       -11             # Z4SS   -->  Z3SS   E-     E+          
      5.97596950E-09    3      1000025        13       -13             # Z4SS   -->  Z3SS   MU-    MU+         
      7.09506320E-09    3      1000025        15       -15             # Z4SS   -->  Z3SS   TAU-   TAU+        
      5.38978195E-09    3      1000025        12       -12             # Z4SS   -->  Z3SS   NUE    ANUE        
      5.38978195E-09    3      1000025        14       -14             # Z4SS   -->  Z3SS   NUM    ANUM        
      5.72286352E-09    3      1000025        16       -16             # Z4SS   -->  Z3SS   NUT    ANUT        
      1.60911113E-01    2      1000022        25                       # Z4SS   -->  Z1SS   HL0                
      8.57266933E-02    2      1000023        25                       # Z4SS   -->  Z2SS   HL0                
      6.39352109E-03    2      1000025        25                       # Z4SS   -->  Z3SS   HL0                
#         PDG         Width
DECAY   1000024  6.08897324E-08   # W1SS+ decays
#          BR          NDA       ID1       ID2       ID3       ID4
      3.33332539E-01    3      1000022         2        -1             # W1SS+  -->  Z1SS   UP     DB          
      3.33332539E-01    3      1000022         4        -3             # W1SS+  -->  Z1SS   CH     SB          
      1.11110970E-01    3      1000022       -11        12             # W1SS+  -->  Z1SS   E+     NUE         
      1.11110970E-01    3      1000022       -13        14             # W1SS+  -->  Z1SS   MU+    NUM         
      1.11113004E-01    3      1000022       -15        16             # W1SS+  -->  Z1SS   TAU+   NUT         
#         PDG         Width
DECAY   1000037  8.24452591E+00   # W2SS+ decays
#          BR          NDA       ID1       ID2       ID3       ID4
      1.44937029E-09    3      1000022         2        -1             # W2SS+  -->  Z1SS   UP     DB          
      1.44937029E-09    3      1000022         4        -3             # W2SS+  -->  Z1SS   CH     SB          
      8.72643957E-10    3      1000022       -11        12             # W2SS+  -->  Z1SS   E+     NUE         
      8.72643957E-10    3      1000022       -13        14             # W2SS+  -->  Z1SS   MU+    NUM         
      1.19448205E-05    3      1000022       -15        16             # W2SS+  -->  Z1SS   TAU+   NUT         
      2.42567673E-01    2      1000022        24                       # W2SS+  -->  Z1SS   W+                 
      9.25628130E-10    3      1000023         2        -1             # W2SS+  -->  Z2SS   UP     DB          
      9.25628130E-10    3      1000023         4        -3             # W2SS+  -->  Z2SS   CH     SB          
      4.48597631E-10    3      1000023       -11        12             # W2SS+  -->  Z2SS   E+     NUE         
      4.48597631E-10    3      1000023       -13        14             # W2SS+  -->  Z2SS   MU+    NUM         
      1.03769826E-05    3      1000023       -15        16             # W2SS+  -->  Z2SS   TAU+   NUT         
      2.45843619E-01    2      1000023        24                       # W2SS+  -->  Z2SS   W+                 
      2.71885137E-09    3      1000025         2        -1             # W2SS+  -->  Z3SS   UP     DB          
      2.71885137E-09    3      1000025         4        -3             # W2SS+  -->  Z3SS   CH     SB          
      1.01896287E-08    3      1000025       -11        12             # W2SS+  -->  Z3SS   E+     NUE         
      1.01896287E-08    3      1000025       -13        14             # W2SS+  -->  Z3SS   MU+    NUM         
      1.14727330E-08    3      1000025       -15        16             # W2SS+  -->  Z3SS   TAU+   NUT         
      1.10058878E-02    2      1000025        24                       # W2SS+  -->  Z3SS   W+                 
      2.44760454E-01    2      1000024        23                       # W2SS+  -->  W1SS+  Z0                 
      4.61594940E-09    3      1000024         1        -1             # W2SS+  -->  W1SS+  DN     DB          
      4.61594940E-09    3      1000024         3        -3             # W2SS+  -->  W1SS+  ST     SB          
      1.78623019E-10    3      1000024         2        -2             # W2SS+  -->  W1SS+  UP     UB          
      1.78623019E-10    3      1000024         4        -4             # W2SS+  -->  W1SS+  CH     CB          
      7.45438017E-11    3      1000024        12       -12             # W2SS+  -->  W1SS+  NUE    ANUE        
      7.45438017E-11    3      1000024        14       -14             # W2SS+  -->  W1SS+  NUM    ANUM        
      1.12447385E-10    3      1000024        16       -16             # W2SS+  -->  W1SS+  NUT    ANUT        
      1.91869209E-09    3      1000024        11       -11             # W2SS+  -->  W1SS+  E-     E+          
      1.91869209E-09    3      1000024        13       -13             # W2SS+  -->  W1SS+  MU-    MU+         
      2.03631534E-09    3      1000024        15       -15             # W2SS+  -->  W1SS+  TAU-   TAU+        
      2.55800039E-01    2      1000024        25                       # W2SS+  -->  W1SS+  HL0                
#         PDG         Width
DECAY        25  3.90293449E-03   # HL0   decays
#          BR          NDA       ID1       ID2       ID3       ID4
      5.69662983E-09    2           11       -11                       # HL0    -->  E-     E+                 
      2.40520967E-04    2           13       -13                       # HL0    -->  MU-    MU+                
      6.88055232E-02    2           15       -15                       # HL0    -->  TAU-   TAU+               
      7.14108728E-06    2            1        -1                       # HL0    -->  DN     DB                 
      2.88535748E-03    2            3        -3                       # HL0    -->  ST     SB                 
      6.18205428E-01    2            5        -5                       # HL0    -->  BT     BB                 
      2.18072364E-06    2            2        -2                       # HL0    -->  UP     UB                 
      4.05378528E-02    2            4        -4                       # HL0    -->  CH     CB                 
      2.67579104E-03    2           22        22                       # HL0    -->  GM     GM                 
      5.26984408E-02    2           21        21                       # HL0    -->  GL     GL                 
      1.06990393E-02    3           24        11       -12             # HL0    -->  W+     E-     ANUE        
      1.06990393E-02    3           24        13       -14             # HL0    -->  W+     MU-    ANUM        
      1.06990393E-02    3           24        15       -16             # HL0    -->  W+     TAU-   ANUT        
      3.20971161E-02    3           24        -2         1             # HL0    -->  W+     UB     DN          
      3.20971161E-02    3           24        -4         3             # HL0    -->  W+     CB     ST          
      1.06990393E-02    3          -24       -11        12             # HL0    -->  W-     E+     NUE         
      1.06990393E-02    3          -24       -13        14             # HL0    -->  W-     MU+    NUM         
      1.06990393E-02    3          -24       -15        16             # HL0    -->  W-     TAU+   NUT         
      3.20971161E-02    3          -24         2        -1             # HL0    -->  W-     UP     DB          
      3.20971161E-02    3          -24         4        -3             # HL0    -->  W-     CH     SB          
      1.46074325E-03    3           23        12       -12             # HL0    -->  Z0     NUE    ANUE        
      1.46074325E-03    3           23        14       -14             # HL0    -->  Z0     NUM    ANUM        
      1.46074325E-03    3           23        16       -16             # HL0    -->  Z0     NUT    ANUT        
      7.35177367E-04    3           23        11       -11             # HL0    -->  Z0     E-     E+          
      7.35177367E-04    3           23        13       -13             # HL0    -->  Z0     MU-    MU+         
      7.35177367E-04    3           23        15       -15             # HL0    -->  Z0     TAU-   TAU+        
      2.51865550E-03    3           23         2        -2             # HL0    -->  Z0     UP     UB          
      2.51865550E-03    3           23         4        -4             # HL0    -->  Z0     CH     CB          
      3.24464869E-03    3           23         1        -1             # HL0    -->  Z0     DN     DB          
      3.24464869E-03    3           23         3        -3             # HL0    -->  Z0     ST     SB          
      3.24464869E-03    3           23         5        -5             # HL0    -->  Z0     BT     BB          
#         PDG         Width
DECAY        35  4.27744102E+00   # HH0   decays
#          BR          NDA       ID1       ID2       ID3       ID4
      8.99674824E-09    2           11       -11                       # HH0    -->  E-     E+                 
      3.79858917E-04    2           13       -13                       # HH0    -->  MU-    MU+                
      1.08795390E-01    2           15       -15                       # HH0    -->  TAU-   TAU+               
      1.10210576E-05    2            1        -1                       # HH0    -->  DN     DB                 
      4.45306487E-03    2            3        -3                       # HH0    -->  ST     SB                 
      6.64128542E-01    2            5        -5                       # HH0    -->  BT     BB                 
      7.29851388E-11    2            2        -2                       # HH0    -->  UP     UB                 
      1.02784907E-06    2            4        -4                       # HH0    -->  CH     CB                 
      4.68880311E-02    2            6        -6                       # HH0    -->  TP     TB                 
      2.20331970E-07    2           22        22                       # HH0    -->  GM     GM                 
      2.20210950E-05    2           21        21                       # HH0    -->  GL     GL                 
      1.83377109E-04    2           24       -24                       # HH0    -->  W+     W-                 
      9.31035174E-05    2           23        23                       # HH0    -->  Z0     Z0                 
      9.11000278E-03    2      1000022   1000022                       # HH0    -->  Z1SS   Z1SS               
      9.87453852E-04    2      1000022   1000023                       # HH0    -->  Z1SS   Z2SS               
      5.09547479E-02    2      1000022   1000025                       # HH0    -->  Z1SS   Z3SS               
      4.59883455E-03    2      1000023   1000023                       # HH0    -->  Z2SS   Z2SS               
      8.77913758E-02    2      1000023   1000025                       # HH0    -->  Z2SS   Z3SS               
      2.09269691E-02    2      1000024  -1000024                       # HH0    -->  W1SS+  W1SS-              
      6.75019750E-04    2           25        25                       # HH0    -->  HL0    HL0                
#         PDG         Width
DECAY        36  4.26512909E+00   # HA0   decays
#          BR          NDA       ID1       ID2       ID3       ID4
      8.96485020E-09    2           11       -11                       # HA0    -->  E-     E+                 
      3.78512166E-04    2           13       -13                       # HA0    -->  MU-    MU+                
      1.08411007E-01    2           15       -15                       # HA0    -->  TAU-   TAU+               
      1.09825878E-05    2            1        -1                       # HA0    -->  DN     DB                 
      4.43752157E-03    2            3        -3                       # HA0    -->  ST     SB                 
      6.61840022E-01    2            5        -5                       # HA0    -->  BT     BB                 
      6.94139191E-11    2            2        -2                       # HA0    -->  UP     UB                 
      9.78324920E-07    2            4        -4                       # HA0    -->  CH     CB                 
      4.95710000E-02    2            6        -6                       # HA0    -->  TP     TB                 
      1.74675748E-07    2           22        22                       # HA0    -->  GM     GM                 
      6.92850881E-05    2           21        21                       # HA0    -->  GL     GL                 
      1.23092085E-02    2      1000022   1000022                       # HA0    -->  Z1SS   Z1SS               
      2.22394578E-04    2      1000022   1000023                       # HA0    -->  Z1SS   Z2SS               
      8.99655223E-02    2      1000022   1000025                       # HA0    -->  Z1SS   Z3SS               
      3.66170844E-03    2      1000023   1000023                       # HA0    -->  Z2SS   Z2SS               
      4.57389243E-02    2      1000023   1000025                       # HA0    -->  Z2SS   Z3SS               
      2.32066028E-02    2      1000024  -1000024                       # HA0    -->  W1SS+  W1SS-              
      1.76350979E-04    2           25        23                       # HA0    -->  HL0    Z0                 
#         PDG         Width
DECAY        37  3.78647566E+00   # H+    decays
#          BR          NDA       ID1       ID2       ID3       ID4
      1.01307132E-08    2           12       -11                       # H+     -->  NUE    E+                 
      4.27736988E-04    2           14       -13                       # H+     -->  NUM    MU+                
      1.22509666E-01    2           16       -15                       # H+     -->  NUT    TAU+               
      1.14075565E-05    2            2        -1                       # H+     -->  UP     DB                 
      4.61019948E-03    2            4        -3                       # H+     -->  CH     SB                 
      6.96269989E-01    2            6        -5                       # H+     -->  TP     BB                 
      4.02905061E-05    2      1000024   1000022                       # H+     -->  W1SS+  Z1SS               
      1.82048220E-03    2      1000024   1000023                       # H+     -->  W1SS+  Z2SS               
      1.74111053E-01    2      1000024   1000025                       # H+     -->  W1SS+  Z3SS               
      1.99209855E-04    2           25        24                       # H+     -->  HL0    W+                 
