#  ISAJET SUSY parameters in SUSY Les Houches Accord 2 format
#  Created by ISALHA 2.0 Last revision: H Baer 27 May 2014
Block SPINFO   # Program information
     1   ISASUGRA/ISASUSY from ISAJET   # Spectrum Calculator
     2   7.87   18-JUL-2017 13:55:55    # Version number
Block MODSEL   # Model selection
     1    13   # Non-universal supergravity model                  
Block SMINPUTS   # Standard Model inputs
     1     1.28000000E+02   # alpha_em^(-1)
     2     1.16570000E-05   # G_Fermi
     3     1.19999997E-01   # alpha_s(M_Z)
     4     9.11699982E+01   # m_{Z}(pole)
     5     4.19999981E+00   # m_{b}(m_{b})
     6     1.72500000E+02   # m_{top}(pole)
     7     1.77699995E+00   # m_{tau}(pole)
Block MINPAR   # SUSY breaking input parameters
     1     5.00000000E+03   # m_0
     2     5.00000000E+03   # m_{1/2}
     3     1.50000000E+01   # tan(beta)
     4     1.00000000E+00   # sign(mu)
     5    -8.00000000E+03   # A_0
Block EXTPAR   # Non-universal SUSY breaking parameters
     0     1.06933862E+16   # Input scale
    21    -5.63246150E+06   # Down type Higgs mass squared
    22     8.28499040E+07   #  Up  type Higgs mass squared
Block MASS   # Scalar and gaugino mass spectrum
#  PDG code   mass                 particle
         6     1.72500000E+02   #  top            
        24     8.04229965E+01   #  W^+
        25     1.25660751E+02   #  h^0            
        35     1.00666907E+03   #  H^0            
        36     1.00000000E+03   #  A^0            
        37     1.00322870E+03   #  H^+            
   1000001     1.01549355E+04   #  dnl            
   1000002     1.01546045E+04   #  upl            
   1000003     1.01549355E+04   #  stl            
   1000004     1.01546045E+04   #  chl            
   1000005     8.41531641E+03   #  b1             
   1000006     5.94287158E+03   #  t1             
   1000011     6.12114453E+03   #  el-            
   1000012     6.11776074E+03   #  nuel           
   1000013     6.12114453E+03   #  mul-           
   1000014     6.11776074E+03   #  numl           
   1000015     4.71385840E+03   #  tau1           
   1000016     6.04131494E+03   #  nutl           
   1000021     1.00087002E+04   #  glss           
   1000022     1.34740326E+02   #  z1ss           
   1000023    -1.36867996E+02   #  z2ss           
   1000024     1.41927795E+02   #  w1ss           
   1000025     2.27190430E+03   #  z3ss           
   1000035     4.17407373E+03   #  z4ss           
   1000037     4.12509277E+03   #  w2ss           
   1000039     1.00000002E+20   #  gvss
   2000001     9.71046289E+03   #  dnr            
   2000002     9.97956836E+03   #  upr            
   2000003     9.71046289E+03   #  str            
   2000004     9.97956836E+03   #  chr            
   2000005     9.48019336E+03   #  b2             
   2000006     8.43308203E+03   #  t2             
   2000011     4.89720654E+03   #  er-            
   2000013     4.89720654E+03   #  mur-           
   2000015     6.04309375E+03   #  tau2           
Block ALPHA   # Effective Higgs mixing parameter
         -6.81600124E-02   # alpha
Block STOPMIX   # stop mixing matrix
  1  1     4.23492603E-02   # O_{11}
  1  2     9.99102890E-01   # O_{12}
  2  1    -9.99102890E-01   # O_{21}
  2  2     4.23492603E-02   # O_{22}
Block SBOTMIX   # sbottom mixing matrix
  1  1     9.99983788E-01   # O_{11}
  1  2     5.69935190E-03   # O_{12}
  2  1    -5.69935190E-03   # O_{21}
  2  2     9.99983788E-01   # O_{22}
Block STAUMIX   # stau mixing matrix
  1  1     8.85919610E-04   # O_{11}
  1  2     9.99999583E-01   # O_{12}
  2  1    -9.99999583E-01   # O_{21}
  2  2     8.85919610E-04   # O_{22}
Block NMIX   # neutralino mixing matrix
  1  1     1.45273339E-02   #
  1  2    -1.42756347E-02   #
  1  3     7.09768295E-01   #
  1  4    -7.04140782E-01   #
  2  1    -1.12812454E-02   #
  2  2     1.09749511E-02   #
  2  3     7.04427361E-01   #
  2  4     7.09601641E-01   #
  3  1     9.99821484E-01   #
  3  2     4.65872139E-03   #
  3  3    -2.35420140E-03   #
  3  4     1.81601420E-02   #
  4  1    -4.32743877E-03   #
  4  2     9.99827027E-01   #
  4  3     2.41276086E-03   #
  4  4    -1.79276746E-02   #
Block UMIX   # chargino U mixing matrix
  1  1    -2.89001851E-03   # U_{11}
  1  2     9.99995828E-01   # U_{12}
  2  1    -9.99995828E-01   # U_{21}
  2  2    -2.89001851E-03   # U_{22}
Block VMIX   # chargino V mixing matrix
  1  1    -2.66131051E-02   # V_{11}
  1  2     9.99645829E-01   # V_{12}
  2  1    -9.99645829E-01   # V_{21}
  2  2    -2.66131051E-02   # V_{22}
Block GAUGE Q=  6.91310254E+03   #
     1     3.57520550E-01   # g`
     2     6.52391195E-01   # g_2
     3     1.21951580E+00   # g_3
Block YU Q=  6.91310254E+03   #
  3  3     7.93503642E-01   # y_t
Block YD Q=  6.91310254E+03   #
  3  3     1.76379889E-01   # y_b
Block YE Q=  6.91310254E+03   #
  3  3     1.47890836E-01   # y_tau
Block HMIX Q=  6.91310254E+03   # Higgs mixing parameters
     1     1.30000000E+02   # mu(Q)
     2     1.41991224E+01   # tan(beta)(Q)
     3     2.52928253E+02   # Higgs vev at Q
     4     1.00000000E+06   # m_A^2(Q)
Block MSOFT Q=  6.91310254E+03   # DRbar SUSY breaking parameters
     1     2.28831445E+03   # M_1(Q)          
     2     4.05683667E+03   # M_2(Q)          
     3     9.54761621E+03   # M_3(Q)          
    21     9.91848063E+05   # MHd^2(Q)        
    22     3.48258656E+05   # MHu^2(Q)        
    31     6.08669629E+03   # MeL(Q)          
    32     6.08669629E+03   # MmuL(Q)         
    33     6.01235693E+03   # MtauL(Q)        
    34     4.89180273E+03   # MeR(Q)          
    35     4.89180273E+03   # MmuR(Q)         
    36     4.71116650E+03   # MtauR(Q)        
    41     9.66804883E+03   # MqL1(Q)         
    42     9.66804883E+03   # MqL2(Q)         
    43     8.11676660E+03   # MqL3(Q)         
    44     9.49551172E+03   # MuR(Q)          
    45     9.49551172E+03   # McR(Q)          
    46     5.88793359E+03   # MtR(Q)          
    47     9.23168555E+03   # MdR(Q)          
    48     9.23168555E+03   # MsR(Q)          
    49     9.16462207E+03   # MbR(Q)          
Block AU Q=  6.91310254E+03   #
  1  1    -1.05859307E+04   # A_u
  2  2    -1.05859307E+04   # A_c
  3  3    -1.05859307E+04   # A_t
Block AD Q=  6.91310254E+03   #
  1  1    -1.70605195E+04   # A_d
  2  2    -1.70605195E+04   # A_s
  3  3    -1.70605195E+04   # A_b
Block AE Q=  6.91310254E+03   #
  1  1    -1.03431836E+04   # A_e
  2  2    -1.03431836E+04   # A_mu
  3  3    -1.03431836E+04   # A_tau
#  ISAJET decay tables in SUSY Les Houches accord format
#  Created by ISALHD. Last revision: C. Balazs, 2005 May 25
Block DCINFO                           # Program information
     1   ISASUGRA from ISAJET          # Spectrum Calculator
     2   7.87   18-JUL-2017 13:55:55   # Version number
#         PDG         Width
DECAY         6  1.46776152E+00   # TP    decays
#          BR          NDA       ID1       ID2       ID3       ID4
      3.33333313E-01    3            2        -1         5             # TP     -->  UP     DB     BT          
      3.33333313E-01    3            4        -3         5             # TP     -->  CH     SB     BT          
      1.11111097E-01    3          -11        12         5             # TP     -->  E+     NUE    BT          
      1.11111097E-01    3          -13        14         5             # TP     -->  MU+    NUM    BT          
      1.11111097E-01    3          -15        16         5             # TP     -->  TAU+   NUT    BT          
#         PDG         Width
DECAY   1000021  1.13586510E+02   # GLSS  decays
#          BR          NDA       ID1       ID2       ID3       ID4
      5.84020427E-07    3      1000024         1        -2             # GLSS   -->  W1SS+  DN     UB          
      5.84020427E-07    3     -1000024         2        -1             # GLSS   -->  W1SS-  UP     DB          
      5.84020427E-07    3      1000024         3        -4             # GLSS   -->  W1SS+  ST     CB          
      5.84020427E-07    3     -1000024         4        -3             # GLSS   -->  W1SS-  CH     SB          
      9.51362948E-04    3      1000037         1        -2             # GLSS   -->  W2SS+  DN     UB          
      9.51362948E-04    3     -1000037         2        -1             # GLSS   -->  W2SS-  UP     DB          
      9.51362948E-04    3      1000037         3        -4             # GLSS   -->  W2SS+  ST     CB          
      9.51362948E-04    3     -1000037         4        -3             # GLSS   -->  W2SS-  CH     SB          
      4.51163662E-10    2      1000022        21                       # GLSS   -->  Z1SS   GL                 
      1.09752889E-07    3      1000022         2        -2             # GLSS   -->  Z1SS   UP     UB          
      2.33297328E-07    3      1000022         1        -1             # GLSS   -->  Z1SS   DN     DB          
      2.33297328E-07    3      1000022         3        -3             # GLSS   -->  Z1SS   ST     SB          
      1.09752889E-07    3      1000022         4        -4             # GLSS   -->  Z1SS   CH     CB          
      2.81166090E-10    2      1000023        21                       # GLSS   -->  Z2SS   GL                 
      6.45529425E-08    3      1000023         2        -2             # GLSS   -->  Z2SS   UP     UB          
      1.38292833E-07    3      1000023         1        -1             # GLSS   -->  Z2SS   DN     DB          
      1.38292833E-07    3      1000023         3        -3             # GLSS   -->  Z2SS   ST     SB          
      6.45529425E-08    3      1000023         4        -4             # GLSS   -->  Z2SS   CH     CB          
      1.43545765E-06    2      1000025        21                       # GLSS   -->  Z3SS   GL                 
      2.86095074E-05    3      1000025         2        -2             # GLSS   -->  Z3SS   UP     UB          
      2.58288273E-05    3      1000025         1        -1             # GLSS   -->  Z3SS   DN     DB          
      2.58288273E-05    3      1000025         3        -3             # GLSS   -->  Z3SS   ST     SB          
      2.86095074E-05    3      1000025         4        -4             # GLSS   -->  Z3SS   CH     CB          
      9.41473635E-12    2      1000035        21                       # GLSS   -->  Z4SS   GL                 
      7.80962524E-04    3      1000035         2        -2             # GLSS   -->  Z4SS   UP     UB          
      7.83047813E-04    3      1000035         1        -1             # GLSS   -->  Z4SS   DN     DB          
      7.83047813E-04    3      1000035         3        -3             # GLSS   -->  Z4SS   ST     SB          
      7.80962524E-04    3      1000035         4        -4             # GLSS   -->  Z4SS   CH     CB          
      2.77258750E-05    2     -2000002         2                       # GLSS   -->  UBR    UP                 
      2.77258750E-05    2      2000002        -2                       # GLSS   -->  UPR    UB                 
      2.82814261E-03    2     -2000001         1                       # GLSS   -->  DBR    DN                 
      2.82814261E-03    2      2000001        -1                       # GLSS   -->  DNR    DB                 
      2.82814214E-03    2     -2000003         3                       # GLSS   -->  SBR    ST                 
      2.82814214E-03    2      2000003        -3                       # GLSS   -->  STR    SB                 
      2.76961782E-05    2     -2000004         4                       # GLSS   -->  CBR    CH                 
      2.76961782E-05    2      2000004        -4                       # GLSS   -->  CHR    CB                 
      7.04678297E-02    2     -1000005         5                       # GLSS   -->  BB1    BT                 
      7.04678297E-02    2      1000005        -5                       # GLSS   -->  BT1    BB                 
      8.67572520E-03    2     -2000005         5                       # GLSS   -->  BB2    BT                 
      8.67572520E-03    2      2000005        -5                       # GLSS   -->  BT2    BB                 
      3.42237651E-01    2     -1000006         6                       # GLSS   -->  TB1    TP                 
      3.42237651E-01    2      1000006        -6                       # GLSS   -->  TP1    TB                 
      6.93834871E-02    2     -2000006         6                       # GLSS   -->  TB2    TP                 
      6.93834871E-02    2      2000006        -6                       # GLSS   -->  TP2    TB                 
#         PDG         Width
DECAY   1000002  9.08624954E+01   # UPL   decays
#          BR          NDA       ID1       ID2       ID3       ID4
      6.34323078E-05    2      1000022         2                       # UPL    -->  Z1SS   UP                 
      3.73170624E-05    2      1000023         2                       # UPL    -->  Z2SS   UP                 
      1.49771990E-02    2      1000025         2                       # UPL    -->  Z3SS   UP                 
      3.24258089E-01    2      1000035         2                       # UPL    -->  Z4SS   UP                 
      4.51256009E-03    2      1000021         2                       # UPL    -->  GLSS   UP                 
      6.66103733E-04    2      1000024         1                       # UPL    -->  W1SS+  DN                 
      6.55485332E-01    2      1000037         1                       # UPL    -->  W2SS+  DN                 
#         PDG         Width
DECAY   1000001  9.08238373E+01   # DNL   decays
#          BR          NDA       ID1       ID2       ID3       ID4
      1.34963659E-04    2      1000022         1                       # DNL    -->  Z1SS   DN                 
      8.00209382E-05    2      1000023         1                       # DNL    -->  Z2SS   DN                 
      1.35344574E-02    2      1000025         1                       # DNL    -->  Z3SS   DN                 
      3.25445920E-01    2      1000035         1                       # DNL    -->  Z4SS   DN                 
      4.53467108E-03    2      1000021         1                       # DNL    -->  GLSS   DN                 
      7.85870543E-06    2     -1000024         2                       # DNL    -->  W1SS-  UP                 
      6.56262100E-01    2     -1000037         2                       # DNL    -->  W2SS-  UP                 
#         PDG         Width
DECAY   1000003  9.08238297E+01   # STL   decays
#          BR          NDA       ID1       ID2       ID3       ID4
      1.34963659E-04    2      1000022         3                       # STL    -->  Z1SS   ST                 
      8.00209455E-05    2      1000023         3                       # STL    -->  Z2SS   ST                 
      1.35344593E-02    2      1000025         3                       # STL    -->  Z3SS   ST                 
      3.25445950E-01    2      1000035         3                       # STL    -->  Z4SS   ST                 
      4.53467155E-03    2      1000021         3                       # STL    -->  GLSS   ST                 
      7.85870543E-06    2     -1000024         4                       # STL    -->  W1SS-  CH                 
      6.56262040E-01    2     -1000037         4                       # STL    -->  W2SS-  CH                 
#         PDG         Width
DECAY   1000004  9.08624802E+01   # CHL   decays
#          BR          NDA       ID1       ID2       ID3       ID4
      6.34323223E-05    2      1000022         4                       # CHL    -->  Z1SS   CH                 
      3.73170660E-05    2      1000023         4                       # CHL    -->  Z2SS   CH                 
      1.49772018E-02    2      1000025         4                       # CHL    -->  Z3SS   CH                 
      3.24258149E-01    2      1000035         4                       # CHL    -->  Z4SS   CH                 
      4.51236544E-03    2      1000021         4                       # CHL    -->  GLSS   CH                 
      6.66103850E-04    2      1000024         3                       # CHL    -->  W1SS+  ST                 
      6.55485451E-01    2      1000037         3                       # CHL    -->  W2SS+  ST                 
#         PDG         Width
DECAY   1000005  2.55074097E+02   # BT1   decays
#          BR          NDA       ID1       ID2       ID3       ID4
      1.09202601E-02    2      1000022         5                       # BT1    -->  Z1SS   BT                 
      1.07234940E-02    2      1000023         5                       # BT1    -->  Z2SS   BT                 
      3.80374771E-03    2      1000025         5                       # BT1    -->  Z3SS   BT                 
      7.90405497E-02    2      1000035         5                       # BT1    -->  Z4SS   BT                 
      3.90709996E-01    2     -1000024         6                       # BT1    -->  W1SS-  TP                 
      1.60491392E-01    2     -1000037         6                       # BT1    -->  W2SS-  TP                 
      3.42941642E-01    2          -24   1000006                       # BT1    -->  W-     TP1                
      1.36895920E-03    2          -37   1000006                       # BT1    -->  H-     TP1                
#         PDG         Width
DECAY   1000006  1.50582245E+02   # TP1   decays
#          BR          NDA       ID1       ID2       ID3       ID4
      2.31958687E-01    2      1000022         6                       # TP1    -->  Z1SS   TP                 
      2.35530004E-01    2      1000023         6                       # TP1    -->  Z2SS   TP                 
      6.48806766E-02    2      1000025         6                       # TP1    -->  Z3SS   TP                 
      6.33345371E-06    2      1000035         6                       # TP1    -->  Z4SS   TP                 
      4.67613965E-01    2      1000024         5                       # TP1    -->  W1SS+  BT                 
      1.03375887E-05    2      1000037         5                       # TP1    -->  W2SS+  BT                 
#         PDG         Width
DECAY   2000002  2.02823181E+01   # UPR   decays
#          BR          NDA       ID1       ID2       ID3       ID4
      2.34651801E-04    2      1000022         2                       # UPR    -->  Z1SS   UP                 
      1.41501543E-04    2      1000023         2                       # UPR    -->  Z2SS   UP                 
      9.99609649E-01    2      1000025         2                       # UPR    -->  Z3SS   UP                 
      1.41788214E-05    2      1000035         2                       # UPR    -->  Z4SS   UP                 
#         PDG         Width
DECAY   2000001  4.90359592E+00   # DNR   decays
#          BR          NDA       ID1       ID2       ID3       ID4
      2.36094624E-04    2      1000022         1                       # DNR    -->  Z1SS   DN                 
      1.42371500E-04    2      1000023         1                       # DNR    -->  Z2SS   DN                 
      9.99607623E-01    2      1000025         1                       # DNR    -->  Z3SS   DN                 
      1.39283502E-05    2      1000035         1                       # DNR    -->  Z4SS   DN                 
#         PDG         Width
DECAY   2000003  4.90359592E+00   # STR   decays
#          BR          NDA       ID1       ID2       ID3       ID4
      2.36094624E-04    2      1000022         3                       # STR    -->  Z1SS   ST                 
      1.42371500E-04    2      1000023         3                       # STR    -->  Z2SS   ST                 
      9.99607623E-01    2      1000025         3                       # STR    -->  Z3SS   ST                 
      1.39283502E-05    2      1000035         3                       # STR    -->  Z4SS   ST                 
#         PDG         Width
DECAY   2000004  2.02823181E+01   # CHR   decays
#          BR          NDA       ID1       ID2       ID3       ID4
      2.34651801E-04    2      1000022         4                       # CHR    -->  Z1SS   CH                 
      1.41501543E-04    2      1000023         4                       # CHR    -->  Z2SS   CH                 
      9.99609649E-01    2      1000025         4                       # CHR    -->  Z3SS   CH                 
      1.41788214E-05    2      1000035         4                       # CHR    -->  Z4SS   CH                 
#         PDG         Width
DECAY   2000005  3.22081032E+01   # BT2   decays
#          BR          NDA       ID1       ID2       ID3       ID4
      9.69421193E-02    2      1000022         5                       # BT2    -->  Z1SS   BT                 
      9.56279412E-02    2      1000023         5                       # BT2    -->  Z2SS   BT                 
      1.47737667E-01    2      1000025         5                       # BT2    -->  Z3SS   BT                 
      3.76993994E-05    2      1000035         5                       # BT2    -->  Z4SS   BT                 
      1.92489654E-01    2     -1000024         6                       # BT2    -->  W1SS-  TP                 
      6.89672961E-05    2     -1000037         6                       # BT2    -->  W2SS-  TP                 
      2.24160278E-04    2          -24   1000006                       # BT2    -->  W-     TP1                
      5.02970675E-03    2          -24   2000006                       # BT2    -->  W-     TP2                
      2.67090066E-03    2           23   1000005                       # BT2    -->  Z0     BT1                
      2.11622915E-03    2           25   1000005                       # BT2    -->  HL0    BT1                
      1.26831442E-01    2           36   1000005                       # BT2    -->  HA0    BT1                
      1.20281629E-01    2           35   1000005                       # BT2    -->  HH0    BT1                
      2.04189867E-03    2          -37   1000006                       # BT2    -->  H-     TP1                
      2.07900017E-01    2          -37   2000006                       # BT2    -->  H-     TP2                
#         PDG         Width
DECAY   2000006  2.77531372E+02   # TP2   decays
#          BR          NDA       ID1       ID2       ID3       ID4
      1.99807584E-02    2      1000024         5                       # TP2    -->  W1SS+  BT                 
      1.48063943E-01    2      1000037         5                       # TP2    -->  W2SS+  BT                 
      1.62358910E-01    2           23   1000006                       # TP2    -->  Z0     TP1                
      2.31775120E-01    2           25   1000006                       # TP2    -->  HL0    TP1                
      6.62728387E-04    2           35   1000006                       # TP2    -->  HH0    TP1                
      6.30663300E-04    2           36   1000006                       # TP2    -->  HA0    TP1                
      1.78302050E-01    2      1000022         6                       # TP2    -->  Z1SS   TP                 
      1.81119695E-01    2      1000023         6                       # TP2    -->  Z2SS   TP                 
      4.20322036E-03    2      1000025         6                       # TP2    -->  Z3SS   TP                 
      7.29027763E-02    2      1000035         6                       # TP2    -->  Z4SS   TP                 
#         PDG         Width
DECAY   1000011  2.85760498E+01   # EL-   decays
#          BR          NDA       ID1       ID2       ID3       ID4
      3.56513156E-05    2      1000022        11                       # EL-    -->  Z1SS   E-                 
      2.05339002E-05    2      1000023        11                       # EL-    -->  Z2SS   E-                 
      2.05876097E-01    2      1000025        11                       # EL-    -->  Z3SS   E-                 
      2.56760150E-01    2      1000035        11                       # EL-    -->  Z4SS   E-                 
      1.50455026E-05    2     -1000024        12                       # EL-    -->  W1SS-  NUE                
      5.37292540E-01    2     -1000037        12                       # EL-    -->  W2SS-  NUE                
#         PDG         Width
DECAY   1000013  2.85760498E+01   # MUL-  decays
#          BR          NDA       ID1       ID2       ID3       ID4
      3.56513156E-05    2      1000022        13                       # MUL-   -->  Z1SS   MU-                
      2.05339002E-05    2      1000023        13                       # MUL-   -->  Z2SS   MU-                
      2.05876097E-01    2      1000025        13                       # MUL-   -->  Z3SS   MU-                
      2.56760150E-01    2      1000035        13                       # MUL-   -->  Z4SS   MU-                
      1.50455026E-05    2     -1000024        14                       # MUL-   -->  W1SS-  NUM                
      5.37292540E-01    2     -1000037        14                       # MUL-   -->  W2SS-  NUM                
#         PDG         Width
DECAY   1000015  1.84639626E+01   # TAU1- decays
#          BR          NDA       ID1       ID2       ID3       ID4
      5.93576953E-02    2      1000022        15                       # TAU1-  -->  Z1SS   TAU-               
      5.83428442E-02    2      1000023        15                       # TAU1-  -->  Z2SS   TAU-               
      7.65053630E-01    2      1000025        15                       # TAU1-  -->  Z3SS   TAU-               
      1.13347039E-06    2      1000035        15                       # TAU1-  -->  Z4SS   TAU-               
      1.17244780E-01    2     -1000024        16                       # TAU1-  -->  W1SS-  NUT                
      5.21442489E-09    2     -1000037        16                       # TAU1-  -->  W2SS-  NUT                
#         PDG         Width
DECAY   1000012  2.84338436E+01   # NUEL  decays
#          BR          NDA       ID1       ID2       ID3       ID4
      4.48336708E-04    2      1000022        12                       # NUEL   -->  Z1SS   NUE                
      2.66898336E-04    2      1000023        12                       # NUEL   -->  Z2SS   NUE                
      1.99825570E-01    2      1000025        12                       # NUEL   -->  Z3SS   NUE                
      2.59866834E-01    2      1000035        12                       # NUEL   -->  Z4SS   NUE                
      1.28151139E-03    2      1000024        11                       # NUEL   -->  W1SS+  E-                 
      5.38310885E-01    2      1000037        11                       # NUEL   -->  W2SS+  E-                 
#         PDG         Width
DECAY   1000014  2.84338436E+01   # NUML  decays
#          BR          NDA       ID1       ID2       ID3       ID4
      4.48336708E-04    2      1000022        14                       # NUML   -->  Z1SS   NUM                
      2.66898336E-04    2      1000023        14                       # NUML   -->  Z2SS   NUM                
      1.99825570E-01    2      1000025        14                       # NUML   -->  Z3SS   NUM                
      2.59866834E-01    2      1000035        14                       # NUML   -->  Z4SS   NUM                
      1.28151139E-03    2      1000024        13                       # NUML   -->  W1SS+  MU-                
      5.38310885E-01    2      1000037        13                       # NUML   -->  W2SS+  MU-                
#         PDG         Width
DECAY   1000016  3.19456940E+01   # NUTL  decays
#          BR          NDA       ID1       ID2       ID3       ID4
      3.94054048E-04    2      1000022        16                       # NUTL   -->  Z1SS   NUT                
      2.34583247E-04    2      1000023        16                       # NUTL   -->  Z2SS   NUT                
      1.74207687E-01    2      1000025        16                       # NUTL   -->  Z3SS   NUT                
      2.18388379E-01    2      1000035        16                       # NUTL   -->  Z4SS   NUT                
      8.80341232E-02    2      1000024        15                       # NUTL   -->  W1SS+  TAU-               
      4.53267753E-01    2      1000037        15                       # NUTL   -->  W2SS+  TAU-               
      2.09852820E-04    2           24   1000015                       # NUTL   -->  W+     TAU1-              
      6.52635992E-02    2           37   1000015                       # NUTL   -->  H+     TAU1-              
#         PDG         Width
DECAY   2000011  1.53435907E+01   # ER-   decays
#          BR          NDA       ID1       ID2       ID3       ID4
      3.42085230E-04    2      1000022        11                       # ER-    -->  Z1SS   E-                 
      2.06279277E-04    2      1000023        11                       # ER-    -->  Z2SS   E-                 
      9.99449313E-01    2      1000025        11                       # ER-    -->  Z3SS   E-                 
      2.27437272E-06    2      1000035        11                       # ER-    -->  Z4SS   E-                 
#         PDG         Width
DECAY   2000013  1.53435907E+01   # MUR-  decays
#          BR          NDA       ID1       ID2       ID3       ID4
      3.42085230E-04    2      1000022        13                       # MUR-   -->  Z1SS   MU-                
      2.06279277E-04    2      1000023        13                       # MUR-   -->  Z2SS   MU-                
      9.99449313E-01    2      1000025        13                       # MUR-   -->  Z3SS   MU-                
      2.27437272E-06    2      1000035        13                       # MUR-   -->  Z4SS   MU-                
#         PDG         Width
DECAY   2000015  3.20716476E+01   # TAU2- decays
#          BR          NDA       ID1       ID2       ID3       ID4
      4.36518006E-02    2      1000022        15                       # TAU2-  -->  Z1SS   TAU-               
      4.29959819E-02    2      1000023        15                       # TAU2-  -->  Z2SS   TAU-               
      1.79597452E-01    2      1000025        15                       # TAU2-  -->  Z3SS   TAU-               
      2.15766311E-01    2      1000035        15                       # TAU2-  -->  Z4SS   TAU-               
      1.14055156E-05    2     -1000024        16                       # TAU2-  -->  W1SS-  NUT                
      4.52401459E-01    2     -1000037        16                       # TAU2-  -->  W2SS-  NUT                
      1.06111096E-04    2           23   1000015                       # TAU2-  -->  Z0     TAU1-              
      3.24920315E-04    2           25   1000015                       # TAU2-  -->  HL0    TAU1-              
      3.27208340E-02    2           36   1000015                       # TAU2-  -->  HA0    TAU1-              
      3.24237756E-02    2           35   1000015                       # TAU2-  -->  HH0    TAU1-              
#         PDG         Width
DECAY   1000023  5.65166768E-11   # Z2SS  decays
#          BR          NDA       ID1       ID2       ID3       ID4
      4.35440660E-01    2      1000022        22                       # Z2SS   -->  Z1SS   GM                 
      9.55236405E-02    3      1000022         2        -2             # Z2SS   -->  Z1SS   UP     UB          
      1.23178378E-01    3      1000022         1        -1             # Z2SS   -->  Z1SS   DN     DB          
      1.23178378E-01    3      1000022         3        -3             # Z2SS   -->  Z1SS   ST     SB          
      2.79429499E-02    3      1000022        11       -11             # Z2SS   -->  Z1SS   E-     E+          
      2.79429499E-02    3      1000022        13       -13             # Z2SS   -->  Z1SS   MU-    MU+         
      5.55976816E-02    3      1000022        12       -12             # Z2SS   -->  Z1SS   NUE    ANUE        
      5.55976816E-02    3      1000022        14       -14             # Z2SS   -->  Z1SS   NUM    ANUM        
      5.55976816E-02    3      1000022        16       -16             # Z2SS   -->  Z1SS   NUT    ANUT        
#         PDG         Width
DECAY   1000025  8.94406605E+00   # Z3SS  decays
#          BR          NDA       ID1       ID2       ID3       ID4
      3.16806918E-08    2      1000022        22                       # Z3SS   -->  Z1SS   GM                 
      3.22293374E-08    2      1000023        22                       # Z3SS   -->  Z2SS   GM                 
      1.44015133E-01    2      1000024       -24                       # Z3SS   -->  W1SS+  W-                 
      1.44015133E-01    2     -1000024        24                       # Z3SS   -->  W1SS-  W+                 
      1.03965729E-01    2      1000024       -37                       # Z3SS   -->  W1SS+  H-                 
      1.03965729E-01    2     -1000024        37                       # Z3SS   -->  W1SS-  H+                 
      5.28850704E-02    2      1000022        23                       # Z3SS   -->  Z1SS   Z0                 
      9.04012620E-02    2      1000023        23                       # Z3SS   -->  Z2SS   Z0                 
      7.07315179E-11    3      1000022         2        -2             # Z3SS   -->  Z1SS   UP     UB          
      1.38330701E-11    3      1000022         1        -1             # Z3SS   -->  Z1SS   DN     DB          
      1.38330701E-11    3      1000022         3        -3             # Z3SS   -->  Z1SS   ST     SB          
      7.07315179E-11    3      1000022         4        -4             # Z3SS   -->  Z1SS   CH     CB          
      9.70985692E-09    3      1000022         5        -5             # Z3SS   -->  Z1SS   BT     BB          
      2.24224617E-09    3      1000022        11       -11             # Z3SS   -->  Z1SS   E-     E+          
      2.24224617E-09    3      1000022        13       -13             # Z3SS   -->  Z1SS   MU-    MU+         
      7.08555433E-07    3      1000022        15       -15             # Z3SS   -->  Z1SS   TAU-   TAU+        
      4.04297595E-10    3      1000022        12       -12             # Z3SS   -->  Z1SS   NUE    ANUE        
      4.04297595E-10    3      1000022        14       -14             # Z3SS   -->  Z1SS   NUM    ANUM        
      4.26447211E-10    3      1000022        16       -16             # Z3SS   -->  Z1SS   NUT    ANUT        
      3.40823064E-11    3      1000023         2        -2             # Z3SS   -->  Z2SS   UP     UB          
      6.60184234E-12    3      1000023         1        -1             # Z3SS   -->  Z2SS   DN     DB          
      6.60184234E-12    3      1000023         3        -3             # Z3SS   -->  Z2SS   ST     SB          
      3.40823064E-11    3      1000023         4        -4             # Z3SS   -->  Z2SS   CH     CB          
      9.55102131E-09    3      1000023         5        -5             # Z3SS   -->  Z2SS   BT     BB          
      1.09395248E-09    3      1000023        11       -11             # Z3SS   -->  Z2SS   E-     E+          
      1.09395248E-09    3      1000023        13       -13             # Z3SS   -->  Z2SS   MU-    MU+         
      6.95959841E-07    3      1000023        15       -15             # Z3SS   -->  Z2SS   TAU-   TAU+        
      1.93773581E-10    3      1000023        12       -12             # Z3SS   -->  Z2SS   NUE    ANUE        
      1.93773581E-10    3      1000023        14       -14             # Z3SS   -->  Z2SS   NUM    ANUM        
      2.04440340E-10    3      1000023        16       -16             # Z3SS   -->  Z2SS   NUT    ANUT        
      9.92737636E-02    2      1000022        25                       # Z3SS   -->  Z1SS   HL0                
      5.11217043E-02    2      1000022        35                       # Z3SS   -->  Z1SS   HH0                
      5.00745066E-02    2      1000022        36                       # Z3SS   -->  Z1SS   HA0                
      6.03270605E-02    2      1000023        25                       # Z3SS   -->  Z2SS   HL0                
      4.90965359E-02    2      1000023        35                       # Z3SS   -->  Z2SS   HH0                
      5.08569777E-02    2      1000023        36                       # Z3SS   -->  Z2SS   HA0                
#         PDG         Width
DECAY   1000035  6.60350876E+01   # Z4SS  decays
#          BR          NDA       ID1       ID2       ID3       ID4
      2.44932920E-07    2      1000022        22                       # Z4SS   -->  Z1SS   GM                 
      3.61578657E-07    2      1000023        22                       # Z4SS   -->  Z2SS   GM                 
      4.38620162E-09    2      1000025        22                       # Z4SS   -->  Z3SS   GM                 
      1.39718622E-01    2      1000024       -24                       # Z4SS   -->  W1SS+  W-                 
      1.39718622E-01    2     -1000024        24                       # Z4SS   -->  W1SS-  W+                 
      1.16366528E-01    2      1000024       -37                       # Z4SS   -->  W1SS+  H-                 
      1.16366528E-01    2     -1000024        37                       # Z4SS   -->  W1SS-  H+                 
      9.25928271E-06    3     -1000037         2        -1             # Z4SS   -->  W2SS-  UP     DB          
      3.08642757E-06    3     -1000037        12       -11             # Z4SS   -->  W2SS-  NUE    E+          
      3.08642757E-06    3     -1000037        14       -13             # Z4SS   -->  W2SS-  NUM    MU+         
      9.25928271E-06    3      1000037         1        -2             # Z4SS   -->  W2SS+  DN     UB          
      3.08642757E-06    3      1000037        11       -12             # Z4SS   -->  W2SS+  E-     ANUE        
      3.08642757E-06    3      1000037        13       -14             # Z4SS   -->  W2SS+  MU-    ANUM        
      9.25928271E-06    3     -1000037         4        -3             # Z4SS   -->  W2SS-  CH     SB          
      3.08642757E-06    3     -1000037        16       -15             # Z4SS   -->  W2SS-  NUT    TAU+        
      9.25928271E-06    3      1000037         3        -4             # Z4SS   -->  W2SS+  ST     CB          
      3.08642757E-06    3      1000037        15       -16             # Z4SS   -->  W2SS+  TAU-   ANUT        
      4.30964753E-02    2      1000022        23                       # Z4SS   -->  Z1SS   Z0                 
      7.52623901E-02    2      1000023        23                       # Z4SS   -->  Z2SS   Z0                 
      1.29907939E-05    2      1000025        23                       # Z4SS   -->  Z3SS   Z0                 
      4.15896817E-10    3      1000022         2        -2             # Z4SS   -->  Z1SS   UP     UB          
      8.87168061E-10    3      1000022         1        -1             # Z4SS   -->  Z1SS   DN     DB          
      8.87168061E-10    3      1000022         3        -3             # Z4SS   -->  Z1SS   ST     SB          
      4.15896817E-10    3      1000022         4        -4             # Z4SS   -->  Z1SS   CH     CB          
      5.22652044E-07    3      1000022         5        -5             # Z4SS   -->  Z1SS   BT     BB          
      4.16422230E-10    3      1000022        11       -11             # Z4SS   -->  Z1SS   E-     E+          
      4.16422230E-10    3      1000022        13       -13             # Z4SS   -->  Z1SS   MU-    MU+         
      5.82795678E-07    3      1000022        15       -15             # Z4SS   -->  Z1SS   TAU-   TAU+        
      5.27557553E-09    3      1000022        12       -12             # Z4SS   -->  Z1SS   NUE    ANUE        
      5.27557553E-09    3      1000022        14       -14             # Z4SS   -->  Z1SS   NUM    ANUM        
      5.62754465E-09    3      1000022        16       -16             # Z4SS   -->  Z1SS   NUT    ANUT        
      2.16881499E-10    3      1000023         2        -2             # Z4SS   -->  Z2SS   UP     UB          
      4.66264416E-10    3      1000023         1        -1             # Z4SS   -->  Z2SS   DN     DB          
      4.66264416E-10    3      1000023         3        -3             # Z4SS   -->  Z2SS   ST     SB          
      2.16881499E-10    3      1000023         4        -4             # Z4SS   -->  Z2SS   CH     CB          
      5.13629516E-07    3      1000023         5        -5             # Z4SS   -->  Z2SS   BT     BB          
      2.15740495E-10    3      1000023        11       -11             # Z4SS   -->  Z2SS   E-     E+          
      2.15740495E-10    3      1000023        13       -13             # Z4SS   -->  Z2SS   MU-    MU+         
      5.73841419E-07    3      1000023        15       -15             # Z4SS   -->  Z2SS   TAU-   TAU+        
      2.82495249E-09    3      1000023        12       -12             # Z4SS   -->  Z2SS   NUE    ANUE        
      2.82495249E-09    3      1000023        14       -14             # Z4SS   -->  Z2SS   NUM    ANUM        
      3.01550385E-09    3      1000023        16       -16             # Z4SS   -->  Z2SS   NUT    ANUT        
      1.81887554E-08    3      1000025         2        -2             # Z4SS   -->  Z3SS   UP     UB          
      1.64762852E-08    3      1000025         1        -1             # Z4SS   -->  Z3SS   DN     DB          
      1.64762852E-08    3      1000025         3        -3             # Z4SS   -->  Z3SS   ST     SB          
      1.81887554E-08    3      1000025         4        -4             # Z4SS   -->  Z3SS   CH     CB          
      3.89857568E-08    3      1000025         5        -5             # Z4SS   -->  Z3SS   BT     BB          
      6.35736740E-07    3      1000025        11       -11             # Z4SS   -->  Z3SS   E-     E+          
      6.35736740E-07    3      1000025        13       -13             # Z4SS   -->  Z3SS   MU-    MU+         
      6.84294946E-07    3      1000025        15       -15             # Z4SS   -->  Z3SS   TAU-   TAU+        
      6.22131381E-07    3      1000025        12       -12             # Z4SS   -->  Z3SS   NUE    ANUE        
      6.22131381E-07    3      1000025        14       -14             # Z4SS   -->  Z3SS   NUM    ANUM        
      6.68610483E-07    3      1000025        16       -16             # Z4SS   -->  Z3SS   NUT    ANUT        
      7.99644515E-02    2      1000022        25                       # Z4SS   -->  Z1SS   HL0                
      5.51826656E-02    2      1000022        35                       # Z4SS   -->  Z1SS   HH0                
      6.30296394E-02    2      1000022        36                       # Z4SS   -->  Z1SS   HA0                
      5.42363003E-02    2      1000023        25                       # Z4SS   -->  Z2SS   HL0                
      6.22164756E-02    2      1000023        35                       # Z4SS   -->  Z2SS   HH0                
      5.45887239E-02    2      1000023        36                       # Z4SS   -->  Z2SS   HA0                
      1.76487505E-04    2      1000025        25                       # Z4SS   -->  Z3SS   HL0                
      5.65905111E-07    2      1000025        35                       # Z4SS   -->  Z3SS   HH0                
      3.61087700E-07    2      1000025        36                       # Z4SS   -->  Z3SS   HA0                
#         PDG         Width
DECAY   1000024  2.71796221E-08   # W1SS+ decays
#          BR          NDA       ID1       ID2       ID3       ID4
      2.83347160E-01    3      1000022         2        -1             # W1SS+  -->  Z1SS   UP     DB          
      2.83347160E-01    3      1000022         4        -3             # W1SS+  -->  Z1SS   CH     SB          
      9.44490582E-02    3      1000022       -11        12             # W1SS+  -->  Z1SS   E+     NUE         
      9.44490582E-02    3      1000022       -13        14             # W1SS+  -->  Z1SS   MU+    NUM         
      9.44505557E-02    3      1000022       -15        16             # W1SS+  -->  Z1SS   TAU+   NUT         
      4.99855839E-02    3      1000023         2        -1             # W1SS+  -->  Z2SS   UP     DB          
      4.99855839E-02    3      1000023         4        -3             # W1SS+  -->  Z2SS   CH     SB          
      1.66618600E-02    3      1000023       -11        12             # W1SS+  -->  Z2SS   E+     NUE         
      1.66618600E-02    3      1000023       -13        14             # W1SS+  -->  Z2SS   MU+    NUM         
      1.66620910E-02    3      1000023       -15        16             # W1SS+  -->  Z2SS   TAU+   NUT         
#         PDG         Width
DECAY   1000037  6.28623924E+01   # W2SS+ decays
#          BR          NDA       ID1       ID2       ID3       ID4
      1.14433396E-09    3      1000022         2        -1             # W2SS+  -->  Z1SS   UP     DB          
      1.14433396E-09    3      1000022         4        -3             # W2SS+  -->  Z1SS   CH     SB          
      5.11488008E-09    3      1000022       -11        12             # W2SS+  -->  Z1SS   E+     NUE         
      5.11488008E-09    3      1000022       -13        14             # W2SS+  -->  Z1SS   MU+    NUM         
      5.82415339E-07    3      1000022       -15        16             # W2SS+  -->  Z1SS   TAU+   NUT         
      1.19902089E-01    2      1000022        24                       # W2SS+  -->  Z1SS   W+                 
      1.22029737E-01    2      1000022        37                       # W2SS+  -->  Z1SS   H+                 
      7.57945595E-10    3      1000023         2        -1             # W2SS+  -->  Z2SS   UP     DB          
      7.57945595E-10    3      1000023         4        -3             # W2SS+  -->  Z2SS   CH     SB          
      3.21132743E-09    3      1000023       -11        12             # W2SS+  -->  Z2SS   E+     NUE         
      3.21132743E-09    3      1000023       -13        14             # W2SS+  -->  Z2SS   MU+    NUM         
      5.71753787E-07    3      1000023       -15        16             # W2SS+  -->  Z2SS   TAU+   NUT         
      1.15737945E-01    2      1000023        24                       # W2SS+  -->  Z2SS   W+                 
      1.20173477E-01    2      1000023        37                       # W2SS+  -->  Z2SS   H+                 
      3.23034222E-08    3      1000025         2        -1             # W2SS+  -->  Z3SS   UP     DB          
      3.23034222E-08    3      1000025         4        -3             # W2SS+  -->  Z3SS   CH     SB          
      1.16034551E-06    3      1000025       -11        12             # W2SS+  -->  Z3SS   E+     NUE         
      1.16034551E-06    3      1000025       -13        14             # W2SS+  -->  Z3SS   MU+    NUM         
      1.24721680E-06    3      1000025       -15        16             # W2SS+  -->  Z3SS   TAU+   NUT         
      9.87239368E-03    2      1000025        24                       # W2SS+  -->  Z3SS   W+                 
      7.96480947E-07    2      1000025        37                       # W2SS+  -->  Z3SS   H+                 
      1.31347775E-01    2      1000024        23                       # W2SS+  -->  W1SS+  Z0                 
      4.06762135E-09    3      1000024         1        -1             # W2SS+  -->  W1SS+  DN     DB          
      4.06762135E-09    3      1000024         3        -3             # W2SS+  -->  W1SS+  ST     SB          
      4.79947644E-11    3      1000024         2        -2             # W2SS+  -->  W1SS+  UP     UB          
      4.79947644E-11    3      1000024         4        -4             # W2SS+  -->  W1SS+  CH     CB          
      1.63804234E-10    3      1000024        12       -12             # W2SS+  -->  W1SS+  NUE    ANUE        
      1.63804234E-10    3      1000024        14       -14             # W2SS+  -->  W1SS+  NUM    ANUM        
      7.51200491E-10    3      1000024        16       -16             # W2SS+  -->  W1SS+  NUT    ANUT        
      1.39198688E-08    3      1000024        11       -11             # W2SS+  -->  W1SS+  E-     E+          
      1.39198688E-08    3      1000024        13       -13             # W2SS+  -->  W1SS+  MU-    MU+         
      1.48455719E-08    3      1000024        15       -15             # W2SS+  -->  W1SS+  TAU-   TAU+        
      1.39037982E-01    2      1000024        25                       # W2SS+  -->  W1SS+  HL0                
      1.20831877E-01    2      1000024        35                       # W2SS+  -->  W1SS+  HH0                
      1.21061184E-01    2      1000024        36                       # W2SS+  -->  W1SS+  HA0                
#         PDG         Width
DECAY        25  4.00687242E-03   # HL0   decays
#          BR          NDA       ID1       ID2       ID3       ID4
      5.58704238E-09    2           11       -11                       # HL0    -->  E-     E+                 
      2.35894026E-04    2           13       -13                       # HL0    -->  MU-    MU+                
      6.74828961E-02    2           15       -15                       # HL0    -->  TAU-   TAU+               
      7.00308101E-06    2            1        -1                       # HL0    -->  DN     DB                 
      2.82959617E-03    2            3        -3                       # HL0    -->  ST     SB                 
      6.06297076E-01    2            5        -5                       # HL0    -->  BT     BB                 
      2.13701219E-06    2            2        -2                       # HL0    -->  UP     UB                 
      3.96883637E-02    2            4        -4                       # HL0    -->  CH     CB                 
      2.65292777E-03    2           22        22                       # HL0    -->  GM     GM                 
      5.30997477E-02    2           21        21                       # HL0    -->  GL     GL                 
      1.13642598E-02    3           24        11       -12             # HL0    -->  W+     E-     ANUE        
      1.13642598E-02    3           24        13       -14             # HL0    -->  W+     MU-    ANUM        
      1.13642598E-02    3           24        15       -16             # HL0    -->  W+     TAU-   ANUT        
      3.40927802E-02    3           24        -2         1             # HL0    -->  W+     UB     DN          
      3.40927802E-02    3           24        -4         3             # HL0    -->  W+     CB     ST          
      1.13642598E-02    3          -24       -11        12             # HL0    -->  W-     E+     NUE         
      1.13642598E-02    3          -24       -13        14             # HL0    -->  W-     MU+    NUM         
      1.13642598E-02    3          -24       -15        16             # HL0    -->  W-     TAU+   NUT         
      3.40927802E-02    3          -24         2        -1             # HL0    -->  W-     UP     DB          
      3.40927802E-02    3          -24         4        -3             # HL0    -->  W-     CH     SB          
      1.58304884E-03    3           23        12       -12             # HL0    -->  Z0     NUE    ANUE        
      1.58304884E-03    3           23        14       -14             # HL0    -->  Z0     NUM    ANUM        
      1.58304884E-03    3           23        16       -16             # HL0    -->  Z0     NUT    ANUT        
      7.96732551E-04    3           23        11       -11             # HL0    -->  Z0     E-     E+          
      7.96732551E-04    3           23        13       -13             # HL0    -->  Z0     MU-    MU+         
      7.96732551E-04    3           23        15       -15             # HL0    -->  Z0     TAU-   TAU+        
      2.72953813E-03    3           23         2        -2             # HL0    -->  Z0     UP     UB          
      2.72953813E-03    3           23         4        -4             # HL0    -->  Z0     CH     CB          
      3.51631758E-03    3           23         1        -1             # HL0    -->  Z0     DN     DB          
      3.51631758E-03    3           23         3        -3             # HL0    -->  Z0     ST     SB          
      3.51631758E-03    3           23         5        -5             # HL0    -->  Z0     BT     BB          
#         PDG         Width
DECAY        35  3.53763247E+00   # HH0   decays
#          BR          NDA       ID1       ID2       ID3       ID4
      1.08781730E-08    2           11       -11                       # HH0    -->  E-     E+                 
      4.59296047E-04    2           13       -13                       # HH0    -->  MU-    MU+                
      1.31546989E-01    2           15       -15                       # HH0    -->  TAU-   TAU+               
      1.33258109E-05    2            1        -1                       # HH0    -->  DN     DB                 
      5.38430177E-03    2            3        -3                       # HH0    -->  ST     SB                 
      8.02311659E-01    2            5        -5                       # HH0    -->  BT     BB                 
      8.83127252E-11    2            2        -2                       # HH0    -->  UP     UB                 
      1.24370717E-06    2            4        -4                       # HH0    -->  CH     CB                 
      5.67349866E-02    2            6        -6                       # HH0    -->  TP     TB                 
      1.64175958E-07    2           22        22                       # HH0    -->  GM     GM                 
      2.39642704E-05    2           21        21                       # HH0    -->  GL     GL                 
      2.28831967E-04    2           24       -24                       # HH0    -->  W+     W-                 
      1.16181676E-04    2           23        23                       # HH0    -->  Z0     Z0                 
      4.62738157E-04    2      1000022   1000022                       # HH0    -->  Z1SS   Z1SS               
      3.34027391E-05    2      1000022   1000023                       # HH0    -->  Z1SS   Z2SS               
      3.55307740E-04    2      1000023   1000023                       # HH0    -->  Z2SS   Z2SS               
      1.46944111E-03    2      1000024  -1000024                       # HH0    -->  W1SS+  W1SS-              
      8.58255487E-04    2           25        25                       # HH0    -->  HL0    HL0                
#         PDG         Width
DECAY        36  3.52491498E+00   # HA0   decays
#          BR          NDA       ID1       ID2       ID3       ID4
      1.08474234E-08    2           11       -11                       # HA0    -->  E-     E+                 
      4.57997783E-04    2           13       -13                       # HA0    -->  MU-    MU+                
      1.31176770E-01    2           15       -15                       # HA0    -->  TAU-   TAU+               
      1.32888745E-05    2            1        -1                       # HA0    -->  DN     DB                 
      5.36937825E-03    2            3        -3                       # HA0    -->  ST     SB                 
      8.00123692E-01    2            5        -5                       # HA0    -->  BT     BB                 
      8.39904812E-11    2            2        -2                       # HA0    -->  UP     UB                 
      1.18376818E-06    2            4        -4                       # HA0    -->  CH     CB                 
      5.99806570E-02    2            6        -6                       # HA0    -->  TP     TB                 
      3.26600116E-07    2           22        22                       # HA0    -->  GM     GM                 
      7.43915298E-05    2           21        21                       # HA0    -->  GL     GL                 
      6.49700523E-04    2      1000022   1000022                       # HA0    -->  Z1SS   Z1SS               
      2.81857047E-06    2      1000022   1000023                       # HA0    -->  Z1SS   Z2SS               
      2.91310629E-04    2      1000023   1000023                       # HA0    -->  Z2SS   Z2SS               
      1.63823692E-03    2      1000024  -1000024                       # HA0    -->  W1SS+  W1SS-              
      2.20089118E-04    2           25        23                       # HA0    -->  HL0    Z0                 
#         PDG         Width
DECAY        37  3.11833501E+00   # H+    decays
#          BR          NDA       ID1       ID2       ID3       ID4
      1.23013395E-08    2           12       -11                       # H+     -->  NUE    E+                 
      5.19384746E-04    2           14       -13                       # H+     -->  NUM    MU+                
      1.48758829E-01    2           16       -15                       # H+     -->  NUT    TAU+               
      1.38517626E-05    2            2        -1                       # H+     -->  UP     DB                 
      5.59799001E-03    2            4        -3                       # H+     -->  CH     SB                 
      8.44767630E-01    2            6        -5                       # H+     -->  TP     BB                 
      1.61412045E-05    2      1000024   1000022                       # H+     -->  W1SS+  Z1SS               
      7.67148667E-05    2      1000024   1000023                       # H+     -->  W1SS+  Z2SS               
      2.49496021E-04    2           25        24                       # H+     -->  HL0    W+                 
