#
#                              ======================
#                              | THE SUSYHIT OUTPUT |
#                              ======================
#
#
#              ------------------------------------------------------
#              |     This is the output of the SUSY-HIT package     |
#              |  created by A.Djouadi, M.Muehlleitner and M.Spira. |
#              |  In case of problems with SUSY-HIT email to        |
#              |           margarete.muehlleitner@kit.edu           |
#              |           michael.spira@psi.ch                     |
#              |           abdelhak.djouadi@cern.ch                 |
#              ------------------------------------------------------
#
#              ------------------------------------------------------
#              |  SUSY Les Houches Accord - MSSM Spectrum + Decays  |
#              |              based on the decay programs           |
#              |                                                    |
#              |                     SDECAY 1.5                     |
#              |                                                    |
#              |  Authors: M.Muhlleitner, A.Djouadi and Y.Mambrini  |
#              |  Ref.:    Comput.Phys.Commun.168(2005)46           |
#              |           [hep-ph/0311167]                         |
#              |                                                    |
#              |                     HDECAY 3.4                     |
#              |                                                    |
#              |  By: A.Djouadi,J.Kalinowski,M.Muhlleitner,M.Spira  |
#              |  Ref.:    Comput.Phys.Commun.108(1998)56           |
#              |           [hep-ph/9704448]                         |
#              |                                                    |
#              |                                                    |
#              |  If not stated otherwise all DRbar couplings and   |
#              |  soft SUSY breaking masses are given at the scale  |
#              |  Q=  0.13937813E+04
#              |                                                    |
#              ------------------------------------------------------
#
#
BLOCK DCINFO  # Decay Program information
     1   SDECAY/HDECAY # decay calculator
     2   1.5  /3.4    # version number
#
BLOCK SPINFO  # Spectrum calculator information
     1    SOFTSUSY    # spectrum calculator                
     2    3.7.3       # version number                     
#
BLOCK MODSEL  # Model selection
     1     0   #  nonUniversal                                     
#
BLOCK SMINPUTS  # Standard Model inputs
         1     1.27934000E+02   # alpha_em^-1(M_Z)^MSbar
         2     1.16639000E-05   # G_F [GeV^-2]
         3     1.17200000E-01   # alpha_S(M_Z)^MSbar
         4     9.11870000E+01   # M_Z pole mass
         5     4.19000000E+00   # mb(mb)^MSbar
         6     1.72500000E+02   # mt pole mass
         7     1.77690000E+00   # mtau pole mass
#
BLOCK MINPAR  # Input parameters - minimal models
         3     2.00000000E+01   # tanb                
#
BLOCK EXTPAR  # Input parameters - non-minimal models
         0    -1.00000000E+00   # Set                 
         1     2.99900000E+02   # M_1(MX)             
         2     5.99900000E+02   # M_2(MX)             
         3     2.20000000E+03   # M_3(MX)             
        11     2.94338000E+03   # At(MX)              
        12     0.00000000E+00   # Ab(MX)              
        13     0.00000000E+00   # Atau(MX)            
        23    -3.00000000E+03   # mu(MX)              
        25     2.00000000E+01   # tan                 
        26     3.00000000E+03   # mA(pole)            
        31     3.00000000E+03   # meL(MX)             
        32     3.00000000E+03   # mmuL(MX)            
        33     3.00000000E+03   # mtauL(MX)           
        34     3.00000000E+03   # meR(MX)             
        35     3.00000000E+03   # mmuR(MX)            
        36     3.00000000E+03   # mtauR(MX)           
        41     3.00000000E+03   # mqL1(MX)            
        42     3.00000000E+03   # mqL2(MX)            
        43     6.49900000E+02   # mqL3(MX)            
        44     3.00000000E+03   # muR(MX)             
        45     3.00000000E+03   # mcR(MX)             
        46     3.00000000E+03   # mtR(MX)             
        47     3.00000000E+03   # mdR(MX)             
        48     3.00000000E+03   # msR(MX)             
        49     3.00000000E+03   # mbR(MX)             
#
BLOCK MASS  # Mass Spectrum
# PDG code           mass       particle
        24     8.04024840E+01   # W+
        25     1.25535179E+02   # h
        35     3.00013306E+03   # H
        36     2.99999992E+03   # A
        37     3.00109425E+03   # H+
         5     4.81337004E+00   # b-quark pole mass calculated from mb(mb)_Msbar
   1000001     3.03098521E+03   # ~d_L
   2000001     3.02581333E+03   # ~d_R
   1000002     3.03007510E+03   # ~u_L
   2000002     3.02818819E+03   # ~u_R
   1000003     3.03098521E+03   # ~s_L
   2000003     3.02581333E+03   # ~s_R
   1000004     3.03007510E+03   # ~c_L
   2000004     3.02818819E+03   # ~c_R
   1000005     7.43334123E+02   # ~b_1
   2000005     3.02540862E+03   # ~b_2
   1000006     7.40357020E+02   # ~t_1
   2000006     3.02198830E+03   # ~t_2
   1000011     3.00676805E+03   # ~e_L
   2000011     3.00073970E+03   # ~e_R
   1000012     3.00538117E+03   # ~nu_eL
   1000013     3.00676805E+03   # ~mu_L
   2000013     3.00073970E+03   # ~mu_R
   1000014     3.00538117E+03   # ~nu_muL
   1000015     2.98620554E+03   # ~tau_1
   2000015     3.02187152E+03   # ~tau_2
   1000016     3.00559329E+03   # ~nu_tauL
   1000021     2.33844489E+03   # ~g
   1000022     3.02791462E+02   # ~chi_10
   1000023     6.32042069E+02   # ~chi_20
   1000025    -3.00177224E+03   # ~chi_30
   1000035     3.00202701E+03   # ~chi_40
   1000024     6.32203713E+02   # ~chi_1+
   1000037     3.00284619E+03   # ~chi_2+
#
BLOCK NMIX  # Neutralino Mixing Matrix
  1  1     9.99890422E-01   # N_11
  1  2    -8.33390391E-07   # N_12
  1  3    -1.47848603E-02   # N_13
  1  4    -7.42460550E-04   # N_14
  2  1     3.98546976E-04   # N_21
  2  2     9.99635397E-01   # N_22
  2  3     2.66941563E-02   # N_23
  2  4     4.04175792E-03   # N_24
  3  1    -9.92671829E-03   # N_31
  3  2     1.60205223E-02   # N_32
  3  3    -7.06847967E-01   # N_33
  3  4     7.07114386E-01   # N_34
  4  1     1.09747331E-02   # N_41
  4  2    -2.17351212E-02   # N_42
  4  3     7.06706999E-01   # N_43
  4  4     7.07087235E-01   # N_44
#
BLOCK UMIX  # Chargino Mixing Matrix U
  1  1     9.99287352E-01   # U_11
  1  2     3.77463770E-02   # U_12
  2  1    -3.77463770E-02   # U_21
  2  2     9.99287352E-01   # U_22
#
BLOCK VMIX  # Chargino Mixing Matrix V
  1  1     9.99983676E-01   # V_11
  1  2    -5.71388593E-03   # V_12
  2  1    -5.71388593E-03   # V_21
  2  2    -9.99983676E-01   # V_22
#
BLOCK STOPMIX  # Stop Mixing Matrix
  1  1     9.98598210E-01   # cos(theta_t)
  1  2    -5.29302842E-02   # sin(theta_t)
  2  1     5.29302842E-02   # -sin(theta_t)
  2  2     9.98598210E-01   # cos(theta_t)
#
BLOCK SBOTMIX  # Sbottom Mixing Matrix
  1  1     9.99726821E-01   # cos(theta_b)
  1  2    -2.33727057E-02   # sin(theta_b)
  2  1     2.33727057E-02   # -sin(theta_b)
  2  2     9.99726821E-01   # cos(theta_b)
#
BLOCK STAUMIX  # Stau Mixing Matrix
  1  1    -7.06942880E-01   # cos(theta_tau)
  1  2     7.07270644E-01   # sin(theta_tau)
  2  1    -7.07270644E-01   # -sin(theta_tau)
  2  2    -7.06942880E-01   # cos(theta_tau)
#
BLOCK ALPHA  # Higgs mixing
          -5.00119296E-02   # Mixing angle in the neutral Higgs boson sector
#
BLOCK HMIX Q=  1.39378133E+03  # DRbar Higgs Parameters
         1    -3.00000000E+03   # mu(Q)MSSM           
         2     2.00000000E+01   # tan                 
         3     2.44217784E+02   # higgs               
         4     1.09947926E+07   # mA^2(Q)MSSM         
#
BLOCK GAUGE Q=  1.39378133E+03  # The gauge couplings
     1     3.61905053E-01   # gprime(Q) DRbar
     2     6.37149838E-01   # g(Q) DRbar
     3     1.02798455E+00   # g3(Q) DRbar
#
BLOCK AU Q=  1.39378133E+03  # The trilinear couplings
  1  1     1.84275864E-06   # A_u(Q) DRbar
  2  2     1.84278582E-06   # A_c(Q) DRbar
  3  3     2.94338000E+03   # A_t(Q) DRbar
#
BLOCK AD Q=  1.39378133E+03  # The trilinear couplings
  1  1     6.59196166E-07   # A_d(Q) DRbar
  2  2     6.59272490E-07   # A_s(Q) DRbar
  3  3     1.33903745E-06   # A_b(Q) DRbar
#
BLOCK AE Q=  1.39378133E+03  # The trilinear couplings
  1  1     2.88488057E-07   # A_e(Q) DRbar
  2  2     2.88502166E-07   # A_mu(Q) DRbar
  3  3     2.92460249E-07   # A_tau(Q) DRbar
#
BLOCK Yu Q=  1.39378133E+03  # The Yukawa couplings
  1  1     0.00000000E+00   # y_u(Q) DRbar
  2  2     0.00000000E+00   # y_c(Q) DRbar
  3  3     8.54711928E-01   # y_t(Q) DRbar
#
BLOCK Yd Q=  1.39378133E+03  # The Yukawa couplings
  1  1     0.00000000E+00   # y_d(Q) DRbar
  2  2     0.00000000E+00   # y_s(Q) DRbar
  3  3     3.87663470E-01   # y_b(Q) DRbar
#
BLOCK Ye Q=  1.39378133E+03  # The Yukawa couplings
  1  1     0.00000000E+00   # y_e(Q) DRbar
  2  2     0.00000000E+00   # y_mu(Q) DRbar
  3  3     2.01570519E-01   # y_tau(Q) DRbar
#
BLOCK MSOFT Q=  1.39378133E+03  # The soft SUSY breaking masses at the scale Q
         1     2.99900000E+02   # M_1(Q)              
         2     5.99900000E+02   # M_2(Q)              
         3     2.20000000E+03   # M_3(Q)              
        21    -4.90642907E+04   # M^2_Hd              
        22    -9.09341062E+06   # M^2_Hu              
        31     3.00000000E+03   # M_eL                
        32     3.00000000E+03   # M_muL               
        33     3.00000000E+03   # M_tauL              
        34     3.00000000E+03   # M_eR                
        35     3.00000000E+03   # M_muR               
        36     3.00000000E+03   # M_tauR              
        41     3.00000000E+03   # M_q1L               
        42     3.00000000E+03   # M_q2L               
        43     6.49899993E+02   # M_q3L               
        44     3.00000000E+03   # M_uR                
        45     3.00000000E+03   # M_cR                
        46     3.00000000E+03   # M_tR                
        47     3.00000000E+03   # M_dR                
        48     3.00000000E+03   # M_sR                
        49     3.00000000E+03   # M_bR                
#
#
#
#                             =================
#                             |The decay table|
#                             =================
#
# - The QCD corrections to the decays gluino -> squark  + quark
#                                     squark -> gaugino + quark_prime
#                                     squark -> squark_prime + Higgs
#                                     squark -> gluino  + quark
#   are included.
#
# - The multi-body decays for the inos, stops and sbottoms are included.
#
# - The loop induced decays for the gluino, neutralinos and stops
#   are included.
#
# - The SUSY decays of the top quark are included.
#
#
#         PDG            Width
DECAY         6     1.40905563E+00   # top decays
#          BR         NDA      ID1       ID2
     1.00000000E+00    2           5        24   # BR(t ->  b    W+)
#
#         PDG            Width
DECAY   1000021     7.62444640E+01   # gluino decays
#          BR         NDA      ID1       ID2
     2.48012172E-01    2     1000005        -5   # BR(~g -> ~b_1  bb)
     2.48012172E-01    2    -1000005         5   # BR(~g -> ~b_1* b )
     2.51987828E-01    2     1000006        -6   # BR(~g -> ~t_1  tb)
     2.51987828E-01    2    -1000006         6   # BR(~g -> ~t_1* t )
#
#         PDG            Width
DECAY   1000006     5.28578963E-01   # stop1 decays
#          BR         NDA      ID1       ID2
     1.18636803E-01    2     1000022         6   # BR(~t_1 -> ~chi_10 t )
     8.81363197E-01    2     1000024         5   # BR(~t_1 -> ~chi_1+ b )
#
#         PDG            Width
DECAY   2000006     1.18522116E+02   # stop2 decays
#          BR         NDA      ID1       ID2
     5.47658132E-02    2     1000022         6   # BR(~t_2 -> ~chi_10 t )
     3.04275127E-04    2     1000023         6   # BR(~t_2 -> ~chi_20 t )
     0.00000000E+00    2     1000025         6   # BR(~t_2 -> ~chi_30 t )
     6.11982777E-04    2     1000024         5   # BR(~t_2 -> ~chi_1+ b )
     6.31406098E-05    2     1000037         5   # BR(~t_2 -> ~chi_2+ b )
     2.91840867E-01    2     1000021         6   # BR(~t_2 -> ~g      t )
     1.71010148E-01    2     1000006        25   # BR(~t_2 -> ~t_1    h )
     1.62407041E-01    2     1000006        23   # BR(~t_2 -> ~t_1    Z )
     3.18996732E-01    2     1000005        24   # BR(~t_2 -> ~b_1    W+)
#
#         PDG            Width
DECAY   1000005     3.24344927E-01   # sbottom1 decays
#          BR         NDA      ID1       ID2
     2.43719392E-01    2     1000022         5   # BR(~b_1 -> ~chi_10 b )
     7.56280608E-01    2     1000023         5   # BR(~b_1 -> ~chi_20 b )
#
#         PDG            Width
DECAY   2000005     5.49409565E+01   # sbottom2 decays
#          BR         NDA      ID1       ID2
     2.97264134E-02    2     1000022         5   # BR(~b_2 -> ~chi_10 b )
     4.49955961E-08    2     1000023         5   # BR(~b_2 -> ~chi_20 b )
     2.13837630E-05    2     1000025         5   # BR(~b_2 -> ~chi_30 b )
     2.04744674E-05    2     1000035         5   # BR(~b_2 -> ~chi_40 b )
    -8.47518195E-08    2    -1000024         6   # BR(~b_2 -> ~chi_1- t )
     6.38428196E-01    2     1000021         5   # BR(~b_2 -> ~g      b )
     7.40421292E-02    2     1000005        25   # BR(~b_2 -> ~b_1    h )
     1.04937030E-01    2     1000005        23   # BR(~b_2 -> ~b_1    Z )
     1.52824413E-01    2     1000006       -24   # BR(~b_2 -> ~t_1    W-)
#
#         PDG            Width
DECAY   1000002     6.79085003E+01   # sup_L decays
#          BR         NDA      ID1       ID2
     6.03154303E-03    2     1000022         2   # BR(~u_L -> ~chi_10 u)
     1.57350171E-01    2     1000023         2   # BR(~u_L -> ~chi_20 u)
     1.38863615E-08    2     1000025         2   # BR(~u_L -> ~chi_30 u)
     2.63651546E-08    2     1000035         2   # BR(~u_L -> ~chi_40 u)
     3.14857800E-01    2     1000024         1   # BR(~u_L -> ~chi_1+ d)
     4.20566995E-09    2     1000037         1   # BR(~u_L -> ~chi_2+ d)
     5.21760441E-01    2     1000021         2   # BR(~u_L -> ~g      u)
#
#         PDG            Width
DECAY   2000002     4.18291964E+01   # sup_R decays
#          BR         NDA      ID1       ID2
     1.56569875E-01    2     1000022         2   # BR(~u_R -> ~chi_10 u)
     2.32690915E-08    2     1000023         2   # BR(~u_R -> ~chi_20 u)
     5.57475554E-09    2     1000025         2   # BR(~u_R -> ~chi_30 u)
     6.68670464E-09    2     1000035         2   # BR(~u_R -> ~chi_40 u)
     8.43430090E-01    2     1000021         2   # BR(~u_R -> ~g      u)
#
#         PDG            Width
DECAY   1000001     6.79606172E+01   # sdown_L decays
#          BR         NDA      ID1       ID2
     6.02895530E-03    2     1000022         1   # BR(~d_L -> ~chi_10 d)
     1.57238965E-01    2     1000023         1   # BR(~d_L -> ~chi_20 d)
     2.36379876E-08    2     1000025         1   # BR(~d_L -> ~chi_30 d)
     4.11277061E-08    2     1000035         1   # BR(~d_L -> ~chi_40 d)
     3.14292140E-01    2    -1000024         2   # BR(~d_L -> ~chi_1- u)
     1.95453671E-07    2    -1000037         2   # BR(~d_L -> ~chi_2- u)
     5.22439680E-01    2     1000021         1   # BR(~d_L -> ~g      d)
#
#         PDG            Width
DECAY   2000001     3.67248918E+01   # sdown_R decays
#          BR         NDA      ID1       ID2
     4.45454815E-02    2     1000022         1   # BR(~d_R -> ~chi_10 d)
     6.61953468E-09    2     1000023         1   # BR(~d_R -> ~chi_20 d)
     1.32246223E-09    2     1000025         1   # BR(~d_R -> ~chi_30 d)
     1.58326095E-09    2     1000035         1   # BR(~d_R -> ~chi_40 d)
     9.55454509E-01    2     1000021         1   # BR(~d_R -> ~g      d)
#
#         PDG            Width
DECAY   1000004     6.79085003E+01   # scharm_L decays
#          BR         NDA      ID1       ID2
     6.03154303E-03    2     1000022         4   # BR(~c_L -> ~chi_10 c)
     1.57350171E-01    2     1000023         4   # BR(~c_L -> ~chi_20 c)
     1.38863615E-08    2     1000025         4   # BR(~c_L -> ~chi_30 c)
     2.63651546E-08    2     1000035         4   # BR(~c_L -> ~chi_40 c)
     3.14857800E-01    2     1000024         3   # BR(~c_L -> ~chi_1+ s)
     4.20566995E-09    2     1000037         3   # BR(~c_L -> ~chi_2+ s)
     5.21760441E-01    2     1000021         4   # BR(~c_L -> ~g      c)
#
#         PDG            Width
DECAY   2000004     4.18291964E+01   # scharm_R decays
#          BR         NDA      ID1       ID2
     1.56569875E-01    2     1000022         4   # BR(~c_R -> ~chi_10 c)
     2.32690915E-08    2     1000023         4   # BR(~c_R -> ~chi_20 c)
     5.57475554E-09    2     1000025         4   # BR(~c_R -> ~chi_30 c)
     6.68670464E-09    2     1000035         4   # BR(~c_R -> ~chi_40 c)
     8.43430090E-01    2     1000021         4   # BR(~c_R -> ~g      c)
#
#         PDG            Width
DECAY   1000003     6.79606172E+01   # sstrange_L decays
#          BR         NDA      ID1       ID2
     6.02895530E-03    2     1000022         3   # BR(~s_L -> ~chi_10 s)
     1.57238965E-01    2     1000023         3   # BR(~s_L -> ~chi_20 s)
     2.36379876E-08    2     1000025         3   # BR(~s_L -> ~chi_30 s)
     4.11277061E-08    2     1000035         3   # BR(~s_L -> ~chi_40 s)
     3.14292140E-01    2    -1000024         4   # BR(~s_L -> ~chi_1- c)
     1.95453671E-07    2    -1000037         4   # BR(~s_L -> ~chi_2- c)
     5.22439680E-01    2     1000021         3   # BR(~s_L -> ~g      s)
#
#         PDG            Width
DECAY   2000003     3.67248918E+01   # sstrange_R decays
#          BR         NDA      ID1       ID2
     4.45454815E-02    2     1000022         3   # BR(~s_R -> ~chi_10 s)
     6.61953468E-09    2     1000023         3   # BR(~s_R -> ~chi_20 s)
     1.32246223E-09    2     1000025         3   # BR(~s_R -> ~chi_30 s)
     1.58326095E-09    2     1000035         3   # BR(~s_R -> ~chi_40 s)
     9.55454509E-01    2     1000021         3   # BR(~s_R -> ~g      s)
#
#         PDG            Width
DECAY   1000011     3.70791891E+01   # selectron_L decays
#          BR         NDA      ID1       ID2
     1.03492582E-01    2     1000022        11   # BR(~e_L -> ~chi_10 e-)
     2.99074249E-01    2     1000023        11   # BR(~e_L -> ~chi_20 e-)
     3.89109850E-10    2     1000025        11   # BR(~e_L -> ~chi_30 e-)
     7.81299301E-10    2     1000035        11   # BR(~e_L -> ~chi_40 e-)
     5.97433162E-01    2    -1000024        12   # BR(~e_L -> ~chi_1- nu_e)
     6.34178042E-09    2    -1000037        12   # BR(~e_L -> ~chi_2- nu_e)
#
#         PDG            Width
DECAY   2000011     1.53176938E+01   # selectron_R decays
#          BR         NDA      ID1       ID2
     9.99999852E-01    2     1000022        11   # BR(~e_R -> ~chi_10 e-)
     1.48090767E-07    2     1000023        11   # BR(~e_R -> ~chi_20 e-)
#
#         PDG            Width
DECAY   1000013     3.70791891E+01   # smuon_L decays
#          BR         NDA      ID1       ID2
     1.03492582E-01    2     1000022        13   # BR(~mu_L -> ~chi_10 mu-)
     2.99074249E-01    2     1000023        13   # BR(~mu_L -> ~chi_20 mu-)
     3.89109850E-10    2     1000025        13   # BR(~mu_L -> ~chi_30 mu-)
     7.81299301E-10    2     1000035        13   # BR(~mu_L -> ~chi_40 mu-)
     5.97433162E-01    2    -1000024        14   # BR(~mu_L -> ~chi_1- nu_mu)
     6.34178042E-09    2    -1000037        14   # BR(~mu_L -> ~chi_2- nu_mu)
#
#         PDG            Width
DECAY   2000013     1.53176938E+01   # smuon_R decays
#          BR         NDA      ID1       ID2
     9.99999852E-01    2     1000022        13   # BR(~mu_R -> ~chi_10 mu-)
     1.48090767E-07    2     1000023        13   # BR(~mu_R -> ~chi_20 mu-)
#
#         PDG            Width
DECAY   1000015     2.64474371E+01   # stau_1 decays
#          BR         NDA      ID1       ID2
     3.61920930E-01    2     1000022        15   # BR(~tau_1 -> ~chi_10  tau-)
     2.12880368E-01    2     1000023        15   # BR(~tau_1 -> ~chi_20  tau-)
     4.25198701E-01    2    -1000024        16   # BR(~tau_1 -> ~chi_1-  nu_tau)
#
#         PDG            Width
DECAY   2000015     2.59295226E+01   # stau_2 decays
#          BR         NDA      ID1       ID2
     3.70140443E-01    2     1000022        15   # BR(~tau_2 -> ~chi_10  tau-)
     2.10136034E-01    2     1000023        15   # BR(~tau_2 -> ~chi_20  tau-)
     9.59176855E-06    2     1000025        15   # BR(~tau_2 -> ~chi_30  tau-)
     7.97478612E-06    2     1000035        15   # BR(~tau_2 -> ~chi_40  tau-)
     4.19696675E-01    2    -1000024        16   # BR(~tau_2 -> ~chi_1-  nu_tau)
     9.28242428E-06    2    -1000037        16   # BR(~tau_2 -> ~chi_2-  nu_tau)
#
#         PDG            Width
DECAY   1000012     3.70800301E+01   # snu_eL decays
#          BR         NDA      ID1       ID2
     1.03441150E-01    2     1000022        12   # BR(~nu_eL -> ~chi_10 nu_e)
     2.98633369E-01    2     1000023        12   # BR(~nu_eL -> ~chi_20 nu_e)
     8.84533108E-10    2     1000025        12   # BR(~nu_eL -> ~chi_30 nu_e)
     1.27419298E-09    2     1000035        12   # BR(~nu_eL -> ~chi_40 nu_e)
     5.97925479E-01    2     1000024        11   # BR(~nu_eL -> ~chi_1+ e-)
     6.07686322E-11    2     1000037        11   # BR(~nu_eL -> ~chi_2+ e-)
#
#         PDG            Width
DECAY   1000014     3.70800301E+01   # snu_muL decays
#          BR         NDA      ID1       ID2
     1.03441150E-01    2     1000022        14   # BR(~nu_muL -> ~chi_10 nu_mu)
     2.98633369E-01    2     1000023        14   # BR(~nu_muL -> ~chi_20 nu_mu)
     8.84533108E-10    2     1000025        14   # BR(~nu_muL -> ~chi_30 nu_mu)
     1.27419298E-09    2     1000035        14   # BR(~nu_muL -> ~chi_40 nu_mu)
     5.97925479E-01    2     1000024        13   # BR(~nu_muL -> ~chi_1+ mu-)
     6.07686322E-11    2     1000037        13   # BR(~nu_muL -> ~chi_2+ mu-)
#
#         PDG            Width
DECAY   1000016     3.70863816E+01   # snu_tauL decays
#          BR         NDA      ID1       ID2
     1.03431033E-01    2     1000022        16   # BR(~nu_tauL -> ~chi_10 nu_tau)
     2.98607199E-01    2     1000023        16   # BR(~nu_tauL -> ~chi_20 nu_tau)
     9.91258556E-10    2     1000025        16   # BR(~nu_tauL -> ~chi_30 nu_tau)
     1.44000123E-09    2     1000035        16   # BR(~nu_tauL -> ~chi_40 nu_tau)
     5.97961603E-01    2     1000024        15   # BR(~nu_tauL -> ~chi_1+ tau-)
     1.62681978E-07    2     1000037        15   # BR(~nu_tauL -> ~chi_2+ tau-)
#
#         PDG            Width
DECAY   1000024     1.12536407E-05   # chargino1+ decays
#          BR         NDA      ID1       ID2
     1.00000000E+00    2     1000022        24   # BR(~chi_1+ -> ~chi_10  W+)
#
#         PDG            Width
DECAY   1000037     9.40187064E+01   # chargino2+ decays
#          BR         NDA      ID1       ID2
     1.38944106E-01    2     1000006        -5   # BR(~chi_2+ -> ~t_1     bb)
     6.64620093E-01    2    -1000005         6   # BR(~chi_2+ -> ~b_1*    t )
     6.10889488E-07    2    -1000015        16   # BR(~chi_2+ -> ~tau_1+  nu_tau)
     5.87260762E-02    2     1000024        23   # BR(~chi_2+ -> ~chi_1+  Z )
     1.90885209E-02    2     1000022        24   # BR(~chi_2+ -> ~chi_10  W+)
     5.71806216E-02    2     1000023        24   # BR(~chi_2+ -> ~chi_20  W+)
     6.14399718E-02    2     1000024        25   # BR(~chi_2+ -> ~chi_1+  h )
#
#         PDG            Width
DECAY   1000022     0.00000000E+00   # neutralino1 decays
#
#         PDG            Width
DECAY   1000023     1.07883112E-05   # neutralino2 decays
#          BR         NDA      ID1       ID2
     5.76208484E-01    2     1000022        23   # BR(~chi_20 -> ~chi_10   Z )
     4.23791516E-01    2     1000022        25   # BR(~chi_20 -> ~chi_10   h )
#
#         PDG            Width
DECAY   1000025     9.42330884E+01   # neutralino3 decays
#          BR         NDA      ID1       ID2
     1.07632508E-02    2     1000022        23   # BR(~chi_30 -> ~chi_10   Z )
     3.79320472E-02    2     1000023        23   # BR(~chi_30 -> ~chi_20   Z )
     5.70225891E-02    2     1000024       -24   # BR(~chi_30 -> ~chi_1+   W-)
     5.70225891E-02    2    -1000024        24   # BR(~chi_30 -> ~chi_1-   W+)
     9.09322863E-03    2     1000022        25   # BR(~chi_30 -> ~chi_10   h )
     2.09431127E-02    2     1000023        25   # BR(~chi_30 -> ~chi_20   h )
     3.35287881E-01    2     1000006        -6   # BR(~chi_30 -> ~t_1      tb)
     3.35287881E-01    2    -1000006         6   # BR(~chi_30 -> ~t_1*     t )
     6.83229989E-02    2     1000005        -5   # BR(~chi_30 -> ~b_1      bb)
     6.83229989E-02    2    -1000005         5   # BR(~chi_30 -> ~b_1*     b )
     3.86967090E-12    2     2000011       -11   # BR(~chi_30 -> ~e_R-     e+)
     3.86967090E-12    2    -2000011        11   # BR(~chi_30 -> ~e_R+     e-)
     3.86967090E-12    2     2000013       -13   # BR(~chi_30 -> ~mu_R-    mu+)
     3.86967090E-12    2    -2000013        13   # BR(~chi_30 -> ~mu_R+    mu-)
     7.10857226E-07    2     1000015       -15   # BR(~chi_30 -> ~tau_1-   tau+)
     7.10857226E-07    2    -1000015        15   # BR(~chi_30 -> ~tau_1+   tau-)
#
#         PDG            Width
DECAY   1000035     9.32841972E+01   # neutralino4 decays
#          BR         NDA      ID1       ID2
     8.90066104E-03    2     1000022        23   # BR(~chi_40 -> ~chi_10   Z )
     2.08576956E-02    2     1000023        23   # BR(~chi_40 -> ~chi_20   Z )
     5.76225913E-02    2     1000024       -24   # BR(~chi_40 -> ~chi_1+   W-)
     5.76225913E-02    2    -1000024        24   # BR(~chi_40 -> ~chi_1-   W+)
     1.12789413E-02    2     1000022        25   # BR(~chi_40 -> ~chi_10   h )
     4.07670505E-02    2     1000023        25   # BR(~chi_40 -> ~chi_20   h )
     3.32455312E-01    2     1000006        -6   # BR(~chi_40 -> ~t_1      tb)
     3.32455312E-01    2    -1000006         6   # BR(~chi_40 -> ~t_1*     t )
     6.90193441E-02    2     1000005        -5   # BR(~chi_40 -> ~b_1      bb)
     6.90193441E-02    2    -1000005         5   # BR(~chi_40 -> ~b_1*     b )
     7.42548329E-12    2     2000011       -11   # BR(~chi_40 -> ~e_R-     e+)
     7.42548329E-12    2    -2000011        11   # BR(~chi_40 -> ~e_R+     e-)
     7.42548329E-12    2     2000013       -13   # BR(~chi_40 -> ~mu_R-    mu+)
     7.42548329E-12    2    -2000013        13   # BR(~chi_40 -> ~mu_R+    mu-)
     5.78321966E-07    2     1000015       -15   # BR(~chi_40 -> ~tau_1-   tau+)
     5.78321966E-07    2    -1000015        15   # BR(~chi_40 -> ~tau_1+   tau-)
#
#         PDG            Width
DECAY        25     3.67576786E-03   # h decays
#          BR         NDA      ID1       ID2
     5.53545564E-01    2           5        -5   # BR(h -> b       bb     )
     7.08385184E-02    2         -15        15   # BR(h -> tau+    tau-   )
     2.50767875E-04    2         -13        13   # BR(h -> mu+     mu-    )
     5.31815955E-04    2           3        -3   # BR(h -> s       sb     )
     2.31109908E-02    2           4        -4   # BR(h -> c       cb     )
     7.56442876E-02    2          21        21   # BR(h -> g       g      )
     2.60641328E-03    2          22        22   # BR(h -> gam     gam    )
     1.78294710E-03    2          22        23   # BR(h -> Z       gam    )
     2.41254444E-01    2          24       -24   # BR(h -> W+      W-     )
     3.04342507E-02    2          23        23   # BR(h -> Z       Z      )
#
#         PDG            Width
DECAY        35     3.85629724E+01   # H decays
#          BR         NDA      ID1       ID2
     9.03794028E-01    2           5        -5   # BR(H -> b       bb     )
     6.44869247E-02    2         -15        15   # BR(H -> tau+    tau-   )
     2.28010355E-04    2         -13        13   # BR(H -> mu+     mu-    )
     2.79996814E-04    2           3        -3   # BR(H -> s       sb     )
     7.84738661E-08    2           4        -4   # BR(H -> c       cb     )
     7.82827361E-03    2           6        -6   # BR(H -> t       tb     )
     6.65409228E-06    2          21        21   # BR(H -> g       g      )
     5.50306649E-08    2          22        22   # BR(H -> gam     gam    )
     3.21124299E-09    2          23        22   # BR(H -> Z       gam    )
     6.55731241E-07    2          24       -24   # BR(H -> W+      W-     )
     3.27461429E-07    2          23        23   # BR(H -> Z       Z      )
     5.21559652E-06    2          25        25   # BR(H -> h       h      )
    -1.37235940E-24    2          36        36   # BR(H -> A       A      )
     1.19787392E-18    2          23        36   # BR(H -> Z       A      )
     7.10342539E-04    2     1000024  -1000024   # BR(H -> ~chi_1+ ~chi_1-)
     3.88997066E-05    2     1000022   1000022   # BR(H -> ~chi_10 ~chi_10)
     3.54927592E-04    2     1000023   1000023   # BR(H -> ~chi_20 ~chi_20)
     2.39445833E-04    2     1000022   1000023   # BR(H -> ~chi_10 ~chi_20)
     2.20209116E-02    2     1000006  -1000006   # BR(H -> ~t_1    ~t_1*  )
     5.24926691E-06    2     1000005  -1000005   # BR(H -> ~b_1    ~b_1*  )
#
#         PDG            Width
DECAY        36     3.77242204E+01   # A decays
#          BR         NDA      ID1       ID2
     9.23896068E-01    2           5        -5   # BR(A -> b       bb     )
     6.59182329E-02    2         -15        15   # BR(A -> tau+    tau-   )
     2.33070793E-04    2         -13        13   # BR(A -> mu+     mu-    )
     2.86259332E-04    2           3        -3   # BR(A -> s       sb     )
     8.07783260E-08    2           4        -4   # BR(A -> c       cb     )
     8.05372150E-03    2           6        -6   # BR(A -> t       tb     )
     2.37174393E-05    2          21        21   # BR(A -> g       g      )
     6.32675323E-08    2          22        22   # BR(A -> gam     gam    )
     2.33693327E-08    2          23        22   # BR(A -> Z       gam    )
     6.67722173E-07    2          23        25   # BR(A -> Z       h      )
     8.56600319E-04    2     1000024  -1000024   # BR(A -> ~chi_1+ ~chi_1-)
     4.10374324E-05    2     1000022   1000022   # BR(A -> ~chi_10 ~chi_10)
     4.27947104E-04    2     1000023   1000023   # BR(A -> ~chi_20 ~chi_20)
     2.62510097E-04    2     1000022   1000023   # BR(A -> ~chi_10 ~chi_20)
#
#         PDG            Width
DECAY        37     4.13157073E+01   # H+ decays
#          BR         NDA      ID1       ID2
     1.47337392E-03    2           4        -5   # BR(H+ -> c       bb     )
     6.02100559E-02    2         -15        16   # BR(H+ -> tau+    nu_tau )
     2.12888072E-04    2         -13        14   # BR(H+ -> mu+     nu_mu  )
     9.42958152E-06    2           2        -5   # BR(H+ -> u       bb     )
     1.25108859E-05    2           2        -3   # BR(H+ -> u       sb     )
     2.57389153E-04    2           4        -3   # BR(H+ -> c       sb     )
     9.26737338E-01    2           6        -5   # BR(H+ -> t       bb     )
     6.10728146E-07    2          24        25   # BR(H+ -> W+      h      )
     4.99799385E-14    2          24        36   # BR(H+ -> W+      A      )
     4.63231194E-04    2     1000024   1000022   # BR(H+ -> ~chi_1+ ~chi_10)
     6.78621294E-11    2     1000024   1000023   # BR(H+ -> ~chi_1+ ~chi_20)
     1.06231728E-02    2     1000006  -1000005   # BR(H+ -> ~t_1    ~b_1*  )
