#
#                              ======================
#                              | THE SUSYHIT OUTPUT |
#                              ======================
#
#
#              ------------------------------------------------------
#              |     This is the output of the SUSY-HIT package     |
#              |  created by A.Djouadi, M.Muehlleitner and M.Spira. |
#              |  In case of problems with SUSY-HIT email to        |
#              |           margarete.muehlleitner@kit.edu           |
#              |           michael.spira@psi.ch                     |
#              |           abdelhak.djouadi@cern.ch                 |
#              ------------------------------------------------------
#
#              ------------------------------------------------------
#              |  SUSY Les Houches Accord - MSSM Spectrum + Decays  |
#              |              based on the decay programs           |
#              |                                                    |
#              |                     SDECAY 1.5                     |
#              |                                                    |
#              |  Authors: M.Muhlleitner, A.Djouadi and Y.Mambrini  |
#              |  Ref.:    Comput.Phys.Commun.168(2005)46           |
#              |           [hep-ph/0311167]                         |
#              |                                                    |
#              |                     HDECAY 3.4                     |
#              |                                                    |
#              |  By: A.Djouadi,J.Kalinowski,M.Muhlleitner,M.Spira  |
#              |  Ref.:    Comput.Phys.Commun.108(1998)56           |
#              |           [hep-ph/9704448]                         |
#              |                                                    |
#              |                                                    |
#              |  If not stated otherwise all DRbar couplings and   |
#              |  soft SUSY breaking masses are given at the scale  |
#              |  Q=  0.15500984E+04
#              |                                                    |
#              ------------------------------------------------------
#
#
BLOCK DCINFO  # Decay Program information
     1   SDECAY/HDECAY # decay calculator
     2   1.5  /3.4    # version number
#
BLOCK SPINFO  # Spectrum calculator information
     1    SOFTSUSY    # spectrum calculator                
     2    3.7.3       # version number                     
#
BLOCK MODSEL  # Model selection
     1     0   #  nonUniversal                                     
#
BLOCK SMINPUTS  # Standard Model inputs
         1     1.27934000E+02   # alpha_em^-1(M_Z)^MSbar
         2     1.16639000E-05   # G_F [GeV^-2]
         3     1.17200000E-01   # alpha_S(M_Z)^MSbar
         4     9.11870000E+01   # M_Z pole mass
         5     4.19000000E+00   # mb(mb)^MSbar
         6     1.72500000E+02   # mt pole mass
         7     1.77690000E+00   # mtau pole mass
#
BLOCK MINPAR  # Input parameters - minimal models
         3     2.00000000E+01   # tanb                
#
BLOCK EXTPAR  # Input parameters - non-minimal models
         0    -1.00000000E+00   # Set                 
         1     2.99900000E+02   # M_1(MX)             
         2     5.99900000E+02   # M_2(MX)             
         3     2.20000000E+03   # M_3(MX)             
        11     2.94338000E+03   # At(MX)              
        12     0.00000000E+00   # Ab(MX)              
        13     0.00000000E+00   # Atau(MX)            
        23     3.00000000E+03   # mu(MX)              
        25     2.00000000E+01   # tan                 
        26     3.00000000E+03   # mA(pole)            
        31     3.00000000E+03   # meL(MX)             
        32     3.00000000E+03   # mmuL(MX)            
        33     3.00000000E+03   # mtauL(MX)           
        34     3.00000000E+03   # meR(MX)             
        35     3.00000000E+03   # mmuR(MX)            
        36     3.00000000E+03   # mtauR(MX)           
        41     3.00000000E+03   # mqL1(MX)            
        42     3.00000000E+03   # mqL2(MX)            
        43     7.99900000E+02   # mqL3(MX)            
        44     3.00000000E+03   # muR(MX)             
        45     3.00000000E+03   # mcR(MX)             
        46     3.00000000E+03   # mtR(MX)             
        47     3.00000000E+03   # mdR(MX)             
        48     3.00000000E+03   # msR(MX)             
        49     3.00000000E+03   # mbR(MX)             
#
BLOCK MASS  # Mass Spectrum
# PDG code           mass       particle
        24     8.04023384E+01   # W+
        25     1.23856166E+02   # h
        35     3.00012612E+03   # H
        36     2.99999987E+03   # A
        37     3.00090806E+03   # H+
         5     4.81337004E+00   # b-quark pole mass calculated from mb(mb)_Msbar
   1000001     3.03718583E+03   # ~d_L
   2000001     3.03211600E+03   # ~d_R
   1000002     3.03627474E+03   # ~u_L
   2000002     3.03333353E+03   # ~u_R
   1000003     3.03718583E+03   # ~s_L
   2000003     3.03211600E+03   # ~s_R
   1000004     3.03627474E+03   # ~c_L
   2000004     3.03333353E+03   # ~c_R
   1000005     8.98827021E+02   # ~b_1
   2000005     3.03121735E+03   # ~b_2
   1000006     8.97247853E+02   # ~t_1
   2000006     3.01761624E+03   # ~t_2
   1000011     3.00629205E+03   # ~e_L
   2000011     3.00192510E+03   # ~e_R
   1000012     3.00490114E+03   # ~nu_eL
   1000013     3.00629205E+03   # ~mu_L
   2000013     3.00192510E+03   # ~mu_R
   1000014     3.00490114E+03   # ~nu_muL
   1000015     2.98558883E+03   # ~tau_1
   2000015     3.02200689E+03   # ~tau_2
   1000016     3.00472216E+03   # ~nu_tauL
   1000021     2.34597764E+03   # ~g
   1000022     3.01577089E+02   # ~chi_10
   1000023     6.30837702E+02   # ~chi_20
   1000025    -2.99685325E+03   # ~chi_30
   1000035     2.99769299E+03   # ~chi_40
   1000024     6.31000918E+02   # ~chi_1+
   1000037     2.99824244E+03   # ~chi_2+
#
BLOCK NMIX  # Neutralino Mixing Matrix
  1  1     9.99885185E-01   # N_11
  1  2    -7.72117079E-04   # N_12
  1  3     1.49677672E-02   # N_13
  1  4    -2.23285331E-03   # N_14
  2  1     1.19452205E-03   # N_21
  2  2     9.99605867E-01   # N_22
  2  3    -2.72277215E-02   # N_23
  2  4     6.73306126E-03   # N_24
  3  1    -8.99117414E-03   # N_31
  3  2     1.45017297E-02   # N_32
  3  3     7.06870459E-01   # N_33
  3  4     7.07137195E-01   # N_34
  4  1    -1.21386885E-02   # N_41
  4  2     2.40252676E-02   # N_42
  4  3     7.06660294E-01   # N_43
  4  4    -7.07040782E-01   # N_44
#
BLOCK UMIX  # Chargino Mixing Matrix U
  1  1     9.99257874E-01   # U_11
  1  2    -3.85188328E-02   # U_12
  2  1     3.85188328E-02   # U_21
  2  2     9.99257874E-01   # U_22
#
BLOCK VMIX  # Chargino Mixing Matrix V
  1  1     9.99954622E-01   # V_11
  1  2    -9.52646657E-03   # V_12
  2  1     9.52646657E-03   # V_21
  2  2     9.99954622E-01   # V_22
#
BLOCK STOPMIX  # Stop Mixing Matrix
  1  1     9.98805994E-01   # cos(theta_t)
  1  2    -4.88527005E-02   # sin(theta_t)
  2  1     4.88527005E-02   # -sin(theta_t)
  2  2     9.98805994E-01   # cos(theta_t)
#
BLOCK SBOTMIX  # Sbottom Mixing Matrix
  1  1     9.99910950E-01   # cos(theta_b)
  1  2     1.33451141E-02   # sin(theta_b)
  2  1    -1.33451141E-02   # -sin(theta_b)
  2  2     9.99910950E-01   # cos(theta_b)
#
BLOCK STAUMIX  # Stau Mixing Matrix
  1  1     7.06952963E-01   # cos(theta_tau)
  1  2     7.07260566E-01   # sin(theta_tau)
  2  1    -7.07260566E-01   # -sin(theta_tau)
  2  2     7.06952963E-01   # cos(theta_tau)
#
BLOCK ALPHA  # Higgs mixing
          -5.01822740E-02   # Mixing angle in the neutral Higgs boson sector
#
BLOCK HMIX Q=  1.55009841E+03  # DRbar Higgs Parameters
         1     3.00000000E+03   # mu(Q)MSSM           
         2     2.00000000E+01   # tan                 
         3     2.44195996E+02   # higgs               
         4     7.51138540E+06   # mA^2(Q)MSSM         
#
BLOCK GAUGE Q=  1.55009841E+03  # The gauge couplings
     1     3.62284457E-01   # gprime(Q) DRbar
     2     6.37428571E-01   # g(Q) DRbar
     3     1.02561112E+00   # g3(Q) DRbar
#
BLOCK AU Q=  1.55009841E+03  # The trilinear couplings
  1  1     2.27859510E-06   # A_u(Q) DRbar
  2  2     2.27862835E-06   # A_c(Q) DRbar
  3  3     2.94338000E+03   # A_t(Q) DRbar
#
BLOCK AD Q=  1.55009841E+03  # The trilinear couplings
  1  1     6.14169684E-07   # A_d(Q) DRbar
  2  2     6.14277869E-07   # A_s(Q) DRbar
  3  3     1.34062844E-06   # A_b(Q) DRbar
#
BLOCK AE Q=  1.55009841E+03  # The trilinear couplings
  1  1     0.00000000E+00   # A_e(Q) DRbar
  2  2     1.27203523E-07   # A_mu(Q) DRbar
  3  3     1.28714026E-07   # A_tau(Q) DRbar
#
BLOCK Yu Q=  1.55009841E+03  # The Yukawa couplings
  1  1     0.00000000E+00   # y_u(Q) DRbar
  2  2     0.00000000E+00   # y_c(Q) DRbar
  3  3     8.50987450E-01   # y_t(Q) DRbar
#
BLOCK Yd Q=  1.55009841E+03  # The Yukawa couplings
  1  1     0.00000000E+00   # y_d(Q) DRbar
  2  2     0.00000000E+00   # y_s(Q) DRbar
  3  3     2.15630401E-01   # y_b(Q) DRbar
#
BLOCK Ye Q=  1.55009841E+03  # The Yukawa couplings
  1  1     0.00000000E+00   # y_e(Q) DRbar
  2  2     0.00000000E+00   # y_mu(Q) DRbar
  3  3     2.07034335E-01   # y_tau(Q) DRbar
#
BLOCK MSOFT Q=  1.55009841E+03  # The soft SUSY breaking masses at the scale Q
         1     2.99900000E+02   # M_1(Q)              
         2     5.99900000E+02   # M_2(Q)              
         3     2.20000000E+03   # M_3(Q)              
        21    -8.50324786E+04   # M^2_Hd              
        22    -9.04725512E+06   # M^2_Hu              
        31     3.00000000E+03   # M_eL                
        32     3.00000000E+03   # M_muL               
        33     3.00000000E+03   # M_tauL              
        34     3.00000000E+03   # M_eR                
        35     3.00000000E+03   # M_muR               
        36     3.00000000E+03   # M_tauR              
        41     3.00000000E+03   # M_q1L               
        42     3.00000000E+03   # M_q2L               
        43     7.99899993E+02   # M_q3L               
        44     3.00000000E+03   # M_uR                
        45     3.00000000E+03   # M_cR                
        46     3.00000000E+03   # M_tR                
        47     3.00000000E+03   # M_dR                
        48     3.00000000E+03   # M_sR                
        49     3.00000000E+03   # M_bR                
#
#
#
#                             =================
#                             |The decay table|
#                             =================
#
# - The QCD corrections to the decays gluino -> squark  + quark
#                                     squark -> gaugino + quark_prime
#                                     squark -> squark_prime + Higgs
#                                     squark -> gluino  + quark
#   are included.
#
# - The multi-body decays for the inos, stops and sbottoms are included.
#
# - The loop induced decays for the gluino, neutralinos and stops
#   are included.
#
# - The SUSY decays of the top quark are included.
#
#
#         PDG            Width
DECAY         6     1.41029513E+00   # top decays
#          BR         NDA      ID1       ID2
     1.00000000E+00    2           5        24   # BR(t ->  b    W+)
#
#         PDG            Width
DECAY   1000021     6.92191078E+01   # gluino decays
#          BR         NDA      ID1       ID2
     2.48208888E-01    2     1000005        -5   # BR(~g -> ~b_1  bb)
     2.48208888E-01    2    -1000005         5   # BR(~g -> ~b_1* b )
     2.51791112E-01    2     1000006        -6   # BR(~g -> ~t_1  tb)
     2.51791112E-01    2    -1000006         6   # BR(~g -> ~t_1* t )
#
#         PDG            Width
DECAY   1000006     2.69042822E+00   # stop1 decays
#          BR         NDA      ID1       ID2
     3.49462888E-02    2     1000022         6   # BR(~t_1 -> ~chi_10 t )
     2.52737737E-01    2     1000023         6   # BR(~t_1 -> ~chi_20 t )
     7.12315974E-01    2     1000024         5   # BR(~t_1 -> ~chi_1+ b )
#
#         PDG            Width
DECAY   2000006     1.00565219E+02   # stop2 decays
#          BR         NDA      ID1       ID2
     6.46283903E-02    2     1000022         6   # BR(~t_2 -> ~chi_10 t )
     3.68018750E-04    2     1000023         6   # BR(~t_2 -> ~chi_20 t )
     0.00000000E+00    2     1000025         6   # BR(~t_2 -> ~chi_30 t )
     7.39603070E-04    2     1000024         5   # BR(~t_2 -> ~chi_1+ b )
     7.50298051E-05    2     1000037         5   # BR(~t_2 -> ~chi_2+ b )
     3.33968818E-01    2     1000021         6   # BR(~t_2 -> ~g      t )
     1.56804363E-01    2     1000006        25   # BR(~t_2 -> ~t_1    h )
     1.49240370E-01    2     1000006        23   # BR(~t_2 -> ~t_1    Z )
     2.94175408E-01    2     1000005        24   # BR(~t_2 -> ~b_1    W+)
#
#         PDG            Width
DECAY   1000005     2.45612573E+00   # sbottom1 decays
#          BR         NDA      ID1       ID2
     4.35681491E-02    2     1000022         5   # BR(~b_1 -> ~chi_10 b )
     3.94797875E-01    2     1000023         5   # BR(~b_1 -> ~chi_20 b )
     5.61633976E-01    2    -1000024         6   # BR(~b_1 -> ~chi_1- t )
#
#         PDG            Width
DECAY   2000005     4.21334622E+01   # sbottom2 decays
#          BR         NDA      ID1       ID2
     3.89734666E-02    2     1000022         5   # BR(~b_2 -> ~chi_10 b )
     9.26039777E-08    2     1000023         5   # BR(~b_2 -> ~chi_20 b )
     1.78522167E-05    2     1000025         5   # BR(~b_2 -> ~chi_30 b )
     1.72317390E-05    2     1000035         5   # BR(~b_2 -> ~chi_40 b )
    -2.49788316E-09    2    -1000024         6   # BR(~b_2 -> ~chi_1- t )
     8.28549705E-01    2     1000021         5   # BR(~b_2 -> ~g      b )
     2.93097460E-02    2     1000005        25   # BR(~b_2 -> ~b_1    h )
     4.23390767E-02    2     1000005        23   # BR(~b_2 -> ~b_1    Z )
     6.07928321E-02    2     1000006       -24   # BR(~b_2 -> ~t_1    W-)
#
#         PDG            Width
DECAY   1000002     6.79068306E+01   # sup_L decays
#          BR         NDA      ID1       ID2
     6.00997356E-03    2     1000022         2   # BR(~u_L -> ~chi_10 u)
     1.57991942E-01    2     1000023         2   # BR(~u_L -> ~chi_20 u)
     2.16268131E-08    2     1000025         2   # BR(~u_L -> ~chi_30 u)
     5.97679179E-08    2     1000035         2   # BR(~u_L -> ~chi_40 u)
     3.16046857E-01    2     1000024         1   # BR(~u_L -> ~chi_1+ d)
     2.23522050E-08    2     1000037         1   # BR(~u_L -> ~chi_2+ d)
     5.19951124E-01    2     1000021         2   # BR(~u_L -> ~g      u)
#
#         PDG            Width
DECAY   2000002     4.16482242E+01   # sup_R decays
#          BR         NDA      ID1       ID2
     1.57909528E-01    2     1000022         2   # BR(~u_R -> ~chi_10 u)
     2.10907957E-07    2     1000023         2   # BR(~u_R -> ~chi_20 u)
     8.60480765E-09    2     1000025         2   # BR(~u_R -> ~chi_30 u)
     1.49899933E-08    2     1000035         2   # BR(~u_R -> ~chi_40 u)
     8.42090237E-01    2     1000021         2   # BR(~u_R -> ~g      u)
#
#         PDG            Width
DECAY   1000001     6.79590991E+01   # sdown_L decays
#          BR         NDA      ID1       ID2
     6.10601902E-03    2     1000022         1   # BR(~d_L -> ~chi_10 d)
     1.57784521E-01    2     1000023         1   # BR(~d_L -> ~chi_20 d)
     3.62075411E-08    2     1000025         1   # BR(~d_L -> ~chi_30 d)
     9.17249370E-08    2     1000035         1   # BR(~d_L -> ~chi_40 d)
     3.15477802E-01    2    -1000024         2   # BR(~d_L -> ~chi_1- u)
     3.82219263E-07    2    -1000037         2   # BR(~d_L -> ~chi_2- u)
     5.20631148E-01    2     1000021         1   # BR(~d_L -> ~g      d)
#
#         PDG            Width
DECAY   2000001     3.66171673E+01   # sdown_R decays
#          BR         NDA      ID1       ID2
     4.48822044E-02    2     1000022         1   # BR(~d_R -> ~chi_10 d)
     5.99424798E-08    2     1000023         1   # BR(~d_R -> ~chi_20 d)
     2.29147639E-09    2     1000025         1   # BR(~d_R -> ~chi_30 d)
     3.98551890E-09    2     1000035         1   # BR(~d_R -> ~chi_40 d)
     9.55117729E-01    2     1000021         1   # BR(~d_R -> ~g      d)
#
#         PDG            Width
DECAY   1000004     6.79068306E+01   # scharm_L decays
#          BR         NDA      ID1       ID2
     6.00997356E-03    2     1000022         4   # BR(~c_L -> ~chi_10 c)
     1.57991942E-01    2     1000023         4   # BR(~c_L -> ~chi_20 c)
     2.16268131E-08    2     1000025         4   # BR(~c_L -> ~chi_30 c)
     5.97679179E-08    2     1000035         4   # BR(~c_L -> ~chi_40 c)
     3.16046857E-01    2     1000024         3   # BR(~c_L -> ~chi_1+ s)
     2.23522050E-08    2     1000037         3   # BR(~c_L -> ~chi_2+ s)
     5.19951124E-01    2     1000021         4   # BR(~c_L -> ~g      c)
#
#         PDG            Width
DECAY   2000004     4.16482242E+01   # scharm_R decays
#          BR         NDA      ID1       ID2
     1.57909528E-01    2     1000022         4   # BR(~c_R -> ~chi_10 c)
     2.10907957E-07    2     1000023         4   # BR(~c_R -> ~chi_20 c)
     8.60480765E-09    2     1000025         4   # BR(~c_R -> ~chi_30 c)
     1.49899933E-08    2     1000035         4   # BR(~c_R -> ~chi_40 c)
     8.42090237E-01    2     1000021         4   # BR(~c_R -> ~g      c)
#
#         PDG            Width
DECAY   1000003     6.79590991E+01   # sstrange_L decays
#          BR         NDA      ID1       ID2
     6.10601902E-03    2     1000022         3   # BR(~s_L -> ~chi_10 s)
     1.57784521E-01    2     1000023         3   # BR(~s_L -> ~chi_20 s)
     3.62075411E-08    2     1000025         3   # BR(~s_L -> ~chi_30 s)
     9.17249370E-08    2     1000035         3   # BR(~s_L -> ~chi_40 s)
     3.15477802E-01    2    -1000024         4   # BR(~s_L -> ~chi_1- c)
     3.82219263E-07    2    -1000037         4   # BR(~s_L -> ~chi_2- c)
     5.20631148E-01    2     1000021         3   # BR(~s_L -> ~g      s)
#
#         PDG            Width
DECAY   2000003     3.66171673E+01   # sstrange_R decays
#          BR         NDA      ID1       ID2
     4.48822044E-02    2     1000022         3   # BR(~s_R -> ~chi_10 s)
     5.99424798E-08    2     1000023         3   # BR(~s_R -> ~chi_20 s)
     2.29147639E-09    2     1000025         3   # BR(~s_R -> ~chi_30 s)
     3.98551890E-09    2     1000035         3   # BR(~s_R -> ~chi_40 s)
     9.55117729E-01    2     1000021         3   # BR(~s_R -> ~g      s)
#
#         PDG            Width
DECAY   1000011     3.71194088E+01   # selectron_L decays
#          BR         NDA      ID1       ID2
     1.03315143E-01    2     1000022        11   # BR(~e_L -> ~chi_10 e-)
     2.99313930E-01    2     1000023        11   # BR(~e_L -> ~chi_20 e-)
     1.13484409E-09    2     1000025        11   # BR(~e_L -> ~chi_30 e-)
     3.13308514E-09    2     1000035        11   # BR(~e_L -> ~chi_40 e-)
     5.97370895E-01    2    -1000024        12   # BR(~e_L -> ~chi_1- nu_e)
     2.77813435E-08    2    -1000037        12   # BR(~e_L -> ~chi_2- nu_e)
#
#         PDG            Width
DECAY   2000011     1.53585250E+01   # selectron_R decays
#          BR         NDA      ID1       ID2
     9.99998667E-01    2     1000022        11   # BR(~e_R -> ~chi_10 e-)
     1.33066284E-06    2     1000023        11   # BR(~e_R -> ~chi_20 e-)
     9.40592975E-10    2     1000025        11   # BR(~e_R -> ~chi_30 e-)
     1.19402967E-09    2     1000035        11   # BR(~e_R -> ~chi_40 e-)
#
#         PDG            Width
DECAY   1000013     3.71194088E+01   # smuon_L decays
#          BR         NDA      ID1       ID2
     1.03315143E-01    2     1000022        13   # BR(~mu_L -> ~chi_10 mu-)
     2.99313930E-01    2     1000023        13   # BR(~mu_L -> ~chi_20 mu-)
     1.13484409E-09    2     1000025        13   # BR(~mu_L -> ~chi_30 mu-)
     3.13308514E-09    2     1000035        13   # BR(~mu_L -> ~chi_40 mu-)
     5.97370895E-01    2    -1000024        14   # BR(~mu_L -> ~chi_1- nu_mu)
     2.77813435E-08    2    -1000037        14   # BR(~mu_L -> ~chi_2- nu_mu)
#
#         PDG            Width
DECAY   2000013     1.53585250E+01   # smuon_R decays
#          BR         NDA      ID1       ID2
     9.99998667E-01    2     1000022        13   # BR(~mu_R -> ~chi_10 mu-)
     1.33066284E-06    2     1000023        13   # BR(~mu_R -> ~chi_20 mu-)
     9.40592975E-10    2     1000025        13   # BR(~mu_R -> ~chi_30 mu-)
     1.19402967E-09    2     1000035        13   # BR(~mu_R -> ~chi_40 mu-)
#
#         PDG            Width
DECAY   1000015     2.65053191E+01   # stau_1 decays
#          BR         NDA      ID1       ID2
     3.61803817E-01    2     1000022        15   # BR(~tau_1 -> ~chi_10  tau-)
     2.13041837E-01    2     1000023        15   # BR(~tau_1 -> ~chi_20  tau-)
     4.25154346E-01    2    -1000024        16   # BR(~tau_1 -> ~chi_1-  nu_tau)
#
#         PDG            Width
DECAY   2000015     2.59490670E+01   # stau_2 decays
#          BR         NDA      ID1       ID2
     3.70376111E-01    2     1000022        15   # BR(~tau_2 -> ~chi_10  tau-)
     2.10185508E-01    2     1000023        15   # BR(~tau_2 -> ~chi_20  tau-)
     1.34210489E-05    2     1000025        15   # BR(~tau_2 -> ~chi_30  tau-)
     1.49574871E-05    2     1000035        15   # BR(~tau_2 -> ~chi_40  tau-)
     4.19394780E-01    2    -1000024        16   # BR(~tau_2 -> ~chi_1-  nu_tau)
     1.52223199E-05    2    -1000037        16   # BR(~tau_2 -> ~chi_2-  nu_tau)
#
#         PDG            Width
DECAY   1000012     3.71210019E+01   # snu_eL decays
#          BR         NDA      ID1       ID2
     1.03823686E-01    2     1000022        12   # BR(~nu_eL -> ~chi_10 nu_e)
     2.98325523E-01    2     1000023        12   # BR(~nu_eL -> ~chi_20 nu_e)
     3.60091091E-09    2     1000025        12   # BR(~nu_eL -> ~chi_30 nu_e)
     7.18421094E-09    2     1000035        12   # BR(~nu_eL -> ~chi_40 nu_e)
     5.97850779E-01    2     1000024        11   # BR(~nu_eL -> ~chi_1+ e-)
     1.16381244E-09    2     1000037        11   # BR(~nu_eL -> ~chi_2+ e-)
#
#         PDG            Width
DECAY   1000014     3.71210019E+01   # snu_muL decays
#          BR         NDA      ID1       ID2
     1.03823686E-01    2     1000022        14   # BR(~nu_muL -> ~chi_10 nu_mu)
     2.98325523E-01    2     1000023        14   # BR(~nu_muL -> ~chi_20 nu_mu)
     3.60091091E-09    2     1000025        14   # BR(~nu_muL -> ~chi_30 nu_mu)
     7.18421094E-09    2     1000035        14   # BR(~nu_muL -> ~chi_40 nu_mu)
     5.97850779E-01    2     1000024        13   # BR(~nu_muL -> ~chi_1+ mu-)
     1.16381244E-09    2     1000037        13   # BR(~nu_muL -> ~chi_2+ mu-)
#
#         PDG            Width
DECAY   1000016     3.71217747E+01   # snu_tauL decays
#          BR         NDA      ID1       ID2
     1.03815089E-01    2     1000022        16   # BR(~nu_tauL -> ~chi_10 nu_tau)
     2.98298266E-01    2     1000023        16   # BR(~nu_tauL -> ~chi_20 nu_tau)
     3.44286608E-09    2     1000025        16   # BR(~nu_tauL -> ~chi_30 nu_tau)
     6.83254031E-09    2     1000035        16   # BR(~nu_tauL -> ~chi_40 nu_tau)
     5.97885383E-01    2     1000024        15   # BR(~nu_tauL -> ~chi_1+ tau-)
     1.25100249E-06    2     1000037        15   # BR(~nu_tauL -> ~chi_2+ tau-)
#
#         PDG            Width
DECAY   1000024     1.34576933E-04   # chargino1+ decays
#          BR         NDA      ID1       ID2
     1.00000000E+00    2     1000022        24   # BR(~chi_1+ -> ~chi_10  W+)
#
#         PDG            Width
DECAY   1000037     8.26100336E+01   # chargino2+ decays
#          BR         NDA      ID1       ID2
     4.78887599E-02    2     1000006        -5   # BR(~chi_2+ -> ~t_1     bb)
     7.11834714E-01    2    -1000005         6   # BR(~chi_2+ -> ~b_1*    t )
     4.25960835E-07    2    -1000015        16   # BR(~chi_2+ -> ~tau_1+  nu_tau)
     7.19462714E-02    2     1000024        23   # BR(~chi_2+ -> ~chi_1+  Z )
     2.24914725E-02    2     1000022        24   # BR(~chi_2+ -> ~chi_10  W+)
     7.00960022E-02    2     1000023        24   # BR(~chi_2+ -> ~chi_20  W+)
     7.57423536E-02    2     1000024        25   # BR(~chi_2+ -> ~chi_1+  h )
#
#         PDG            Width
DECAY   1000022     0.00000000E+00   # neutralino1 decays
#
#         PDG            Width
DECAY   1000023     1.17650498E-04   # neutralino2 decays
#          BR         NDA      ID1       ID2
     5.30169039E-02    2     1000022        23   # BR(~chi_20 -> ~chi_10   Z )
     9.46983096E-01    2     1000022        25   # BR(~chi_20 -> ~chi_10   h )
#
#         PDG            Width
DECAY   1000025     8.27649168E+01   # neutralino3 decays
#          BR         NDA      ID1       ID2
     1.49860154E-02    2     1000022        23   # BR(~chi_30 -> ~chi_10   Z )
     5.25386933E-02    2     1000023        23   # BR(~chi_30 -> ~chi_20   Z )
     6.98500867E-02    2     1000024       -24   # BR(~chi_30 -> ~chi_1+   W-)
     6.98500867E-02    2    -1000024        24   # BR(~chi_30 -> ~chi_1-   W+)
     8.50639670E-03    2     1000022        25   # BR(~chi_30 -> ~chi_10   h )
     1.94884967E-02    2     1000023        25   # BR(~chi_30 -> ~chi_20   h )
     3.59479985E-01    2     1000006        -6   # BR(~chi_30 -> ~t_1      tb)
     3.59479985E-01    2    -1000006         6   # BR(~chi_30 -> ~t_1*     t )
     2.29097872E-02    2     1000005        -5   # BR(~chi_30 -> ~b_1      bb)
     2.29097872E-02    2    -1000005         5   # BR(~chi_30 -> ~b_1*     b )
     3.39628501E-07    2     1000015       -15   # BR(~chi_30 -> ~tau_1-   tau+)
     3.39628501E-07    2    -1000015        15   # BR(~chi_30 -> ~tau_1+   tau-)
#
#         PDG            Width
DECAY   1000035     8.19953935E+01   # neutralino4 decays
#          BR         NDA      ID1       ID2
     8.30101715E-03    2     1000022        23   # BR(~chi_40 -> ~chi_10   Z )
     1.93595149E-02    2     1000023        23   # BR(~chi_40 -> ~chi_20   Z )
     7.05457785E-02    2     1000024       -24   # BR(~chi_40 -> ~chi_1+   W-)
     7.05457785E-02    2    -1000024        24   # BR(~chi_40 -> ~chi_1-   W+)
     1.57202659E-02    2     1000022        25   # BR(~chi_40 -> ~chi_10   h )
     5.65590704E-02    2     1000023        25   # BR(~chi_40 -> ~chi_20   h )
     3.56304768E-01    2     1000006        -6   # BR(~chi_40 -> ~t_1      tb)
     3.56304768E-01    2    -1000006         6   # BR(~chi_40 -> ~t_1*     t )
     2.31789991E-02    2     1000005        -5   # BR(~chi_40 -> ~b_1      bb)
     2.31789991E-02    2    -1000005         5   # BR(~chi_40 -> ~b_1*     b )
     5.20361747E-07    2     1000015       -15   # BR(~chi_40 -> ~tau_1-   tau+)
     5.20361747E-07    2    -1000015        15   # BR(~chi_40 -> ~tau_1+   tau-)
#
#         PDG            Width
DECAY        25     4.67040054E-03   # h decays
#          BR         NDA      ID1       ID2
     6.87904651E-01    2           5        -5   # BR(h -> b       bb     )
     5.53799198E-02    2         -15        15   # BR(h -> tau+    tau-   )
     1.96050956E-04    2         -13        13   # BR(h -> mu+     mu-    )
     4.16830468E-04    2           3        -3   # BR(h -> s       sb     )
     1.79928275E-02    2           4        -4   # BR(h -> c       cb     )
     5.75413577E-02    2          21        21   # BR(h -> g       g      )
     1.93810512E-03    2          22        22   # BR(h -> gam     gam    )
     1.20606642E-03    2          22        23   # BR(h -> Z       gam    )
     1.58033224E-01    2          24       -24   # BR(h -> W+      W-     )
     1.93909670E-02    2          23        23   # BR(h -> Z       Z      )
#
#         PDG            Width
DECAY        35     1.39849477E+01   # H decays
#          BR         NDA      ID1       ID2
     7.46824401E-01    2           5        -5   # BR(H -> b       bb     )
     1.77816844E-01    2         -15        15   # BR(H -> tau+    tau-   )
     6.28717870E-04    2         -13        13   # BR(H -> mu+     mu-    )
     7.72065877E-04    2           3        -3   # BR(H -> s       sb     )
     2.17863669E-07    2           4        -4   # BR(H -> c       cb     )
     2.17333032E-02    2           6        -6   # BR(H -> t       tb     )
     2.68516853E-05    2          21        21   # BR(H -> g       g      )
     2.69037689E-08    2          22        22   # BR(H -> gam     gam    )
     8.37179305E-09    2          23        22   # BR(H -> Z       gam    )
     3.16227048E-05    2          24       -24   # BR(H -> W+      W-     )
     1.57918599E-05    2          23        23   # BR(H -> Z       Z      )
     8.27719982E-05    2          25        25   # BR(H -> h       h      )
     3.25856641E-23    2          36        36   # BR(H -> A       A      )
     2.57607731E-18    2          23        36   # BR(H -> Z       A      )
     1.96187324E-03    2     1000024  -1000024   # BR(H -> ~chi_1+ ~chi_1-)
     1.08115508E-04    2     1000022   1000022   # BR(H -> ~chi_10 ~chi_10)
     9.78487018E-04    2     1000023   1000023   # BR(H -> ~chi_20 ~chi_20)
     6.62785885E-04    2     1000022   1000023   # BR(H -> ~chi_10 ~chi_20)
     4.83502555E-02    2     1000006  -1000006   # BR(H -> ~t_1    ~t_1*  )
     5.85925225E-06    2     1000005  -1000005   # BR(H -> ~b_1    ~b_1*  )
#
#         PDG            Width
DECAY        36     1.33214147E+01   # A decays
#          BR         NDA      ID1       ID2
     7.84097206E-01    2           5        -5   # BR(A -> b       bb     )
     1.86670408E-01    2         -15        15   # BR(A -> tau+    tau-   )
     6.60021031E-04    2         -13        13   # BR(A -> mu+     mu-    )
     8.10642886E-04    2           3        -3   # BR(A -> s       sb     )
     2.28751931E-07    2           4        -4   # BR(A -> c       cb     )
     2.28069142E-02    2           6        -6   # BR(A -> t       tb     )
     6.71641816E-05    2          21        21   # BR(A -> g       g      )
     4.46305913E-08    2          22        22   # BR(A -> gam     gam    )
     6.61767360E-08    2          23        22   # BR(A -> Z       gam    )
     3.30744852E-05    2          23        25   # BR(A -> Z       h      )
     2.62940522E-03    2     1000024  -1000024   # BR(A -> ~chi_1+ ~chi_1-)
     1.21869253E-04    2     1000022   1000022   # BR(A -> ~chi_10 ~chi_10)
     1.31131042E-03    2     1000023   1000023   # BR(A -> ~chi_20 ~chi_20)
     7.91645451E-04    2     1000022   1000023   # BR(A -> ~chi_10 ~chi_20)
#
#         PDG            Width
DECAY        37     1.02411743E+01   # H+ decays
#          BR         NDA      ID1       ID2
     1.10651704E-03    2           4        -5   # BR(H+ -> c       bb     )
     2.42888818E-01    2         -15        16   # BR(H+ -> tau+    nu_tau )
     8.58795617E-04    2         -13        14   # BR(H+ -> mu+     nu_mu  )
     7.08169800E-06    2           2        -5   # BR(H+ -> u       bb     )
     5.04696213E-05    2           2        -3   # BR(H+ -> u       sb     )
     1.03832240E-03    2           4        -3   # BR(H+ -> c       sb     )
     7.19694782E-01    2           6        -5   # BR(H+ -> t       bb     )
     4.30883094E-05    2          24        25   # BR(H+ -> W+      h      )
     7.93835175E-14    2          24        36   # BR(H+ -> W+      A      )
     1.93120940E-03    2     1000024   1000022   # BR(H+ -> ~chi_1+ ~chi_10)
     2.67506110E-09    2     1000024   1000023   # BR(H+ -> ~chi_1+ ~chi_20)
     3.23809133E-02    2     1000006  -1000005   # BR(H+ -> ~t_1    ~b_1*  )
