#
#                              ======================
#                              | THE SUSYHIT OUTPUT |
#                              ======================
#
#
#              ------------------------------------------------------
#              |     This is the output of the SUSY-HIT package     |
#              |  created by A.Djouadi, M.Muehlleitner and M.Spira. |
#              |  In case of problems with SUSY-HIT email to        |
#              |           margarete.muehlleitner@kit.edu           |
#              |           michael.spira@psi.ch                     |
#              |           abdelhak.djouadi@cern.ch                 |
#              ------------------------------------------------------
#
#              ------------------------------------------------------
#              |  SUSY Les Houches Accord - MSSM Spectrum + Decays  |
#              |              based on the decay programs           |
#              |                                                    |
#              |                     SDECAY 1.5a                    |
#              |                                                    |
#              |  Authors: M.Muhlleitner, A.Djouadi and Y.Mambrini  |
#              |  Ref.:    Comput.Phys.Commun.168(2005)46           |
#              |           [hep-ph/0311167]                         |
#              |                                                    |
#              |                     HDECAY 3.4                     |
#              |                                                    |
#              |  By: A.Djouadi,J.Kalinowski,M.Muhlleitner,M.Spira  |
#              |  Ref.:    Comput.Phys.Commun.108(1998)56           |
#              |           [hep-ph/9704448]                         |
#              |                                                    |
#              |                                                    |
#              |  If not stated otherwise all DRbar couplings and   |
#              |  soft SUSY breaking masses are given at the scale  |
#              |  Q=  0.91187600E+02
#              |                                                    |
#              ------------------------------------------------------
#
#
BLOCK DCINFO  # Decay Program information
     1   SDECAY/HDECAY # decay calculator
     2   1.5a /3.4    # version number
#
BLOCK SPINFO  # Spectrum calculator information
     1   SuSpect     # RGE +Spectrum calculator            
     2   2.43         # version number                     
#
BLOCK MODSEL  # Model selection
     1     2   # GMSB                                              
#
BLOCK SMINPUTS  # Standard Model inputs
         1     1.27932904E+02   # alpha_em^-1(M_Z)^MSbar
         2     1.16639000E-05   # G_F [GeV^-2]
         3     1.17200000E-01   # alpha_S(M_Z)^MSbar
         4     9.11870000E+01   # M_Z pole mass
         5     4.25000000E+00   # mb(mb)^MSbar
         6     1.72900000E+02   # mt pole mass
         7     1.77700000E+00   # mtau pole mass
#
BLOCK MINPAR  # Input parameters - minimal models
#
BLOCK EXTPAR  # Input parameters - non-minimal models
         0     9.11876000E+01   # EWSB                
         1     4.55832221E+02   # M_1                 
         2     3.00000000E+03   # M_2                 
         3     2.60000000E+03   # M_3                 
        11     0.00000000E+00   # A_t                 
        12     0.00000000E+00   # A_b                 
        13     0.00000000E+00   # A_tau               
        14     0.00000000E+00   # A_u                 
        15     0.00000000E+00   # A_d                 
        16     0.00000000E+00   # A_e                 
        23    -4.50000000E+02   # mu(EWSB)            
        25     1.50000000E+00   # tanbeta(in)         
        26     2.00000000E+03   # MA_pole             
        31     5.00000000E+03   # M_eL                
        32     5.00000000E+03   # M_muL               
        33     5.00000000E+03   # M_tauL              
        34     5.00000000E+03   # M_eR                
        35     5.00000000E+03   # M_muR               
        36     5.00000000E+03   # M_tauR              
        41     5.00000000E+03   # M_q1L               
        42     5.00000000E+03   # M_q2L               
        43     5.00000000E+03   # M_q3L               
        44     5.00000000E+03   # M_uR                
        45     5.00000000E+03   # M_cR                
        46     5.00000000E+03   # M_tR                
        47     5.00000000E+03   # M_dR                
        48     5.00000000E+03   # M_sR                
        49     5.00000000E+03   # M_bR                
#
BLOCK MASS  # Mass Spectrum
# PDG code           mass       particle
        24     8.05387988E+01   # W+
        25     1.25000000E+02   # h
        35     2.00414770E+03   # H
        36     2.00000000E+03   # A
        37     2.00186947E+03   # H+
         5     4.87877839E+00   # b-quark pole mass calculated from mb(mb)_Msbar
   1000001     5.00013292E+03   # ~d_L
   2000001     5.00002530E+03   # ~d_R
   1000002     4.99989238E+03   # ~u_L
   2000002     4.99994939E+03   # ~u_R
   1000003     5.00013292E+03   # ~s_L
   2000003     5.00002530E+03   # ~s_R
   1000004     4.99989238E+03   # ~c_L
   2000004     4.99994939E+03   # ~c_R
   1000005     4.99989033E+03   # ~b_1
   2000005     5.00026934E+03   # ~b_2
   1000006     4.99767074E+03   # ~t_1
   2000006     5.00679941E+03   # ~t_2
   1000011     5.00008231E+03   # ~e_L
   2000011     5.00007591E+03   # ~e_R
   1000012     4.99984177E+03   # ~nu_eL
   1000013     5.00008231E+03   # ~mu_L
   2000013     5.00007591E+03   # ~mu_R
   1000014     4.99984177E+03   # ~nu_muL
   1000015     4.99995948E+03   # ~tau_1
   2000015     5.00019938E+03   # ~tau_2
   1000016     4.99984177E+03   # ~nu_tauL
   1000021     2.60000000E+03   # ~g
   1000022     4.44352041E+02   # ~chi_10
   1000023    -4.53828154E+02   # ~chi_20
   1000025     4.63471499E+02   # ~chi_30
   1000035     3.00183683E+03   # ~chi_40
   1000024     4.51647873E+02   # ~chi_1+
   1000037     3.00183653E+03   # ~chi_2+
   1000039     4.25622875E-09   # ~gravitino
#
BLOCK NMIX  # Neutralino Mixing Matrix
  1  1     5.38338541E-01   # N_11
  1  2    -4.30464671E-03   # N_12
  1  3    -6.14400870E-01   # N_13
  1  4    -5.76788224E-01   # N_14
  2  1     4.78322902E-02   # N_21
  2  2    -2.24250858E-02   # N_22
  2  3     7.05520986E-01   # N_23
  2  4    -7.06717289E-01   # N_24
  3  1     8.41370028E-01   # N_31
  3  2     4.51059658E-03   # N_32
  3  3     3.53011955E-01   # N_33
  3  4     4.09217168E-01   # N_34
  4  1     4.05190100E-04   # N_41
  4  2    -9.99729083E-01   # N_42
  4  3    -1.15874347E-02   # N_43
  4  4     2.01823467E-02   # N_44
#
BLOCK UMIX  # Chargino Mixing Matrix U
  1  1    -1.63798434E-02   # U_11
  1  2     9.99865841E-01   # U_12
  2  1     9.99865841E-01   # U_21
  2  2     1.63798434E-02   # U_22
#
BLOCK VMIX  # Chargino Mixing Matrix V
  1  1     2.85404233E-02   # V_11
  1  2    -9.99592639E-01   # V_12
  2  1     9.99592639E-01   # V_21
  2  2     2.85404233E-02   # V_22
#
BLOCK STOPMIX  # Stop Mixing Matrix
  1  1     7.09310358E-01   # cos(theta_t)
  1  2    -7.04896316E-01   # sin(theta_t)
  2  1     7.04896316E-01   # -sin(theta_t)
  2  2     7.09310358E-01   # cos(theta_t)
#
BLOCK SBOTMIX  # Sbottom Mixing Matrix
  1  1    -5.98352700E-01   # cos(theta_b)
  1  2     8.01232829E-01   # sin(theta_b)
  2  1    -8.01232829E-01   # -sin(theta_b)
  2  2    -5.98352700E-01   # cos(theta_b)
#
BLOCK STAUMIX  # Stau Mixing Matrix
  1  1    -6.97611362E-01   # cos(theta_tau)
  1  2     7.16476369E-01   # sin(theta_tau)
  2  1    -7.16476369E-01   # -sin(theta_tau)
  2  2    -6.97611362E-01   # cos(theta_tau)
#
BLOCK ALPHA  # Higgs mixing
          -5.90206197E-01   # Mixing angle in the neutral Higgs boson sector
#
BLOCK HMIX Q=  9.11876000E+01  # DRbar Higgs Parameters
         1    -4.50000000E+02   # mu(Q)               
         2     1.49999979E+00   # tanbeta(Q)          
         3     2.51743900E+02   # vev(Q)              
         4     4.12850941E+06   # MA^2(Q)             
#
BLOCK GAUGE Q=  9.11876000E+01  # The gauge couplings
     1     3.52956842E-01   # gprime(Q) DRbar
     2     6.28283988E-01   # g(Q) DRbar
     3     1.07627773E+00   # g3(Q) DRbar
#
BLOCK AU Q=  9.11876000E+01  # The trilinear couplings
  1  1     0.00000000E+00   # A_u(Q) DRbar
  2  2     0.00000000E+00   # A_c(Q) DRbar
  3  3     0.00000000E+00   # A_t(Q) DRbar
#
BLOCK AD Q=  9.11876000E+01  # The trilinear couplings
  1  1     0.00000000E+00   # A_d(Q) DRbar
  2  2     0.00000000E+00   # A_s(Q) DRbar
  3  3     0.00000000E+00   # A_b(Q) DRbar
#
BLOCK AE Q=  9.11876000E+01  # The trilinear couplings
  1  1     0.00000000E+00   # A_e(Q) DRbar
  2  2     0.00000000E+00   # A_mu(Q) DRbar
  3  3     0.00000000E+00   # A_tau(Q) DRbar
#
BLOCK Yu Q=  9.11876000E+01  # The Yukawa couplings
  1  1     0.00000000E+00   # y_u(Q) DRbar
  2  2     0.00000000E+00   # y_c(Q) DRbar
  3  3     1.02765765E+00   # y_t(Q) DRbar
#
BLOCK Yd Q=  9.11876000E+01  # The Yukawa couplings
  1  1     0.00000000E+00   # y_d(Q) DRbar
  2  2     0.00000000E+00   # y_s(Q) DRbar
  3  3     2.72623998E-02   # y_b(Q) DRbar
#
BLOCK Ye Q=  9.11876000E+01  # The Yukawa couplings
  1  1     0.00000000E+00   # y_e(Q) DRbar
  2  2     0.00000000E+00   # y_mu(Q) DRbar
  3  3     1.79910620E-02   # y_tau(Q) DRbar
#
BLOCK MSOFT Q=  9.11876000E+01  # The soft SUSY breaking masses at the scale Q
         1     4.55832221E+02   # M_1                 
         2     3.00000000E+03   # M_2                 
         3     2.60000000E+03   # M_3                 
        14     0.00000000E+00   # A_u                 
        15     0.00000000E+00   # A_d                 
        16     0.00000000E+00   # A_e                 
        21     2.83665002E+06   # M^2_Hd              
        22    -5.51095334E+06   # M^2_Hu              
        31     5.00000000E+03   # M_eL                
        32     5.00000000E+03   # M_muL               
        33     5.00000000E+03   # M_tauL              
        34     5.00000000E+03   # M_eR                
        35     5.00000000E+03   # M_muR               
        36     5.00000000E+03   # M_tauR              
        41     5.00000000E+03   # M_q1L               
        42     5.00000000E+03   # M_q2L               
        43     5.00000000E+03   # M_q3L               
        44     5.00000000E+03   # M_uR                
        45     5.00000000E+03   # M_cR                
        46     5.00000000E+03   # M_tR                
        47     5.00000000E+03   # M_dR                
        48     5.00000000E+03   # M_sR                
        49     5.00000000E+03   # M_bR                
#
#
#
#                             =================
#                             |The decay table|
#                             =================
#
# - The QCD corrections to the decays gluino -> squark  + quark
#                                     squark -> gaugino + quark_prime
#                                     squark -> squark_prime + Higgs
#                                     squark -> gluino  + quark
#   are included.
#
# - The multi-body decays for the inos, stops and sbottoms are included.
#
# - The loop induced decays for the gluino, neutralinos and stops
#   are included.
#
# - The SUSY decays of the top quark are included.
#
# - Possible decays of the NLSP in GMSB models are included.
#
#
#         PDG            Width
DECAY         6     1.37543292E+00   # top decays
#          BR         NDA      ID1       ID2
     1.00000000E+00    2           5        24   # BR(t ->  b    W+)
#
#         PDG            Width
DECAY   1000021     1.55790578E-02   # gluino decays
#          BR         NDA      ID1       ID2
     3.10202684E-03    2     1000022        21   # BR(~g -> ~chi_10 g)
     4.60455310E-03    2     1000023        21   # BR(~g -> ~chi_20 g)
     1.54028839E-03    2     1000025        21   # BR(~g -> ~chi_30 g)
#          BR         NDA      ID1       ID2
     0.00000000E+00    2     1000039        21   # BR(~g -> ~G      g)
#           BR         NDA      ID1       ID2       ID3
     1.95844688E-03    3     1000022         1        -1   # BR(~g -> ~chi_10 d  db)
     2.95651073E-05    3     1000023         1        -1   # BR(~g -> ~chi_20 d  db)
     4.59628875E-03    3     1000025         1        -1   # BR(~g -> ~chi_30 d  db)
     6.51297710E-03    3     1000022         2        -2   # BR(~g -> ~chi_10 u  ub)
     3.31769535E-05    3     1000023         2        -2   # BR(~g -> ~chi_20 u  ub)
     1.58612294E-02    3     1000025         2        -2   # BR(~g -> ~chi_30 u  ub)
     1.95844688E-03    3     1000022         3        -3   # BR(~g -> ~chi_10 s  sb)
     2.95651073E-05    3     1000023         3        -3   # BR(~g -> ~chi_20 s  sb)
     4.59628875E-03    3     1000025         3        -3   # BR(~g -> ~chi_30 s  sb)
     6.51297710E-03    3     1000022         4        -4   # BR(~g -> ~chi_10 c  cb)
     3.31769535E-05    3     1000023         4        -4   # BR(~g -> ~chi_20 c  cb)
     1.58612294E-02    3     1000025         4        -4   # BR(~g -> ~chi_30 c  cb)
     2.09774685E-03    3     1000022         5        -5   # BR(~g -> ~chi_10 b  bb)
     1.97393501E-04    3     1000023         5        -5   # BR(~g -> ~chi_20 b  bb)
     4.62935001E-03    3     1000025         5        -5   # BR(~g -> ~chi_30 b  bb)
     1.45776190E-01    3     1000022         6        -6   # BR(~g -> ~chi_10 t  tb)
     2.17309065E-01    3     1000023         6        -6   # BR(~g -> ~chi_20 t  tb)
     1.00091301E-01    3     1000025         6        -6   # BR(~g -> ~chi_30 t  tb)
     2.57081148E-05    3     1000024         1        -2   # BR(~g -> ~chi_1+ d  ub)
     2.57081148E-05    3    -1000024         2        -1   # BR(~g -> ~chi_1- u  db)
     2.57081148E-05    3     1000024         3        -4   # BR(~g -> ~chi_1+ s  cb)
     2.57081148E-05    3    -1000024         4        -3   # BR(~g -> ~chi_1- c  sb)
     2.31040598E-01    3     1000024         5        -6   # BR(~g -> ~chi_1+ b  tb)
     2.31040598E-01    3    -1000024         6        -5   # BR(~g -> ~chi_1- t  bb)
#
#         PDG            Width
DECAY   1000006     2.59803889E+02   # stop1 decays
#          BR         NDA      ID1       ID2
     7.19961361E-02    2     1000022         6   # BR(~t_1 -> ~chi_10 t )
     1.30295139E-01    2     1000023         6   # BR(~t_1 -> ~chi_20 t )
     8.79698390E-02    2     1000025         6   # BR(~t_1 -> ~chi_30 t )
     1.60599735E-02    2     1000035         6   # BR(~t_1 -> ~chi_40 t )
     1.32038023E-01    2     1000024         5   # BR(~t_1 -> ~chi_1+ b )
     3.20646549E-02    2     1000037         5   # BR(~t_1 -> ~chi_2+ b )
     5.29576235E-01    2     1000021         6   # BR(~t_1 -> ~g      t )
#
#         PDG            Width
DECAY   2000006     2.74169743E+02   # stop2 decays
#          BR         NDA      ID1       ID2
     1.15477221E-01    2     1000022         6   # BR(~t_2 -> ~chi_10 t )
     1.35063777E-01    2     1000023         6   # BR(~t_2 -> ~chi_20 t )
     3.19166999E-02    2     1000025         6   # BR(~t_2 -> ~chi_30 t )
     1.32473565E-02    2     1000035         6   # BR(~t_2 -> ~chi_40 t )
     1.34005390E-01    2     1000024         5   # BR(~t_2 -> ~chi_1+ b )
     2.64358360E-02    2     1000037         5   # BR(~t_2 -> ~chi_2+ b )
     5.43853719E-01    2     1000021         6   # BR(~t_2 -> ~g      t )
#
#         PDG            Width
DECAY   1000005     2.00628710E+02   # sbottom1 decays
#          BR         NDA      ID1       ID2
     3.37245149E-03    2     1000022         5   # BR(~b_1 -> ~chi_10 b )
     3.53674615E-06    2     1000023         5   # BR(~b_1 -> ~chi_20 b )
     4.55783627E-03    2     1000025         5   # BR(~b_1 -> ~chi_30 b )
     2.08129025E-02    2     1000035         5   # BR(~b_1 -> ~chi_40 b )
     2.15163655E-01    2    -1000024         6   # BR(~b_1 -> ~chi_1- t )
     4.17144249E-02    2    -1000037         6   # BR(~b_1 -> ~chi_2- t )
     7.14375193E-01    2     1000021         5   # BR(~b_1 -> ~g      b )
#
#         PDG            Width
DECAY   2000005     1.83907093E+02   # sbottom2 decays
#          BR         NDA      ID1       ID2
     1.73957888E-03    2     1000022         5   # BR(~b_2 -> ~chi_10 b )
     3.97685860E-04    2     1000023         5   # BR(~b_2 -> ~chi_20 b )
     7.45384033E-03    2     1000025         5   # BR(~b_2 -> ~chi_30 b )
     1.95589446E-02    2     1000035         5   # BR(~b_2 -> ~chi_40 b )
     1.50839971E-01    2    -1000024         6   # BR(~b_2 -> ~chi_1- t )
     3.91870237E-02    2    -1000037         6   # BR(~b_2 -> ~chi_2- t )
     7.80822955E-01    2     1000021         5   # BR(~b_2 -> ~g      b )
#
#         PDG            Width
DECAY   1000002     1.67448302E+02   # sup_L decays
#          BR         NDA      ID1       ID2
     1.03142675E-03    2     1000022         2   # BR(~u_L -> ~chi_10 u)
     2.00755182E-05    2     1000023         2   # BR(~u_L -> ~chi_20 u)
     2.90497817E-03    2     1000025         2   # BR(~u_L -> ~chi_30 u)
     4.63991972E-02    2     1000035         2   # BR(~u_L -> ~chi_40 u)
     1.80333249E-04    2     1000024         1   # BR(~u_L -> ~chi_1+ d)
     9.27871703E-02    2     1000037         1   # BR(~u_L -> ~chi_2+ d)
     8.56676819E-01    2     1000021         2   # BR(~u_L -> ~g      u)
#
#         PDG            Width
DECAY   2000002     1.53848186E+02   # sup_R decays
#          BR         NDA      ID1       ID2
     1.96000291E-02    2     1000022         2   # BR(~u_R -> ~chi_10 u)
     1.54633502E-04    2     1000023         2   # BR(~u_R -> ~chi_20 u)
     4.78122435E-02    2     1000025         2   # BR(~u_R -> ~chi_30 u)
     4.65524453E-09    2     1000035         2   # BR(~u_R -> ~chi_40 u)
     9.32433089E-01    2     1000021         2   # BR(~u_R -> ~g      u)
#
#         PDG            Width
DECAY   1000001     1.67454139E+02   # sdown_L decays
#          BR         NDA      ID1       ID2
     1.22368479E-03    2     1000022         1   # BR(~d_L -> ~chi_10 d)
     1.09001166E-04    2     1000023         1   # BR(~d_L -> ~chi_20 d)
     2.59061539E-03    2     1000025         1   # BR(~d_L -> ~chi_30 d)
     4.64189003E-02    2     1000035         1   # BR(~d_L -> ~chi_40 d)
     5.93993048E-05    2    -1000024         2   # BR(~d_L -> ~chi_1- u)
     9.28491282E-02    2    -1000037         2   # BR(~d_L -> ~chi_2- u)
     8.56749271E-01    2     1000021         1   # BR(~d_L -> ~g      d)
#
#         PDG            Width
DECAY   2000001     1.46057349E+02   # sdown_R decays
#          BR         NDA      ID1       ID2
     5.16146078E-03    2     1000022         1   # BR(~d_R -> ~chi_10 d)
     4.07211016E-05    2     1000023         1   # BR(~d_R -> ~chi_20 d)
     1.25908502E-02    2     1000025         1   # BR(~d_R -> ~chi_30 d)
     1.22595020E-09    2     1000035         1   # BR(~d_R -> ~chi_40 d)
     9.82206967E-01    2     1000021         1   # BR(~d_R -> ~g      d)
#
#         PDG            Width
DECAY   1000004     1.67448302E+02   # scharm_L decays
#          BR         NDA      ID1       ID2
     1.03142675E-03    2     1000022         4   # BR(~c_L -> ~chi_10 c)
     2.00755182E-05    2     1000023         4   # BR(~c_L -> ~chi_20 c)
     2.90497817E-03    2     1000025         4   # BR(~c_L -> ~chi_30 c)
     4.63991972E-02    2     1000035         4   # BR(~c_L -> ~chi_40 c)
     1.80333249E-04    2     1000024         3   # BR(~c_L -> ~chi_1+ s)
     9.27871703E-02    2     1000037         3   # BR(~c_L -> ~chi_2+ s)
     8.56676819E-01    2     1000021         4   # BR(~c_L -> ~g      c)
#
#         PDG            Width
DECAY   2000004     1.53848186E+02   # scharm_R decays
#          BR         NDA      ID1       ID2
     1.96000291E-02    2     1000022         4   # BR(~c_R -> ~chi_10 c)
     1.54633502E-04    2     1000023         4   # BR(~c_R -> ~chi_20 c)
     4.78122435E-02    2     1000025         4   # BR(~c_R -> ~chi_30 c)
     4.65524453E-09    2     1000035         4   # BR(~c_R -> ~chi_40 c)
     9.32433089E-01    2     1000021         4   # BR(~c_R -> ~g      c)
#
#         PDG            Width
DECAY   1000003     1.67454139E+02   # sstrange_L decays
#          BR         NDA      ID1       ID2
     1.22368479E-03    2     1000022         3   # BR(~s_L -> ~chi_10 s)
     1.09001166E-04    2     1000023         3   # BR(~s_L -> ~chi_20 s)
     2.59061539E-03    2     1000025         3   # BR(~s_L -> ~chi_30 s)
     4.64189003E-02    2     1000035         3   # BR(~s_L -> ~chi_40 s)
     5.93993048E-05    2    -1000024         4   # BR(~s_L -> ~chi_1- c)
     9.28491282E-02    2    -1000037         4   # BR(~s_L -> ~chi_2- c)
     8.56749271E-01    2     1000021         3   # BR(~s_L -> ~g      s)
#
#         PDG            Width
DECAY   2000003     1.46057349E+02   # sstrange_R decays
#          BR         NDA      ID1       ID2
     5.16146078E-03    2     1000022         3   # BR(~s_R -> ~chi_10 s)
     4.07211016E-05    2     1000023         3   # BR(~s_R -> ~chi_20 s)
     1.25908502E-02    2     1000025         3   # BR(~s_R -> ~chi_30 s)
     1.22595020E-09    2     1000035         3   # BR(~s_R -> ~chi_40 s)
     9.82206967E-01    2     1000021         3   # BR(~s_R -> ~g      s)
#
#         PDG            Width
DECAY   1000011     3.02026414E+01   # selectron_L decays
#          BR         NDA      ID1       ID2
     5.68653124E-02    2     1000022        11   # BR(~e_L -> ~chi_10 e-)
     1.26391278E-05    2     1000023        11   # BR(~e_L -> ~chi_20 e-)
     1.45480277E-01    2     1000025        11   # BR(~e_L -> ~chi_30 e-)
     2.65637022E-01    2     1000035        11   # BR(~e_L -> ~chi_40 e-)
     3.43145112E-04    2    -1000024        12   # BR(~e_L -> ~chi_1- nu_e)
     5.31661605E-01    2    -1000037        12   # BR(~e_L -> ~chi_2- nu_e)
#
#         PDG            Width
DECAY   2000011     2.43703509E+01   # selectron_R decays
#          BR         NDA      ID1       ID2
     2.90096185E-01    2     1000022        11   # BR(~e_R -> ~chi_10 e-)
     2.28862856E-03    2     1000023        11   # BR(~e_R -> ~chi_20 e-)
     7.07615118E-01    2     1000025        11   # BR(~e_R -> ~chi_30 e-)
     6.82986227E-08    2     1000035        11   # BR(~e_R -> ~chi_40 e-)
#
#         PDG            Width
DECAY   1000013     3.02026414E+01   # smuon_L decays
#          BR         NDA      ID1       ID2
     5.68653124E-02    2     1000022        13   # BR(~mu_L -> ~chi_10 mu-)
     1.26391278E-05    2     1000023        13   # BR(~mu_L -> ~chi_20 mu-)
     1.45480277E-01    2     1000025        13   # BR(~mu_L -> ~chi_30 mu-)
     2.65637022E-01    2     1000035        13   # BR(~mu_L -> ~chi_40 mu-)
     3.43145112E-04    2    -1000024        14   # BR(~mu_L -> ~chi_1- nu_mu)
     5.31661605E-01    2    -1000037        14   # BR(~mu_L -> ~chi_2- nu_mu)
#
#         PDG            Width
DECAY   2000013     2.43703509E+01   # smuon_R decays
#          BR         NDA      ID1       ID2
     2.90096185E-01    2     1000022        13   # BR(~mu_R -> ~chi_10 mu-)
     2.28862856E-03    2     1000023        13   # BR(~mu_R -> ~chi_20 mu-)
     7.07615118E-01    2     1000025        13   # BR(~mu_R -> ~chi_30 mu-)
     6.82986227E-08    2     1000035        13   # BR(~mu_R -> ~chi_40 mu-)
#
#         PDG            Width
DECAY   1000015     2.72390397E+01   # stau_1 decays
#          BR         NDA      ID1       ID2
     1.69758895E-01    2     1000022        15   # BR(~tau_1 -> ~chi_10  tau-)
     6.38517557E-04    2     1000023        15   # BR(~tau_1 -> ~chi_20  tau-)
     3.98867094E-01    2     1000025        15   # BR(~tau_1 -> ~chi_30  tau-)
     1.43467483E-01    2     1000035        15   # BR(~tau_1 -> ~chi_40  tau-)
     1.17094677E-04    2    -1000024        16   # BR(~tau_1 -> ~chi_1-  nu_tau)
     2.87143625E-01    2    -1000037        16   # BR(~tau_1 -> ~chi_2-  nu_tau)
     7.29083242E-06    2     1000039        15   # BR(~tau_1 -> ~G       tau-)
#
#         PDG            Width
DECAY   2000015     2.74291682E+01   # stau_2 decays
#          BR         NDA      ID1       ID2
     1.52651176E-01    2     1000022        15   # BR(~tau_2 -> ~chi_10  tau-)
     2.56281460E-03    2     1000023        15   # BR(~tau_2 -> ~chi_20  tau-)
     3.93079117E-01    2     1000025        15   # BR(~tau_2 -> ~chi_30  tau-)
     1.50023857E-01    2     1000035        15   # BR(~tau_2 -> ~chi_40  tau-)
     1.41604167E-03    2    -1000024        16   # BR(~tau_2 -> ~chi_1-  nu_tau)
     3.00266994E-01    2    -1000037        16   # BR(~tau_2 -> ~chi_2-  nu_tau)
#
#         PDG            Width
DECAY   1000012     3.02008128E+01   # snu_eL decays
#          BR         NDA      ID1       ID2
     6.01977454E-02    2     1000022        12   # BR(~nu_eL -> ~chi_10 nu_e)
     1.55378879E-03    2     1000023        12   # BR(~nu_eL -> ~chi_20 nu_e)
     1.40033047E-01    2     1000025        12   # BR(~nu_eL -> ~chi_30 nu_e)
     2.65853535E-01    2     1000035        12   # BR(~nu_eL -> ~chi_40 nu_e)
     1.04179882E-03    2     1000024        11   # BR(~nu_eL -> ~chi_1+ e-)
     5.31320085E-01    2     1000037        11   # BR(~nu_eL -> ~chi_2+ e-)
#
#         PDG            Width
DECAY   1000014     3.02008128E+01   # snu_muL decays
#          BR         NDA      ID1       ID2
     6.01977454E-02    2     1000022        14   # BR(~nu_muL -> ~chi_10 nu_mu)
     1.55378879E-03    2     1000023        14   # BR(~nu_muL -> ~chi_20 nu_mu)
     1.40033047E-01    2     1000025        14   # BR(~nu_muL -> ~chi_30 nu_mu)
     2.65853535E-01    2     1000035        14   # BR(~nu_muL -> ~chi_40 nu_mu)
     1.04179882E-03    2     1000024        13   # BR(~nu_muL -> ~chi_1+ mu-)
     5.31320085E-01    2     1000037        13   # BR(~nu_muL -> ~chi_2+ mu-)
#
#         PDG            Width
DECAY   1000016     3.02324847E+01   # snu_tauL decays
#          BR         NDA      ID1       ID2
     6.01346817E-02    2     1000022        16   # BR(~nu_tauL -> ~chi_10 nu_tau)
     1.55216102E-03    2     1000023        16   # BR(~nu_tauL -> ~chi_20 nu_tau)
     1.39886347E-01    2     1000025        16   # BR(~nu_tauL -> ~chi_30 nu_tau)
     2.65575025E-01    2     1000035        16   # BR(~nu_tauL -> ~chi_40 nu_tau)
     2.08819465E-03    2     1000024        15   # BR(~nu_tauL -> ~chi_1+ tau-)
     5.30763591E-01    2     1000037        15   # BR(~nu_tauL -> ~chi_2+ tau-)
#
#         PDG            Width
DECAY   1000024     1.53327313E-08   # chargino1+ decays
#          BR         NDA      ID1       ID2
     3.44017947E-02    2     1000039        24   # BR(~chi_1+ -> ~G       W+)
#           BR         NDA      ID1       ID2       ID3
     3.50989609E-01    3     1000022         2        -1   # BR(~chi_1+ -> ~chi_10 u    db)
     2.92708569E-01    3     1000022         4        -3   # BR(~chi_1+ -> ~chi_10 c    sb)
     1.16997174E-01    3     1000022       -11        12   # BR(~chi_1+ -> ~chi_10 e+   nu_e)
     1.16874667E-01    3     1000022       -13        14   # BR(~chi_1+ -> ~chi_10 mu+  nu_mu)
     8.80281868E-02    3     1000022       -15        16   # BR(~chi_1+ -> ~chi_10 tau+ nu_tau)
#
#         PDG            Width
DECAY   1000037     2.67356477E+01   # chargino2+ decays
#          BR         NDA      ID1       ID2
     1.58871776E-01    2     1000024        23   # BR(~chi_2+ -> ~chi_1+  Z )
     1.05656578E-01    2     1000022        24   # BR(~chi_2+ -> ~chi_10  W+)
     1.54118684E-01    2     1000023        24   # BR(~chi_2+ -> ~chi_20  W+)
     5.01568329E-02    2     1000025        24   # BR(~chi_2+ -> ~chi_30  W+)
     1.59395635E-01    2     1000024        25   # BR(~chi_2+ -> ~chi_1+  h )
     9.27669740E-02    2     1000024        35   # BR(~chi_2+ -> ~chi_1+  H )
     9.31492718E-02    2     1000024        36   # BR(~chi_2+ -> ~chi_1+  A )
     6.69788836E-02    2     1000022        37   # BR(~chi_2+ -> ~chi_10  H+)
     9.27500892E-02    2     1000023        37   # BR(~chi_2+ -> ~chi_20  H+)
     2.61546974E-02    2     1000025        37   # BR(~chi_2+ -> ~chi_30  H+)
     5.77670015E-07    2     1000039        24   # BR(~chi_2+ -> ~G       W+)
     1.20178671E-11    2     1000039        37   # BR(~chi_2+ -> ~G       H+)
#
#         PDG            Width
DECAY   1000022     1.0E-05   # neutralino1 decays
#          BR         NDA      ID1       ID2
     4.12610183E-01    2     1000039        22   # BR(~chi_10 -> ~G        gam)
     1.29188661E-01    2     1000039        23   # BR(~chi_10 -> ~G        Z)
     4.58201156E-01    2     1000039        25   # BR(~chi_10 -> ~G        h)
#
#         PDG            Width
DECAY   1000023     1.0E-05   # neutralino2 decays
#          BR         NDA      ID1       ID2
     1.56394389E-02    2     1000022        22   # BR(~chi_20 -> ~chi_10 gam)
#          BR         NDA      ID1       ID2
     2.71773629E-05    2     1000039        22   # BR(~chi_20 -> ~G        gam)
     1.17583900E-02    2     1000039        23   # BR(~chi_20 -> ~G        Z)
     3.97384894E-04    2     1000039        25   # BR(~chi_20 -> ~G        h)
#           BR         NDA      ID1       ID2       ID3
     1.37776058E-01    3     1000022        -2         2   # BR(~chi_20 -> ~chi_10 ub      u)
     1.78356915E-01    3     1000022        -1         1   # BR(~chi_20 -> ~chi_10 db      d)
     1.18780559E-01    3     1000022        -4         4   # BR(~chi_20 -> ~chi_10 cb      c)
     1.77769817E-01    3     1000022        -3         3   # BR(~chi_20 -> ~chi_10 sb      s)
     4.07141023E-02    3     1000022       -11        11   # BR(~chi_20 -> ~chi_10 e+      e-)
     4.06881788E-02    3     1000022       -13        13   # BR(~chi_20 -> ~chi_10 mu+     mu-)
     3.26836435E-02    3     1000022       -15        15   # BR(~chi_20 -> ~chi_10 tau+    tau-)
     8.12975455E-02    3     1000022       -12        12   # BR(~chi_20 -> ~chi_10 nu_eb   nu_e)
     8.12975455E-02    3     1000022       -14        14   # BR(~chi_20 -> ~chi_10 nu_mub  nu_mu)
     8.12975455E-02    3     1000022       -16        16   # BR(~chi_20 -> ~chi_10 nu_taub nu_tau)
     4.29385568E-04    3     1000024        -2         1   # BR(~chi_20 -> ~chi_1+ ub      d)
     4.29385568E-04    3    -1000024        -1         2   # BR(~chi_20 -> ~chi_1- db      u)
     4.18352671E-05    3     1000024        -4         3   # BR(~chi_20 -> ~chi_1+ cb      s)
     4.18352671E-05    3    -1000024        -3         4   # BR(~chi_20 -> ~chi_1- sb      c)
     1.43128539E-04    3     1000024       -12        11   # BR(~chi_20 -> ~chi_1+ nu_eb   e-)
     1.43128539E-04    3    -1000024        12       -11   # BR(~chi_20 -> ~chi_1- nu_e    e+)
     1.41468541E-04    3     1000024       -14        13   # BR(~chi_20 -> ~chi_1+ nu_mub  mu-)
     1.41468541E-04    3    -1000024        14       -13   # BR(~chi_20 -> ~chi_1- nu_mu   mu+)
     2.03090238E-06    3     1000024       -16        15   # BR(~chi_20 -> ~chi_1+ nu_taub tau-)
     2.03090238E-06    3    -1000024        16       -15   # BR(~chi_20 -> ~chi_1- nu_tau  tau+)
#
#         PDG            Width
DECAY   1000025     1.0E-05   # neutralino3 decays
#          BR         NDA      ID1       ID2
     8.72033422E-01    2     1000022        22   # BR(~chi_30 -> ~chi_10 gam)
     2.61266906E-02    2     1000023        22   # BR(~chi_30 -> ~chi_20 gam)
#          BR         NDA      ID1       ID2
     4.52292331E-04    2     1000039        22   # BR(~chi_30 -> ~G        gam)
     1.26324463E-04    2     1000039        23   # BR(~chi_30 -> ~G        Z)
     8.88773994E-05    2     1000039        25   # BR(~chi_30 -> ~G        h)
#           BR         NDA      ID1       ID2       ID3
     1.87083402E-04    3     1000022        -2         2   # BR(~chi_30 -> ~chi_10 ub      u)
     2.43421555E-04    3     1000022        -1         1   # BR(~chi_30 -> ~chi_10 db      d)
     1.73957233E-04    3     1000022        -4         4   # BR(~chi_30 -> ~chi_10 cb      c)
     2.43140535E-04    3     1000022        -3         3   # BR(~chi_30 -> ~chi_10 sb      s)
     1.09137302E-04    3     1000022        -5         5   # BR(~chi_30 -> ~chi_10 bb      b)
     5.65339181E-05    3     1000022       -11        11   # BR(~chi_30 -> ~chi_10 e+      e-)
     5.65082300E-05    3     1000022       -13        13   # BR(~chi_30 -> ~chi_10 mu+     mu-)
     4.97913465E-05    3     1000022       -15        15   # BR(~chi_30 -> ~chi_10 tau+    tau-)
     1.10445243E-04    3     1000022       -12        12   # BR(~chi_30 -> ~chi_10 nu_eb   nu_e)
     1.10445243E-04    3     1000022       -14        14   # BR(~chi_30 -> ~chi_10 nu_mub  nu_mu)
     1.10445243E-04    3     1000022       -16        16   # BR(~chi_30 -> ~chi_10 nu_taub nu_tau)
     1.60874483E-03    3     1000023        -2         2   # BR(~chi_30 -> ~chi_20 ub      u)
     2.08263533E-03    3     1000023        -1         1   # BR(~chi_30 -> ~chi_20 db      d)
     1.39446624E-03    3     1000023        -4         4   # BR(~chi_30 -> ~chi_20 cb      c)
     2.07601606E-03    3     1000023        -3         3   # BR(~chi_30 -> ~chi_20 sb      s)
     4.75437649E-04    3     1000023       -11        11   # BR(~chi_30 -> ~chi_20 e+      e-)
     4.75145166E-04    3     1000023       -13        13   # BR(~chi_30 -> ~chi_20 mu+     mu-)
     3.85005902E-04    3     1000023       -15        15   # BR(~chi_30 -> ~chi_20 tau+    tau-)
     9.49255913E-04    3     1000023       -12        12   # BR(~chi_30 -> ~chi_20 nu_eb   nu_e)
     9.49255913E-04    3     1000023       -14        14   # BR(~chi_30 -> ~chi_20 nu_mub  nu_mu)
     9.49255913E-04    3     1000023       -16        16   # BR(~chi_30 -> ~chi_20 nu_taub nu_tau)
     1.52501798E-02    3     1000024        -2         1   # BR(~chi_30 -> ~chi_1+ ub      d)
     1.52501798E-02    3    -1000024        -1         2   # BR(~chi_30 -> ~chi_1- db      u)
     1.42189174E-02    3     1000024        -4         3   # BR(~chi_30 -> ~chi_1+ cb      s)
     1.42189174E-02    3    -1000024        -3         4   # BR(~chi_30 -> ~chi_1- sb      c)
     5.08332082E-03    3     1000024       -12        11   # BR(~chi_30 -> ~chi_1+ nu_eb   e-)
     5.08332082E-03    3    -1000024        12       -11   # BR(~chi_30 -> ~chi_1- nu_e    e+)
     5.08129242E-03    3     1000024       -14        13   # BR(~chi_30 -> ~chi_1+ nu_mub  mu-)
     5.08129242E-03    3    -1000024        14       -13   # BR(~chi_30 -> ~chi_1- nu_mu   mu+)
     4.55442189E-03    3     1000024       -16        15   # BR(~chi_30 -> ~chi_1+ nu_taub tau-)
     4.55442189E-03    3    -1000024        16       -15   # BR(~chi_30 -> ~chi_1- nu_tau  tau+)
#
#         PDG            Width
DECAY   1000035     2.67360023E+01   # neutralino4 decays
#          BR         NDA      ID1       ID2
     1.03582332E-01    2     1000022        23   # BR(~chi_40 -> ~chi_10   Z )
     1.08580277E-02    2     1000023        23   # BR(~chi_40 -> ~chi_20   Z )
     4.46224060E-02    2     1000025        23   # BR(~chi_40 -> ~chi_30   Z )
     1.54770209E-01    2     1000024       -24   # BR(~chi_40 -> ~chi_1+   W-)
     1.54770209E-01    2    -1000024        24   # BR(~chi_40 -> ~chi_1-   W+)
     4.79801587E-03    2     1000022        25   # BR(~chi_40 -> ~chi_10   h )
     6.56164747E-02    2     1000022        35   # BR(~chi_40 -> ~chi_10   H )
     1.20536175E-03    2     1000022        36   # BR(~chi_40 -> ~chi_10   A )
     1.47989314E-01    2     1000023        25   # BR(~chi_40 -> ~chi_20   h )
     1.10804708E-03    2     1000023        35   # BR(~chi_40 -> ~chi_20   H )
     9.17377936E-02    2     1000023        36   # BR(~chi_40 -> ~chi_20   A )
     6.81331258E-03    2     1000025        25   # BR(~chi_40 -> ~chi_30   h )
     2.60100338E-02    2     1000025        35   # BR(~chi_40 -> ~chi_30   H )
     9.52364047E-05    2     1000025        36   # BR(~chi_40 -> ~chi_30   A )
     9.30113247E-02    2     1000024       -37   # BR(~chi_40 -> ~chi_1+   H-)
     9.30113247E-02    2    -1000024        37   # BR(~chi_40 -> ~chi_1-   H+)
     1.38714447E-07    2     1000039        22   # BR(~chi_40 -> ~G        gam)
     4.38899775E-07    2     1000039        23   # BR(~chi_40 -> ~G        Z)
     3.06355244E-11    2     1000039        25   # BR(~chi_40 -> ~G        h)
     1.18955825E-11    2     1000039        35   # BR(~chi_40 -> ~G        H)
     6.68896048E-14    2     1000039        36   # BR(~chi_40 -> ~G        A)
#
#         PDG            Width
DECAY        25     4.08029723E-03   # h decays
#          BR         NDA      ID1       ID2
     6.17199872E-01    2           5        -5   # BR(h -> b       bb     )
     6.38335904E-02    2         -15        15   # BR(h -> tau+    tau-   )
     2.25947400E-04    2         -13        13   # BR(h -> mu+     mu-    )
     4.78802820E-04    2           3        -3   # BR(h -> s       sb     )
     2.06562183E-02    2           4        -4   # BR(h -> c       cb     )
     6.70720309E-02    2          21        21   # BR(h -> g       g      )
     2.29610368E-03    2          22        22   # BR(h -> gam     gam    )
     1.53940714E-03    2          22        23   # BR(h -> Z       gam    )
     2.01047041E-01    2          24       -24   # BR(h -> W+      W-     )
     2.56509865E-02    2          23        23   # BR(h -> Z       Z      )
#
#         PDG            Width
DECAY        35     3.95409884E+01   # H decays
#          BR         NDA      ID1       ID2
     1.41381437E-03    2           5        -5   # BR(H -> b       bb     )
     2.35655353E-04    2         -15        15   # BR(H -> tau+    tau-   )
     8.33129409E-07    2         -13        13   # BR(H -> mu+     mu-    )
     1.06669975E-06    2           3        -3   # BR(H -> s       sb     )
     9.62684073E-06    2           4        -4   # BR(H -> c       cb     )
     9.52534991E-01    2           6        -6   # BR(H -> t       tb     )
     7.62786686E-04    2          21        21   # BR(H -> g       g      )
     2.54641999E-06    2          22        22   # BR(H -> gam     gam    )
     1.10863480E-06    2          23        22   # BR(H -> Z       gam    )
     3.21261944E-04    2          24       -24   # BR(H -> W+      W-     )
     1.60192817E-04    2          23        23   # BR(H -> Z       Z      )
     8.65619082E-04    2          25        25   # BR(H -> h       h      )
     8.42617636E-24    2          36        36   # BR(H -> A       A      )
     3.34962066E-11    2          23        36   # BR(H -> Z       A      )
     4.08117487E-12    2          24       -37   # BR(H -> W+      H-     )
     4.08117487E-12    2         -24        37   # BR(H -> W-      H+     )
     6.54070402E-05    2     1000024  -1000024   # BR(H -> ~chi_1+ ~chi_1-)
     1.80839497E-02    2     1000022   1000022   # BR(H -> ~chi_10 ~chi_10)
     2.60139890E-05    2     1000023   1000023   # BR(H -> ~chi_20 ~chi_20)
     1.59674856E-02    2     1000025   1000025   # BR(H -> ~chi_30 ~chi_30)
     5.05706816E-05    2     1000022   1000023   # BR(H -> ~chi_10 ~chi_20)
     7.16734128E-03    2     1000022   1000025   # BR(H -> ~chi_10 ~chi_30)
     2.32972837E-03    2     1000023   1000025   # BR(H -> ~chi_20 ~chi_30)
#
#         PDG            Width
DECAY        36     3.99759937E+01   # A decays
#          BR         NDA      ID1       ID2
     1.41690037E-03    2           5        -5   # BR(A -> b       bb     )
     2.33295424E-04    2         -15        15   # BR(A -> tau+    tau-   )
     8.24783601E-07    2         -13        13   # BR(A -> mu+     mu-    )
     1.08735810E-06    2           3        -3   # BR(A -> s       sb     )
     9.52872436E-06    2           4        -4   # BR(A -> c       cb     )
     9.53656321E-01    2           6        -6   # BR(A -> t       tb     )
     9.02653825E-04    2          21        21   # BR(A -> g       g      )
     3.13173181E-06    2          22        22   # BR(A -> gam     gam    )
     1.29306259E-06    2          23        22   # BR(A -> Z       gam    )
     3.13165419E-04    2          23        25   # BR(A -> Z       h      )
     4.09532593E-04    2     1000024  -1000024   # BR(A -> ~chi_1+ ~chi_1-)
     1.17518506E-03    2     1000022   1000022   # BR(A -> ~chi_10 ~chi_10)
     8.32075018E-04    2     1000023   1000023   # BR(A -> ~chi_20 ~chi_20)
     3.28694332E-04    2     1000025   1000025   # BR(A -> ~chi_30 ~chi_30)
     1.14813045E-02    2     1000022   1000023   # BR(A -> ~chi_10 ~chi_20)
     8.07166434E-04    2     1000022   1000025   # BR(A -> ~chi_10 ~chi_30)
     2.84278403E-02    2     1000023   1000025   # BR(A -> ~chi_20 ~chi_30)
#
#         PDG            Width
DECAY        37     3.91755298E+01   # H+ decays
#          BR         NDA      ID1       ID2
     2.27583414E-06    2           4        -5   # BR(H+ -> c       bb     )
     2.38284817E-04    2         -15        16   # BR(H+ -> tau+    nu_tau )
     8.42422905E-07    2         -13        14   # BR(H+ -> mu+     nu_mu  )
     1.44698438E-08    2           2        -5   # BR(H+ -> u       bb     )
     5.21701005E-08    2           2        -3   # BR(H+ -> u       sb     )
     1.03950896E-05    2           4        -3   # BR(H+ -> c       sb     )
     9.55474422E-01    2           6        -5   # BR(H+ -> t       bb     )
     3.20917079E-04    2          24        25   # BR(H+ -> W+      h      )
     7.66411099E-13    2          24        36   # BR(H+ -> W+      A      )
     1.21916053E-02    2     1000024   1000022   # BR(H+ -> ~chi_1+ ~chi_10)
     1.09283075E-04    2     1000024   1000023   # BR(H+ -> ~chi_1+ ~chi_20)
     3.16519078E-02    2     1000024   1000025   # BR(H+ -> ~chi_1+ ~chi_30)
