#
#                              ======================
#                              | THE SUSYHIT OUTPUT |
#                              ======================
#
#
#              ------------------------------------------------------
#              |     This is the output of the SUSY-HIT package     |
#              |  created by A.Djouadi, M.Muehlleitner and M.Spira. |
#              |  In case of problems with SUSY-HIT email to        |
#              |           margarete.muehlleitner@kit.edu           |
#              |           michael.spira@psi.ch                     |
#              |           abdelhak.djouadi@cern.ch                 |
#              ------------------------------------------------------
#
#              ------------------------------------------------------
#              |  SUSY Les Houches Accord - MSSM Spectrum + Decays  |
#              |              based on the decay programs           |
#              |                                                    |
#              |                     SDECAY 1.5a                    |
#              |                                                    |
#              |  Authors: M.Muhlleitner, A.Djouadi and Y.Mambrini  |
#              |  Ref.:    Comput.Phys.Commun.168(2005)46           |
#              |           [hep-ph/0311167]                         |
#              |                                                    |
#              |                     HDECAY 3.4                     |
#              |                                                    |
#              |  By: A.Djouadi,J.Kalinowski,M.Muhlleitner,M.Spira  |
#              |  Ref.:    Comput.Phys.Commun.108(1998)56           |
#              |           [hep-ph/9704448]                         |
#              |                                                    |
#              |                                                    |
#              |  If not stated otherwise all DRbar couplings and   |
#              |  soft SUSY breaking masses are given at the scale  |
#              |  Q=  0.91187600E+02
#              |                                                    |
#              ------------------------------------------------------
#
#
BLOCK DCINFO  # Decay Program information
     1   SDECAY/HDECAY # decay calculator
     2   1.5a /3.4    # version number
#
BLOCK SPINFO  # Spectrum calculator information
     1   SuSpect     # RGE +Spectrum calculator            
     2   2.43         # version number                     
#
BLOCK MODSEL  # Model selection
     1     2   # GMSB                                              
#
BLOCK SMINPUTS  # Standard Model inputs
         1     1.27932904E+02   # alpha_em^-1(M_Z)^MSbar
         2     1.16639000E-05   # G_F [GeV^-2]
         3     1.17200000E-01   # alpha_S(M_Z)^MSbar
         4     9.11870000E+01   # M_Z pole mass
         5     4.25000000E+00   # mb(mb)^MSbar
         6     1.72900000E+02   # mt pole mass
         7     1.77700000E+00   # mtau pole mass
#
BLOCK MINPAR  # Input parameters - minimal models
#
BLOCK EXTPAR  # Input parameters - non-minimal models
         0     9.11876000E+01   # EWSB                
         1     2.35532742E+03   # M_1                 
         2     3.00000000E+03   # M_2                 
         3     2.40000000E+03   # M_3                 
        11     0.00000000E+00   # A_t                 
        12     0.00000000E+00   # A_b                 
        13     0.00000000E+00   # A_tau               
        14     0.00000000E+00   # A_u                 
        15     0.00000000E+00   # A_d                 
        16     0.00000000E+00   # A_e                 
        23    -2.35000000E+03   # mu(EWSB)            
        25     1.50000000E+00   # tanbeta(in)         
        26     2.00000000E+03   # MA_pole             
        31     5.00000000E+03   # M_eL                
        32     5.00000000E+03   # M_muL               
        33     5.00000000E+03   # M_tauL              
        34     5.00000000E+03   # M_eR                
        35     5.00000000E+03   # M_muR               
        36     5.00000000E+03   # M_tauR              
        41     5.00000000E+03   # M_q1L               
        42     5.00000000E+03   # M_q2L               
        43     5.00000000E+03   # M_q3L               
        44     5.00000000E+03   # M_uR                
        45     5.00000000E+03   # M_cR                
        46     5.00000000E+03   # M_tR                
        47     5.00000000E+03   # M_dR                
        48     5.00000000E+03   # M_sR                
        49     5.00000000E+03   # M_bR                
#
BLOCK MASS  # Mass Spectrum
# PDG code           mass       particle
        24     8.05427380E+01   # W+
        25     1.25000000E+02   # h
        35     2.00414214E+03   # H
        36     2.00000000E+03   # A
        37     2.00170307E+03   # H+
         5     4.87877839E+00   # b-quark pole mass calculated from mb(mb)_Msbar
   1000001     5.00013257E+03   # ~d_L
   2000001     5.00002533E+03   # ~d_R
   1000002     4.99989277E+03   # ~u_L
   2000002     4.99994933E+03   # ~u_R
   1000003     5.00013257E+03   # ~s_L
   2000003     5.00002533E+03   # ~s_R
   1000004     4.99989277E+03   # ~c_L
   2000004     4.99994933E+03   # ~c_R
   1000005     4.99912547E+03   # ~b_1
   2000005     5.00103371E+03   # ~b_2
   1000006     4.97832577E+03   # ~t_1
   2000006     5.02604419E+03   # ~t_2
   1000011     5.00008190E+03   # ~e_L
   2000011     5.00007600E+03   # ~e_R
   1000012     4.99984210E+03   # ~nu_eL
   1000013     5.00008190E+03   # ~mu_L
   2000013     5.00007600E+03   # ~mu_R
   1000014     4.99984210E+03   # ~nu_muL
   1000015     4.99945350E+03   # ~tau_1
   2000015     5.00070496E+03   # ~tau_2
   1000016     4.99984210E+03   # ~nu_tauL
   1000021     2.40000000E+03   # ~g
   1000022     2.34346402E+03   # ~chi_10
   1000023    -2.35152394E+03   # ~chi_20
   1000025     2.36189793E+03   # ~chi_30
   1000035     3.00148941E+03   # ~chi_40
   1000024     2.35075161E+03   # ~chi_1+
   1000037     3.00148904E+03   # ~chi_2+
   1000039     4.66233201E-07   # ~gravitino
#
BLOCK NMIX  # Neutralino Mixing Matrix
  1  1     5.78420988E-01   # N_11
  1  2    -1.85653965E-02   # N_12
  1  3    -5.80665915E-01   # N_13
  1  4    -5.72635645E-01   # N_14
  2  1     9.25967170E-03   # N_21
  2  2    -1.44663253E-02   # N_22
  2  3     7.06956635E-01   # N_23
  2  4    -7.07048301E-01   # N_24
  3  1     8.15684826E-01   # N_31
  3  2     1.49190342E-02   # N_32
  3  3     4.03727790E-01   # N_33
  3  4     4.14052603E-01   # N_34
  4  1     1.29716514E-03   # N_41
  4  2    -9.99611662E-01   # N_42
  4  3     6.57901192E-03   # N_43
  4  4     2.70473670E-02   # N_44
#
BLOCK UMIX  # Chargino Mixing Matrix U
  1  1     9.33728425E-03   # U_11
  1  2     9.99956407E-01   # U_12
  2  1     9.99956407E-01   # U_21
  2  2    -9.33728425E-03   # U_22
#
BLOCK VMIX  # Chargino Mixing Matrix V
  1  1     3.82647834E-02   # V_11
  1  2    -9.99267635E-01   # V_12
  2  1     9.99267635E-01   # V_21
  2  2     3.82647834E-02   # V_22
#
BLOCK STOPMIX  # Stop Mixing Matrix
  1  1     7.07525567E-01   # cos(theta_t)
  1  2    -7.06687747E-01   # sin(theta_t)
  2  1     7.06687747E-01   # -sin(theta_t)
  2  2     7.07525567E-01   # cos(theta_t)
#
BLOCK SBOTMIX  # Sbottom Mixing Matrix
  1  1    -6.86952062E-01   # cos(theta_b)
  1  2     7.26702735E-01   # sin(theta_b)
  2  1    -7.26702735E-01   # -sin(theta_b)
  2  2    -6.86952062E-01   # cos(theta_b)
#
BLOCK STAUMIX  # Stau Mixing Matrix
  1  1    -7.05439233E-01   # cos(theta_tau)
  1  2     7.08770406E-01   # sin(theta_tau)
  2  1    -7.08770406E-01   # -sin(theta_tau)
  2  2    -7.05439233E-01   # cos(theta_tau)
#
BLOCK ALPHA  # Higgs mixing
          -5.90196210E-01   # Mixing angle in the neutral Higgs boson sector
#
BLOCK HMIX Q=  9.11876000E+01  # DRbar Higgs Parameters
         1    -2.35000000E+03   # mu(Q)               
         2     1.49999979E+00   # tanbeta(Q)          
         3     2.52097176E+02   # vev(Q)              
         4     5.03886832E+06   # MA^2(Q)             
#
BLOCK GAUGE Q=  9.11876000E+01  # The gauge couplings
     1     3.52665676E-01   # gprime(Q) DRbar
     2     6.26430391E-01   # g(Q) DRbar
     3     1.07753893E+00   # g3(Q) DRbar
#
BLOCK AU Q=  9.11876000E+01  # The trilinear couplings
  1  1     0.00000000E+00   # A_u(Q) DRbar
  2  2     0.00000000E+00   # A_c(Q) DRbar
  3  3     0.00000000E+00   # A_t(Q) DRbar
#
BLOCK AD Q=  9.11876000E+01  # The trilinear couplings
  1  1     0.00000000E+00   # A_d(Q) DRbar
  2  2     0.00000000E+00   # A_s(Q) DRbar
  3  3     0.00000000E+00   # A_b(Q) DRbar
#
BLOCK AE Q=  9.11876000E+01  # The trilinear couplings
  1  1     0.00000000E+00   # A_e(Q) DRbar
  2  2     0.00000000E+00   # A_mu(Q) DRbar
  3  3     0.00000000E+00   # A_tau(Q) DRbar
#
BLOCK Yu Q=  9.11876000E+01  # The Yukawa couplings
  1  1     0.00000000E+00   # y_u(Q) DRbar
  2  2     0.00000000E+00   # y_c(Q) DRbar
  3  3     1.02722658E+00   # y_t(Q) DRbar
#
BLOCK Yd Q=  9.11876000E+01  # The Yukawa couplings
  1  1     0.00000000E+00   # y_d(Q) DRbar
  2  2     0.00000000E+00   # y_s(Q) DRbar
  3  3     2.73307660E-02   # y_b(Q) DRbar
#
BLOCK Ye Q=  9.11876000E+01  # The Yukawa couplings
  1  1     0.00000000E+00   # y_e(Q) DRbar
  2  2     0.00000000E+00   # y_mu(Q) DRbar
  3  3     1.79522528E-02   # y_tau(Q) DRbar
#
BLOCK MSOFT Q=  9.11876000E+01  # The soft SUSY breaking masses at the scale Q
         1     2.35532742E+03   # M_1                 
         2     3.00000000E+03   # M_2                 
         3     2.40000000E+03   # M_3                 
        14     0.00000000E+00   # A_u                 
        15     0.00000000E+00   # A_d                 
        16     0.00000000E+00   # A_e                 
        21    -3.12694705E+06   # M^2_Hd              
        22    -1.04893594E+07   # M^2_Hu              
        31     5.00000000E+03   # M_eL                
        32     5.00000000E+03   # M_muL               
        33     5.00000000E+03   # M_tauL              
        34     5.00000000E+03   # M_eR                
        35     5.00000000E+03   # M_muR               
        36     5.00000000E+03   # M_tauR              
        41     5.00000000E+03   # M_q1L               
        42     5.00000000E+03   # M_q2L               
        43     5.00000000E+03   # M_q3L               
        44     5.00000000E+03   # M_uR                
        45     5.00000000E+03   # M_cR                
        46     5.00000000E+03   # M_tR                
        47     5.00000000E+03   # M_dR                
        48     5.00000000E+03   # M_sR                
        49     5.00000000E+03   # M_bR                
#
#
#
#                             =================
#                             |The decay table|
#                             =================
#
# - The QCD corrections to the decays gluino -> squark  + quark
#                                     squark -> gaugino + quark_prime
#                                     squark -> squark_prime + Higgs
#                                     squark -> gluino  + quark
#   are included.
#
# - The multi-body decays for the inos, stops and sbottoms are included.
#
# - The loop induced decays for the gluino, neutralinos and stops
#   are included.
#
# - The SUSY decays of the top quark are included.
#
# - Possible decays of the NLSP in GMSB models are included.
#
#
#         PDG            Width
DECAY         6     1.36716175E+00   # top decays
#          BR         NDA      ID1       ID2
     1.00000000E+00    2           5        24   # BR(t ->  b    W+)
#
#         PDG            Width
DECAY   1000021     1.0E-05   # gluino decays
#          BR         NDA      ID1       ID2
     4.44355429E-01    2     1000022        21   # BR(~g -> ~chi_10 g)
     4.38815374E-01    2     1000023        21   # BR(~g -> ~chi_20 g)
     7.26555198E-02    2     1000025        21   # BR(~g -> ~chi_30 g)
#          BR         NDA      ID1       ID2
     0.00000000E+00    2     1000039        21   # BR(~g -> ~G      g)
#           BR         NDA      ID1       ID2       ID3
     4.03009399E-04    3     1000022         1        -1   # BR(~g -> ~chi_10 d  db)
     2.72141188E-07    3     1000023         1        -1   # BR(~g -> ~chi_20 d  db)
     1.01509144E-04    3     1000025         1        -1   # BR(~g -> ~chi_30 d  db)
     1.25217137E-03    3     1000022         2        -2   # BR(~g -> ~chi_10 u  ub)
     2.08459160E-07    3     1000023         2        -2   # BR(~g -> ~chi_20 u  ub)
     3.62770607E-04    3     1000025         2        -2   # BR(~g -> ~chi_30 u  ub)
     4.03009399E-04    3     1000022         3        -3   # BR(~g -> ~chi_10 s  sb)
     2.72141188E-07    3     1000023         3        -3   # BR(~g -> ~chi_20 s  sb)
     1.01509144E-04    3     1000025         3        -3   # BR(~g -> ~chi_30 s  sb)
     1.25217137E-03    3     1000022         4        -4   # BR(~g -> ~chi_10 c  cb)
     2.08459160E-07    3     1000023         4        -4   # BR(~g -> ~chi_20 c  cb)
     3.62770607E-04    3     1000025         4        -4   # BR(~g -> ~chi_30 c  cb)
     4.38198412E-04    3     1000022         5        -5   # BR(~g -> ~chi_10 b  bb)
     9.59685697E-06    3     1000023         5        -5   # BR(~g -> ~chi_20 b  bb)
     8.07011960E-05    3     1000025         5        -5   # BR(~g -> ~chi_30 b  bb)
     4.09100751E-06    3     1000024         1        -2   # BR(~g -> ~chi_1+ d  ub)
     4.09100751E-06    3    -1000024         2        -1   # BR(~g -> ~chi_1- u  db)
     4.09100751E-06    3     1000024         3        -4   # BR(~g -> ~chi_1+ s  cb)
     4.09100751E-06    3    -1000024         4        -3   # BR(~g -> ~chi_1- c  sb)
#
#         PDG            Width
DECAY   1000006     2.30818293E+02   # stop1 decays
#          BR         NDA      ID1       ID2
     4.86754097E-02    2     1000022         6   # BR(~t_1 -> ~chi_10 t )
     8.92355488E-02    2     1000023         6   # BR(~t_1 -> ~chi_20 t )
     6.10985612E-02    2     1000025         6   # BR(~t_1 -> ~chi_30 t )
     1.83920787E-02    2     1000035         6   # BR(~t_1 -> ~chi_40 t )
     8.86656889E-02    2     1000024         5   # BR(~t_1 -> ~chi_1+ b )
     3.66219852E-02    2     1000037         5   # BR(~t_1 -> ~chi_2+ b )
     6.57310727E-01    2     1000021         6   # BR(~t_1 -> ~g      t )
#
#         PDG            Width
DECAY   2000006     2.47540278E+02   # stop2 decays
#          BR         NDA      ID1       ID2
     7.94538474E-02    2     1000022         6   # BR(~t_2 -> ~chi_10 t )
     9.39824150E-02    2     1000023         6   # BR(~t_2 -> ~chi_20 t )
     2.27231774E-02    2     1000025         6   # BR(~t_2 -> ~chi_30 t )
     1.42769770E-02    2     1000035         6   # BR(~t_2 -> ~chi_40 t )
     9.49895226E-02    2     1000024         5   # BR(~t_2 -> ~chi_1+ b )
     2.84019829E-02    2     1000037         5   # BR(~t_2 -> ~chi_2+ b )
     6.66172078E-01    2     1000021         6   # BR(~t_2 -> ~g      t )
#
#         PDG            Width
DECAY   1000005     1.91216905E+02   # sbottom1 decays
#          BR         NDA      ID1       ID2
     2.63434989E-03    2     1000022         5   # BR(~b_1 -> ~chi_10 b )
     4.54188836E-05    2     1000023         5   # BR(~b_1 -> ~chi_20 b )
     2.92892677E-03    2     1000025         5   # BR(~b_1 -> ~chi_30 b )
     1.91828068E-02    2     1000035         5   # BR(~b_1 -> ~chi_40 b )
     1.08786017E-01    2    -1000024         6   # BR(~b_1 -> ~chi_1- t )
     3.85524989E-02    2    -1000037         6   # BR(~b_1 -> ~chi_2- t )
     8.27869982E-01    2     1000021         5   # BR(~b_1 -> ~g      b )
#
#         PDG            Width
DECAY   2000005     1.94814689E+02   # sbottom2 decays
#          BR         NDA      ID1       ID2
     1.24999188E-03    2     1000022         5   # BR(~b_2 -> ~chi_10 b )
     1.30774363E-04    2     1000023         5   # BR(~b_2 -> ~chi_20 b )
     3.76221631E-03    2     1000025         5   # BR(~b_2 -> ~chi_30 b )
     2.08679130E-02    2     1000035         5   # BR(~b_2 -> ~chi_40 b )
     1.17873129E-01    2    -1000024         6   # BR(~b_2 -> ~chi_1- t )
     4.19383020E-02    2    -1000037         6   # BR(~b_2 -> ~chi_2- t )
     8.14177673E-01    2     1000021         5   # BR(~b_2 -> ~g      b )
#
#         PDG            Width
DECAY   1000002     1.82066515E+02   # sup_L decays
#          BR         NDA      ID1       ID2
     5.10219194E-04    2     1000022         2   # BR(~u_L -> ~chi_10 u)
     1.01707203E-05    2     1000023         2   # BR(~u_L -> ~chi_20 u)
     1.76271350E-03    2     1000025         2   # BR(~u_L -> ~chi_30 u)
     4.24282551E-02    2     1000035         2   # BR(~u_L -> ~chi_40 u)
     1.83897288E-04    2     1000024         1   # BR(~u_L -> ~chi_1+ d)
     8.48394501E-02    2     1000037         1   # BR(~u_L -> ~chi_2+ d)
     8.70265294E-01    2     1000021         2   # BR(~u_L -> ~g      u)
#
#         PDG            Width
DECAY   2000002     1.64877070E+02   # sup_R decays
#          BR         NDA      ID1       ID2
     1.31185901E-02    2     1000022         2   # BR(~u_R -> ~chi_10 u)
     3.34900402E-06    2     1000023         2   # BR(~u_R -> ~chi_20 u)
     2.58583402E-02    2     1000025         2   # BR(~u_R -> ~chi_30 u)
     4.44773157E-08    2     1000035         2   # BR(~u_R -> ~chi_40 u)
     9.61019676E-01    2     1000021         2   # BR(~u_R -> ~g      u)
#
#         PDG            Width
DECAY   1000001     1.82073952E+02   # sdown_L decays
#          BR         NDA      ID1       ID2
     1.01825138E-03    2     1000022         1   # BR(~d_L -> ~chi_10 d)
     1.64837640E-05    2     1000023         1   # BR(~d_L -> ~chi_20 d)
     1.19221702E-03    2     1000025         1   # BR(~d_L -> ~chi_30 d)
     4.24744629E-02    2     1000035         1   # BR(~d_L -> ~chi_40 d)
     1.09507716E-05    2    -1000024         2   # BR(~d_L -> ~chi_1- u)
     8.49661666E-02    2    -1000037         2   # BR(~d_L -> ~chi_2- u)
     8.70321468E-01    2     1000021         1   # BR(~d_L -> ~g      d)
#
#         PDG            Width
DECAY   2000001     1.60062193E+02   # sdown_R decays
#          BR         NDA      ID1       ID2
     3.37841279E-03    2     1000022         1   # BR(~d_R -> ~chi_10 d)
     8.62464608E-07    2     1000023         1   # BR(~d_R -> ~chi_20 d)
     6.65926569E-03    2     1000025         1   # BR(~d_R -> ~chi_30 d)
     1.14543762E-08    2     1000035         1   # BR(~d_R -> ~chi_40 d)
     9.89961448E-01    2     1000021         1   # BR(~d_R -> ~g      d)
#
#         PDG            Width
DECAY   1000004     1.82066515E+02   # scharm_L decays
#          BR         NDA      ID1       ID2
     5.10219194E-04    2     1000022         4   # BR(~c_L -> ~chi_10 c)
     1.01707203E-05    2     1000023         4   # BR(~c_L -> ~chi_20 c)
     1.76271350E-03    2     1000025         4   # BR(~c_L -> ~chi_30 c)
     4.24282551E-02    2     1000035         4   # BR(~c_L -> ~chi_40 c)
     1.83897288E-04    2     1000024         3   # BR(~c_L -> ~chi_1+ s)
     8.48394501E-02    2     1000037         3   # BR(~c_L -> ~chi_2+ s)
     8.70265294E-01    2     1000021         4   # BR(~c_L -> ~g      c)
#
#         PDG            Width
DECAY   2000004     1.64877070E+02   # scharm_R decays
#          BR         NDA      ID1       ID2
     1.31185901E-02    2     1000022         4   # BR(~c_R -> ~chi_10 c)
     3.34900402E-06    2     1000023         4   # BR(~c_R -> ~chi_20 c)
     2.58583402E-02    2     1000025         4   # BR(~c_R -> ~chi_30 c)
     4.44773157E-08    2     1000035         4   # BR(~c_R -> ~chi_40 c)
     9.61019676E-01    2     1000021         4   # BR(~c_R -> ~g      c)
#
#         PDG            Width
DECAY   1000003     1.82073952E+02   # sstrange_L decays
#          BR         NDA      ID1       ID2
     1.01825138E-03    2     1000022         3   # BR(~s_L -> ~chi_10 s)
     1.64837640E-05    2     1000023         3   # BR(~s_L -> ~chi_20 s)
     1.19221702E-03    2     1000025         3   # BR(~s_L -> ~chi_30 s)
     4.24744629E-02    2     1000035         3   # BR(~s_L -> ~chi_40 s)
     1.09507716E-05    2    -1000024         4   # BR(~s_L -> ~chi_1- c)
     8.49661666E-02    2    -1000037         4   # BR(~s_L -> ~chi_2- c)
     8.70321468E-01    2     1000021         3   # BR(~s_L -> ~g      s)
#
#         PDG            Width
DECAY   2000003     1.60062193E+02   # sstrange_R decays
#          BR         NDA      ID1       ID2
     3.37841279E-03    2     1000022         3   # BR(~s_R -> ~chi_10 s)
     8.62464608E-07    2     1000023         3   # BR(~s_R -> ~chi_20 s)
     6.65926569E-03    2     1000025         3   # BR(~s_R -> ~chi_30 s)
     1.14543762E-08    2     1000035         3   # BR(~s_R -> ~chi_40 s)
     9.89961448E-01    2     1000021         3   # BR(~s_R -> ~g      s)
#
#         PDG            Width
DECAY   1000011     2.77095492E+01   # selectron_L decays
#          BR         NDA      ID1       ID2
     4.04422699E-02    2     1000022        11   # BR(~e_L -> ~chi_10 e-)
     3.65818790E-05    2     1000023        11   # BR(~e_L -> ~chi_20 e-)
     9.55608989E-02    2     1000025        11   # BR(~e_L -> ~chi_30 e-)
     2.87549010E-01    2     1000035        11   # BR(~e_L -> ~chi_40 e-)
     7.45249187E-05    2    -1000024        12   # BR(~e_L -> ~chi_1- nu_e)
     5.76336714E-01    2    -1000037        12   # BR(~e_L -> ~chi_2- nu_e)
#
#         PDG            Width
DECAY   2000011     1.49779438E+01   # selectron_R decays
#          BR         NDA      ID1       ID2
     3.36557895E-01    2     1000022        11   # BR(~e_R -> ~chi_10 e-)
     8.59164746E-05    2     1000023        11   # BR(~e_R -> ~chi_20 e-)
     6.63355051E-01    2     1000025        11   # BR(~e_R -> ~chi_30 e-)
     1.13734155E-06    2     1000035        11   # BR(~e_R -> ~chi_40 e-)
#
#         PDG            Width
DECAY   1000013     2.77095492E+01   # smuon_L decays
#          BR         NDA      ID1       ID2
     4.04422699E-02    2     1000022        13   # BR(~mu_L -> ~chi_10 mu-)
     3.65818790E-05    2     1000023        13   # BR(~mu_L -> ~chi_20 mu-)
     9.55608989E-02    2     1000025        13   # BR(~mu_L -> ~chi_30 mu-)
     2.87549010E-01    2     1000035        13   # BR(~mu_L -> ~chi_40 mu-)
     7.45249187E-05    2    -1000024        14   # BR(~mu_L -> ~chi_1- nu_mu)
     5.76336714E-01    2    -1000037        14   # BR(~mu_L -> ~chi_2- nu_mu)
#
#         PDG            Width
DECAY   2000013     1.49779438E+01   # smuon_R decays
#          BR         NDA      ID1       ID2
     3.36557895E-01    2     1000022        13   # BR(~mu_R -> ~chi_10 mu-)
     8.59164746E-05    2     1000023        13   # BR(~mu_R -> ~chi_20 mu-)
     6.63355051E-01    2     1000025        13   # BR(~mu_R -> ~chi_30 mu-)
     1.13734155E-06    2     1000035        13   # BR(~mu_R -> ~chi_40 mu-)
#
#         PDG            Width
DECAY   1000015     2.13362660E+01   # stau_1 decays
#          BR         NDA      ID1       ID2
     1.49560233E-01    2     1000022        15   # BR(~tau_1 -> ~chi_10  tau-)
     1.96451521E-04    2     1000023        15   # BR(~tau_1 -> ~chi_20  tau-)
     2.91643667E-01    2     1000025        15   # BR(~tau_1 -> ~chi_30  tau-)
     1.85666095E-01    2     1000035        15   # BR(~tau_1 -> ~chi_40  tau-)
     8.02959031E-04    2    -1000024        16   # BR(~tau_1 -> ~chi_1-  nu_tau)
     3.72130593E-01    2    -1000037        16   # BR(~tau_1 -> ~chi_2-  nu_tau)
     7.75307993E-10    2     1000039        15   # BR(~tau_1 -> ~G       tau-)
#
#         PDG            Width
DECAY   2000015     2.14095937E+01   # stau_2 decays
#          BR         NDA      ID1       ID2
     1.39363618E-01    2     1000022        15   # BR(~tau_2 -> ~chi_10  tau-)
     8.19984328E-04    2     1000023        15   # BR(~tau_2 -> ~chi_20  tau-)
     2.97405577E-01    2     1000025        15   # BR(~tau_2 -> ~chi_30  tau-)
     1.87133204E-01    2     1000035        15   # BR(~tau_2 -> ~chi_40  tau-)
     2.04607972E-04    2    -1000024        16   # BR(~tau_2 -> ~chi_1-  nu_tau)
     3.75073009E-01    2    -1000037        16   # BR(~tau_2 -> ~chi_2-  nu_tau)
#
#         PDG            Width
DECAY   1000012     2.77075408E+01   # snu_eL decays
#          BR         NDA      ID1       ID2
     5.08125548E-02    2     1000022        12   # BR(~nu_eL -> ~chi_10 nu_e)
     1.65453069E-04    2     1000023        12   # BR(~nu_eL -> ~chi_20 nu_e)
     8.39090864E-02    2     1000025        12   # BR(~nu_eL -> ~chi_30 nu_e)
     2.88366428E-01    2     1000035        12   # BR(~nu_eL -> ~chi_40 nu_e)
     1.25154329E-03    2     1000024        11   # BR(~nu_eL -> ~chi_1+ e-)
     5.75494935E-01    2     1000037        11   # BR(~nu_eL -> ~chi_2+ e-)
#
#         PDG            Width
DECAY   1000014     2.77075408E+01   # snu_muL decays
#          BR         NDA      ID1       ID2
     5.08125548E-02    2     1000022        14   # BR(~nu_muL -> ~chi_10 nu_mu)
     1.65453069E-04    2     1000023        14   # BR(~nu_muL -> ~chi_20 nu_mu)
     8.39090864E-02    2     1000025        14   # BR(~nu_muL -> ~chi_30 nu_mu)
     2.88366428E-01    2     1000035        14   # BR(~nu_muL -> ~chi_40 nu_mu)
     1.25154329E-03    2     1000024        13   # BR(~nu_muL -> ~chi_1+ mu-)
     5.75494935E-01    2     1000037        13   # BR(~nu_muL -> ~chi_2+ mu-)
#
#         PDG            Width
DECAY   1000016     2.77269978E+01   # snu_tauL decays
#          BR         NDA      ID1       ID2
     5.07768979E-02    2     1000022        16   # BR(~nu_tauL -> ~chi_10 nu_tau)
     1.65336965E-04    2     1000023        16   # BR(~nu_tauL -> ~chi_20 nu_tau)
     8.38502046E-02    2     1000025        16   # BR(~nu_tauL -> ~chi_30 nu_tau)
     2.88164071E-01    2     1000035        16   # BR(~nu_tauL -> ~chi_40 nu_tau)
     1.95291824E-03    2     1000024        15   # BR(~nu_tauL -> ~chi_1+ tau-)
     5.75090571E-01    2     1000037        15   # BR(~nu_tauL -> ~chi_2+ tau-)
#
#         PDG            Width
DECAY   1000024     1.40792980E-08   # chargino1+ decays
#          BR         NDA      ID1       ID2
     1.34481781E-02    2     1000039        24   # BR(~chi_1+ -> ~G       W+)
     7.70916238E-05    2     1000039        37   # BR(~chi_1+ -> ~G       H+)
#           BR         NDA      ID1       ID2       ID3
     3.58642183E-01    3     1000022         2        -1   # BR(~chi_1+ -> ~chi_10 u    db)
     2.98970746E-01    3     1000022         4        -3   # BR(~chi_1+ -> ~chi_10 c    sb)
     1.19547985E-01    3     1000022       -11        12   # BR(~chi_1+ -> ~chi_10 e+   nu_e)
     1.19422530E-01    3     1000022       -13        14   # BR(~chi_1+ -> ~chi_10 mu+  nu_mu)
     8.98912860E-02    3     1000022       -15        16   # BR(~chi_1+ -> ~chi_10 tau+ nu_tau)
#
#         PDG            Width
DECAY   1000037     1.45316136E+00   # chargino2+ decays
#          BR         NDA      ID1       ID2
     2.54005812E-01    2     1000024        23   # BR(~chi_2+ -> ~chi_1+  Z )
     1.49467457E-01    2     1000022        24   # BR(~chi_2+ -> ~chi_10  W+)
     2.47585000E-01    2     1000023        24   # BR(~chi_2+ -> ~chi_20  W+)
     9.99726955E-02    2     1000025        24   # BR(~chi_2+ -> ~chi_30  W+)
     2.48969035E-01    2     1000024        25   # BR(~chi_2+ -> ~chi_1+  h )
     8.85189738E-10    2     1000039        24   # BR(~chi_2+ -> ~G       W+)
     2.15556752E-14    2     1000039        37   # BR(~chi_2+ -> ~G       H+)
#
#         PDG            Width
DECAY   1000022     1.0E-05   # neutralino1 decays
#          BR         NDA      ID1       ID2
     3.69155809E-01    2     1000039        22   # BR(~chi_10 -> ~G        gam)
     1.52605942E-01    2     1000039        23   # BR(~chi_10 -> ~G        Z)
     4.75501975E-01    2     1000039        25   # BR(~chi_10 -> ~G        h)
     1.05206320E-04    2     1000039        35   # BR(~chi_10 -> ~G        H)
     2.63106707E-03    2     1000039        36   # BR(~chi_10 -> ~G        A)
#
#         PDG            Width
DECAY   1000023     1.0E-05   # neutralino2 decays
#          BR         NDA      ID1       ID2
     3.58468327E-03    2     1000022        22   # BR(~chi_20 -> ~chi_10 gam)
#          BR         NDA      ID1       ID2
     2.04918344E-08    2     1000039        22   # BR(~chi_20 -> ~G        gam)
     1.03682228E-02    2     1000039        23   # BR(~chi_20 -> ~G        Z)
     4.03542480E-04    2     1000039        25   # BR(~chi_20 -> ~G        h)
     5.84871814E-05    2     1000039        35   # BR(~chi_20 -> ~G        H)
     2.44011130E-06    2     1000039        36   # BR(~chi_20 -> ~G        A)
#           BR         NDA      ID1       ID2       ID3
     1.41340156E-01    3     1000022        -2         2   # BR(~chi_20 -> ~chi_10 ub      u)
     1.83036670E-01    3     1000022        -1         1   # BR(~chi_20 -> ~chi_10 db      d)
     1.14535181E-01    3     1000022        -4         4   # BR(~chi_20 -> ~chi_10 cb      c)
     1.82206082E-01    3     1000022        -3         3   # BR(~chi_20 -> ~chi_10 sb      s)
     4.18132237E-02    3     1000022       -11        11   # BR(~chi_20 -> ~chi_10 e+      e-)
     4.17766332E-02    3     1000022       -13        13   # BR(~chi_20 -> ~chi_10 mu+     mu-)
     3.03236367E-02    3     1000022       -15        15   # BR(~chi_20 -> ~chi_10 tau+    tau-)
     8.35107101E-02    3     1000022       -12        12   # BR(~chi_20 -> ~chi_10 nu_eb   nu_e)
     8.35107101E-02    3     1000022       -14        14   # BR(~chi_20 -> ~chi_10 nu_mub  nu_mu)
     8.35107101E-02    3     1000022       -16        16   # BR(~chi_20 -> ~chi_10 nu_taub nu_tau)
     5.76785313E-06    3     1000024        -2         1   # BR(~chi_20 -> ~chi_1+ ub      d)
     5.76785313E-06    3    -1000024        -1         2   # BR(~chi_20 -> ~chi_1- db      u)
     1.92261792E-06    3     1000024       -12        11   # BR(~chi_20 -> ~chi_1+ nu_eb   e-)
     1.92261792E-06    3    -1000024        12       -11   # BR(~chi_20 -> ~chi_1- nu_e    e+)
     1.75500376E-06    3     1000024       -14        13   # BR(~chi_20 -> ~chi_1+ nu_mub  mu-)
     1.75500376E-06    3    -1000024        14       -13   # BR(~chi_20 -> ~chi_1- nu_mu   mu+)
#
#         PDG            Width
DECAY   1000025     1.0E-05   # neutralino3 decays
#          BR         NDA      ID1       ID2
     8.14318661E-01    2     1000022        22   # BR(~chi_30 -> ~chi_10 gam)
     3.14265936E-03    2     1000023        22   # BR(~chi_30 -> ~chi_20 gam)
#          BR         NDA      ID1       ID2
     2.36568457E-04    2     1000039        22   # BR(~chi_30 -> ~G        gam)
     7.16678390E-05    2     1000039        23   # BR(~chi_30 -> ~G        Z)
     7.33555327E-05    2     1000039        25   # BR(~chi_30 -> ~G        h)
     1.55429752E-08    2     1000039        35   # BR(~chi_30 -> ~G        H)
     4.70459548E-07    2     1000039        36   # BR(~chi_30 -> ~G        A)
#           BR         NDA      ID1       ID2       ID3
     5.82564988E-06    3     1000022        -2         2   # BR(~chi_30 -> ~chi_10 ub      u)
     7.91259812E-06    3     1000022        -1         1   # BR(~chi_30 -> ~chi_10 db      d)
     5.42571843E-06    3     1000022        -4         4   # BR(~chi_30 -> ~chi_10 cb      c)
     7.90328116E-06    3     1000022        -3         3   # BR(~chi_30 -> ~chi_10 sb      s)
     3.33245345E-06    3     1000022        -5         5   # BR(~chi_30 -> ~chi_10 bb      b)
     2.12166100E-06    3     1000022       -11        11   # BR(~chi_30 -> ~chi_10 e+      e-)
     2.12062215E-06    3     1000022       -13        13   # BR(~chi_30 -> ~chi_10 mu+     mu-)
     1.86594246E-06    3     1000022       -15        15   # BR(~chi_30 -> ~chi_10 tau+    tau-)
     3.45091118E-06    3     1000022       -12        12   # BR(~chi_30 -> ~chi_10 nu_eb   nu_e)
     3.45091118E-06    3     1000022       -14        14   # BR(~chi_30 -> ~chi_10 nu_mub  nu_mu)
     3.45091118E-06    3     1000022       -16        16   # BR(~chi_30 -> ~chi_10 nu_taub nu_tau)
     5.20203018E-03    3     1000023        -2         2   # BR(~chi_30 -> ~chi_20 ub      u)
     6.73670739E-03    3     1000023        -1         1   # BR(~chi_30 -> ~chi_20 db      d)
     4.60347015E-03    3     1000023        -4         4   # BR(~chi_30 -> ~chi_20 cb      c)
     6.71820616E-03    3     1000023        -3         3   # BR(~chi_30 -> ~chi_20 sb      s)
     8.95004404E-05    3     1000023        -5         5   # BR(~chi_30 -> ~chi_20 bb      b)
     1.53894994E-03    3     1000023       -11        11   # BR(~chi_30 -> ~chi_20 e+      e-)
     1.53813021E-03    3     1000023       -13        13   # BR(~chi_30 -> ~chi_20 mu+     mu-)
     1.28713258E-03    3     1000023       -15        15   # BR(~chi_30 -> ~chi_20 tau+    tau-)
     3.07356879E-03    3     1000023       -12        12   # BR(~chi_30 -> ~chi_20 nu_eb   nu_e)
     3.07356879E-03    3     1000023       -14        14   # BR(~chi_30 -> ~chi_20 nu_mub  nu_mu)
     3.07356879E-03    3     1000023       -16        16   # BR(~chi_30 -> ~chi_20 nu_taub nu_tau)
     2.51560527E-02    3     1000024        -2         1   # BR(~chi_30 -> ~chi_1+ ub      d)
     2.51560527E-02    3    -1000024        -1         2   # BR(~chi_30 -> ~chi_1- db      u)
     2.32528597E-02    3     1000024        -4         3   # BR(~chi_30 -> ~chi_1+ cb      s)
     2.32528597E-02    3    -1000024        -3         4   # BR(~chi_30 -> ~chi_1- sb      c)
     8.38526031E-03    3     1000024       -12        11   # BR(~chi_30 -> ~chi_1+ nu_eb   e-)
     8.38526031E-03    3    -1000024        12       -11   # BR(~chi_30 -> ~chi_1- nu_e    e+)
     8.38149564E-03    3     1000024       -14        13   # BR(~chi_30 -> ~chi_1+ nu_mub  mu-)
     8.38149564E-03    3    -1000024        14       -13   # BR(~chi_30 -> ~chi_1- nu_mu   mu+)
     7.41178530E-03    3     1000024       -16        15   # BR(~chi_30 -> ~chi_1+ nu_taub tau-)
     7.41178530E-03    3    -1000024        16       -15   # BR(~chi_30 -> ~chi_1- nu_tau  tau+)
#
#         PDG            Width
DECAY   1000035     1.45318577E+00   # neutralino4 decays
#          BR         NDA      ID1       ID2
     4.78973047E-02    2     1000022        23   # BR(~chi_40 -> ~chi_10   Z )
     1.81855458E-01    2     1000023        23   # BR(~chi_40 -> ~chi_20   Z )
     2.38605189E-02    2     1000025        23   # BR(~chi_40 -> ~chi_30   Z )
     2.48528844E-01    2     1000024       -24   # BR(~chi_40 -> ~chi_1+   W-)
     2.48528844E-01    2    -1000024        24   # BR(~chi_40 -> ~chi_1-   W+)
     1.04625505E-01    2     1000022        25   # BR(~chi_40 -> ~chi_10   h )
     6.63561956E-02    2     1000023        25   # BR(~chi_40 -> ~chi_20   h )
     7.83473274E-02    2     1000025        25   # BR(~chi_40 -> ~chi_30   h )
     2.12527450E-10    2     1000039        22   # BR(~chi_40 -> ~G        gam)
     6.72311429E-10    2     1000039        23   # BR(~chi_40 -> ~G        Z)
     3.01080075E-13    2     1000039        25   # BR(~chi_40 -> ~G        h)
     3.84730030E-15    2     1000039        35   # BR(~chi_40 -> ~G        H)
     1.77887139E-14    2     1000039        36   # BR(~chi_40 -> ~G        A)
#
#         PDG            Width
DECAY        25     4.07296618E-03   # h decays
#          BR         NDA      ID1       ID2
     6.16623966E-01    2           5        -5   # BR(h -> b       bb     )
     6.39465794E-02    2         -15        15   # BR(h -> tau+    tau-   )
     2.26347340E-04    2         -13        13   # BR(h -> mu+     mu-    )
     4.79650597E-04    2           3        -3   # BR(h -> s       sb     )
     2.06936749E-02    2           4        -4   # BR(h -> c       cb     )
     6.71902278E-02    2          21        21   # BR(h -> g       g      )
     2.30669257E-03    2          22        22   # BR(h -> gam     gam    )
     1.54239460E-03    2          22        23   # BR(h -> Z       gam    )
     2.01293309E-01    2          24       -24   # BR(h -> W+      W-     )
     2.56971575E-02    2          23        23   # BR(h -> Z       Z      )
#
#         PDG            Width
DECAY        35     3.78121987E+01   # H decays
#          BR         NDA      ID1       ID2
     1.48892799E-03    2           5        -5   # BR(H -> b       bb     )
     2.46432229E-04    2         -15        15   # BR(H -> tau+    tau-   )
     8.71229675E-07    2         -13        13   # BR(H -> mu+     mu-    )
     1.11548225E-06    2           3        -3   # BR(H -> s       sb     )
     1.00666597E-05    2           4        -4   # BR(H -> c       cb     )
     9.96053057E-01    2           6        -6   # BR(H -> t       tb     )
     7.97555320E-04    2          21        21   # BR(H -> g       g      )
     2.73192049E-06    2          22        22   # BR(H -> gam     gam    )
     1.16047101E-06    2          23        22   # BR(H -> Z       gam    )
     3.32908739E-04    2          24       -24   # BR(H -> W+      W-     )
     1.66000485E-04    2          23        23   # BR(H -> Z       Z      )
     8.99172851E-04    2          25        25   # BR(H -> h       h      )
     8.47839984E-24    2          36        36   # BR(H -> A       A      )
     3.47965301E-11    2          23        36   # BR(H -> Z       A      )
     6.00220953E-12    2          24       -37   # BR(H -> W+      H-     )
     6.00220953E-12    2         -24        37   # BR(H -> W-      H+     )
#
#         PDG            Width
DECAY        36     3.82388400E+01   # A decays
#          BR         NDA      ID1       ID2
     1.49163835E-03    2           5        -5   # BR(A -> b       bb     )
     2.43893811E-04    2         -15        15   # BR(A -> tau+    tau-   )
     8.62252726E-07    2         -13        13   # BR(A -> mu+     mu-    )
     1.13675574E-06    2           3        -3   # BR(A -> s       sb     )
     9.96160514E-06    2           4        -4   # BR(A -> c       cb     )
     9.96980010E-01    2           6        -6   # BR(A -> t       tb     )
     9.43660520E-04    2          21        21   # BR(A -> g       g      )
     3.05220145E-06    2          22        22   # BR(A -> gam     gam    )
     1.35313246E-06    2          23        22   # BR(A -> Z       gam    )
     3.24431289E-04    2          23        25   # BR(A -> Z       h      )
#
#         PDG            Width
DECAY        37     3.74513310E+01   # H+ decays
#          BR         NDA      ID1       ID2
     2.40345417E-06    2           4        -5   # BR(H+ -> c       bb     )
     2.49234346E-04    2         -15        16   # BR(H+ -> tau+    nu_tau )
     8.81133447E-07    2         -13        14   # BR(H+ -> mu+     nu_mu  )
     1.52822224E-08    2           2        -5   # BR(H+ -> u       bb     )
     5.45680055E-08    2           2        -3   # BR(H+ -> u       sb     )
     1.08728816E-05    2           4        -3   # BR(H+ -> c       sb     )
     9.99403967E-01    2           6        -5   # BR(H+ -> t       bb     )
     3.32571558E-04    2          24        25   # BR(H+ -> W+      h      )
     5.03050007E-13    2          24        36   # BR(H+ -> W+      A      )
